name=Colle San Carlo  od Morgex (Włochy)
slope=10.6km 9.7%
points=1062.9
region=117
description=Nawierzchnia: szosa, stan dobry. Ruch samochodowy: mały.
Zdecydoowanie trudniejsza strona podjazdu na przełęcz San Carlo. Akurat do Morgex zjeżdżaliśmy, ale dość dobrze pamiętam kręty stromy zjazd - bo akurat tutaj kapeć. Zjazd generalnie w lesie, ale jest kilka fajnych miejsc z widoczkiem na okolice Mont Blanc. Można zakręcić krótką pętelkę tzn. Morgex - Colle San Carlo - La Thule - Morgex. Do  tego zahaczyć Col du Petit Saint Bernard i mamy całkiem treściwą wycieczkę.
comments=
author=gavia 2621
segment=0
locations=[[1,45.75463204971624,7.034746154003187],[2,45.75292153326839,7.03519308350667],[3,45.75146434804311,7.036107445558514],[4,45.75083592226591,7.035055453759696],[5,45.75016005144724,7.037312905139629],[6,45.74914146092619,7.039360932239788],[7,45.74862127541441,7.039292125688917],[8,45.74839352077197,7.038720477418906],[9,45.74838323821468,7.036668514540452],[10,45.74863753368264,7.034150751428115],[11,45.74836006245135,7.034276890061392],[12,45.74839777226826,7.032521881333196],[13,45.7475084022212,7.034625716739129],[14,45.74622183311337,7.0363819116776085],[15,45.74500915704516,7.038176465793185],[16,45.74401324029391,7.039381173324273],[17,45.74443451461171,7.037067577076755],[18,45.74518815701028,7.034775529083618],[19,45.74545971880971,7.032278561988619],[20,45.7454087826713,7.0298084518594806],[21,45.74556212019722,7.027543680534109],[22,45.74493384731397,7.027599227083442],[23,45.7451691839365,7.025175919164781],[24,45.7458984087017,7.023283191176915],[25,45.74747322848038,7.022824902474895],[26,45.74895173469876,7.022170895574391],[27,45.75068425542408,7.021768997150957],[28,45.75182296005536,7.020678061477156],[29,45.7500729325808,7.020270353115393],[30,45.74866542584306,7.0197691652567755],[31,45.75034678938483,7.01896464903075],[32,45.75100462245091,7.018627673578976],[33,45.75094979026465,7.016284918414726],[34,45.74995662455369,7.015346398118936],[35,45.74916557718778,7.014219038182091],[36,45.74792711918636,7.013720847669902],[37,45.74803000001509,7.012748061666571],[38,45.74779383410319,7.0119929551545965],[39,45.74928356905946,7.0111489802942515],[40,45.74807241938812,7.010272419309217],[41,45.74694823243049,7.008406528922478],[42,45.74615037814863,7.006193879263947],[43,45.74678484676489,7.006210087576392],[44,45.74601601114616,7.004086096751621],[45,45.74484356192993,7.002156856589409],[46,45.74390944155089,6.999991974365685],[47,45.74331123685963,6.997594603801872],[48,45.74360914134854,6.996887784957266],[49,45.74343131992534,6.995377918741951],[50,45.74249327325172,6.99339262235037],[51,45.74240291959271,6.9908526736130625],[52,45.74246661137464,6.989910120895502],]
podstawa=[[13,45.75068425542408,7.021768997150957],['start',45.7563400,7.0350600],['meta',45.7428200,6.9884300]]
daneflot=[[0.0,927.677],[0.2,943.170],[0.4,957.647],[0.6,974.749],[0.8,998.804],[1.0,1013.274],[1.2,1028.442],[1.4,1044.916],[1.6,1060.769],[1.8,1085.879],[2.0,1101.229],[2.2,1112.456],[2.4,1135.503],[2.6,1156.277],[2.8,1181.920],[3.0,1200.273],[3.2,1223.275],[3.4,1249.155],[3.6,1265.677],[3.8,1286.610],[4.0,1316.512],[4.2,1342.535],[4.4,1371.125],[4.6,1395.809],[4.8,1420.870],[5.0,1439.514],[5.2,1450.322],[5.4,1464.792],[5.6,1487.737],[5.8,1508.286],[6.0,1530.979],[6.2,1546.111],[6.4,1565.631],[6.6,1581.538],[6.8,1604.314],[7.0,1626.124],[7.2,1646.031],[7.4,1666.365],[7.6,1682.248],[7.8,1702.146],[8.0,1716.122],[8.2,1733.367],[8.4,1758.029],[8.6,1778.092],[8.8,1800.443],[9.0,1815.468],[9.2,1837.306],[9.4,1858.191],[9.6,1878.627],[9.8,1898.047],[10.0,1905.084],[10.2,1931.231],[10.4,1946.260],[10.6,1958.673],]