name=Col du Joly  (Francja)
slope=21.6km 5.6%
points=996.2
region=117
description=Nawierzchnia: szosa, stan dobry. Ruch samochodowy: niewielki.
Długi podjazd ale nie jest specjalnie stromo. Początkowo  normalny szeroki asfalt  w końcowych kilometrach robi się wąski. Na przełęczy koniec asfaltu, ale super widoczki.
comments=
author=gavia2621
segment=0
locations=[[1,45.71553307489738,6.577150553596425],[2,45.71687973033633,6.577898606778945],[3,45.71533975176833,6.578542160642428],[4,45.7160654351357,6.578845413851241],[5,45.71735687266845,6.57967135198453],[6,45.7189886281262,6.5800925553485285],[7,45.72073709268506,6.579944526484155],[8,45.72232779074577,6.57908913634094],[9,45.72405919548884,6.578623104354506],[10,45.72557583227884,6.579172778886573],[11,45.72610896983485,6.576818336002134],[12,45.72617770247977,6.574311168870167],[13,45.72791025823417,6.573918706859104],[14,45.72966306237894,6.573831205190345],[15,45.73136633052216,6.573048714127481],[16,45.73307317386685,6.573443770319841],[17,45.73440541852845,6.575150188838393],[18,45.73571285602932,6.57689707477266],[19,45.73740986203892,6.57765334787166],[20,45.73876392474659,6.579286113411172],[21,45.73974810902747,6.581220210223023],[22,45.74085134086111,6.582893175795448],[23,45.74255953421142,6.583553242762946],[24,45.7429452884758,6.58513125065474],[25,45.74433265770953,6.5857961823204505],[26,45.74470237880414,6.587852785929385],[27,45.74612014730026,6.588290505270152],[28,45.74709897413022,6.590116123059488],[29,45.7481581543631,6.591991845774487],[30,45.749728553964,6.5912171318952915],[31,45.7514192937251,6.591819292012815],[32,45.75172816111996,6.591100412429341],[33,45.75185401489573,6.5903297023180585],[34,45.75342424314296,6.591539114912166],[35,45.75476961694066,6.5929978982348985],[36,45.75576352439903,6.595064343811714],[37,45.75572867527127,6.5973042166415325],[38,45.75657487367351,6.599563905380023],[39,45.75765168959845,6.601484154291711],[40,45.75848821610732,6.60370544118598],[41,45.75974461597895,6.605413932399415],[42,45.76069171691364,6.607583723406151],[43,45.76099635286781,6.609642366095159],[44,45.7612984205951,6.612165482101545],[45,45.76217917887647,6.614372974956041],[46,45.76318708773572,6.616459435381444],[47,45.76447520956577,6.618153079770536],[48,45.76585994013678,6.619662334656482],[49,45.76756935243571,6.62035135596841],[50,45.76891046425573,6.622030748348379],[51,45.7696134483753,6.62435379013823],[52,45.77041433587595,6.626630784198596],[53,45.77144922173379,6.628726561768076],[54,45.7719839780995,6.631004103020246],[55,45.77182450661701,6.633545817230242],[56,45.7728993014347,6.63542982835304],[57,45.77298791803786,6.637821596671074],[58,45.77319591813393,6.640305559180547],[59,45.77402166928168,6.638946730805287],[60,45.77475753747485,6.63669581282079],[61,45.77511186088697,6.638311056340854],[62,45.77517157090683,6.64087530048937],[63,45.77567419394421,6.643139032301406],[64,45.77594799827305,6.641066042717853],[65,45.7767316097455,6.64085542928899],[66,45.7767682289018,6.639724564469589],[67,45.7768292984934,6.637185685996201],[68,45.77714343802563,6.635639075013728],[69,45.77762838177785,6.637961963342377],[70,45.77871555923897,6.639878092848221],[71,45.77872331906222,6.638840599251694],[72,45.77839840173873,6.636509754943859],[73,45.77837321383532,6.633948964159458],[74,45.77905029923896,6.635559407774622],[75,45.77970906826041,6.637936725680447],[76,45.78094344426081,6.639628832096491],[77,45.78147966213422,6.641925218787037],[78,45.78288790602514,6.643506945810827],[79,45.78458493961503,6.644178288978992],[80,45.7857002516421,6.645498341748862],[81,45.78507250521589,6.647357709238463],[82,45.78439170304293,6.649403871613458],[83,45.78330273431759,6.650910063159927],[84,45.78202764574802,6.652445744909187],[85,45.78231000037069,6.654894554339876],[86,45.78277379376487,6.657244563713107],[87,45.78348967953542,6.6588705058292135],[88,45.78194534470242,6.659142935008049],[89,45.78145599027399,6.661355029757033],[90,45.77979176836237,6.661218149033857],[91,45.77812185823714,6.66033982693898],[92,45.77636606315426,6.660589178610508],[93,45.77612174020968,6.661156442729748],[94,45.77689323950446,6.661969679817844],[95,45.77520899011397,6.662312695171636],[96,45.77432662740179,6.664459156390535],[97,45.77347927674768,6.666604811132061],[98,45.77384208742654,6.667387687473479],[99,45.77403880482014,6.668374214597293],[100,45.77445560580774,6.670835577109983],[101,45.77501863783439,6.669910849850794],[102,45.77624980911979,6.668156548048614],[103,45.77759289766681,6.668074946725596],[104,45.77848363104079,6.670276507015615],[105,45.77952467978007,6.671948904741612],[106,45.78116684053822,6.672445146743257],[107,45.78267930590464,6.673374652421444],]
podstawa=[[12,45.76,6.633545817230242],['start',45.7142800,6.5776300],['meta',45.7841600,6.6736900]]
daneflot=[[0.0,768.836],[0.2,781.278],[0.4,801.175],[0.6,807.538],[0.8,820.689],[1.0,841.725],[1.2,852.361],[1.4,864.990],[1.6,881.272],[1.8,900.814],[2.0,920.338],[2.2,926.818],[2.4,929.812],[2.6,941.445],[2.8,954.419],[3.0,964.400],[3.2,979.933],[3.4,990.044],[3.6,995.841],[3.8,1003.267],[4.0,1013.928],[4.2,1026.920],[4.4,1033.040],[4.6,1035.537],[4.8,1046.832],[5.0,1051.180],[5.2,1053.137],[5.4,1046.190],[5.6,1058.223],[5.8,1060.270],[6.0,1052.658],[6.2,1041.646],[6.4,1043.931],[6.6,1062.589],[6.8,1083.874],[7.0,1096.547],[7.2,1107.693],[7.4,1117.819],[7.6,1129.893],[7.8,1143.903],[8.0,1150.869],[8.2,1159.498],[8.4,1159.191],[8.6,1159.152],[8.8,1166.741],[9.0,1172.403],[9.2,1170.239],[9.4,1170.768],[9.6,1172.705],[9.8,1181.646],[10.0,1178.941],[10.2,1176.129],[10.4,1177.991],[10.6,1186.144],[10.8,1193.625],[11.0,1195.478],[11.2,1211.093],[11.4,1224.783],[11.6,1232.470],[11.8,1240.519],[12.0,1264.089],[12.2,1284.207],[12.4,1289.167],[12.6,1304.111],[12.8,1321.869],[13.0,1339.985],[13.2,1358.718],[13.4,1372.021],[13.6,1392.795],[13.8,1418.373],[14.0,1434.552],[14.2,1449.722],[14.4,1465.971],[14.6,1480.053],[14.8,1497.514],[15.0,1510.441],[15.2,1529.787],[15.4,1539.986],[15.6,1563.408],[15.8,1586.013],[16.0,1575.126],[16.2,1575.694],[16.4,1591.395],[16.6,1603.941],[16.8,1615.355],[17.0,1633.788],[17.2,1649.023],[17.4,1656.702],[17.6,1665.851],[17.8,1682.120],[18.0,1698.857],[18.2,1707.182],[18.4,1726.354],[18.6,1742.312],[18.8,1762.969],[19.0,1764.994],[19.2,1777.198],[19.4,1794.661],[19.6,1811.987],[19.8,1821.891],[20.0,1834.633],[20.2,1856.801],[20.4,1874.557],[20.6,1897.607],[20.8,1920.223],[21.0,1943.070],[21.2,1954.834],[21.4,1974.813],[21.6,1985.329],]