name=Colle Fauniera  od Demonte (Włochy)
slope=24.0km 7.1%
points=1473.7
region=121
description=Nawierzchnia: szosa, stan dobry. Ruch samochodowy: minimalny.
Potężna góra. Początkowo normalny, szeroki asfalt, który w końcowych dziesięciu kilometrach przechodzi w wąski. Tam też nachylenie cały koło 10 %. Trochę inny krajobraz niż "normalne" alpejskie przełęcze. Tutaj od jakiś 2000 m wysokość liczne skałki.
Na przełęczy pomnik Marco Pantaniego.  Można tu dojechać także od drugiej strony.
comments=
author=gavia 2621
segment=701131
locations=[[1,44.31549175960429,7.293683839508731],[2,44.31694207265439,7.292969961954668],[3,44.31847647904304,7.291699230169229],[4,44.31883358188868,7.289366081123035],[5,44.31932195649212,7.288975125818524],[6,44.32072284065044,7.287906185863221],[7,44.32224889758483,7.286560432718602],[8,44.32318824296117,7.2846116024713865],[9,44.32235906687845,7.28237801052569],[10,44.32206476704145,7.280125543895906],[11,44.32329762870497,7.278293358702172],[12,44.32400738567808,7.2759908862522025],[13,44.3248984969071,7.273799986125027],[14,44.32568059791945,7.27154713569962],[15,44.3266175738723,7.2694272300612965],[16,44.32774341877361,7.267501511362298],[17,44.32868924282747,7.265413123372014],[18,44.32958907903176,7.263275365065056],[19,44.32993970979953,7.260828238830413],[20,44.33055277845256,7.2585084254885714],[21,44.33169971459839,7.256754507336382],[22,44.33214544207931,7.254360544678434],[23,44.33157355363919,7.252067138306302],[24,44.33187569946134,7.249717695745176],[25,44.33315162332684,7.248013239137094],[26,44.33354521179116,7.248344473693123],[27,44.33395010551016,7.245902048899552],[28,44.33413162628609,7.243405392188379],[29,44.33467678321383,7.241157424553762],[30,44.33473421811532,7.238636276175157],[31,44.33454393689665,7.236142902652773],[32,44.33567937509021,7.234251873463904],[33,44.3364788200097,7.232448302271905],[34,44.33708067324523,7.230098476343187],[35,44.33761554108275,7.227732206915334],[36,44.33806970029564,7.2254064579867645],[37,44.33878986199067,7.223121721241455],[38,44.33885844816315,7.220640000079129],[39,44.33904728455653,7.218168118001586],[40,44.33985061793408,7.21596712510086],[41,44.34054543544487,7.2136820212405155],[42,44.34203633050495,7.212310263366476],[43,44.34334987139674,7.210580184720811],[44,44.34441028862076,7.208568279077099],[45,44.34481991496158,7.206110555179521],[46,44.34601472819926,7.204406679538579],[47,44.34612285907964,7.202371585677838],[48,44.34623856915297,7.199889146290161],[49,44.34636740548047,7.197429672060707],[50,44.3463060879503,7.194918567111245],[51,44.34690627916999,7.195137811425411],[52,44.34722542443735,7.192654751807481],[53,44.34771729865366,7.190231799060143],[54,44.34821608430946,7.187842619010553],[55,44.34929094239108,7.185838996111556],[56,44.35013645448282,7.1836253222846835],[57,44.35111000771725,7.181554178074748],[58,44.35207734000085,7.179435771655562],[59,44.35303203449758,7.17729681278297],[60,44.35424078287353,7.175465433443605],[61,44.3553996883257,7.173533825089635],[62,44.35683129376686,7.171997725708934],[63,44.35770425040625,7.169903001991997],[64,44.35806677677431,7.16886793488095],[65,44.35885530470549,7.167216107520744],[66,44.35998426664272,7.165276716106746],[67,44.36083726218493,7.163054157831539],[68,44.36090987018859,7.160663191858475],[69,44.36111276179408,7.16001815208142],[70,44.36141598114106,7.159877277588976],[71,44.36148201248265,7.157377493438844],[72,44.3624137448369,7.1552374765185505],[73,44.36372559715672,7.1535307403573825],[74,44.36501306068909,7.152090772724932],[75,44.36437790927422,7.154020232471112],[76,44.36356151281988,7.156262708850818],[77,44.36363648109688,7.156933622991119],[78,44.36487099871407,7.155192931248848],[79,44.36649633462961,7.154211365315973],[80,44.3681139347025,7.153116774061573],[81,44.36982298686387,7.152534026505691],[82,44.37114513137517,7.150946326809503],[83,44.37183914450609,7.149328979033271],[84,44.37279861122332,7.149338238046312],[85,44.37383035353383,7.147551056243628],[86,44.3744665165557,7.145302259040932],[87,44.37508812565667,7.142996496970454],[88,44.37581252750065,7.1407054991518635],[89,44.37591204295234,7.139147220694667],[90,44.3770170836801,7.137202726830765],[91,44.37730728807747,7.1347492827595715],[92,44.37761522663313,7.132290967294921],[93,44.37795650002714,7.129842747187013],[94,44.37813023440482,7.127342482697145],[95,44.37806056784415,7.1248202138547185],[96,44.37767182103541,7.123398180294544],[97,44.37709645313882,7.122279043963999],[98,44.37630858977777,7.120723189765158],[99,44.37652060144285,7.11967652549356],[100,44.37790674334079,7.118384053075715],[101,44.37893677961404,7.1165139158632655],[102,44.37913963622346,7.114162900111069],[103,44.37908060073356,7.111858198893401],[104,44.38014758926312,7.112009723232632],[105,44.37928498834464,7.110504769645445],[106,44.37820505368333,7.111391733749315],[107,44.37933198774897,7.109650292840229],[108,44.37982195493856,7.107373394938691],[109,44.38031840659842,7.105036215127939],[110,44.38006087974756,7.103529684638147],[111,44.38145779261949,7.102569405714348],[112,44.38293282157721,7.103945317661669],[113,44.38379915330027,7.106124256662952],[114,44.38404000325101,7.108599706490281],[115,44.3846521299206,7.110830728126871],[116,44.38573164582626,7.112813868468493],[117,44.38540107276999,7.114765547996967],[118,44.38513990405572,7.117133328330965],[119,44.38561031615846,7.119500184416893],]
podstawa=[[11,44.3553996883257,7.173533825089635],['start',44.3147000,7.2946700],['meta',44.3857700,7.1218100]]
daneflot=[[0.0,777.531],[0.2,792.349],[0.4,803.185],[0.6,812.002],[0.8,823.994],[1.0,838.527],[1.2,852.892],[1.4,866.438],[1.6,878.74],[1.8,892.642],[2.0,896.757],[2.2,903.355],[2.4,913.437],[2.6,929.291],[2.8,947.86],[3.0,957.134],[3.2,959.834],[3.4,966.143],[3.6,968.788],[3.8,980.805],[4.0,996.588],[4.2,1019.962],[4.4,1037.773],[4.6,1044.866],[4.8,1051.319],[5.0,1060.237],[5.2,1064.514],[5.4,1073.499],[5.6,1087.239],[5.8,1109.803],[6.0,1129.554],[6.2,1148.247],[6.4,1167.675],[6.6,1192.759],[6.8,1213.074],[7.0,1230.152],[7.2,1238.148],[7.4,1249.595],[7.6,1248.667],[7.8,1242.747],[8.0,1241.452],[8.2,1251.925],[8.4,1264.202],[8.6,1276.786],[8.8,1286.569],[9.0,1297.832],[9.2,1312.088],[9.4,1321.446],[9.6,1331.596],[9.8,1336.393],[10.0,1347.928],[10.2,1359.986],[10.4,1376.435],[10.6,1392.118],[10.8,1408.634],[11.0,1428.303],[11.2,1443.243],[11.4,1457.430],[11.6,1466.010],[11.8,1471.201],[12.0,1484.241],[12.2,1495.506],[12.4,1507.879],[12.6,1521.411],[12.8,1536.21],[13.0,1555.674],[13.2,1575.142],[13.4,1590.808],[13.6,1599.769],[13.8,1619.404],[14.0,1642.327],[14.2,1673.686],[14.4,1699.175],[14.6,1725.351],[14.8,1745.68],[15.0,1766.231],[15.2,1787],[15.4,1802.963],[15.6,1811.163],[15.8,1825.442],[16.0,1850.625],[16.2,1869.244],[16.4,1886.216],[16.6,1899.263],[16.8,1918.178],[17.0,1934.493],[17.2,1950.503],[17.4,1966.417],[17.6,1988.536],[17.8,2011.655],[18.0,2029.591],[18.2,2048.955],[18.4,2069.576],[18.6,2087.025],[18.8,2107.884],[19.0,2121.790],[19.2,2132.931],[19.4,2152.337],[19.6,2175.229],[19.8,2198.896],[20.0,2214.683],[20.2,2226.628],[20.4,2245.016],[20.6,2264.899],[20.8,2281.562],[21.0,2293.196],[21.2,2300.428],[21.4,2314.152],[21.6,2331.105],[21.8,2352.193],[22.0,2378.786],[22.2,2396.575],[22.4,2408.342],[22.6,2409.922],[22.8,2414.861],[23.0,2429.949],[23.2,2457.508],[23.4,2468.67],[23.6,2477.642],[23.8,2486.013],[24.0,2481.178],]