name=Bielówka Wyżna z Jazowska
slope=1.6km 11.0%
points=220.3
region=29
description=Nawierzchnia: szosa, stan .. Ruch samochodowy: średni.
Wariant trasy na Bielówkę Wyżną ze skrzyżowania w Jazowsku. Początek trasy dość stromy, dalej ok. 200m lżejszego podjazdu i po skręcie rozpoczyna się właściwy, stromy podjazd.
Droga prowadzi obok masztu radiowego aż na szczyt góry.
comments=
author=mx2047
segment=0
locations=[[1,49.5292913681299,20.513592241179822],[2,49.52976136441017,20.512396394937923],[3,49.53011000550083,20.511099977264166],[4,49.53042842810667,20.509783846783307],[5,49.53023746005758,20.50858539543185],[6,49.52989969469384,20.507286259900297],[7,49.53005094354945,20.505988140355612],[8,49.53065352447742,20.50497359117105],[9,49.53143031503999,20.50426360388974],[10,49.53221812914616,20.503581360627777],[11,49.5329542135229,20.502807461719158],[12,49.53384607781022,20.502744505714873],[13,49.53475139684653,20.502658104977627],[14,49.53552261601908,20.503376576998676],[15,49.53639708301498,20.503023925616958],]
podstawa=[[14,49.53143031503999,20.50426360388974],['start',49.5287300,20.5145800],['meta',49.5370700,20.5021800]]
daneflot=[[0.0,338.657],[0.1,348.425],[0.2,359.841],[0.3,366.182],[0.4,381.560],[0.5,392.993],[0.6,400.285],[0.7,415.626],[0.8,432.348],[0.9,448.787],[1.0,462.524],[1.1,470.341],[1.2,479.495],[1.3,484.483],[1.4,499.199],[1.5,511.467],[1.6,514.608],]