name=Góra Wojnowska od Malawicz
slope=2.2km 2.0%
points=18.2
region=85
description=Nawierzchnia: szosa, stan bardzo dobry. Ruch samochodowy: minimalny.
Podjazd na najwyższe wzniesienie Wzgórz Sokólskich - Górę Wojnowską (240 mnpm)
comments=
author=ptaqnabajq
segment=5862863
locations=[[1,53.4013820348461,23.65226461346174],[2,53.40098405481226,23.65359920195783],[3,53.40058605989901,23.65493376548841],[4,53.40019299090352,23.65627231192775],[5,53.39981635279063,23.657624174701823],[6,53.3994136905804,23.65895385950762],[7,53.39887393191041,23.66013312038524],[8,53.39823886186961,23.661177833199417],[9,53.39760010984338,23.662216447659375],[10,53.39696353724685,23.66325881094656],[11,53.39632695557329,23.664301143049897],[12,53.39569353886893,23.665348855342927],[13,53.39505309738873,23.666384282200283],[14,53.39441262880251,23.66741923770826],[15,53.39379873238781,23.668499100597728],[16,53.39317533942025,23.669563508744318],[17,53.39255079404979,23.67062602893793],[18,53.39192634463534,23.6716886921414],[19,53.39132434875705,23.67278466309449],[20,53.39088298172244,23.674076106119628],[21,53.3904712245096,23.675398557922108],]
podstawa=[[13,53.39569353886893,23.665348855342927],['start',53.4017800,23.6509300],['meta',53.3900700,23.6767300]]
daneflot=[[0.0,179.142],[0.1,179.622],[0.2,181.319],[0.3,182.279],[0.4,182.665],[0.5,183.642],[0.6,185.402],[0.7,188.000],[0.8,188.356],[0.9,190.108],[1.0,192.154],[1.1,194.599],[1.2,198.057],[1.3,205.977],[1.4,213.342],[1.5,217.312],[1.6,217.971],[1.7,219.462],[1.8,220.877],[1.9,220.497],[2.0,220.218],[2.1,221.491],[2.2,222.757],]