name=Góra Kamieńsk
slope=3.2km 5.4%
points=113.4
region=79
description=Nawierzchnia: szosa, stan dobry. Ruch samochodowy: minimalny.
Hałda w okolicy Kopalni Węgla Brunatnego Bełchatów
comments=
author=???
segment=5450372
locations=[[1,51.23190375337533,19.39607484253179],[2,51.23133749596956,19.397199657379474],[3,51.23077122778321,19.398324444543732],[4,51.23020394431649,19.399447897687764],[5,51.22962891031298,19.40056125747583],[6,51.2290538657472,19.401674589439267],[7,51.22847881061962,19.40278789357899],[8,51.22790374493074,19.40390116989579],[9,51.22732866868102,19.405014418390238],[10,51.22676185640376,19.406138225794734],[11,51.2262068865849,19.407277171246392],[12,51.22565190571243,19.408416089230627],[13,51.22519154593664,19.409657841754097],[14,51.2245421024078,19.41052336300004],[15,51.22396414545186,19.411536674889476],[16,51.22351163026995,19.412783482806162],[17,51.2231012650324,19.414013289205855],[18,51.22231985988115,19.414710251024303],[19,51.22178884717071,19.41587784409296],[20,51.22125782284319,19.417045410223068],[21,51.22067080274318,19.41807158251936],[22,51.21978248760334,19.418336943658005],[23,51.21889417186345,19.418602294555512],[24,51.21800585552356,19.41886763521279],[25,51.21711753858371,19.419132965630524],[26,51.21622922104392,19.41939828580928],[27,51.21537030421643,19.41984515512638],[28,51.21451179734983,19.42029540332146],[29,51.21364006075569,19.42067587639076],[30,51.21276832292793,19.421056335053663],[31,51.21191117033464,19.421503631304518],]
podstawa=[[13,51.2231012650324,19.414013289205855],['start',51.2324700,19.3949500],['meta',51.2110800,19.4220700]]
daneflot=[[0.0,195.635],[0.1,197.449],[0.2,204.678],[0.3,215.822],[0.4,222.503],[0.5,230.797],[0.6,238.381],[0.7,243.712],[0.8,251.896],[0.9,258.289],[1.0,261.470],[1.1,267.518],[1.2,274.536],[1.3,281.544],[1.4,285.871],[1.5,290.702],[1.6,298.221],[1.7,304.839],[1.8,309.426],[1.9,317.803],[2.0,326.370],[2.1,335.807],[2.2,339.005],[2.3,339.120],[2.4,340.848],[2.5,343.757],[2.6,346.270],[2.7,350.851],[2.8,354.815],[2.9,356.796],[3.0,359.853],[3.1,364.322],[3.2,367.384],]