name=Góra Piorun
slope=2.4km 8.3%
points=201.6
region=34
description=Nawierzchnia: szosa, stan dobry, ale dziury. Ruch samochodowy: mały.
Krótki i stromy podjazd, typowa ścianka
comments=Dnia 2014-08-05 użytkownik airstreeem20 dodał:
Avi: Downhill - Piorunka (tymczasowo, bardzo niebezpieczny zjazd)
http://youtu.be/auRBTnA0nhg
author=sztein
segment=0
locations=[[1,49.47485944918688,21.022694929793943],[2,49.47398641013948,21.02268076921291],[3,49.47312102314852,21.022471991715292],[4,49.47225696847108,21.022246768225386],[5,49.47139352618414,21.02201617420087],[6,49.47053366065288,21.021758411546898],[7,49.46971322272384,21.021290499451766],[8,49.46890529005992,21.020768080442053],[9,49.4681764647621,21.02005881218156],[10,49.46759748078241,21.01905206066465],[11,49.46677227213025,21.018986269392713],[12,49.46594498598233,21.019431195345987],[13,49.46509443296748,21.019743950594147],[14,49.4642318411835,21.019899886540657],[15,49.46378639079979,21.018775559790583],[16,49.46348787372848,21.017507875943693],[17,49.46319162569514,21.016238873221027],[18,49.46279398783189,21.01506504501799],[19,49.46194986460019,21.014812328842595],[20,49.46112903377515,21.01444944435127],[21,49.46057811519074,21.013403323238776],[22,49.46005004638027,21.01232728534751],[23,49.459521967588,21.011251270646994],]
podstawa=[[13,49.46509443296748,21.019743950594147],['start',49.4757100,21.0223700],['meta',49.4589900,21.0101800]]
daneflot=[[0.0,544.279],[0.1,547.047],[0.2,552.355],[0.3,560.339],[0.4,567.476],[0.5,578.843],[0.6,589.152],[0.7,595.809],[0.8,605.339],[0.9,619.335],[1.0,629.560],[1.1,639.796],[1.2,655.710],[1.3,670.841],[1.4,681.084],[1.5,692.337],[1.6,702.967],[1.7,710.030],[1.8,712.747],[1.9,714.822],[2.0,716.489],[2.1,721.443],[2.2,726.000],[2.3,735.489],[2.4,743.484],]