name=Góra Sowina
slope=4.0km 3.1%
points=53.2
region=8
description=Nawierzchnia: szosa, stan średni, w Sowinie b. dobry. Ruch samochodowy: minimalny.
Jest to jeden z podjazdów, których się nie zapomina. Nie jest stromy, ani trudny, dostępny dla każdego amatora. Za to tuż po skręcie do miejscowości Sowina wyjątkowo piękny krajobrazowo. Turystycznie obowiązkowa pozycja. Widok na panoramę Gór Sowich niezapomniany.
comments=
author=???
segment=0
locations=[[1,50.62545115812731,16.462216335244193],[2,50.62720718890131,16.46258247162598],[3,50.62898032973311,16.46241072213047],[4,50.6307453735187,16.462439317991652],[5,50.63243708131451,16.463197443950776],[6,50.63411094853523,16.46333726287969],[7,50.63576179350011,16.46374162865402],[8,50.63730475756232,16.46463475755195],[9,50.6384571370938,16.466760376136563],[10,50.63987477809999,16.468394348071797],[11,50.64087018940949,16.47061373090014],[12,50.64166238777252,16.473098943450168],[13,50.64311325674649,16.47464302362846],[14,50.6448336881336,16.475301500165642],[15,50.64491416457138,16.477275012720156],[16,50.64367314295195,16.477867885755586],[17,50.64362948612003,16.479787133139098],[18,50.64333541371001,16.482301196288063],[19,50.64280655541361,16.48495542996625],]
podstawa=[[13,50.64087018940949,16.47061373090014],['start',50.6238700,16.4611300],['meta',50.6412400,16.4847100]]
daneflot=[[0.0,477.854],[0.2,492.833],[0.4,502.335],[0.6,506.105],[0.8,514.641],[1.0,518.536],[1.2,525.043],[1.4,533.142],[1.6,535.638],[1.8,535.408],[2.0,533.276],[2.2,537.078],[2.4,543.911],[2.6,555.534],[2.8,560.976],[3.0,568.094],[3.2,571.514],[3.4,578.532],[3.6,587.723],[3.8,593.805],[4.0,602.355],]