name=Michałek od Blizne
slope=2.0km 6.4%
points=113.1
region=47
description=Nawierzchnia: szosa. Ruch samochodowy: mały.
Droga łącząca dwie miejscowości: Blizne oraz Golcowę. Podjazd prowadzi przez Górę Św. Michała. Podjazd ten jest jest krótszy, niż ten od drugiej strony. Wydaje się jednak cięższy, ze względu na dość stromy początek. Plusem podjeżdżania od tej strony jest świetny, bardzo szybki zjazd do miejscowości Golcowa.
comments=
author=Beymont
segment=0
locations=[[1,49.74331158997295,21.988680634080765],[2,49.7437298529691,21.989977442708323],[3,49.74436614458585,21.991050963533553],[4,49.74494294597422,21.992199376302665],[5,49.7455606377709,21.993268168329905],[6,49.74507791861756,21.99436793837731],[7,49.74480339329983,21.995736080326424],[8,49.74458011023998,21.997142741482207],[9,49.74447435973731,21.998421634898932],[10,49.74520214426247,21.997627482837515],[11,49.74603583955337,21.996985716180006],[12,49.74696280627238,21.997103851413613],[13,49.74786931703232,21.997496327496947],[14,49.74878872901993,21.997744254235727],[15,49.74965446371245,21.997199549985794],[16,49.7505449756955,21.99680124390943],[17,49.75147908887593,21.99694676941897],[18,49.75241350936501,21.99699919015302],[19,49.75334616485121,21.997017577670704],]
podstawa=[[13,49.74603583955337,21.996985716180006],['start',49.7429300,21.9873500],['meta',49.7542800,21.9972000]]
daneflot=[[0.0,276.826],[0.1,281.063],[0.2,287.492],[0.3,294.310],[0.4,306.354],[0.5,322.547],[0.6,327.431],[0.7,334.882],[0.8,343.247],[0.9,347.301],[1.0,355.601],[1.1,362.091],[1.2,366.442],[1.3,366.472],[1.4,368.660],[1.5,376.134],[1.6,384.264],[1.7,396.013],[1.8,401.566],[1.9,406.375],[2.0,408.195],]