name=Góra Siniewska (Widoma)
slope=1.5km 7.6%
points=107.3
region=33
description=Nawierzchnia: szosa. Ruch samochodowy: mały.
Krótki podjazd (jakich najwięcej w Górach Świętokrzyskich), pomiędzy górami Siniewską a Baranią. Na szczycie przepiękny widok na Padół Strawczyński i całą okolicę.
comments=
author=sali
segment=0
locations=[[1,50.95770657974715,20.455189158421717],[2,50.9586431590459,20.455418326081258],[3,50.95946242033414,20.45474473730792],[4,50.96039811954098,20.454928805192367],[5,50.96133314702126,20.455173437687336],[6,50.96226817399052,20.45541808002895],[7,50.96320320044876,20.455662732217775],[8,50.96413822639592,20.455907394254723],[9,50.96507325183197,20.456152066140476],[10,50.96601077579606,20.456371119136975],[11,50.96694862143185,20.456586877883637],[12,50.96788646667017,20.456802645342577],[13,50.96882431151101,20.45701842151459],[14,50.96976215595428,20.457234206400244],]
podstawa=[[14,50.96413822639592,20.455907394254723],['start',50.9567700,20.4549600],['meta',50.9707000,20.4574500]]
daneflot=[[0.0,283.395],[0.1,290.206],[0.2,298.959],[0.3,305.922],[0.4,312.055],[0.5,318.932],[0.6,331.183],[0.7,341.310],[0.8,348.752],[0.9,359.199],[1.0,364.607],[1.1,368.189],[1.2,376.051],[1.3,388.876],[1.4,400.199],[1.5,401.859],]