name=Edelweißspitze  z  Fusch (Austria)
slope=19.0km 8.9%
points=1689.5
region=103
description=Nawierzchnia: szosa, stan idealny. Ruch samochodowy: duży.
Słynna trasa alpejska - wspinaczka rozpoczyna się praktycznie przy wyjeździe z miasteczka w wycięcie wąwozu - skąd docieramy do przepłaszczenia z bramkami na płatną część dla zmotoryzowanych. Wyskrobać się stąd na przełęcz to niezły wyczyn - uwzględniając długość, różnicę wysokości i nachylenie, oraz wiatr i ostre alpejskie słońce, przed którym trzeba się zabezpieczyć, a dodatkowo znaczne przechłodzenie przy parkingu na siodle, lecz i tu czeka na nas wściekła, dobijająca serpentynka po kosteczce na platformę widokową. Powrotny zjazd z siodła jest bajeczny, wymaga jednak pełni koncentracji, ze względu na duży ruch zmotoryzowanych, zwłaszcza wielbicieli dwóch kółek. Jezdnia jest fantastyczna i szeroka, jednak w przypadku jakichkolwiek opadów, czy wahań pogody, należy sobie odpuścić, bo wyższych partiach może pojawić się fen, a także śnieg.
comments=
author=airstreeem20
segment=0
locations=[[1,47.20021120617608,12.83409896285957],[2,47.19843907567532,12.834103641994261],[3,47.19673932751093,12.833426688854502],[4,47.19536576513859,12.831767540796818],[5,47.19393677369758,12.830236366968848],[6,47.19281197834334,12.828210763809352],[7,47.19141955484969,12.82657143697736],[8,47.18973755951266,12.825735779769275],[9,47.18799988333487,12.825258785314531],[10,47.1863866040573,12.824801968619],[11,47.1847930236051,12.823835821979742],[12,47.18309592493084,12.82309406780655],[13,47.18140590860416,12.822372653964067],[14,47.17996828283687,12.821026446865744],[15,47.1783436989593,12.820247895827151],[16,47.17686404984994,12.818841184246935],[17,47.17523271693534,12.817878127339213],[18,47.17370460929723,12.81683615205327],[19,47.17202528509103,12.816038311424109],[20,47.17050839439581,12.814641402261032],[21,47.16901814195458,12.813698226410452],[22,47.16902533982703,12.813608252786139],[23,47.16738762108754,12.81440594530011],[24,47.16563695019419,12.81489807065509],[25,47.16389875819714,12.815397847444046],[26,47.16212350000728,12.81513442286439],[27,47.16040858298085,12.814395399725527],[28,47.15876847337819,12.81335335433505],[29,47.15734624604439,12.812888329084672],[30,47.15592230509628,12.81425153499481],[31,47.15515259450518,12.81228354024131],[32,47.1536349516553,12.811044779783856],[33,47.15194591983899,12.810226170592614],[34,47.15020973739672,12.809723194597495],[35,47.15117930297149,12.810811643697548],[36,47.15234570408776,12.81277570363443],[37,47.15124302787848,12.81230028102891],[38,47.14965184745418,12.812356128519582],[39,47.15116461881637,12.813612972007832],[40,47.15253788671878,12.815268194257442],[41,47.15270551883183,12.815841161608319],[42,47.15098272731304,12.815451217886448],[43,47.1493993736353,12.814465742124298],[44,47.14816350711149,12.813764240654109],[45,47.14648192359553,12.813792308106258],[46,47.14477823878413,12.814297568175107],[47,47.14334069865118,12.81547309570135],[48,47.14268175692277,12.81313061422054],[49,47.14137813240446,12.811515081691027],[50,47.13988514131375,12.81008256144571],[51,47.13832812765835,12.808790312928522],[52,47.13660242305285,12.80812804357754],[53,47.13485158478251,12.807633198757458],[54,47.13364368641776,12.807736767707524],[55,47.13515574052095,12.809125954089836],[56,47.13358446984108,12.808818442091592],[57,47.13198029176581,12.807708906566063],[58,47.1302693093014,12.80710013447515],[59,47.12849557410726,12.807467841850894],[60,47.12671710364462,12.807688312996333],[61,47.12500913008532,12.808260870740241],[62,47.12390593431501,12.80870311085232],[63,47.12462870374051,12.809245696560538],[64,47.12297527816792,12.808781717836382],[65,47.12206536686226,12.81039145049317],[66,47.12370228311851,12.810529554634513],[67,47.12537535219239,12.81117374058283],[68,47.12713362498545,12.811047492626244],[69,47.12871215815588,12.812191983352704],[70,47.1279459930388,12.81238133571378],[71,47.12626222522879,12.813100520746161],[72,47.12603362034923,12.813808468305183],[73,47.12777680229522,12.814293210491996],[74,47.1285518405443,12.815397813618233],[75,47.12685688094284,12.81558798451033],[76,47.12568296584104,12.81716923967599],[77,47.12472482230396,12.819302577573126],[78,47.12300987088481,12.82002354046574],[79,47.12136293777534,12.820651865047466],[80,47.12178710062139,12.822952126224209],[81,47.12053907127145,12.823521803221524],[82,47.11953574503037,12.824533960647841],[83,47.11967998274665,12.825266455412475],[84,47.11870164377792,12.825518843760392],[85,47.11964365944651,12.82694632454593],[86,47.11838768442982,12.827996843905794],[87,47.11770718392508,12.828519351417981],[88,47.11928135648107,12.829625058411693],[89,47.1201824311116,12.83172513348029],[90,47.12034534848426,12.830321717372954],[91,47.12188245192365,12.831503264432854],[92,47.12180183605088,12.830254763650373],[93,47.12310019128633,12.831933418192648],[94,47.12329057635355,12.831509397916534],]
podstawa=[[11,47.17,12.81313061422054],['start',47.2019500,12.8334900],['meta',47.1238000,12.8315600]]
daneflot=[[0.0,876.987],[0.2,885.187],[0.4,905.565],[0.6,934.013],[0.8,952.816],[1.0,976.422],[1.2,993.72],[1.4,1013.639],[1.6,1032.38],[1.8,1058.708],[2.0,1076.707],[2.2,1090.12],[2.4,1098.714],[2.6,1111.653],[2.8,1124.207],[3.0,1140.075],[3.2,1149.924],[3.4,1156.446],[3.6,1148.988],[3.8,1151.97],[4.0,1155.651],[4.2,1161.878],[4.4,1161.595],[4.6,1167.859],[4.8,1184.479],[5.0,1207.53],[5.2,1223.457],[5.4,1241.435],[5.6,1259.659],[5.8,1279.857],[6.0,1298.6],[6.2,1318.576],[6.4,1341.233],[6.6,1366.153],[6.8,1385.077],[7.0,1404.038],[7.2,1423.461],[7.4,1447.938],[7.6,1467.741],[7.8,1489.658],[8.0,1509.704],[8.2,1531.378],[8.4,1550.206],[8.6,1568.476],[8.8,1584.717],[9.0,1595.138],[9.2,1609.938],[9.4,1630.673],[9.6,1650.785],[9.8,1669.651],[10.0,1695.432],[10.2,1713.804],[10.4,1734.118],[10.6,1748.486],[10.8,1768.026],[11.0,1789.826],[11.2,1805.546],[11.4,1821.288],[11.6,1837.362],[11.8,1861.873],[12.0,1887.156],[12.2,1914.627],[12.4,1936.727],[12.6,1962.606],[12.8,1979.341],[13.0,1995.664],[13.2,2009.944],[13.4,2030.078],[13.6,2046.141],[13.8,2065.233],[14.0,2085.142],[14.2,2114.434],[14.4,2132.559],[14.6,2150.277],[14.8,2165.473],[15.0,2182.754],[15.2,2204.775],[15.4,2230.496],[15.6,2254.296],[15.8,2271.109],[16.0,2290.932],[16.2,2308.514],[16.4,2330.824],[16.6,2340.733],[16.8,2354.366],[17.0,2372.829],[17.2,2395.648],[17.4,2419.045],[17.6,2443.063],[17.8,2459.712],[18.0,2483],[18.2,2498.812],[18.4,2521.349],[18.6,2541.455],[18.8,2561.076],[19.0,2571.156],]