name=Wapiennik z Radziechowych
slope=3.4km 3.6%
points=56.1
region=16
description=Nawierzchnia: szosa, stan dobry. Ruch samochodowy: mały.
Podjazd w okolicach Żywca, najpierw spokojnie przez wieś, pod koniec stromiej
comments=
author=???
segment=0
locations=[[1,49.6439146867052,19.159239046653624],[2,49.64466233479894,19.15670533232094],[3,49.64531558319586,19.15418957443967],[4,49.64560328170656,19.151425099793073],[5,49.64611385178658,19.148820142201885],[6,49.64600945365628,19.146012892832914],[7,49.64563238795368,19.14327864272343],[8,49.64535380289354,19.14051857400659],[9,49.64532749506286,19.13772809109821],[10,49.64562457339171,19.135006989736894],[11,49.64596844114483,19.13228337813291],[12,49.64658000007297,19.129644508799856],[13,49.64651724488242,19.126844605506108],[14,49.64765320710391,19.125356755168355],[15,49.64935080336119,19.124385595569493],[16,49.65054186168749,19.12226545762701],]
podstawa=[[13,49.64532749506286,19.13772809109821],['start',49.6443900,19.1614700],['meta',49.6518500,19.1203100]]
daneflot=[[0.0,377.193],[0.2,381.527],[0.4,386.306],[0.6,389.295],[0.8,394.246],[1.0,398.212],[1.2,401.742],[1.4,407.981],[1.6,413.027],[1.8,419.074],[2.0,428.069],[2.2,432.954],[2.4,440.017],[2.6,447.991],[2.8,461.765],[3.0,475.161],[3.2,489.708],[3.4,500.606],]