name=Góra Goraj
slope=1.8km 3.6%
points=37.2
region=72
description=Nawierzchnia: szosa, stan dobry. Ruch samochodowy: minimalny.
Podjazd w okolicach Czarnkowa na pięknej Szwajcarii Czarnkowskiej, na Górze znajduje się budynek nazywany zamkiem - obecnie siedziba technikum. Szosa jest dobrej jakości, po skręcie już na Górę Goraj często leży dużo piachu.
comments=
author=Virenque (autor bloga   trzymajkolo.blogspot.com)
segment=0
locations=[[1,52.88335045035357,16.500472149906273],[2,52.88249769552249,16.5003679938053],[3,52.88171178520521,16.49957421358522],[4,52.88085855088676,16.49901341129737],[5,52.87996232552095,16.498665673820142],[6,52.87924520989097,16.49793770757492],[7,52.87884134717647,16.496564563869242],[8,52.8781910389235,16.495573067697592],[9,52.87757390404022,16.494553975909525],[10,52.87730269329312,16.493108727415347],[11,52.87711753683922,16.491622439558682],[12,52.87654333477255,16.490427473529508],[13,52.87584972576444,16.48943335451338],
[14,52.8751200,16.4885000],[15,52.874699013227286,16.48977041244507],[16,52.87442704147152,16.491293907165527],[17,52.87415506801032,16.49273157119751],]
podstawa=[[14,52.8781910389235,16.495573067697592],['start',52.8842000,16.5005100],['meta',52.87418097031821,16.49446964263916]]
daneflot=[[0.0,41.526],[0.1,46.190],[0.2,51.421],[0.3,57.812],[0.4,62.612],[0.5,65.106],[0.6,64.170],[0.7,67.713],[0.8,69.115],[0.9,69.744],[1.0,72.607],[1.1,76.625],[1.2,82.555],[1.3,86.829],[1.4,85.716],[1.5,95.475],[1.6,102.394],[1.7,106.702],[1.8,107.183],]