name=Góra Św. Doroty z Będzina
slope=2.5km 4.0%
points=63.2
region=59
description=Nawierzchnia: szosa, stan dobry, ale końcówka szuter. Ruch samochodowy: na szosie duży, później brak.
Od wiaduktu nad szosą na Wojkowice, ostry skręt w ul. Podgórną, asfaltem do lasu na kopule szczytowej. Z pola widok na konurbację, przy dobrej widoczności po góry. Teraz ostry zakręt w lewo wzdłuż lasu szutrem, na grzbiecie w prawo na ostry i miejscami luźny szuter. Na szczycie kościółek św. Doroty.
comments=Dnia 2014-10-22 użytkownik xtnt dodał:
Jedynie ul. Podgórna zasługuje na uwagę z całości podjazdu, na końcu asfaltu rewelacyjne widoki (często tłumy gapiów), przede wszystkim na Elektrownie Łagisza, polecam zarówno w dzień, jak i w nocy. Asfalt prowadzi maksimum na 348m n.p.m. i tyle jest szosowego podjazdu, reszta to MTB only.
author=turdus23
segment=0
locations=[[1,50.34014918251925,19.108216657310095],[2,50.34075985047308,19.10710039286255],[3,50.34137185617918,19.10598591730934],[4,50.34198507195396,19.104873058450266],[5,50.34259827710824,19.103760170855708],[6,50.34332589513414,19.102839398045035],[7,50.34409003636695,19.101986082479698],[8,50.34484148563772,19.10110594739865],[9,50.34564990173022,19.100370837374385],[10,50.34650372297212,19.099768681787737],[11,50.34730732627855,19.099015347505997],[12,50.34767170477431,19.097678560303507],[13,50.34775527059964,19.096218196319683],[14,50.34803995769286,19.09522135388829],[15,50.34841263123995,19.096413157776738],[16,50.3492901277123,19.096750425706773],[17,50.34955025329987,19.098106732275937],[18,50.34975285421093,19.09954079735735],[19,50.34991009484354,19.100988676179895],[20,50.35008803829894,19.10158244729621],[21,50.35034985521726,19.100170375265407],[22,50.35075926829823,19.098853907517764],[23,50.35113305427744,19.097524453000915],[24,50.35147249491241,19.098264675992596],]
podstawa=[[14,50.34775527059964,19.096218196319683],['start',50.3396000,19.1093000],['meta',50.3514700,19.0997000]]
daneflot=[[0.0,271.314],[0.1,271.844],[0.2,272.347],[0.3,274.828],[0.4,277.766],[0.5,283.807],[0.6,291.242],[0.7,295.254],[0.8,296.998],[0.9,298.277],[1.0,301.642],[1.1,306.904],[1.2,310.659],[1.3,312.748],[1.4,316.366],[1.5,319.769],[1.6,329.398],[1.7,336.843],[1.8,340.482],[1.9,345.834],[2.0,349.648],[2.1,356.173],[2.2,363.281],[2.3,364.866],[2.4,371.766],[2.5,373.897],]