name=Zbójnicka Góra ze Szczytnej
slope=7.4km 5.2%
points=317.6
region=11
description=Nawierzchnia: szosa, stan dobry. Ruch samochodowy: minimalny.
Bardzo interesujący i wymagający podjazd niestety bez dalekich widoków. Właściwie jest możliwość wypatrzyć pomiędzy drzewami Zieleniec i Góry Orlickie ale trzeba pojechać kawałek dalej niż zaznaczono na mapie. Dlatego trzymam się wersji że widoków na tym podjeździe nie ma. Jednak mimo tego, sam w sobie podjazd warto zaliczyć ze względu na nachylenia i trudność. W dolnym odcinku jest możliwość spotkania samochodów ale wjeżdżając w las, a dokładnie mijając leśniczówkę mijamy również znak zakazu wjazdu. Końcówka podjazdu po dobrej jakości drodze szutrowej.
comments=
author=Kornel (  http://kornel.bikestats.pl/)
segment=0
locations=[[1,50.40813026947054,16.447580573871164],[2,50.40636413018031,16.44752452141529],[3,50.40460897756907,16.447528977174215],[4,50.40314239657386,16.44597649071693],[5,50.40197269869627,16.444717523392683],[6,50.40152303372138,16.442073476005362],[7,50.40061576296615,16.439719024523356],[8,50.39953238684414,16.43756013265545],[9,50.39787898734046,16.43670661117369],[10,50.39627774481922,16.435855894000042],[11,50.39479887323771,16.434391404360667],[12,50.39318297291543,16.433434247880655],[13,50.3914317344286,16.433107115089797],[14,50.38967904126079,16.433373154996502],[15,50.38793342351061,16.43317089260438],[16,50.38689082833901,16.432639172177574],[17,50.38817462851023,16.43075686151917],[18,50.38880318133454,16.428222697874844],[19,50.38842832083726,16.425857812584354],[20,50.3870069177616,16.424672954755806],[21,50.3854643938001,16.423661936379403],[22,50.38424815291335,16.421652978784437],[23,50.38328999567094,16.419669357894918],[24,50.3817955955967,16.41947357116908],[25,50.38034636158928,16.42105220510564],[26,50.3787799158338,16.42230197672734],[27,50.37708996978876,16.42235658108075],[28,50.37540498047579,16.422805019724137],[29,50.37383789351829,16.422311022774807],[30,50.37287851543397,16.422653666413225],[31,50.37187700636583,16.42488421367625],[32,50.37074449928916,16.427015454859884],[33,50.3695270247656,16.42901875875532],[34,50.36815018165561,16.430739909526096],[35,50.36644035161648,16.43145254458011],[36,50.36473017799211,16.432166298009292],]
podstawa=[[12,50.38842832083726,16.425857812584354],['start',50.4092100,16.4490500],['meta',50.3630200,16.4328800]]
daneflot=[[0.0,454.356],[0.2,461.577],[0.4,469.376],[0.6,469.667],[0.8,476.263],[1.0,481.383],[1.2,490.147],[1.4,499.257],[1.6,507.892],[1.8,524.523],[2.0,536.228],[2.2,538.818],[2.4,549.300],[2.6,570.348],[2.8,600.011],[3.0,626.017],[3.2,638.326],[3.4,645.311],[3.6,653.924],[3.8,671.130],[4.0,686.184],[4.2,707.101],[4.4,732.931],[4.6,745.083],[4.8,752.430],[5.0,780.148],[5.2,795.856],[5.4,802.189],[5.6,802.665],[5.8,802.003],[6.0,798.786],[6.2,804.400],[6.4,809.723],[6.6,820.539],[6.8,822.741],[7.0,823.219],[7.2,830.122],[7.4,832.992],]