name=Góra Motyczna   od Wiewiórki
slope=1.3km 2.2%
points=8
region=67
description=Nawierzchnia: szosa, stan dobry  . Ruch samochodowy: Średni.okresowo duży.  .
Możliwe TIRy.
comments=
author=thedk63
segment=0
locations=[[1,50.09679776759481,21.345677391379013],[2,50.09619488941074,21.346692045266536],[3,50.09587219099979,21.347926746053304],[4,50.09599532121008,21.349294866939204],[5,50.09613144879014,21.350661388627486],[6,50.09609411057397,21.35203526886039],[7,50.09583488632461,21.35335648572368],[8,50.09552111219242,21.35464868406666],[9,50.09511149480491,21.355873644555345],[10,50.0947218321886,21.35711042951334],[11,50.09438668820871,21.35838641052476],[12,50.09386920880867,21.359508629871357],]
podstawa=[[15,50.09583488632461,21.35335648572368],['start',50.0975700,21.3450300],['meta',50.0933500,21.3606300]]
daneflot=[[0.0,206.000],[0.1,208.042],[0.2,211.421],[0.3,212.770],[0.4,215.747],[0.5,219.529],[0.6,222.593],[0.7,225.610],[0.8,227.110],[0.9,227.487],[1.0,228.094],[1.1,230.928],[1.2,234.039],[1.3,234.729],]