name=Góra Wojnowska   od Wojnowce
slope=1.1km 2.7%
points=12.7
region=85
description=Nawierzchnia: szosa, stan bardzo dobry  . Ruch samochodowy: minimalny  .
Podjazd od wschodu na Górę Wojnowską, najwyższe wzniesienie Wzgórz Sokólskich
comments=
author=ptaqnabajq
segment=0
locations=[[1,53.38877488710113,23.6911590326431],[2,53.38886746196639,23.689692984760654],[3,53.38897174289304,23.68822890068259],[4,53.38907600590998,23.686764809431907],[5,53.38918025101702,23.68530071100986],[6,53.38928403383253,23.683836517863256],[7,53.38934873429185,23.682367264621348],[8,53.38932617476991,23.680893246739515],[9,53.38936798337209,23.67942218346525],[10,53.3896774371696,23.678049392830076],]
podstawa=[[15,53.38928403383253,23.683836517863256],['start',53.3887600,23.6926300],['meta',53.3900700,23.6767300]]
daneflot=[[0.0,193.122],[0.1,195.488],[0.2,198.978],[0.3,205.066],[0.4,210.607],[0.5,215.360],[0.6,214.727],[0.7,216.297],[0.8,219.368],[0.9,221.805],[1.0,222.647],[1.1,222.757],]