name=Góra Jabłońska od Jabłonek
slope=3.8km 5.3%
points=135.8
region=35
description=Nawierzchnia: szosa, stan dobry. Ruch samochodowy: niewielki.
Historyczne miejsce- tu zginął gen. Karol Świerczewski
comments=
author=AdamW
segment=0
locations=[[1,49.26655155466308,22.287406864114473],[2,49.26496275191306,22.286921655461583],[3,49.26331482969638,22.28785781887518],[4,49.26160131324548,22.28846414813256],[5,49.2598671031147,22.28821383392176],[6,49.25819854018302,22.287338681140454],[7,49.2565392475144,22.28642268254157],[8,49.25487994760482,22.285506745528437],[9,49.25320146818338,22.28490596934148],[10,49.25150264294686,22.28559012302651],[11,49.25002381649853,22.28670045911167],[12,49.24842593526128,22.287609690654563],[13,49.2499602061571,22.287928907074956],[14,49.248663123759,22.28867254935051],[15,49.24698352990764,22.289030944048818],[16,49.24532285646899,22.289716858499673],[17,49.24426094884693,22.291768893027438],[18,49.24330463436487,22.294028422650626],]
podstawa=[[13,49.26,22.28559012302651],['start',49.2680300,22.2888000],['meta',49.2423500,22.2963000]]
daneflot=[[0.0,553.566],[0.2,560.910],[0.4,562.920],[0.6,569.328],[0.8,575.115],[1.0,582.726],[1.2,590.360],[1.4,595.177],[1.6,606.949],[1.8,616.840],[2.0,626.310],[2.2,636.661],[2.4,654.881],[2.6,657.493],[2.8,679.407],[3.0,693.212],[3.2,707.361],[3.4,727.874],[3.6,743.461],[3.8,754.814],]