name=Wichren  od Banska (Bułgaria)
slope=16.8km 6.3%
points=818.1
region=130
description=Nawierzchnia: szosa, stan dobry. Ruch samochodowy: średni.
Asfaltowa droga z bułgarskiego ośrodka narciarskiego Banska do schroniska Wichren. Droga jest dostępna dla ruchu samochodowego a dla wygodnych parking pod schroniskiem służy jako punkt wypadowy na najwyższy szczyt w całym paśmie Pirynu, Wichren 2917m n.p.m. Podjazd przypominał mi ten do Morskiego Oka, tylko że dłuższy i o większym przewyższeniu ale o podobnym nachyleniu i pięknej górskiej scenerii. Sam osobiście schodziłem nim z górskiej pieszej wycieczki ale spotkałem na trasie wielu rowerzystów.
comments=
author=Tmina
segment=0
locations=[[1,41.84186724766943,23.48634499235027],[2,41.84019547824987,23.48553315384231],[3,41.83855572023793,23.484611481241473],[4,41.83692956393158,23.483646720756724],[5,41.83530897870526,23.482665537909725],[6,41.83379596320982,23.48142568333003],[7,41.832245007654,23.4803316661596],[8,41.83052333573617,23.48091239160044],[9,41.82891981430982,23.480033112407227],[10,41.82732172108281,23.4789883659746],[11,41.82565587193582,23.478156350499262],[12,41.82399192135069,23.477327947526874],[13,41.82245229271088,23.476134866855205],[14,41.82092874095346,23.474906313835504],[15,41.81946621640812,23.473659595270647],[16,41.81773503242188,23.47321420178764],[17,41.81626487222678,23.472865127844557],[18,41.81497809595074,23.471783808988107],[19,41.81384925602871,23.47139057090817],[20,41.81223586547499,23.471330555707482],[21,41.81081251278489,23.47231078689208],[22,41.8095557072266,23.473439460260124],[23,41.80843910391003,23.474353584610185],[24,41.80716551583181,23.473192757800575],[25,41.80623658845518,23.47141701489386],[26,41.80457507653943,23.472067538267424],[27,41.80445405518178,23.470485945135124],[28,41.803026971981,23.470934682241023],[29,41.80357282005711,23.469546726507133],[30,41.80190222754349,23.470209673743398],[31,41.80062367424919,23.47022914614911],[32,41.799812550875,23.470001056535466],[33,41.79925554058646,23.46931815334119],[34,41.79848031136711,23.46867397364076],[35,41.7968415935532,23.468280094382294],[36,41.79544699214383,23.467029833847164],[37,41.79424443000931,23.465282607083168],[38,41.79280749391346,23.463934902688152],[39,41.79136344662192,23.462545460050592],[40,41.78979466458115,23.46160684558447],[41,41.78828200529965,23.461342917173056],[42,41.78887891202678,23.46083345204579],[43,41.78894290568994,23.460368936768532],[44,41.78782653971064,23.460130065211274],[45,41.78957278869562,23.459885771100744],[46,41.79123275010705,23.460017187166613],[47,41.7897561316272,23.458942258172556],[48,41.78799957371001,23.458619505435536],[49,41.78645078060634,23.457967165149057],[50,41.78565534105071,23.456098859323788],[51,41.78463245150197,23.454184540370534],[52,41.78364545442641,23.453168471304252],[53,41.78539332868405,23.45293470545107],[54,41.78509505705028,23.45151776663215],[55,41.78371187590557,23.450178752818488],[56,41.78264873942978,23.44831618256478],[57,41.78243633494334,23.44635162897316],[58,41.78347344751651,23.445736247539116],[59,41.78230288511018,23.444138892638875],[60,41.78081480380185,23.44283465510057],[61,41.77930179848121,23.441582519586518],[62,41.77787235128571,23.440177219926568],[63,41.77649790285467,23.43867720635035],[64,41.77532390731936,23.437125921816914],[65,41.7739126627235,23.43573399366801],[66,41.77321763933099,23.433689796321232],[67,41.77228259967555,23.431682006174242],[68,41.77104837827601,23.430036022682202],[69,41.76960067021209,23.428762610068134],[70,41.76809888543117,23.427775549436888],[71,41.76679867375306,23.426272123907665],[72,41.76695746495132,23.424653610848168],[73,41.76810192930647,23.42646717439561],[74,41.76759117833557,23.425019899748918],[75,41.76656839793846,23.423191899134167],[76,41.76509092052878,23.421883382908504],[77,41.76366353991079,23.4204704778532],[78,41.76464795849734,23.4204654148391],[79,41.76472327803954,23.419881487376983],[80,41.76353514885565,23.418393957632134],[81,41.76189419394902,23.417643633206353],[82,41.76030529107516,23.416591984276806],[83,41.75858727274972,23.416277272729076],]
podstawa=[[12,41.80,23.44],['start',41.8435300,23.4871900],['meta',41.7570600,23.4163100]]
daneflot=[[0.0,907.186],[0.2,915.093],[0.4,922.626],[0.6,928.783],[0.8,935.870],[1.0,944.737],[1.2,953.207],[1.4,961.421],[1.6,971.868],[1.8,980.600],[2.0,988.849],[2.2,998.378],[2.4,1011.177],[2.6,1022.191],[2.8,1034.643],[3.0,1050.917],[3.2,1067.553],[3.4,1080.040],[3.6,1094.470],[3.8,1106.185],[4.0,1121.349],[4.2,1144.361],[4.4,1160.791],[4.6,1180.580],[4.8,1197.055],[5.0,1218.212],[5.2,1238.917],[5.4,1266.943],[5.6,1283.810],[5.8,1298.829],[6.0,1313.389],[6.2,1331.027],[6.4,1349.592],[6.6,1370.113],[6.8,1390.475],[7.0,1403.346],[7.2,1420.414],[7.4,1439.439],[7.6,1457.878],[7.8,1475.999],[8.0,1490.562],[8.2,1497.394],[8.4,1513.263],[8.6,1530.922],[8.8,1541.586],[9.0,1558.097],[9.2,1559.867],[9.4,1570.838],[9.6,1584.682],[9.8,1602.250],[10.0,1616.844],[10.2,1630.875],[10.4,1649.056],[10.6,1652.981],[10.8,1659.168],[11.0,1679.050],[11.2,1694.568],[11.4,1690.536],[11.6,1687.888],[11.8,1696.563],[12.0,1705.984],[12.2,1721.827],[12.4,1722.848],[12.6,1732.561],[12.8,1737.449],[13.0,1753.766],[13.2,1764.143],[13.4,1775.795],[13.6,1783.644],[13.8,1791.082],[14.0,1800.416],[14.2,1804.724],[14.4,1821.727],[14.6,1822.086],[14.8,1831.534],[15.0,1848.204],[15.2,1857.685],[15.4,1871.080],[15.6,1884.454],[15.8,1901.163],[16.0,1925.671],[16.2,1938.310],[16.4,1954.949],[16.6,1962.945],[16.8,1969.445],]