name=Vrbatova Bouda  (Czechy)
slope=12.0km 6.2%
points=582
region=2
description=Nawierzchnia: szosa, stan średni. Ruch samochodowy: w zimie duży , w lecie minimalny.
Szeroka droga, którą legalnie  wspinamy się na blisko 1400 m n.p.m. Jedna z wyższych w Karkonoszach. Z dystansem robi się coraz ciężej. W końcówce kilka zygzaków. Ładne widoczki. Na górze pozostałości po „bunkrach”.
 Możemy sobie przedłużyć wycieczkę i dojechać asfaltem do Schroniska Łabska Bouda.  Jest też wersja na Szrenicę i dalej do Szklarskiej  (  obowiązuje zakaz jazdy rowerem choć droga jest całkowicie przejezdna ale na góralu bo konie łby po Polskiej stronie na zjeździe ze Szrenicy)
Kiedy w Horni Misecki odbijemy w prawo możemy dojechać wąskim asfaltem na szczyt Medvedin 1225  - jedzie tam wyciąg krzesełkowy ze Spindlerowego Mlyna.   Kiedy jeszcze niżej odbijemy w prawo bez problemu zjedziemy do Spindlerowego Mlyna trasą narciarską  - (oczywiście MTB). Możemy też zacząć też podjazd wcześniej, gdyż droga zaczyna się praktycznie pod górę jest od Dolni Stepanice.
comments=
author=gavia2621
segment=0
locations=[[1,50.6937917351966,15.530222685751141],[2,50.69537327193779,15.52893996713351],[3,50.69685657600741,15.527486979800415],[4,50.69863625556086,15.527799999999957],[5,50.70030187033293,15.528814480190476],[6,50.7020341053739,15.529497621188284],[7,50.70380459595895,15.529878246683552],[8,50.70546378512178,15.530980034822733],[9,50.70685925802544,15.532746952759567],[10,50.70845935220129,15.533916237788048],[11,50.71024014712076,15.534330512966335],[12,50.71185350346587,15.535445831454354],[13,50.71289393529234,15.537762963290334],[14,50.71381641661716,15.540192710435917],[15,50.71532702690201,15.54168243427057],[16,50.71658687219161,15.543609432253334],[17,50.71837413422357,15.543857067071258],[18,50.72011179025436,15.54421496422151],[19,50.72134665333724,15.545892690597839],[20,50.72294176199289,15.546081624807925],[21,50.72468967988089,15.545959353560647],[22,50.72637590586464,15.545774005421094],[23,50.7280961657804,15.546580875794348],[24,50.72978099607442,15.546274469750756],[25,50.7313661512417,15.545000767468537],[26,50.73233865267398,15.546247866329395],[27,50.73279243478482,15.546985020531906],[28,50.73394309141221,15.549112503342712],[29,50.73531851880521,15.55091534518749],[30,50.73606115001339,15.55339140971978],[31,50.73662435645156,15.556040450994715],[32,50.73666817325722,15.557515156647241],[33,50.73590112335739,15.559994202738835],[34,50.73480912477446,15.562229116410549],[35,50.73414754748642,15.564848552297576],[36,50.73434352079001,15.567653125267952],[37,50.73469365951765,15.570128220380866],[38,50.73616369875792,15.568540948762575],[39,50.73719087623834,15.566225911776087],[40,50.7382946002201,15.564080305592256],[41,50.73987789787939,15.562731960507676],[42,50.74012324958969,15.563077126598046],[43,50.73930012058926,15.565602831195747],[44,50.73887424694949,15.568343336743737],[45,50.73895986599846,15.568712869020601],[46,50.74020200449487,15.566686527057868],[47,50.74164169747319,15.564979130473262],[48,50.74200558334371,15.564952808520275],[49,50.7412082982454,15.567501005222312],[50,50.74144795516121,15.567509393201817],[51,50.74288091365108,15.56579536663753],[52,50.74440629188155,15.564315477912487],[53,50.74568470947553,15.562323054751914],[54,50.74677568913657,15.560069355080486],[55,50.74729726441984,15.55735383158003],[56,50.74773160182128,15.554599343900577],[57,50.74862523107848,15.55213378383462],[58,50.74959340578038,15.549737169992454],[59,50.75034184872138,15.547237037824061],]
podstawa=[[12,50.73,15.556040450994715],['start',50.6922700,15.5314100],['meta',50.7509500,15.5493500]]
daneflot=[[0.0,634.721],[0.2,635.098],[0.4,643.548],[0.6,652.590],[0.8,656.970],[1.0,668.167],[1.2,674.029],[1.4,667.629],[1.6,672.726],[1.8,683.274],[2.0,699.546],[2.2,697.980],[2.4,703.558],[2.6,724.545],[2.8,732.580],[3.0,742.340],[3.2,751.996],[3.4,767.306],[3.6,771.710],[3.8,774.153],[4.0,783.557],[4.2,800.007],[4.4,803.828],[4.6,806.724],[4.8,817.093],[5.0,833.966],[5.2,845.508],[5.4,856.761],[5.6,872.025],[5.8,889.304],[6.0,901.682],[6.2,923.095],[6.4,939.797],[6.6,960.409],[6.8,976.314],[7.0,992.292],[7.2,1002.554],[7.4,1023.496],[7.6,1042.520],[7.8,1061.772],[8.0,1073.632],[8.2,1094.076],[8.4,1106.733],[8.6,1122.212],[8.8,1137.698],[9.0,1144.872],[9.2,1165.131],[9.4,1184.890],[9.6,1195.956],[9.8,1210.307],[10.0,1217.872],[10.2,1234.846],[10.4,1254.366],[10.6,1270.886],[10.8,1290.737],[11.0,1304.963],[11.2,1319.055],[11.4,1336.827],[11.6,1353.664],[11.8,1364.596],[12.0,1383.936],]