name=Tania Góra z Ropy
slope=3.2km 7.2%
points=189.7
region=34
description=Nawierzchnia: szosa, stan dobry. Ruch samochodowy: mały.
Podjazd stosunkowo długi z widokiem na Wawrzkę.  Parę ostrzejszych fragmentów. Dzięki dobremu stanowi nawierzchni można pokonać go bardzo płynnie
comments=
author=Kuba
segment=0
locations=[[1,49.58000189418267,21.046262755491398],[2,49.57837508545601,21.047067966189957],[3,49.57659965236077,21.047581664056224],[4,49.57482761700449,21.04802782774641],[5,49.57305078464577,21.04743796460548],[6,49.57133632082983,21.046627279931613],[7,49.56954842619613,21.04647004683943],[8,49.56784700089671,21.045523022348448],[9,49.56640998359475,21.043911340022078],[10,49.56549755013332,21.041521900107227],[11,49.56428335430221,21.03972510240021],[12,49.56264981521601,21.040743483408733],[13,49.56164833887987,21.04308119696907],[14,49.56082453767325,21.045532064186204],[15,49.56017664795338,21.048020697950506],]
podstawa=[[13,49.57,21.043911340022078],['start',49.5813600,21.0444000],['meta',49.5587300,21.0496700]]
daneflot=[[0.0,344.104],[0.2,350.960],[0.4,361.839],[0.6,379.981],[0.8,390.710],[1.0,406.073],[1.2,423.616],[1.4,436.322],[1.6,447.734],[1.8,479.964],[2.0,490.267],[2.2,503.317],[2.4,510.485],[2.6,524.783],[2.8,542.758],[3.0,558.007],[3.2,572.887],]