name=Sarnia Góra od zachodu
slope=2.0km 3.4%
points=37.5
region=76
description=Nawierzchnia: szosa, stan dobry. Ruch samochodowy: średni.
Podjazd na drodze wojewódzkiej, dobry asfalt.
comments=
author=Gabrych
segment=0
locations=[[1,53.24468779317345,19.668329354942216],[2,53.24469668575518,19.669835260307195],[3,53.24446271405631,19.671300277075034],[4,53.24420238317868,19.672754325449205],[5,53.24394203460963,19.674208356131658],[6,53.2436820527029,19.675662559134707],[7,53.24344023473702,19.67712494618968],[8,53.24321786727602,19.678587880742043],[9,53.2429126051594,19.68001629020239],[10,53.24263024297166,19.68145875880748],[11,53.24237667793204,19.682916056888757],[12,53.24205650503487,19.684335887259635],[13,53.2417325343544,19.68575359654824],[14,53.2417166708031,19.687252267902522],[15,53.24200333383243,19.688691706314103],[16,53.24229398287177,19.690129550419556],[17,53.24258666180323,19.691566254149052],[18,53.24287932346206,19.693002977528977],[19,53.24316516167009,19.694443461289666],]
podstawa=[[14,53.24237667793204,19.682916056888757],['start',53.2443900,19.6669000],['meta',53.2434400,19.6958900]]
daneflot=[[0.0,97.290],[0.1,101.392],[0.2,107.910],[0.3,110.698],[0.4,112.005],[0.5,112.492],[0.6,114.804],[0.7,116.198],[0.8,115.188],[0.9,117.566],[1.0,124.969],[1.1,133.251],[1.2,141.483],[1.3,143.243],[1.4,144.573],[1.5,144.862],[1.6,146.011],[1.7,152.187],[1.8,156.724],[1.9,162.206],[2.0,164.895],]