name=Klinovec  od Klosterca przez Sarni (Czechy)
slope=18.8km 4.5%
points=633.1
region=96
description=Nawierzchnia: szosa, stan dobry. Ruch samochodowy: mały.
Z głównej drogi jadąc w kierunku Karlovych Varów w pobliżu miejscowości Perstejn skręcamy w prawo (droga rowerowa 3005). Początek kilka serpentyn ,niespecjalnie stromo. Mijamy miejscowość Srni dalej w górę potem numerem 3002. Wjeżdżamy na drogę nr 36 i w lewo. Po prawej stronie ładne widoki na niemiecki Kurort Oberwisental.
Żeby dojechać na szczyt Klinovca musimy zjechać z głównej drogi w lewo .O ile pamietam (a jechałem tam w 2013) to sama końcówka  ( jakieś 500m ) to jest szuter, ale spokojnie przejezdny na kolarce.
( możliwy skrót, ale bardziej  na mtb - w pobliżu szczytu Meluzina Dobice na wąski asfalt w lewo)
comments=
author=gavia 2621
segment=0
locations=[[1,50.37270870449574,13.086250600687208],[2,50.37233238119894,13.084193143775678],[3,50.37327891103567,13.081810180914317],[4,50.37413529647381,13.079422529364479],[5,50.3739804261435,13.076656784136162],[6,50.37345601786079,13.073964734115293],[7,50.37345500554979,13.071162628875982],[8,50.37395574573107,13.070219843805148],[9,50.37419147479963,13.072950939461066],[10,50.37524141191989,13.075052030923416],[11,50.37588770044295,13.074031785971897],[12,50.3754342828114,13.07145193956137],[13,50.37571136049562,13.068716793157591],[14,50.37583157122431,13.065996284408811],[15,50.37564853719824,13.06323305146634],[16,50.37591192306417,13.060445392014117],[17,50.37487708066777,13.05987614699302],[18,50.37330045771582,13.060840753728712],[19,50.3730586908412,13.060055060988702],[20,50.37443490623568,13.058314573797247],[21,50.37582041330781,13.056574824755785],[22,50.37751654452047,13.057263039984036],[23,50.37677227492416,13.055082853071553],[24,50.37534553580381,13.054253494403838],[25,50.37494057776905,13.053692001738796],[26,50.37608097654021,13.051586168922995],[27,50.37480298213443,13.050629437602197],[28,50.37422141659206,13.047996311853922],[29,50.37529120896553,13.046045179321482],[30,50.37657008627632,13.04414848084275],[31,50.37714504869231,13.041486179726348],[32,50.37757599994377,13.0388040309399],[33,50.37811210022854,13.036139408442295],[34,50.37742103488528,13.033727610099618],[35,50.37617011789601,13.031721529002198],[36,50.37462723621504,13.030293105580313],[37,50.37365565161871,13.027934477673966],[38,50.37260957619774,13.02565469742035],[39,50.37200038332546,13.023075809321767],[40,50.3722999454367,13.020520321362596],[41,50.37403099976022,13.020629893238379],[42,50.37556052949111,13.019444949584795],[43,50.3772822564133,13.018710607371645],[44,50.37885999093913,13.01749280719082],[45,50.3800362912245,13.01574082964953],[46,50.37976021204912,13.013022850314314],[47,50.37868746343064,13.010758700010115],[48,50.37798282642347,13.009243043473361],[49,50.37966284631469,13.010186080276867],[50,50.38131504983479,13.01128329734513],[51,50.3828841315288,13.012577573391695],[52,50.38434630431333,13.01421783566991],[53,50.38538954535681,13.01649893825845],[54,50.38642583641438,13.018748475378743],[55,50.38811194850788,13.01847812052722],[56,50.38928258389901,13.016334425292825],[57,50.390430736544,13.014161246111826],[58,50.39158759876895,13.011999130128856],[59,50.39273321741332,13.009822319130876],[60,50.39386426956441,13.00762680704429],[61,50.39502515273663,13.005470316477272],[62,50.39634621820696,13.003701947561694],[63,50.39807321799757,13.002908361350933],[64,50.39968192967858,13.001737801363674],[65,50.40086012327171,12.999632315229292],[66,50.40215136713231,12.99777315960489],[67,50.40376851386038,12.996550674125501],[68,50.40418635731825,12.994056466053848],[69,50.40395838180174,12.991255783546421],[70,50.40312404472747,12.988802762410046],[71,50.40312160710346,12.986107034138058],[72,50.40377757639899,12.983542016886531],[73,50.40338677574847,12.980842991609961],[74,50.40251993774461,12.978368764021297],[75,50.40175156500012,12.975859092391829],[76,50.40227514555916,12.973189430386128],[77,50.40324461543624,12.970863423648325],[78,50.40450971914267,12.968863757555027],[79,50.40562932063109,12.966702276367414],[80,50.40588659714341,12.96399603332793],[81,50.40461082512137,12.962039389189385],[82,50.40331393580177,12.960112752713144],[83,50.40309608797602,12.957377488549355],[84,50.40344285786791,12.954611432804768],[85,50.40332280667395,12.9518235134733],[86,50.4021476761177,12.951837783930273],[87,50.40144291254506,12.95443414744534],[88,50.40089436214582,12.957119369324573],[89,50.40041835867997,12.959841459227846],[90,50.39942952955145,12.962133504521034],[91,50.39787136648245,12.96345343268888],[92,50.396246963666,12.964596121400518],[93,50.39484294074657,12.966344934259268],]
podstawa=[[12,50.37798282642347,13.009243043473361],['start',50.3725100,13.0889300],['meta',50.3956500,12.9677100]]
daneflot=[[0.0,402.770],[0.2,404.504],[0.4,421.693],[0.6,447.755],[0.8,470.712],[1.0,486.326],[1.2,501.314],[1.4,516.138],[1.6,524.277],[1.8,521.177],[2.0,533.216],[2.2,555.781],[2.4,563.586],[2.6,573.767],[2.8,587.672],[3.0,598.813],[3.2,612.512],[3.4,619.188],[3.6,625.877],[3.8,638.981],[4.0,657.954],[4.2,664.912],[4.4,672.775],[4.6,689.879],[4.8,703.668],[5.0,716.514],[5.2,734.386],[5.4,750.847],[5.6,765.522],[5.8,763.277],[6.0,773.768],[6.2,790.415],[6.4,803.256],[6.6,817.030],[6.8,814.344],[7.0,818.404],[7.2,811.333],[7.4,823.312],[7.6,835.625],[7.8,849.204],[8.0,849.799],[8.2,871.166],[8.4,882.081],[8.6,895.064],[8.8,907.090],[9.0,916.853],[9.2,928.952],[9.4,944.625],[9.6,957.353],[9.8,961.636],[10.0,967.495],[10.2,980.897],[10.4,990.524],[10.6,1001.252],[10.8,1010.205],[11.0,1019.017],[11.2,1027.728],[11.4,1036.619],[11.6,1042.882],[11.8,1041.586],[12.0,1032.311],[12.2,1021.687],[12.4,1021.976],[12.6,1026.898],[12.8,1027.339],[13.0,1023.586],[13.2,1023.154],[13.4,1024.531],[13.6,1019.339],[13.8,1010.166],[14.0,1002.406],[14.2,991.752],[14.4,998.573],[14.6,1010.511],[14.8,1024.291],[15.0,1043.130],[15.2,1052.621],[15.4,1065.657],[15.6,1081.911],[15.8,1089.449],[16.0,1095.753],[16.2,1111.433],[16.4,1131.509],[16.6,1145.744],[16.8,1157.068],[17.0,1170.574],[17.2,1176.209],[17.4,1177.611],[17.6,1176.133],[17.8,1178.140],[18.0,1192.026],[18.2,1202.261],[18.4,1212.921],[18.6,1227.705],[18.8,1238.901],]