name=Černá hora  z Cernego Dolu (Czechy)
slope=13.8km 5.8%
points=704.5
region=2
description=Nawierzchnia: szosa, stan dobry. Ruch samochodowy: minimalny.
Koncówka bardzo treściwa, ale bez porównania z podjazdem pod Modre Sedlo od Peca pod Snieżką jeśli chodzi o trudność wjechania bez postoju. Górna stacja kolejki gondolowej z Janskich Łaźni.  Przedłużając trasę dojedziemy  górą do Peca pod Snieżką. Asfalt zamienia się w szuter, ale przejezdny na kolarce. Sam zjazd do Peca asfaltowy.
comments=
author=gavia2621
segment=0
locations=[[1,50.60959653179358,15.706539183732275],[2,50.61137588637774,15.706857943053024],[3,50.61316609805267,15.70702670738774],[4,50.61495806504921,15.707149687909123],[5,50.61668568125365,15.707875681090627],[6,50.61830153938224,15.708998730645817],[7,50.61993478508489,15.71009038832699],[8,50.62168550723414,15.710611555700098],[9,50.62335507797767,15.711590011954968],[10,50.62494400554966,15.71284611452711],[11,50.62667786802569,15.713253192455909],[12,50.62835145447332,15.712331643379343],[13,50.6301449432024,15.712279999999964],[14,50.63188691183053,15.711693787027798],[15,50.63365056464613,15.711170403192682],[16,50.63523514520731,15.71067353839544],[17,50.63694462719319,15.71153264397958],[18,50.63623236622944,15.71299823677748],[19,50.6352731828047,15.71534661742271],[20,50.63475995608755,15.718053134664387],[21,50.63445663374053,15.720569999999952],[22,50.63319883316048,15.720667502916854],[23,50.63264528536329,15.723323272920197],[24,50.63330336601638,15.725951937009313],[25,50.63400809198213,15.728558950328988],[26,50.6351955904622,15.730624815087936],[27,50.63652000003887,15.73223585250446],[28,50.63530192143018,15.734126550075871],[29,50.63515022542772,15.73694384904843],[30,50.63490119680004,15.739745865261739],[31,50.6344997107373,15.742507686460726],[32,50.63410139820789,15.7452702028678],[33,50.63383838276437,15.748072916733577],[34,50.63346543658401,15.750840208852082],[35,50.63283871678234,15.7534909446872],[36,50.63237000060352,15.75620603165919],[37,50.63289725829975,15.75862622810348],[38,50.63369334298117,15.761145208618359],[39,50.63389482800083,15.763951093662854],[40,50.6342892060169,15.766715543030955],[41,50.6346826329526,15.769474951450775],[42,50.63508270198525,15.767495642834774],[43,50.63511687726704,15.764662166960761],[44,50.63518769352216,15.76183156571119],[45,50.63533819589529,15.75900758975422],[46,50.63564739854352,15.756229669771983],[47,50.63627349172562,15.753573139516675],[48,50.63676687431231,15.750850476119581],[49,50.63737399414507,15.74818378485611],[50,50.63814066247802,15.745620910045318],[51,50.63903150437843,15.7431693164757],[52,50.64018049655783,15.741042680079318],[53,50.64175179045102,15.739684358082968],[54,50.64102185072702,15.741726374553537],[55,50.64055791174378,15.744419261827943],[56,50.64059694035304,15.747240781570213],[57,50.64091377623624,15.750030489031815],[58,50.64140283446598,15.75274907544781],[59,50.64193071460216,15.755448599216948],[60,50.64285678736394,15.757866584713952],[61,50.64367971879731,15.76038600912193],[62,50.64466921349986,15.762393370797781],[63,50.6448070505068,15.759591498736881],[64,50.64528974318942,15.756862812383133],[65,50.64558468911828,15.754069569883313],[66,50.64619079886947,15.751426938107784],[67,50.64760640477709,15.749756188823653],[68,50.64924958893147,15.748864349757355],]
podstawa=[[13,50.63283871678234,15.73],['start',50.6078400,15.7060100],['meta',50.6508900,15.7485500]]
daneflot=[[0.0,478.600],[0.2,481.745],[0.4,488.015],[0.6,493.042],[0.8,498.193],[1.0,513.736],[1.2,515.688],[1.4,517.235],[1.6,526.533],[1.8,536.994],[2.0,550.157],[2.2,549.388],[2.4,568.909],[2.6,569.647],[2.8,574.402],[3.0,584.684],[3.2,595.267],[3.4,608.370],[3.6,607.896],[3.8,617.480],[4.0,634.910],[4.2,656.055],[4.4,659.528],[4.6,662.809],[4.8,674.256],[5.0,683.860],[5.2,701.646],[5.4,727.297],[5.6,725.438],[5.8,740.968],[6.0,741.027],[6.2,754.735],[6.4,764.220],[6.6,776.403],[6.8,787.120],[7.0,792.812],[7.2,793.364],[7.4,793.603],[7.6,793.962],[7.8,790.393],[8.0,783.260],[8.2,787.723],[8.4,799.759],[8.6,816.648],[8.8,828.125],[9.0,840.727],[9.2,850.273],[9.4,865.341],[9.6,873.705],[9.8,885.365],[10.0,902.846],[10.2,919.741],[10.4,934.509],[10.6,945.534],[10.8,967.577],[11.0,984.519],[11.2,1001.438],[11.4,1012.935],[11.6,1029.992],[11.8,1053.382],[12.0,1073.970],[12.2,1092.430],[12.4,1108.348],[12.6,1136.032],[12.8,1167.022],[13.0,1197.359],[13.2,1223.811],[13.4,1246.719],[13.6,1267.528],[13.8,1280.132],]