name=Góra Św.Klemensa
slope=0.7km 4.3%
points=18.5
region=59
description=Nawierzchnia: szosa. Ruch samochodowy: minimalny.
Podjazd pod kościół na górze św.Klemensa
comments=
author=allorc
segment=0
locations=[[1,50.1267952288518,19.104531559201746],[2,50.12587114401891,19.104006191098392],[3,50.12489335391906,19.103867250614485],[4,50.12392465232114,19.103603552674826],[5,50.12295760425416,19.103324414428243],[6,50.12197914815896,19.103180000000066],]
podstawa=[[15,50.12392465232114,19.103603552674826],['start',50.1270800,19.1058500],['meta',50.1210000,19.1030700]]
daneflot=[[0.0,266.059],[0.1,266.577],[0.2,268.889],[0.3,271.976],[0.4,276.861],[0.5,282.911],[0.6,289.242],[0.7,297.570],]