name=Pico de Las Nieves  z Playa del Inglés (Hiszpania)
slope=43.8km 4.3%
points=1576.5
region=135
description=Nawierzchnia: szosa, stan bardzo dobry. Ruch samochodowy: średni.
Podjazd, który rozpoczynamy z mieszkalnej dzielnicy Playa del Inglés, posiada imponującą długość i fantastyczną różnicę wysokości, uwzględniając, że startujemy praktycznie z poziomu oceanu, a kończymy na górze o śnieżnej nazwie przy obserwatorium astronomicznym, na południowej półce platformy widokowej, skąd widać Teneryfę z Pico del Teide. Droga o egzotycznym otoczeniu prowadzi po trawersach z przepaściami, jest też fragment zjazdu, a na górze wita nas chłód. Wjazd nie jest specjalnie skomplikowany, ale długość ma niebagatelny wpływ na zapasy energii, które mogą wyczerpać się znienacka. Zjazdy są dość karkołomne, ponieważ skały ograniczają  nam pole widzenia, a z przeciwnej strony mamy urwiska, z którymi należy się oswoić. Samochody zjeżdżają tu dość ostrożnie i nawet nie wyprzedzają cyklistów, ponieważ szybkość na dół jest wyjątkowo dynamiczna, a kierowcy autobusów używają klaksonów przed wyjazdem z przesłoniętego zakrętu. W tutejszych wypożyczalniach oferują markowe rowery, także należy przywieźć tylko spodenki i ewentualnie buty z pedałami.
comments=
author=airstreeem20
segment=0
locations=[[1,27.76459504731529,-15.57866179144878],[2,27.76640764496912,-15.578729562656463],[3,27.76821791075935,-15.578592291347832],[4,27.76958962531353,-15.579851374327745],[5,27.77094918838405,-15.581201671102122],[6,27.772496528861,-15.582272400105808],[7,27.77420395349622,-15.58277858843951],[8,27.77591259283512,-15.582949397888115],[9,27.77764715287872,-15.582811932837558],[10,27.77938386699712,-15.58331825787468],[11,27.78116240806434,-15.582912960970816],[12,27.78293700183004,-15.58248608640065],[13,27.78464781653055,-15.581852730939318],[14,27.7862718184304,-15.5809383290715],[15,27.78789581431151,-15.580023899889284],[16,27.78965023291629,-15.579688708723552],[17,27.79133356933551,-15.580251514449856],[18,27.79282969003449,-15.581015731313073],[19,27.79426421325058,-15.581549371278925],[20,27.79601329238441,-15.581892021426142],[21,27.79756807421397,-15.582894563794298],[22,27.79900501445373,-15.582200504633079],[23,27.80006448262893,-15.582352235552094],[24,27.80086611791583,-15.583639381194644],[25,27.80263993179829,-15.583635700931154],[26,27.8044392471028,-15.583441280167335],[27,27.8062124238742,-15.583092411151824],[28,27.80767663807623,-15.582343066976819],[29,27.80936967847108,-15.583080479516184],[30,27.81104025135042,-15.582996969905821],[31,27.812381463374,-15.581859490420243],[32,27.81419478216392,-15.581790803940294],[33,27.8145584355342,-15.58009216759126],[34,27.81620594978947,-15.579411616507741],[35,27.81800424130011,-15.579439602863204],[36,27.81785140506377,-15.577877285085947],[37,27.81928208681134,-15.578511243918342],[38,27.8205366321959,-15.577743181928554],[39,27.82212944295115,-15.577102601931529],[40,27.8237107746485,-15.576199920996942],[41,27.82424467961464,-15.576322717346784],[42,27.82584165050116,-15.57550679755741],[43,27.82739960782197,-15.574916818071642],[44,27.82904272000698,-15.574215485307832],[45,27.83074068369111,-15.573515547082707],[46,27.83248855276547,-15.572965723677498],[47,27.83414048665746,-15.57242155541553],[48,27.83554836687598,-15.571548650851582],[49,27.83708015056111,-15.571370495629253],[50,27.8386999979707,-15.57076672234507],[51,27.8404736620206,-15.570687037664015],[52,27.84191248388717,-15.569546861909885],[53,27.84343746676665,-15.568482271341281],[54,27.84508690383235,-15.567627721214194],[55,27.84670823639693,-15.566707810546063],[56,27.84832484025447,-15.56577678309111],[57,27.8499936168125,-15.565102386420449],[58,27.85178423035615,-15.565433134275281],[59,27.85358086762882,-15.565711905492094],[60,27.85538636257861,-15.565914245044269],[61,27.85717087964406,-15.56578542316197],[62,27.85894058742557,-15.56537165049258],[63,27.86066453994726,-15.565664367498584],[64,27.86212025903496,-15.566765703181773],[65,27.86384812492757,-15.56622980254474],[66,27.86496250700144,-15.564819267899225],[67,27.8665907727153,-15.564801335016],[68,27.86839796918169,-15.564727276190638],[69,27.87016322448579,-15.565115236534893],[70,27.87172536438522,-15.564471073060076],[71,27.87282990147103,-15.564318859779291],[72,27.87425209247007,-15.565593301059721],[73,27.87588595593407,-15.566219078121321],[74,27.8777000011638,-15.566182659459741],[75,27.87951061561517,-15.566085952090589],[76,27.88103263555516,-15.565253987257506],[77,27.88278298662888,-15.564889019659404],[78,27.88456239105953,-15.565022572976318],[79,27.88577604507392,-15.56352599843865],[80,27.88742574731295,-15.563884252759294],[81,27.88885714506063,-15.563215570381658],[82,27.8901933385699,-15.562625561369032],[83,27.89174229274491,-15.563149943747021],[84,27.89340558532025,-15.563035669404712],[85,27.89515840382029,-15.563104973130521],[86,27.89681494594112,-15.562824858898466],[87,27.89857341691651,-15.563318496673674],[88,27.90005279968969,-15.564345770330874],[89,27.90088149750557,-15.565843278002376],[90,27.90121314909732,-15.565560957845946],[91,27.90257000003835,-15.566602195578753],[92,27.90185263978489,-15.568093489726152],[93,27.90081464915396,-15.568680041552398],[94,27.89939371474885,-15.569180060531494],[95,27.9011894622868,-15.569194196851754],[96,27.90286811046866,-15.569042080369172],[97,27.90424905002087,-15.567946929225059],[98,27.90561684544882,-15.566971287571732],[99,27.90592465794279,-15.567428954037041],[100,27.90528176572943,-15.56926712005884],[101,27.90679818437073,-15.56989311352379],[102,27.9083137886588,-15.56931878006742],[103,27.91005252631284,-15.569874018687528],[104,27.91117894939891,-15.57136282366605],[105,27.91259281266487,-15.572640128697458],[106,27.9139781355791,-15.57396545669451],[107,27.91551831427666,-15.574728975692324],[108,27.91621638112817,-15.57352388257982],[109,27.91781155866171,-15.572763052546179],[110,27.91946165087202,-15.572808658967801],[111,27.92124799708476,-15.57302211893159],[112,27.92294062579333,-15.573499947585788],[113,27.92469469331885,-15.573268635624572],[114,27.92544951174812,-15.574499475852122],[115,27.92549983487505,-15.57654680736232],[116,27.92548071854073,-15.578505597043204],[117,27.92610204288427,-15.578020322469001],[118,27.92712033329381,-15.576627704011912],[119,27.92890691889293,-15.576273759776996],[120,27.93071761590546,-15.57614376097547],[121,27.93224618908766,-15.575388359526414],[122,27.93345120745742,-15.575193791986749],[123,27.93288196127287,-15.576659760101165],[124,27.93466293904994,-15.576267775024121],[125,27.93615763984316,-15.577297353874314],[126,27.93701440452832,-15.578983469064951],[127,27.93748322053147,-15.580967393095875],[128,27.9378022667248,-15.58298783186956],[129,27.93731858581564,-15.584954524197201],[130,27.93668767311904,-15.586872704546067],[131,27.93632194448492,-15.588570381739714],[132,27.93741082767832,-15.590111198835189],[133,27.9390199299569,-15.591059993414774],[134,27.9383391702773,-15.591967984571511],[135,27.93652577043393,-15.592029480104202],[136,27.93535261647605,-15.593221226713695],[137,27.93448350763268,-15.594430463107187],[138,27.93349720574026,-15.595870224899045],[139,27.93202656916856,-15.596651920127897],[140,27.93045932331418,-15.597477241251227],[141,27.9304097672847,-15.598509941616157],[142,27.93179126942598,-15.59974374355204],[143,27.93336555670106,-15.600491111035808],[144,27.93489705627989,-15.601395669237831],[145,27.93543293570366,-15.603357678253474],[146,27.93605698210854,-15.605112949147724],[147,27.93639065246913,-15.606966788640307],[148,27.93771582346439,-15.608077061805716],[149,27.93880684173383,-15.609443148714718],[150,27.93829566938817,-15.610766786685303],[151,27.93809413427462,-15.61278624255715],[152,27.93872410357366,-15.614635041513338],[153,27.94039058508433,-15.614938439710158],[154,27.94204351575241,-15.615476449308062],[155,27.94370639338048,-15.61483954168716],[156,27.94521087897407,-15.613708904996201],[157,27.94642876035265,-15.612186550104752],[158,27.94798355160583,-15.613188963473817],[159,27.94951364346821,-15.613338193384152],[160,27.9508627170686,-15.611964811502162],[161,27.95150583581948,-15.61017970670207],[162,27.95178723142323,-15.608278566333638],[163,27.95313368741183,-15.607112720412033],[164,27.95446553922359,-15.60844052882851],[165,27.95606764918827,-15.609404517107578],[166,27.95758607260208,-15.608420557078489],[167,27.95842072397238,-15.6074090185042],[168,27.95845435174975,-15.606661365806872],[169,27.9569540407648,-15.605826599272746],[170,27.95749138934755,-15.605276420302744],[171,27.95927378974343,-15.605388505751762],[172,27.96096411254105,-15.604711248489934],[173,27.96253274685075,-15.604505688405311],[174,27.96416403998906,-15.605095742110507],[175,27.96475064274798,-15.606464161580789],[176,27.96505311628421,-15.607158826933755],[177,27.96608329827459,-15.605480491560684],[178,27.96572247176305,-15.60351097706382],[179,27.96445147799062,-15.602683633864672],[180,27.96560624174389,-15.601503774385947],[181,27.96534897197933,-15.599582395672996],[182,27.96577193703614,-15.597779658892478],[183,27.96439998073404,-15.597873995177906],[184,27.96286371253774,-15.597653843884245],[185,27.96112170454995,-15.598216655873784],[186,27.96027320914176,-15.596943174660282],[187,27.95964204897717,-15.595102729653263],[188,27.95870183504936,-15.593450758256267],[189,27.95859648189871,-15.591505282360458],[190,27.95973652259036,-15.590035869359212],[191,27.96138643313646,-15.589479507666852],[192,27.9631722777626,-15.5892989292106],[193,27.96463412586732,-15.588138499474553],[194,27.96526426914023,-15.586219616646645],[195,27.96582484263838,-15.584265918226265],[196,27.96684646850274,-15.582605633190838],[197,27.96755557533967,-15.583522792596455],[198,27.96916645246965,-15.584356773366949],[199,27.97096272782829,-15.58432525311764],[200,27.97276946840235,-15.584137472096586],[201,27.97454989505716,-15.583754620318132],[202,27.97571003682562,-15.582194724875762],[203,27.97687111874011,-15.580616440307608],[204,27.97643291739938,-15.578905470037625],[205,27.97477389356735,-15.578115014108562],[206,27.9738104953379,-15.578669665010466],[207,27.9738232641153,-15.576805279948871],[208,27.97327115218283,-15.574866323780839],[209,27.97225399745965,-15.573349325245772],[210,27.97075218864805,-15.572256908397208],[211,27.97018251102088,-15.57040339822504],[212,27.96936949242969,-15.568705556298369],[213,27.9685981675093,-15.56696331895887],[214,27.96808518562258,-15.565261470674159],[215,27.96656384829522,-15.565464559292082],[216,27.96500041276899,-15.566443435869019],[217,27.96413811448091,-15.567928919079236],[218,27.9634254274148,-15.569714981498805],]
podstawa=[[11,27.88,-15.50],['start',27.7640900,-15.5791200],['meta',27.9637300,-15.5717400]]
daneflot=[[0.0,56.559],[0.2,57.566],[0.4,63.667],[0.6,67.188],[0.8,72.002],[1.0,78.018],[1.2,85.286],[1.4,98.583],[1.6,104.670],[1.8,110.957],[2.0,122.225],[2.2,136.016],[2.4,147.355],[2.6,150.897],[2.8,157.381],[3.0,162.162],[3.2,176.750],[3.4,196.921],[3.6,209.275],[3.8,214.964],[4.0,232.283],[4.2,251.265],[4.4,270.693],[4.6,290.795],[4.8,308.553],[5.0,328.078],[5.2,347.389],[5.4,359.966],[5.6,376.076],[5.8,386.290],[6.0,400.803],[6.2,410.036],[6.4,418.369],[6.6,425.905],[6.8,436.259],[7.0,444.673],[7.2,458.427],[7.4,468.568],[7.6,461.291],[7.8,448.01],[8.0,431.209],[8.2,410.391],[8.4,397.893],[8.6,386.424],[8.8,394.157],[9.0,405.704],[9.2,413.256],[9.4,419.873],[9.6,423.486],[9.8,421.09],[10.0,408.288],[10.2,392.730],[10.4,380.19],[10.6,363.711],[10.8,351.617],[11.0,348.073],[11.2,341.552],[11.4,339.604],[11.6,343.319],[11.8,354.058],[12.0,370.588],[12.2,389.971],[12.4,401.887],[12.6,415.598],[12.8,436.218],[13.0,445.744],[13.2,452.171],[13.4,460.424],[13.6,466.764],[13.8,471.509],[14.0,478.417],[14.2,488.268],[14.4,503.775],[14.6,514.826],[14.8,526.257],[15.0,545.365],[15.2,561.174],[15.4,576.839],[15.6,586.672],[15.8,594.566],[16.0,606.278],[16.2,626.306],[16.4,640.028],[16.6,649.975],[16.8,663.154],[17.0,675.236],[17.2,695.299],[17.4,715.448],[17.6,730.455],[17.8,747.577],[18.0,763.321],[18.2,781.703],[18.4,797.708],[18.6,811.11],[18.8,823.773],[19.0,835.63],[19.2,854.794],[19.4,869.728],[19.6,879.553],[19.8,893.344],[20.0,906.928],[20.2,914.234],[20.4,917.702],[20.6,912.171],[20.8,920.128],[21.0,923.063],[21.2,930.024],[21.4,936.778],[21.6,932.34],[21.8,922.459],[22.0,917.196],[22.2,886.957],[22.4,880.752],[22.6,885.125],[22.8,891.973],[23.0,896.574],[23.2,902.474],[23.4,915.452],[23.6,933.569],[23.8,946.814],[24.0,963.020],[24.2,975.231],[24.4,994.496],[24.6,1015.611],[24.8,1028.371],[25.0,1040.446],[25.2,1053.702],[25.4,1063.698],[25.6,1076.273],[25.8,1085.760],[26.0,1102.566],[26.2,1117.823],[26.4,1119.99],[26.6,1135.731],[26.8,1152.145],[27.0,1165.654],[27.2,1183.304],[27.4,1196.946],[27.6,1206.335],[27.8,1222.650],[28.0,1243.138],[28.2,1238.281],[28.4,1227.491],[28.6,1217.275],[28.8,1214.059],[29.0,1206.362],[29.2,1194.91],[29.4,1196.472],[29.6,1199.885],[29.8,1201.139],[30.0,1212.967],[30.2,1217.931],[30.4,1223.717],[30.6,1233.623],[30.8,1243.465],[31.0,1251.623],[31.2,1257.324],[31.4,1257.831],[31.6,1259.468],[31.8,1262.213],[32.0,1268.347],[32.2,1276.241],[32.4,1279.427],[32.6,1282.785],[32.8,1288.613],[33.0,1297.956],[33.2,1305.574],[33.4,1321.834],[33.6,1341.854],[33.8,1363.402],[34.0,1383.167],[34.2,1405.274],[34.4,1423.608],[34.6,1438.97],[34.8,1453.462],[35.0,1464.611],[35.2,1486.570],[35.4,1509.136],[35.6,1530.654],[35.8,1557.25],[36.0,1575.884],[36.2,1590.971],[36.4,1606.324],[36.6,1609.830],[36.8,1609.623],[37.0,1616.827],[37.2,1625.95],[37.4,1632.046],[37.6,1641.247],[37.8,1642.006],[38.0,1636.165],[38.2,1634.724],[38.4,1629.942],[38.6,1633.385],[38.8,1646.580],[39.0,1656.227],[39.2,1666.578],[39.4,1676.904],[39.6,1685.775],[39.8,1683.365],[40.0,1683.516],[40.2,1686.009],[40.4,1698.676],[40.6,1715.574],[40.8,1723.004],[41.0,1740.137],[41.2,1757.396],[41.4,1773.714],[41.6,1777.372],[41.8,1775.419],[42.0,1788.094],[42.2,1802.865],[42.4,1822.995],[42.6,1844.503],[42.8,1856.522],[43.0,1872.011],[43.2,1884.517],[43.4,1899.443],[43.6,1916.460],[43.8,1935.839],]