name=Borowa Góra od Borowej
slope=1.2km 3.2%
points=16.4
region=79
description=Nawierzchnia: szosa, stan średni. Ruch samochodowy: mały.
Dość łatwy. Słaby asfalt przy zjeździe na Bukową
comments=
author=radoskan
segment=0
locations=[[1,51.32817945889358,19.494212924641943],[2,51.32786708106295,19.492793002576832],[3,51.32755468606556,19.491373099857128],[4,51.32723951429872,19.48995478059237],[5,51.3269238647899,19.488536741908092],[6,51.3264746690925,19.487233336336203],[7,51.32558815337904,19.486822775967767],[8,51.3246578962157,19.486599767215353],[9,51.32372853259674,19.4863675982715],[10,51.32279920822278,19.48613510721998],[11,51.32189684977769,19.48578786491896],]
podstawa=[[14,51.32558815337904,19.486822775967767],['start',51.3281100,19.4953700],['meta',51.3211700,19.4848400]]
daneflot=[[0.0,210.022],[0.1,210.960],[0.2,211.938],[0.3,214.568],[0.4,217.406],[0.5,220.582],[0.6,224.329],[0.7,226.515],[0.8,228.214],[0.9,231.790],[1.0,239.817],[1.1,245.223],[1.2,248.285],]