name=Góra Żar
slope=8.0km 5.5%
points=295.8
region=21
description=Nawierzchnia: szosa. Ruch samochodowy: minimalny.
Podjazd rozpoczyna się w Międzybrodziu, gdzie początkowo towarzyszyć nam mogą auta, ale tylko do parkingu przy dolnej stacji kolejki terenowej. Od tego miejsca droga jest zamknięta dla ruchu samochodowego. Na szczycie podziwiać możemy oprócz pięknych górskich widoków, także elektrownię szczytowo-pompową i nader często paralotniarzy dla których ta góra jest prawdziwą mekką.
comments=Dnia 2015-06-06 użytkownik 3gibon dodał:
Trasa z początku  dość Ciężka  potem lżej końcówka  ostr ze 100m
zjazd na soszówke  nie tragiczny choć jejest pare dziur .
tras wymagająca

Dnia 2015-06-16 użytkownik xtnt dodał:
Żar ma informacje na szczycie 761m n.p.m. więc nie wiem czy te 753m są prawdziwe. Mój GPS Dakota 20 też pokazywał cały czas 758-762m n.p.m. Podjazd fajny, ale zjazd jest niebezpieczny i lepiej uważać. Zwłaszcza w partii 450-550 m n.p.m. jest kilka niebezpiecznych wybojów.
Dnia 2015-06-19 Admin dodał:
Korekcja...
author=sagimike
segment=0
locations=[[1,49.76636160118441,19.209620762790337],[2,49.76644940714955,19.212223173109123],[3,49.76721524540631,19.214718462918654],[4,49.76813215225131,19.217090111734933],[5,49.76864589663598,19.219716405518966],[6,49.76949042562615,19.222153906220683],[7,49.77048681041543,19.22444693075886],[8,49.77151181480121,19.226614818525036],[9,49.7720357741279,19.224099287732543],[10,49.77304364222594,19.221943031600972],[11,49.77379835638684,19.224194421041602],[12,49.77538989879583,19.225225151874383],[13,49.77486186714312,19.223017852226576],[14,49.77574961861914,19.22438961847854],[15,49.77723000003483,19.22491168321642],[16,49.77593610672476,19.223353093016044],[17,49.77735726077891,19.224298570834094],[18,49.7790490200244,19.225197592302493],[19,49.778993665082,19.226912969227556],[20,49.77767666501229,19.22876934307783],[21,49.77847739180979,19.231114721373842],[22,49.77891053540638,19.230658595699765],[23,49.77925259017017,19.22981521212921],[24,49.78048563403387,19.2317865795776],[25,49.78162677871401,19.233879173881746],[26,49.78305973469374,19.235536880400332],[27,49.78424033345117,19.237587567426203],[28,49.78505496201923,19.240048428908494],[29,49.78561461642645,19.242642405413562],[30,49.78682811210707,19.2445970792852],[31,49.78737626181035,19.246821869097857],[32,49.78758985381897,19.24416510552328],[33,49.78782192245023,19.24142777048462],[34,49.78786000002558,19.238659815031497],[35,49.78667550623537,19.23661868037709],[36,49.78551010195721,19.23458822545217],[37,49.78506877344397,19.231949738873936],[38,49.78518161151465,19.22918744403171],[39,49.78578336352891,19.22674976569715],]
podstawa=[[13,49.77847739180979,19.231114721373842],['start',49.7672900,19.2074100],['meta',49.7871400,19.2255400]]
daneflot=[[0.0,326.161],[0.2,333.11],[0.4,343.308],[0.6,348.48],[0.8,357.395],[1.0,365.469],[1.2,372.639],[1.4,379.22],[1.6,391.941],[1.8,402.535],[2.0,415.433],[2.2,432.033],[2.4,450.564],[2.6,459.256],[2.8,469.713],[3.0,481.13],[3.2,488.306],[3.4,501.485],[3.6,520.588],[3.8,537.129],[4.0,549.256],[4.2,563.555],[4.4,577.578],[4.6,588.469],[4.8,604.782],[5.0,618.518],[5.2,634.761],[5.4,645.726],[5.6,661.175],[5.8,670.512],[6.0,692.165],[6.2,706.048],[6.4,720.205],[6.6,728.665],[6.8,727.527],[7.0,724.576],[7.2,720.914],[7.4,725.077],[7.6,732.784],[7.8,745.793],[8.0,761.358],]