name=Góra Wał z Łowczowa
slope=7.8km 3.7%
points=269
region=43
description=Nawierzchnia: szosa, stan dobry. Ruch samochodowy: minimalny.
Nowy, długi, ciekawy podjazd z doliny Białej na górujący garb Wału. Wspinaczkę rozpoczynamy ostrym natarciem, by po kolejnych przełamaniach, mijając po drodze słynny cmentarz legionistów polskich, osiągnąć wierzchowinę - tutaj trasa traci na pochyleniu, a dalszą część podjazdu kontynuujemy na krajobrazowej partii grzbietowej. Mimo uzupełnień asfaltowych, zalecana ostrożność na ciasnych zjazdach.
comments=
author=airstreeem20
segment=0
locations=[[1,49.91529938845918,20.995689960318032],[2,49.91598469471339,20.993711571223344],[3,49.91453411907911,20.992190338401542],[4,49.91421106841389,20.98990118658412],[5,49.91273338440483,20.988549237651682],[6,49.91181245826715,20.98675255307637],[7,49.91162200806767,20.984668929640293],[8,49.91009953481587,20.983317705524996],[9,49.90845927933548,20.98226618584681],[10,49.90747938895977,20.980297411833476],[11,49.90617809807935,20.9785329730513],[12,49.90558333605644,20.976053366575798],[13,49.90587566481057,20.97337935637347],[14,49.90577242246264,20.970654638068368],[15,49.90470201942212,20.968480332962145],[16,49.90351081358167,20.96647696714126],[17,49.90226470908672,20.964542606135183],[18,49.90184077553425,20.961903235616774],[19,49.90121090783112,20.959419088478626],[20,49.90062691783687,20.95685840547435],[21,49.90011267355552,20.954230380775698],[22,49.89971851953445,20.951544863661866],[23,49.89938010002196,20.94885185029625],[24,49.89874385064793,20.946402745466912],[25,49.89827253675293,20.943759956756594],[26,49.89747387040457,20.941331855883504],[27,49.89646871127787,20.939238710732525],[28,49.89565699002922,20.936896493631025],[29,49.89455110017592,20.93484646387833],[30,49.89377744520719,20.9323696909438],[31,49.89315332319146,20.929866637516284],[32,49.89229144204997,20.92748858934442],[33,49.89079314986311,20.926039682605733],[34,49.88936985080542,20.92447628038326],[35,49.88822415541162,20.9223727089568],[36,49.88708467888837,20.920261070056995],[37,49.88593934392243,20.918157126599453],[38,49.88470446556058,20.9162250135073],]
podstawa=[[12,49.90062691783687,20.95685840547435],['start',49.9156000,20.9981600],['meta',49.8834000,20.9145400]]
daneflot=[[0.0,214.005],[0.2,234.358],[0.4,253.513],[0.6,270.056],[0.8,287.407],[1.0,305.929],[1.2,320.563],[1.4,316.938],[1.6,326.464],[1.8,336.145],[2.0,333.883],[2.2,345.812],[2.4,355.838],[2.6,359.692],[2.8,365.302],[3.0,371.091],[3.2,370.370],[3.4,363.998],[3.6,360.818],[3.8,372.337],[4.0,390.367],[4.2,419.697],[4.4,420.101],[4.6,421.311],[4.8,415.220],[5.0,411.715],[5.2,411.010],[5.4,416.978],[5.6,417.924],[5.8,417.833],[6.0,432.438],[6.2,447.464],[6.4,464.193],[6.6,469.353],[6.8,464.149],[7.0,456.579],[7.2,453.673],[7.4,467.004],[7.6,487.089],[7.8,503.356],]