name=Góra Olszańska od Olszany
slope=4.2km 4.8%
points=155.3
region=48
description=Nawierzchnia: szosa, stan dobry. Ruch samochodowy: średni.
Jeden z ostrzejszych podjazdów na trasie Przemyśl-Sanok
comments=
author=bałkan
segment=0
locations=[[1,49.742384635881,22.634327942678624],[2,49.74128297262033,22.632139350198145],[3,49.74027222275298,22.62985344941012],[4,49.73932092898223,22.627502241279103],[5,49.73834417427875,22.6251760690011],[6,49.73745158894723,22.622774101690084],[7,49.73652735915648,22.620459198867024],[8,49.73474299131209,22.620242252613593],[9,49.7329516756251,22.620299104884225],[10,49.73160582306024,22.61879371706084],[11,49.73031459679217,22.616923664494607],[12,49.72907560022777,22.61494120025884],[13,49.72842672391079,22.61238180922669],[14,49.72806162441484,22.60966644611142],[15,49.72675006606027,22.60795489413067],[16,49.72515963479554,22.60667963444814],[17,49.72344161475,22.606376940805603],[18,49.72171563391836,22.607122919246194],[19,49.71993449634905,22.60712292359665],[20,49.71818939127915,22.60649744287207],]
podstawa=[[13,49.73031459679217,22.616923664494607],['start',49.7435000,22.6365000],['meta',49.7164900,22.6056400]]
daneflot=[[0.0,216.186],[0.2,216.804],[0.4,222.497],[0.6,227.568],[0.8,234.730],[1.0,241.962],[1.2,245.235],[1.4,244.229],[1.6,262.130],[1.8,284.888],[2.0,307.387],[2.2,325.528],[2.4,344.118],[2.6,362.238],[2.8,378.013],[3.0,390.035],[3.2,399.369],[3.4,408.026],[3.6,411.014],[3.8,411.079],[4.0,414.215],[4.2,416.702],]