name=Góra Wał z Rzuchowej
slope=10.8km 2.7%
points=160.7
region=43
description=Nawierzchnia: szosa, stan średni. Ruch samochodowy: mały.
Ciekawy wariant wjazdu na Wał - z Rzuchowej przez Szczepanowice. Jest to trasa dosć wymagająca, ale z dobrymi walorami widokowymi.
comments=
author=???
segment=0
locations=[[1,49.95126900168194,20.928005131418217],[2,49.9501764503413,20.926249532561314],[3,49.94858676849869,20.925192663348298],[4,49.94688332550744,20.924654789205306],[5,49.94575364837564,20.922650388118655],[6,49.9448194409276,20.920281154248414],[7,49.94424946036445,20.917681432598556],[8,49.94329592152777,20.915344891338236],[9,49.94209795710957,20.913312368831953],[10,49.94071176686548,20.911556912941364],[11,49.93912649465977,20.910394855086906],[12,49.93820797061797,20.908239467775957],[13,49.93729822055606,20.908610762069316],[14,49.9363961606314,20.908248452704356],[15,49.93633834239803,20.905775871981973],[16,49.93483692268559,20.904785865298322],[17,49.93329186127265,20.90537650883141],[18,49.93229122217267,20.907380200786292],[19,49.93071583200903,20.90868524600296],[20,49.92922060669105,20.91018509077128],[21,49.9275717254398,20.910131724901476],[22,49.9260027126363,20.908990000000017],[23,49.92432872301065,20.90987127762014],[24,49.92263882650266,20.910548945743585],[25,49.92087201348374,20.91094941766528],[26,49.91908576335202,20.911087958739472],[27,49.91731394343769,20.910852676137097],[28,49.91564035132895,20.911704669342498],[29,49.91440127603511,20.909969643638078],[30,49.91300339739016,20.90826910543433],[31,49.91155096611516,20.90664845125002],[32,49.90990819407602,20.905880575266792],[33,49.90854412099068,20.907141556616693],[34,49.90743737427217,20.909191782232142],[35,49.906342242467,20.910903366358525],[36,49.90526659657009,20.913008505786934],[37,49.90505276008258,20.915720644949374],[38,49.90335839678105,20.91522999999995],[39,49.90164636493414,20.915631211692357],[40,49.90087569058446,20.91797415718338],[41,49.90023460455687,20.920531275634858],[42,49.89913183654012,20.922616857265325],[43,49.89746363181253,20.923562260362246],[44,49.89592488217154,20.92493016059484],[45,49.89434116180043,20.926208838696994],[46,49.89323231330411,20.928325762314785],[47,49.8924770992158,20.927796968509597],[48,49.89102991182731,20.926198039920564],[49,49.88953798934227,20.924748041481962],[50,49.88837216427068,20.922642900086885],[51,49.88722586950525,20.920512120952367],[52,49.88607110351764,20.918392501456765],[53,49.8848723697108,20.916352238050422],]
podstawa=[[12,49.918,20.90],['start',49.9515300,20.9307400],['meta',49.8835000,20.9147600]]
daneflot=[[0.0,214.777],[0.2,218.999],[0.4,219.157],[0.6,230.171],[0.8,239.331],[1.0,250.873],[1.2,259.021],[1.4,265.861],[1.6,269.997],[1.8,275.585],[2.0,284.001],[2.2,291.52],[2.4,297.279],[2.6,307.482],[2.8,318.566],[3.0,330.238],[3.2,340.499],[3.4,350.569],[3.6,361.750],[3.8,365.772],[4.0,370.597],[4.2,380.669],[4.4,386.086],[4.6,388.061],[4.8,387.222],[5.0,384.764],[5.2,383.067],[5.4,389.303],[5.6,397.552],[5.8,401.563],[6.0,397.741],[6.2,399.594],[6.4,399.095],[6.6,406.152],[6.8,407.326],[7.0,401.966],[7.2,395.523],[7.4,399.553],[7.6,408.623],[7.8,419.981],[8.0,428.491],[8.2,433.356],[8.4,436.181],[8.6,437.952],[8.8,439.182],[9.0,442.197],[9.2,448.876],[9.4,464.193],[9.6,469.353],[9.8,464.149],[10.0,456.579],[10.2,453.673],[10.4,467.004],[10.6,487.089],[10.8,503.356],]