name=Zborowska Góra
slope=3.0km 5.0%
points=86.2
region=44
description=Nawierzchnia: szosa, stan dobry. Ruch samochodowy: średni.
Najdłuższy podjazd na trasie Ciężkowice-Łużna. Znaki podają nachylenie 9% i 10% w najbardziej stromych miejscach.
comments=
author=???
segment=0
locations=[[1,49.75889184649666,20.96922523667456],[2,49.75739050548842,20.967564231869005],[3,49.75863381322094,20.9664332687114],[4,49.75792838187192,20.964506765900524],[5,49.75646169998285,20.96280832288585],[6,49.75475393374038,20.961771001554098],[7,49.75315938229677,20.960609338336894],[8,49.75144308773439,20.961601744415702],[9,49.75051599685225,20.964041287212012],[10,49.74930124559058,20.966012869744873],[11,49.74747552007134,20.96643876391147],[12,49.74578405373379,20.967477311682842],[13,49.74428458176639,20.969146358708713],[14,49.7427496524508,20.97072165820248],]
podstawa=[[13,49.75144308773439,20.961601744415702],['start',49.7605900,20.9702900],['meta',49.7411200,20.9720700]]
daneflot=[[0.0,258.234],[0.2,261.264],[0.4,273.977],[0.6,286.092],[0.8,295.107],[1.0,304.939],[1.2,319.354],[1.4,335.989],[1.6,344.821],[1.8,359.498],[2.0,367.075],[2.2,377.005],[2.4,389.944],[2.6,396.836],[2.8,405.289],[3.0,408.364],]