name=Šerlich  od Destne (Czechy)
slope=5.8km 6.4%
points=273
region=11
description=Nawierzchnia: szosa, stan średni. Ruch samochodowy: mały.
Jeden z najciekawszych podjazdów szosowych w Górach Orlickich. Po zjeździe w drugą stronę można dojechać do granicy w Mostowicy. Do samego szczytu trzeba się kierować na Schronisko Masarykowa Chata.
comments=
author=Bystry
segment=0
locations=[[1,50.30064298333367,16.356228187100896],[2,50.30047231655918,16.35903014910798],[3,50.30027072674307,16.361825922286016],[4,50.29996822291281,16.3645987856695],[5,50.29926486632003,16.36718406359546],[6,50.29854224418884,16.36976123149418],[7,50.29898156122133,16.372205277396915],[8,50.30036583569192,16.373927731598997],[9,50.30210792021989,16.374621348541496],[10,50.30389208268693,16.374920389278486],[11,50.30567187949889,16.375312622155434],[12,50.30728270020032,16.376120415985042],[13,50.30658718494082,16.376787390285926],[14,50.30691890519311,16.379044894484423],[15,50.30828465048368,16.377228046607797],[16,50.3092257639982,16.379362693593066],[17,50.31048419639016,16.381349124789267],[18,50.31164277170641,16.383497603165893],[19,50.31264086468908,16.381856428599235],[20,50.31265295695795,16.37964782613267],[21,50.31442582457446,16.37971543105482],[22,50.31586533354375,16.381359401864756],[23,50.31693619411128,16.383586449681616],[24,50.31832671497058,16.38536794458605],[25,50.31982054542387,16.386777342749724],[26,50.32230071680821,16.387866202761415],[27,50.32395792807954,16.38822452238867],[28,50.3249168414193,16.38580177375934],]
podstawa=[[13,50.316,16.377228046607797],['start',50.3007200,16.3535800],['meta',50.32609000000003,16.38662999999997]]
daneflot=[[0.0,635.862],[0.2,644.930],[0.4,647.931],[0.6,654.372],[0.8,663.377],[1.0,672.063],[1.2,687.441],[1.4,695.109],[1.6,706.513],[1.8,720.659],[2.0,720.527],[2.2,732.457],[2.4,748.988],[2.6,766.985],[2.8,781.294],[3.0,800.355],[3.2,820.173],[3.4,838.397],[3.6,860.183],[3.8,874.950],[4.0,880.933],[4.2,891.865],[4.4,906.650],[4.6,920.426],[4.8,936.988],[5.0,952.407],[5.2,967.413],[5.4,981.659],[5.6,994.137],[5.8,1006.689],]