name=Růžová Hora  od Velka Upa (Czechy)
slope=7.6km 8.3%
points=675.3
region=2
description=Nawierzchnia: szosa, stan średni. Ruch samochodowy: minimalny.
Dość krótka górka ale stromo, w środku kilkusetmetrowy płaski przerywnik.
Najtrudniejszy odcinek zaczyna się kiedy znak Ruzehorky 2km - wtedy nachylenie przez 1km nie schodzi poniżej 12%. Trasa spokojnie przejezdna na kolarce. Jedyny problem na zjeździe bo rynny odprowadzające wodę - lepiej za bardzo się nie rozpędzać. Miejscami asfalt zasypany żwirkiem.
comments=
author=gavia2621
segment=0
locations=[[1,50.69105066905496,15.771013562159624],[2,50.69212032266292,15.773254094994968],[3,50.69266806970026,15.773423243220009],[4,50.69321467843958,15.770810687391076],[5,50.69406029264335,15.768348341337173],[6,50.69458166518331,15.768658290362055],[7,50.69480737656855,15.771442390976517],[8,50.69508338942007,15.774215389928372],[9,50.69508235961442,15.777008761433535],[10,50.6949994524014,15.779808743026251],[11,50.69480199671698,15.78248483206994],[12,50.69351109376218,15.784391255542687],[13,50.6922168342893,15.78625934457682],[14,50.69153109667842,15.788799394189482],[15,50.69220449397184,15.78999117051194],[16,50.6938671221487,15.788996947696432],[17,50.6954117836314,15.788179553941632],[18,50.69619171706886,15.785662222636006],[19,50.69753181606875,15.783826502420993],[20,50.69851611509934,15.781496195163754],[21,50.69923113894049,15.778929234645148],[22,50.699841156152,15.776292902762748],[23,50.7007510010761,15.773913158269124],[24,50.70199759378825,15.771929157643967],[25,50.7032218310326,15.77009700377539],[26,50.70340561068853,15.767436592338413],[27,50.70402377360228,15.76487109785171],[28,50.70514137163472,15.762693522196514],[29,50.70606326732196,15.760313618047917],[30,50.70691120624126,15.75784638391383],[31,50.70762718029889,15.755366293382167],[32,50.7085325239325,15.752959107453535],[33,50.70971588856119,15.75088989007827],[34,50.71140400131573,15.750273671691275],[35,50.71303914220487,15.749169720575537],[36,50.71470213543623,15.748176270789827],[37,50.71630735043734,15.747031577290954],]
podstawa=[[13,50.703,15.77],['start',50.6898400,15.7691200],['meta',50.7176900,15.7452700]]
daneflot=[[0.0,709.104],[0.2,711.784],[0.4,737.209],[0.6,757.076],[0.8,777.149],[1.0,795.796],[1.2,813.963],[1.4,837.357],[1.6,852.656],[1.8,870.491],[2.0,890.441],[2.2,915.044],[2.4,917.219],[2.6,925.205],[2.8,920.208],[3.0,925.257],[3.2,962.490],[3.4,982.348],[3.6,992.985],[3.8,1013.909],[4.0,1024.731],[4.2,1021.272],[4.4,1027.568],[4.6,1036.073],[4.8,1050.450],[5.0,1061.976],[5.2,1085.080],[5.4,1108.085],[5.6,1135.474],[5.8,1164.562],[6.0,1199.199],[6.2,1215.048],[6.4,1233.921],[6.6,1249.076],[6.8,1265.672],[7.0,1277.901],[7.2,1297.929],[7.4,1315.532],[7.6,1337.134],]