name=Modre Sedlo  z Dolny Dvur (Czechy)
slope=13.4km 6.7%
points=802.8
region=2
description=Nawierzchnia: szosa, stan dobry. Ruch samochodowy: minimalny.
Dłuższa, ale zdecydowanie lżejsza wersja podjazdu na Modre Sedlo. Cały czas asfalt, na początku szeroki potem wąski. Na płaskim odcinku kilka kilometrów przed końcem podjazdu szutrowy przerywnik - całkowicie przejezdny na rowerze szosowym (sprawdzone kilka razy). Najcięższy kawałek zaczyna się w okolicach "Pensionu Klecanda". Na zjeździe rower rozpędza się spokojnie do około 80 km/h,  miejscami około 20%. Końcowe dwa i pół kilometra "Droga Alpejska". Bardzo ładna, moja ulubiona górka obok Przełęczy Karkonoskiej. Podjazd można zacząć aż od Lanova, wtedy uzyska się ponad 1000 metrów przewyższenia. Od Lanova do Dolnego Dvoru około 2% nachylenie.
comments=
author=gavia2621
segment=0
locations=[[1,50.6596481284564,15.63610722376211],[2,50.66130870874413,15.635126775833442],[3,50.66297521515895,15.634117914065769],[4,50.66471733372311,15.63351489687716],[5,50.66649865331446,15.633704097106033],[6,50.6682565144432,15.634060145232297],[7,50.66977700377279,15.635464284044929],[8,50.67131820497632,15.636807963345746],[9,50.6727549259224,15.63848579710168],[10,50.67386842392353,15.64063246074818],[11,50.67470385264797,15.643095201857932],[12,50.67557141798731,15.642708612179604],[13,50.67575945813954,15.645493264479683],[14,50.67679010229487,15.647701777428779],[15,50.67788166095279,15.649277776247231],[16,50.67723841348545,15.647531286456683],[17,50.67766709299662,15.644997799359999],[18,50.67825917173555,15.642332283078986],[19,50.67812856034321,15.639585782974791],[20,50.67744253502472,15.636976230420487],[21,50.67713357801384,15.634245781474306],[22,50.67771084958405,15.631998480395964],[23,50.67841791868969,15.634579524595893],[24,50.67958742331299,15.636699794142032],[25,50.68042621001065,15.63919767608445],[26,50.6811368776094,15.641385053630984],[27,50.68127114510298,15.643870525922011],[28,50.68243276312795,15.646024333611422],[29,50.68345300616507,15.648338487401702],[30,50.68406036700611,15.650982257005012],[31,50.68459687911962,15.653675351287006],[32,50.68460419037685,15.656500283891546],[33,50.68556142292296,15.658855957202604],[34,50.68605578647289,15.65662448103069],[35,50.68727135244572,15.654553941466702],[36,50.68825009320538,15.652184926728523],[37,50.68909814726347,15.64971111930231],[38,50.68952904103181,15.646965139851432],[39,50.69033900913033,15.644464478442274],[40,50.69117532023822,15.646111238247158],[41,50.69200555321249,15.648328980785436],[42,50.69296548693519,15.650283409474923],[43,50.69391673819669,15.652659432845098],[44,50.69499210626091,15.654920264737939],[45,50.69592547911498,15.657334107540464],[46,50.69702977040519,15.659558068714318],[47,50.69867191043572,15.66060136864894],[48,50.70012624919668,15.66219421633059],[49,50.70137978975642,15.664214400948595],[50,50.70233054685085,15.666585330950056],[51,50.70324835715998,15.669002049439769],[52,50.70431071693804,15.671280703842058],[53,50.70531310731752,15.673625681881845],[54,50.70675254414033,15.675225526371833],[55,50.70851599161339,15.674930000000018],[56,50.71028515496324,15.67528443306037],[57,50.71197355185962,15.676147930973798],[58,50.71344769058481,15.677739046817806],[59,50.71469574239109,15.67974640132843],[60,50.71599714275981,15.681681858981733],[61,50.7174802530814,15.68324326786012],[62,50.71915752308537,15.684238555113438],[63,50.72067024411967,15.685716784544752],[64,50.72216360150669,15.687256623862595],[65,50.72368149626785,15.688746227946467],[66,50.72511286115461,15.690423314122654],]
podstawa=[[12,50.695,15.65662448103069],['start',50.6582000,15.6374600],['meta',50.7266900,15.6917500]]
daneflot=[[0.0,608.791],[0.2,622.886],[0.4,635.815],[0.6,650.434],[0.8,668.154],[1.0,686.350],[1.2,698.737],[1.4,705.801],[1.6,721.576],[1.8,731.307],[2.0,739.711],[2.2,753.502],[2.4,760.462],[2.6,779.112],[2.8,802.461],[3.0,825.451],[3.2,819.604],[3.4,826.900],[3.6,830.959],[3.8,830.343],[4.0,826.255],[4.2,825.044],[4.4,829.653],[4.6,849.938],[4.8,868.192],[5.0,882.292],[5.2,903.093],[5.4,917.050],[5.6,939.327],[5.8,961.151],[6.0,980.253],[6.2,1000.443],[6.4,1016.589],[6.6,1032.907],[6.8,1048.977],[7.0,1068.532],[7.2,1085.751],[7.4,1102.998],[7.6,1117.159],[7.8,1125.903],[8.0,1140.515],[8.2,1157.043],[8.4,1175.592],[8.6,1195.024],[8.8,1218.791],[9.0,1238.402],[9.2,1249.538],[9.4,1263.609],[9.6,1277.406],[9.8,1288.820],[10.0,1302.193],[10.2,1317.863],[10.4,1331.068],[10.6,1345.777],[10.8,1345.968],[11.0,1344.001],[11.2,1350.360],[11.4,1349.641],[11.6,1347.576],[11.8,1354.931],[12.0,1358.205],[12.2,1376.270],[12.4,1401.222],[12.6,1424.743],[12.8,1446.194],[13.0,1467.587],[13.2,1493.691],[13.4,1510.039],]