name=Bocheniec od Jadownik
slope=3.3km 4.9%
points=133.4
region=42
description=Nawierzchnia: szosa. Ruch samochodowy: .
Popularny podjazd szczególnie wśród miejscowych kolarzy. Zaczynamy skręcając z drogi krajowej numer 4 na światłach w miejscowości Jadowniki. Podjazd rozpoczyna się dość łagodnie i stopniowo jego nachylenie rośnie, osiągając pod koniec ok. 15%. Nagrodą jest kapitalny widok z jednej strony na region od Bochni przez Brzesko po Tarnów, z drugiej zaś strony w przejrzyste dni widok na Tatry.
comments=
author=piotrkol91
segment=5910342
locations=[[1,49.96779755835651,20.64460414766984],[2,49.9672436458992,20.6452382728354],[3,49.96710010775349,20.646612549980773],[4,49.96683122748056,20.64769700613101],[5,49.96599966808133,20.64818010838269],[6,49.9651166718501,20.64838066714492],[7,49.96430228636211,20.64786647373944],[8,49.96342297294002,20.64776965585827],[9,49.96253593497054,20.64796162748246],[10,49.96168558558924,20.648366581108235],[11,49.96085553056612,20.648889344465374],[12,49.96002547319392,20.64941208979667],[13,49.95922221897938,20.65001778194687],[14,49.95846068851816,20.650750312830155],[15,49.95758646411013,20.650987970706524],[16,49.95669164169888,20.651045700930354],[17,49.95579709210885,20.651112662879086],[18,49.95490214992724,20.65115291156542],[19,49.95405084435684,20.651505332786314],[20,49.95324726791979,20.65210767285032],[21,49.95238170702859,20.65246503437561],[22,49.95150332746593,20.65265745037391],[23,49.95061642178018,20.652523210845857],[24,49.94989987601027,20.652850741915813],[25,49.94918927324876,20.653670425620476],[26,49.94833750595422,20.654090700818983],[27,49.94757067379997,20.654796782723906],[28,49.94670462870968,20.655102210711448],[29,49.94582409996399,20.65488129424773],[30,49.94530812620278,20.65401078742275],[31,49.94465258613513,20.653181714819425],[32,49.94421825844116,20.652150584504284],]
podstawa=[[13,49.95579709210885,20.651112662879086],['start',49.9686700,20.6442900],['meta',49.9440300,20.6507900]]
daneflot=[[0.0,219.850],[0.1,221.120],[0.2,221.927],[0.3,222.835],[0.4,223.444],[0.5,225.116],[0.6,227.755],[0.7,235.074],[0.8,238.752],[0.9,239.817],[1.0,241.324],[1.1,243.212],[1.2,244.057],[1.3,245.291],[1.4,245.768],[1.5,251.227],[1.6,261.520],[1.7,267.177],[1.8,268.916],[1.9,271.619],[2.0,273.378],[2.1,276.051],[2.2,279.518],[2.3,285.116],[2.4,294.503],[2.5,302.655],[2.6,307.583],[2.7,315.074],[2.8,323.529],[2.9,337.486],[3.0,347.800],[3.1,362.686],[3.2,373.245],[3.3,381.401],]