name=Dąbrowska Gora z Wieloglowy
slope=3.6km 4.1%
points=105.7
region=43
description=Nawierzchnia: szosa, stan dobry. Ruch samochodowy: średni.
Podjazd na trasie z Nowego Sacza do Grodka nad Dunajcem.
comments=
author=adrian205
segment=0
locations=[[1,49.67750392617497,20.68077890390191],[2,49.67907011730239,20.67940658863847],[3,49.68071166452776,20.67830627803164],[4,49.68190002109134,20.67621170685345],[5,49.68302670673306,20.674037922711705],[6,49.68370169383976,20.674804932550614],[7,49.68453144980531,20.675149182929545],[8,49.68613809401442,20.674049328551973],[9,49.6878816630918,20.673529477799207],[10,49.68827309249944,20.674684588140053],[11,49.68824018367468,20.67741437564564],[12,49.68913172243449,20.6797779743232],[13,49.69084405946331,20.680461014500906],[14,49.69255619826274,20.68037686501384],[15,49.69367632355073,20.678222182458512],[16,49.69530772082175,20.677696970824627],[17,49.69686348740491,20.6791043564225],]
podstawa=[[13,49.68827309249944,20.674684588140053],['start',49.6759500,20.6821900],['meta',49.6977700,20.6814700]]
daneflot=[[0.0,277.256],[0.2,281.785],[0.4,286.738],[0.6,292.054],[0.8,301.317],[1.0,324.298],[1.2,327.634],[1.4,336.131],[1.6,354.217],[1.8,369.865],[2.0,377.742],[2.2,390.767],[2.4,402.470],[2.6,409.875],[2.8,413.374],[3.0,403.783],[3.2,397.991],[3.4,410.043],[3.6,424.127],]