name=Góra św. Grzegorza od Gorzejowej
slope=2.0km 8.4%
points=154.8
region=46
description=Nawierzchnia: szosa, stan dobry. Ruch samochodowy: minimalny.
Podjazd do Kościoła od Południa. Dłuższy wariant z większym przewyższeniem. Końcówka przyjemna przez Bukowy las
comments=
author=Topek
segment=0
locations=[[1,49.92048839856124,21.378970098640025],[2,49.92108190474126,21.377924243914322],[3,49.92186898606658,21.37780586976885],[4,49.9227376803339,21.377431581950077],[5,49.92356039671271,21.376884461794816],[6,49.924106367361,21.375772185424466],[7,49.92489296726794,21.375143955939166],[8,49.92564602485517,21.37438782826746],[9,49.92630645441145,21.373431364508747],[10,49.92696687610189,21.372474874540558],[11,49.92776186097238,21.371904072656662],[12,49.92851857521238,21.371277124550716],[13,49.9288798705683,21.370010194510314],[14,49.92951713014799,21.3690170429129],[15,49.93020404601783,21.368211908087915],[16,49.9309016201632,21.367341935826516],[17,49.93151279023206,21.36632911209108],[18,49.93213096539863,21.365308555185038],[19,49.93269553611655,21.364221828783684],]
podstawa=[[14,49.92776186097238,21.371904072656662],['start',49.9201300,21.3800400],['meta',49.9331500,21.3630400]]
daneflot=[[0.0,222.371],[0.1,224.903],[0.2,231.175],[0.3,238.886],[0.4,246.690],[0.5,255.078],[0.6,263.772],[0.7,276.143],[0.8,287.227],[0.9,295.121],[1.0,302.864],[1.1,310.804],[1.2,320.806],[1.3,326.411],[1.4,332.691],[1.5,342.538],[1.6,356.158],[1.7,369.131],[1.8,378.187],[1.9,386.072],[2.0,389.000],]