name=Sv. Martin (wyspa Losinj)  z Mali Losinj (Chorwacja)
slope=5.0km 4.2%
points=119.8
region=125
description=Nawierzchnia: szosa, stan średni. Ruch samochodowy: zmienny.
Podjazd zaczynamy w Mali Losinj w malowniczej zatoczce. Początek stromy i dojeżdżamy do głównej ulicy i potem główną jedziemy w kierunku Cikat i Marketów. Niestety tutaj spory ruch i trzeba uważać. Po przejechaniu marketów już zero samochodów i spokój. Na szczycie widoki na obie strony wyspy. Po zjechaniu w drugą stronę ciekawe widoki na okoliczne wysepki.
comments=
author=Seba91
segment=0
locations=[[1,44.53064655601571,14.47721103091817],[2,44.52903416905107,14.476625845563149],[3,44.52735313400186,14.477414577508625],[4,44.52730000064187,14.47542342737188],[5,44.52784712383676,14.473035611593104],[6,44.52737000018528,14.47068301588331],[7,44.52599814894988,14.470560739176335],[8,44.52465643380049,14.472093708953821],[9,44.52286226723326,14.472464423429983],[10,44.52205850182478,14.474428278040705],[11,44.52211808086192,14.476805439663622],[12,44.52147324452896,14.479009376596423],[13,44.52023234267511,14.480869159670533],[14,44.51910271888842,14.482862447867092],[15,44.52019602437059,14.48279793702568],[16,44.52191528114167,14.481999084596964],[17,44.52172423171854,14.48398691837599],[18,44.52056253806611,14.48588499856396],[19,44.51932272823481,14.48770248191056],[20,44.51780038641549,14.488791065129362],[21,44.51653953746615,14.490555083232152],[22,44.51516849337158,14.492064012709761],[23,44.51378077029785,14.49356231827312],[24,44.51240954742465,14.495227256423163],]
podstawa=[[13,44.52023234267511,14.480869159670533],['start',44.5321500,14.4785300],['meta',44.5111100,14.4969800]]
daneflot=[[0.0,3.769],[0.2,23.936],[0.4,27.315],[0.6,37.519],[0.8,48.683],[1.0,56.321],[1.2,62.172],[1.4,67.227],[1.6,73.053],[1.8,76.541],[2.0,78.827],[2.2,84.047],[2.4,98.760],[2.6,111.329],[2.8,126.487],[3.0,136.14],[3.2,145.194],[3.4,151.167],[3.6,158.698],[3.8,158.526],[4.0,170.59],[4.2,182.892],[4.4,187.633],[4.6,199.534],[4.8,214.038],[5.0,213.791],]