name=Passo Pampeago  od Ponte Nova (Włochy)
slope=13.4km 8.3%
points=1027.1
region=111
description=Nawierzchnia: szosa, stan dobry. Ruch samochodowy: mały.
Druga strona słynnego z Giro Italia podjazdu pod Pampeago. Jeśli nawet łatwiejsza to tutaj też jest kilka "zębów".
Może najstromsza jest końcówka, ale równie ciężko pokonać ten  odcinek poniżej Obereggen, gdzie szeroka droga, brak zakrętów  a nachylenie poniżej 10% nie schodzi. Sama końcówka od Obereggen wąski asfalt jak jechaliśmy kilka lat temu wydawało się, że dość niedawno wylany. Początek zaznaczyłem w miejscowości Ponte Nova na skrzyżowaniu dróg SS241 i SS 620. Można rozpocząć około 500 metrów w pionie niżej np. w Cardano (obok Bolzano), ale tam na początku tunel i nie jestem pewien czy na rowerze da rady przejechać. Jechałem z góry drogą SS241 od strony Passo Castelunga, dlatego tak to zaznaczyłem, czyli od skrzyżowania. Od kiedy kilka lat temu wyasflaltowano końcowe 3 km podjazdu od strony Tesero teraz można kręcić na kolarce  niezłe pętle ( np. z Passo Lavaza, Costelunga)
Nie spotkamy tutaj tylu rowerzystów co na popularnych (i dużo łagodniejszych) przełęczach typu Passo Pordoi, Sella itp.  ale widoki na górze - super.
comments=
author=gavia 2621
segment=0
locations=[[1,46.42377855503808,11.48419067778741],[2,46.42223653530528,11.485419323926521],[3,46.42057737439381,11.486293526581221],[4,46.41943109944931,11.488224232827406],[5,46.4178785796506,11.489443495555633],[6,46.41619444332609,11.489160309440194],[7,46.41479631263429,11.48767469157815],[8,46.41327280490264,11.486382803479728],[9,46.41172111974235,11.485202965248618],[10,46.41002425375896,11.484642575608973],[11,46.40849879264663,11.483353430194143],[12,46.40699251828543,11.482095306921224],[13,46.40579069948583,11.480248366233695],[14,46.40428110650731,11.478940107607286],[15,46.4029411031289,11.4773832286686],[16,46.40118755816721,11.477669897610213],[17,46.39943918270645,11.47776956947439],[18,46.3978059356321,11.476985073998549],[19,46.39613462889064,11.477747638852748],[20,46.39446655185328,11.478563450489219],[21,46.39295973980055,11.479901979492524],[22,46.3921151972367,11.482012129004033],[23,46.39094413821675,11.483692758312259],[24,46.39031754149471,11.486039502791868],[25,46.38994483831546,11.488405000699686],[26,46.38962775294776,11.490848424701426],[27,46.38938217589033,11.4933201094467],[28,46.38829684244978,11.495239744002447],[29,46.38678689927307,11.496536956222485],[30,46.38640635111098,11.498468015426397],[31,46.38599307744219,11.500929014476696],[32,46.38565362946618,11.503436283986275],[33,46.38558065100761,11.50593760744357],[34,46.38646306315831,11.508153278388363],[35,46.38685605966575,11.510515762824753],[36,46.38559222871937,11.512225128401383],[37,46.38497375954131,11.51461900608092],[38,46.38463399271631,11.517095091130386],[39,46.38429691748723,11.519560790275136],[40,46.38386630150814,11.522041543380055],[41,46.38332812879291,11.52448609684484],[42,46.38384205258068,11.526235993439741],[43,46.38514672612806,11.524664846994483],[44,46.38627000011162,11.524895988807543],[45,46.38570683176886,11.527308021512567],[46,46.38561540427811,11.529872373703483],[47,46.38485584768006,11.531805413957272],[48,46.38344638542345,11.533170070862525],[49,46.38182174392735,11.534085447483108],[50,46.38062237713758,11.533023545177798],[51,46.37903958331393,11.533481881655462],[52,46.37747399835185,11.534606843038773],[53,46.37603528162452,11.533522979539043],[54,46.37428109767296,11.533238593491774],[55,46.37251271896126,11.53322824025065],[56,46.3712595977051,11.534924645331103],[57,46.36956902750748,11.535673657853295],[58,46.36837632702987,11.53746459735271],[59,46.36669770143524,11.537488494721515],[60,46.36496979487258,11.538021874154424],[61,46.36323756953005,11.538061933116978],[62,46.36163324386388,11.53820769298818],[63,46.36024351573177,11.539436971939494],[64,46.35881090245294,11.54047587496325],[65,46.3571403492047,11.541110919126709],[66,46.35554544884763,11.540524088761458],]
podstawa=[[12,46.389,11.51],['start',46.4247000,11.4820100],['meta',46.3539300,11.5397000]]
daneflot=[[0.0,881.743],[0.2,898.874],[0.4,911.557],[0.6,920.704],[0.8,936.794],[1.0,945.293],[1.2,947.976],[1.4,953.352],[1.6,961.845],[1.8,974.063],[2.0,989.656],[2.2,1009.603],[2.4,1036.84],[2.6,1053.972],[2.8,1067.193],[3.0,1078.480],[3.2,1094.003],[3.4,1104.092],[3.6,1117.559],[3.8,1135.368],[4.0,1150.798],[4.2,1168.562],[4.4,1183.373],[4.6,1202.911],[4.8,1222.647],[5.0,1237.534],[5.2,1254.773],[5.4,1268.083],[5.6,1278.267],[5.8,1294.918],[6.0,1313.227],[6.2,1330.454],[6.4,1349.494],[6.6,1373.367],[6.8,1394.714],[7.0,1410.900],[7.2,1430.915],[7.4,1450.361],[7.6,1470.854],[7.8,1489.296],[8.0,1512.786],[8.2,1528.857],[8.4,1546.705],[8.6,1558.201],[8.8,1567.4],[9.0,1585.079],[9.2,1614.342],[9.4,1647.089],[9.6,1676.75],[9.8,1697.758],[10.0,1716.686],[10.2,1740.654],[10.4,1764.378],[10.6,1783.143],[10.8,1799.585],[11.0,1818.53],[11.2,1826.996],[11.4,1839.833],[11.6,1855.745],[11.8,1870.978],[12.0,1890.070],[12.2,1907.941],[12.4,1919.220],[12.6,1937.318],[12.8,1947.294],[13.0,1964.220],[13.2,1983.655],[13.4,1996.793],]