name=Passo Pampeago  od Tesero (Włochy)
slope=10.4km 9.9%
points=1120.1
region=111
description=Nawierzchnia: szosa, stan bardzo dobry. Ruch samochodowy: W lecie niewielki.
Start z małej miejscowości Tesero. 
Z liczb, rankingów wynika, że nie jest to znowu taki super ciężki podjazd-porównując np. do Mortirolo albo Zoncolana. Ale moim zdaniem akurat od tych dwóch wyżej wymienionych wcale nie jest lżejszy. Do Alpe di Pampeago ośrodka narciarskiego jedziemy praktycznie bez zakrętów - to jest zabójcze. Na tym odcinku zjazd to non stop powyżej 80 km/h i to bez specjalnego "skulania" się - co mówi o jego nachyleniu. Ostatnie chyba 3 km nowa ,kilkuletnia droga ,wybudowana specjalnie na Giro. 
Możemy zjechać asfaltem na drugą stronę przełeczy do miejscowości Obereggen albo jeszcze niżej do samego Bolzano (leży poniżej 500 m) około 25 km
comments=
author=gavia 2621
segment=0
locations=[[1,46.29114809750673,11.50701777649033],[2,46.29249266857033,11.505341287752799],[3,46.29422046662619,11.505141066430156],[4,46.29589873092239,11.50452036259594],[5,46.29646562530494,11.505738315233657],[6,46.29774351402835,11.506271477060523],[7,46.29951528407972,11.506008220442709],[8,46.30127799426245,11.5056473823322],[9,46.30301283397738,11.505045949316354],[10,46.30478110933458,11.504906955751949],[11,46.30655933874801,11.505096219220377],[12,46.30833030052123,11.505367227942202],[13,46.31008408403082,11.505147676970296],[14,46.31185390541711,11.504814051115659],[15,46.3135968650648,11.504301384728592],[16,46.315311838121,11.503595841397555],[17,46.31693694868967,11.50259014108849],[18,46.31855740328395,11.501572799340806],[19,46.32022509311914,11.502076495080473],[20,46.32192513534885,11.50259852750753],[21,46.32345166736244,11.503936236685377],[22,46.32465072587269,11.505843915635296],[23,46.32578708274578,11.50782475947301],[24,46.3266312365398,11.51008989187585],[25,46.32718021418921,11.512413902064623],[26,46.32816181402604,11.514551036583498],[27,46.32979934320119,11.515488968530917],[28,46.33056608428911,11.517771476972712],[29,46.33141449325278,11.520005813841522],[30,46.33284640299408,11.521524604295792],[31,46.33388181299607,11.523625408654652],[32,46.33487465979344,11.525629015693198],[33,46.33559064470165,11.527924607934665],[34,46.33647836303896,11.530090775044641],[35,46.33733339027822,11.532326756601378],[36,46.33848412122641,11.534194464119423],[37,46.33976269201024,11.535979286240035],[38,46.34083004018466,11.538046294479159],[39,46.34187775291669,11.54013405674823],[40,46.34253659016964,11.542424703536994],[41,46.34319580679964,11.544652908352305],[42,46.34218676708714,11.544912443732187],[43,46.34178871483841,11.54545966922683],[44,46.3414034888087,11.5478188700597],[45,46.34143019286711,11.549746698805052],[46,46.34250932521599,11.551131422509684],[47,46.3438558758176,11.552751394740085],[48,46.34536311345096,11.553625269554914],[49,46.34639630950659,11.552343375719943],[50,46.34671905650104,11.550967132307392],[51,46.34830223148203,11.549926026686535],]
podstawa=[[12,46.32979934320119,11.515488968530917],['start',46.2895700,11.5079700],['meta',46.3494800,11.5485700]]
daneflot=[[0.0,969.780],[0.2,993.233],[0.4,1007.200],[0.6,1015.047],[0.8,1032.370],[1.0,1046.722],[1.2,1064.795],[1.4,1080.955],[1.6,1103.539],[1.8,1124.657],[2.0,1139.272],[2.2,1151.512],[2.4,1173.328],[2.6,1190.266],[2.8,1208.780],[3.0,1214.706],[3.2,1227.010],[3.4,1242.869],[3.6,1267.511],[3.8,1285.670],[4.0,1310.460],[4.2,1335.273],[4.4,1363.526],[4.6,1380.889],[4.8,1403.436],[5.0,1434.471],[5.2,1456.608],[5.4,1482.654],[5.6,1501.934],[5.8,1519.039],[6.0,1535.917],[6.2,1569.323],[6.4,1601.209],[6.6,1630.149],[6.8,1658.651],[7.0,1683.227],[7.2,1705.970],[7.4,1727.784],[7.6,1742.937],[7.8,1758.418],[8.0,1784.122],[8.2,1811.243],[8.4,1825.994],[8.6,1848.731],[8.8,1872.977],[9.0,1885.398],[9.2,1896.614],[9.4,1921.074],[9.6,1938.880],[9.8,1952.392],[10.0,1966.099],[10.2,1983.214],[10.4,2001.442],]