name=Czarnków drogą główną
slope=2.5km 2.4%
points=19.4
region=72
description=Nawierzchnia: szosa, stan dobry. Ruch samochodowy: bardzo duży.
Chyba najdłuższy w okolicy podjazd w pięknym Czarnkowie. Niestety szosa prowadzi przez centrum miasta i jest drogą wojewódzką, więc jest tu bardzo duży ruch (również dużo TIRów) i postoje w postaci świateł itp...
comments=
author=Virenque
segment=0
locations=[[1,52.90554839162144,16.5613220879776],[2,52.90551676429819,16.562824173762806],[3,52.9054525477653,16.56432229476013],[4,52.90530686007427,16.565795812873603],[5,52.90525475898161,16.56728992481999],[6,52.90500076684725,16.568732466695337],[7,52.90458186611475,16.570029014506417],[8,52.90402614351756,16.571214826984715],[9,52.90344504628626,16.572368040013657],[10,52.90287663044208,16.573537434838954],[11,52.90214711277352,16.57441011854121],[12,52.90136661017016,16.575174469597528],[13,52.90057720098562,16.575912799304888],[14,52.89979733200005,16.57667877274855],[15,52.89907275903676,16.577571766755227],[16,52.89842771569865,16.578627593534748],[17,52.8977889419733,16.579693866032358],[18,52.89714719418792,16.580755128707438],[19,52.89649868623149,16.581805075315856],[20,52.89581092643363,16.582781462654225],[21,52.89506028277674,16.583622395483644],[22,52.89431709307558,16.584481726588024],[23,52.89358016404646,16.585356741187525],[24,52.89284865879901,16.586242991095105],]
podstawa=[[13,52.90057720098562,16.575912799304888],['start',52.9055800,16.5598200],['meta',52.8921600,16.5872200]]
daneflot=[[0.0,41.669],[0.1,42.884],[0.2,46.235],[0.3,49.243],[0.4,51.857],[0.5,54.280],[0.6,58.000],[0.7,60.142],[0.8,62.012],[0.9,65.550],[1.0,65.126],[1.1,70.190],[1.2,71.403],[1.3,73.901],[1.4,76.116],[1.5,79.607],[1.6,80.589],[1.7,81.197],[1.8,84.863],[1.9,87.679],[2.0,92.256],[2.1,95.975],[2.2,98.983],[2.3,100.317],[2.4,102.096],[2.5,103.681],]