name=Wola Rafałowska od Chmielnika
slope=3.0km 4.6%
points=99.3
region=47
description=Nawierzchnia: szosa, stan dobry. Ruch samochodowy: mały.
Podjazd do Woli Rafałowskiej od strony Chmielnika w trochę innej i dłuższej wersji.
comments=
author=Barnaba
segment=0
locations=[[1,49.97917078875412,22.134823807578982],[2,49.9809339531848,22.135029736455976],[3,49.98270299963837,22.134949673381584],[4,49.98446344243596,22.135095938666836],[5,49.9861998662564,22.135632261136493],[6,49.98780276158709,22.135158518773665],[7,49.98949222049003,22.1359518738127],[8,49.99069755339598,22.13787690861568],[9,49.99137285924132,22.140354838779785],[10,49.99196511355051,22.142911876522817],[11,49.99239395135785,22.14438333923306],[12,49.99411458559229,22.144648407521572],[13,49.99579788620203,22.145247885893582],[14,49.99722774062974,22.14687286010053],]
podstawa=[[13,49.99069755339598,22.13787690861568],['start',49.9774700,22.1340800],['meta',49.9986300,22.1483000]]
daneflot=[[0.0,236.989],[0.2,252.503],[0.4,269.246],[0.6,285.214],[0.8,300.561],[1.0,314.706],[1.2,332.462],[1.4,347.750],[1.6,353.335],[1.8,352.176],[2.0,355.569],[2.2,353.570],[2.4,353.170],[2.6,359.865],[2.8,369.755],[3.0,375.817],]