name=Ujazdy od Błażowej
slope=5.6km 3.4%
points=127.4
region=47
description=Nawierzchnia: szosa. Ruch samochodowy: mały.
Podjazd przez Rezerwat Przyrody „Mójka". Ostoi m.in bobra europejskiego i salamandry plamistej.
comments=Dnia 2014-03-05 użytkownik kono123 dodał:
Początek dość stromy, po wyjechaniu początkowego odcinka widać miasteczko Błażową. Środkową część podjazdu pokonujemy w lesie, następnie juz odkrytym terenem na Ujazdy.
author=dlugi73
segment=0
locations=[[1,49.87293644758086,22.10107922135103],[2,49.87135910582168,22.099887321070014],[3,49.86964889292151,22.09907774063163],[4,49.86789711440665,22.098528906075217],[5,49.86610254381448,22.098315763002006],[6,49.86433813896672,22.097764318105533],[7,49.86254667604432,22.097522548589268],[8,49.86077738465341,22.09714354074947],[9,49.85902767940654,22.096589999999992],[10,49.85731724825096,22.097440309969443],[11,49.85553035362283,22.097692529258666],[12,49.85439914013543,22.096185147122696],[13,49.85394740561129,22.093502248297],[14,49.8528097446835,22.09139969990133],[15,49.85148196214782,22.089516845096455],[16,49.85021633064387,22.087529761726273],[17,49.84859779878856,22.087117227147246],[18,49.84683717547652,22.087704309699575],[19,49.84508801225235,22.088367658722518],[20,49.84334137987849,22.08904680671685],[21,49.84157829074509,22.089616538451992],[22,49.83979855954366,22.090026186397154],[23,49.83801414787999,22.09010854161113],[24,49.83624992984059,22.089547419464907],[25,49.83447956663778,22.08903601224449],[26,49.83269907794794,22.088916747630492],[27,49.83105183991174,22.08922513663765],]
podstawa=[[12,49.85148196214782,22.089516845096455],['start',49.8746000,22.1018200],['meta',49.8294300,22.0887100]]
daneflot=[[0.0,254.003],[0.2,273.769],[0.4,293.259],[0.6,308.482],[0.8,316.271],[1.0,331.125],[1.2,340.584],[1.4,347.935],[1.6,344.559],[1.8,355.758],[2.0,364.677],[2.2,363.943],[2.4,346.824],[2.6,343.151],[2.8,351.064],[3.0,366.097],[3.2,372.018],[3.4,378.980],[3.6,391.551],[3.8,401.004],[4.0,406.562],[4.2,411.197],[4.4,413.829],[4.6,416.792],[4.8,426.873],[5.0,435.142],[5.2,434.582],[5.4,435.632],[5.6,443.435],]