name=Brzozowiec  od Szczawnego
slope=3.8km 5.7%
points=145.6
region=35
description=Nawierzchnia: szosa, stan bardzo dobry. Ruch samochodowy: średni.
Nowo odremontowana szosa, kilka serpentyn, cerkiew połowie podjazdu
comments=
author=AdamW
segment=0
locations=[[1,49.40361571783753,22.152270999547227],[2,49.4042206408187,22.154802720493535],[3,49.4059005452461,22.15588182760314],[4,49.40726839577363,22.157692058376142],[5,49.407048135369,22.15589141349551],[6,49.40874473540022,22.156430268038662],[7,49.41034489229823,22.15699884691344],[8,49.41033190105973,22.158634548998975],[9,49.41080146848831,22.15954295856261],[10,49.41054899177298,22.162069994711487],[11,49.41188993889038,22.16389234994449],[12,49.41331450182736,22.165624876614856],[13,49.41451356326498,22.167723974175942],[14,49.41523641149806,22.17026218851629],[15,49.41589643431379,22.172820537289795],[16,49.41679969352856,22.17523409893647],[17,49.41625224768968,22.177871269418915],[18,49.41696201661709,22.18038909114148],]
podstawa=[[13,49.41054899177298,22.162069994711487],['start',49.4033100,22.1495100],['meta',49.4182900,22.1823000]]
daneflot=[[0.0,394.879],[0.2,408.485],[0.4,411.422],[0.6,425.951],[0.8,429.661],[1.0,441.304],[1.2,452.728],[1.4,465.341],[1.6,474.435],[1.8,484.875],[2.0,499.904],[2.2,518.483],[2.4,533.162],[2.6,548.073],[2.8,564.382],[3.0,578.745],[3.2,589.606],[3.4,590.667],[3.6,605.310],[3.8,613.043],]