name=Veli Vrh (wyspa Krk)  z Kornic (Chorwacja)
slope=6.4km 6.7%
points=338.8
region=125
description=Nawierzchnia: szosa+szuter, zmienny
Choć prowadzący główną droga przez wyspę, to świetny podjazd, głównie przez idealną asfaltową nawierzchnię i kapitalne walory widokowe. Startujemy z poziomu morza, wjeżdżając w zależności od wariantu na 341m lub 441m n.p.m. Właściwie podjazd główną droga kończy się na tej pierwszej wysokości ale po skręcie w prawo możemy podjechać jeszcze sto metrów w górę wąską ale całkiem dobrą drogą asfaltową używaną przez hodowców owiec.Jedyną przeszkodą na tej drodze są 3 bramy które trzeba sobie otworzyć i zamknąć za sobą aby owce nie pouciekały. Na samej górze widok na wyspę wynagradza trudy podjazdu. Jest fantastyczny. Ostatnie 500m nawierzchnia usypana jest drobnym szutrem ale bez problemu do podjechania na szosie. Ruch na głównej drodze jest rózny, w zależności od pory dnia. Najlepiej z samego rana bądź wieczorem, wtedy można delektować się pustką :) Na zjeździe ustanowiłem swój Vmax 81km/h. Na szosie byłoby więcej )
comments=
author=rmk
segment=0
locations=[[1,45.04185441698577,14.622995088991388],[2,45.04201980218323,14.62544968793543],[3,45.04233467066434,14.627926974026991],[4,45.04291758945466,14.630310877412967],[5,45.04419037311617,14.632010983659484],[6,45.04459304427039,14.634434654265306],[7,45.04416566833078,14.636829745530349],[8,45.04302704408566,14.638762396373409],[9,45.04174975047435,14.640530546035507],[10,45.04049818091826,14.642334626523507],[11,45.03926425011407,14.644163333805977],[12,45.03804851352662,14.646015606003061],[13,45.03696248211089,14.648006440953623],[14,45.03617500442299,14.65026931355169],[15,45.03569500068161,14.652697561661626],[16,45.03538457057697,14.655184817920713],[17,45.03477313258809,14.657559438087333],[18,45.0341154240164,14.65990976426906],[19,45.03338389129711,14.662216422734446],[20,45.03265170190026,14.664522634357809],[21,45.03175394195819,14.666683650412324],[22,45.03029894464326,14.668004232840644],[23,45.02997264084404,14.670459281924991],[24,45.02883829421333,14.672062700415495],[25,45.02714028935377,14.672597434195723],[26,45.02557508024889,14.673662498103113],[27,45.02384340001068,14.673871414202154],[28,45.02219979173518,14.673895730427716],[29,45.02046688812492,14.673521917057087],[30,45.01870895561675,14.673963244810466],[31,45.01714500722037,14.675048672731236],]
podstawa=[[13,45.03477313258809,14.657559438087333],['start',45.0409800,14.6207900],['meta',45.0166200,14.6774300]]
daneflot=[[0.0,2.795],[0.2,14.907],[0.4,27.769],[0.6,45.214],[0.8,60.994],[1.0,76.319],[1.2,93.417],[1.4,113.753],[1.6,132.713],[1.8,148.710],[2.0,163.236],[2.2,179.652],[2.4,195.899],[2.6,209.650],[2.8,223.636],[3.0,232.553],[3.2,235.065],[3.4,234.260],[3.6,239.660],[3.8,245.963],[4.0,258.931],[4.2,277.947],[4.4,298.510],[4.6,314.204],[4.8,321.006],[5.0,336.935],[5.2,352.172],[5.4,350.309],[5.6,364.071],[5.8,382.163],[6.0,402.199],[6.2,412.571],[6.4,430.135],]