name=Schönfeld   od Pichlern (Austria)
slope=14.6km 4.2%
points=440.7
region=102
description=Nawierzchnia: szosa, stan dobry. Ruch samochodowy: średni.
Taki wstęp do Nockalmstrasse. Niewielkie nachylenie, przewyższenie kilkaset metrów, brak zakrętów.
comments=
author=gavia 2621
segment=0
locations=[[1,47.08018103690429,13.723889600721805],[2,47.07857234218625,13.7249319549735],[3,47.07678892535093,13.724754447680539],[4,47.07501910114963,13.725087707872035],[5,47.07344467174418,13.723923863616392],[6,47.07171079793913,13.723280560318699],[7,47.07000752983388,13.723097529819483],[8,47.06838284180495,13.722061900429253],[9,47.06684977785572,13.720743427224875],[10,47.06524942449101,13.71964074973232],[11,47.06380128698047,13.718321047364952],[12,47.06222468267049,13.717122675303472],[13,47.06065222481416,13.715882107340576],[14,47.05903356542296,13.714765445674175],[15,47.05725023903415,13.71492763115009],[16,47.05551870878875,13.714380258111987],[17,47.05378980738541,13.713784220693242],[18,47.05212320529925,13.713120296041097],[19,47.05064630403359,13.711709659355506],[20,47.04896782180257,13.71083525729091],[21,47.04723727643599,13.710350000000062],[22,47.04545882008652,13.710570274402926],[23,47.04368242259184,13.710896591608503],[24,47.0419601985193,13.711587543479709],[25,47.04025325934762,13.71230774246726],[26,47.03887441616016,13.713948518294274],[27,47.0379395386903,13.716115734399864],[28,47.03710188645355,13.718292284993254],[29,47.03697983605253,13.720888849363405],[30,47.03661440959483,13.723369902785294],[31,47.03582718834033,13.725667957935116],[32,47.03515380609407,13.728012024579698],[33,47.03471536778893,13.730329045251324],[34,47.03449995161934,13.732821283671],[35,47.03443749796865,13.735349195039817],[36,47.03480044575226,13.73791472181108],[37,47.03486197204644,13.740477047487502],[38,47.03459550322167,13.743052689780484],[39,47.03398307444343,13.745479696159009],[40,47.03361137168189,13.74790287075109],[41,47.03302276088247,13.750348383654],[42,47.03204574049397,13.752547863537188],[43,47.03137854923815,13.754962901586396],[44,47.03034761462136,13.75706292595521],[45,47.0290085458898,13.758774011165883],[46,47.02766499232821,13.760476117919097],[47,47.02622884688274,13.761901381371217],[48,47.02449835388947,13.762591646252986],[49,47.02272370242995,13.762948674547033],[50,47.02096402625889,13.76323566499741],[51,47.01920766375611,13.763500584064104],[52,47.01758723051483,13.764546115453186],[53,47.0158037159371,13.764749608118564],[54,47.01402914713324,13.765093212560487],[55,47.01224856252942,13.765398115854282],[56,47.01049271050312,13.765447298181925],[57,47.00879059779228,13.766069470112257],[58,47.00707712923834,13.76553364098072],[59,47.00535531367137,13.76525737420127],[60,47.00360767317311,13.76509667683274],[61,47.00187305145657,13.765646159262587],[62,47.00012246494475,13.765852107187698],[63,46.99837778180437,13.766233922776564],[64,46.99663362695719,13.766803243592221],[65,46.99486505753291,13.767206998311849],[66,46.9931642893373,13.768034283991256],[67,46.99153127489997,13.769112077515501],[68,46.99006644888464,13.770625458703194],[69,46.98846568286545,13.77180815865529],[70,46.98676896568266,13.772616413017886],[71,46.98502147273796,13.773199263983543],[72,46.98374799652769,13.774896765470771],]
podstawa=[[11,47.03486197204644,13.740477047487502],['start',47.0818000,13.7228300],['meta',46.9823000,13.7760500]]
daneflot=[[0.0,1133.005],[0.2,1130.686],[0.4,1133.456],[0.6,1140.289],[0.8,1153.22],[1.0,1176.504],[1.2,1196.18],[1.4,1206.481],[1.6,1224.881],[1.8,1243.052],[2.0,1256.959],[2.2,1268.648],[2.4,1283.500],[2.6,1300.877],[2.8,1314.856],[3.0,1295.257],[3.2,1277.756],[3.4,1267.815],[3.6,1263.938],[3.8,1272.117],[4.0,1289.975],[4.2,1304.431],[4.4,1314.660],[4.6,1312.750],[4.8,1314.805],[5.0,1322.345],[5.2,1337.567],[5.4,1359.412],[5.6,1375.801],[5.8,1386.815],[6.0,1397.855],[6.2,1405.301],[6.4,1422.623],[6.6,1436.774],[6.8,1447.707],[7.0,1465.944],[7.2,1481.918],[7.4,1493.005],[7.6,1504.120],[7.8,1517.751],[8.0,1532.025],[8.2,1541.625],[8.4,1546.343],[8.6,1547.886],[8.8,1555.713],[9.0,1564.476],[9.2,1580.876],[9.4,1590.235],[9.6,1595.311],[9.8,1600.543],[10.0,1605.546],[10.2,1613.15],[10.4,1619.317],[10.6,1620.714],[10.8,1630.535],[11.0,1637.314],[11.2,1644.658],[11.4,1651.458],[11.6,1659.502],[11.8,1664.917],[12.0,1677.280],[12.2,1684.438],[12.4,1703.672],[12.6,1713.901],[12.8,1723.245],[13.0,1728.328],[13.2,1732.056],[13.4,1735.112],[13.6,1739.038],[13.8,1741.404],[14.0,1739.844],[14.2,1740.956],[14.4,1742.808],[14.6,1743.143],]