name=Pražská Bouda  zawijasami (Czechy)
slope=2.9km 9.8%
points=372.2
region=2
description=Nawierzchnia: szosa, stan dobry. Ruch samochodowy: minimalny.
Droga skryta w lesie. Zakrętasy, ale niestety nie jest lekko. Przed końcem możemy odbić w prawo dojedziemy wtedy asfaltem w pobliże Pensionu Mir, Nachodskiej Boudy. Możliwy stąd "atak" Leśnej Hory 1364 (szuter). Jest  to już nielegalna wycieczka choć nawierzchnia pozwala.
comments=
author=gavia2621
segment=0
locations=[[1,50.68728405507954,15.72679602576818],[2,50.68646014670707,15.726311997850189],[3,50.68576519840438,15.725446823907987],[4,50.6853668919016,15.72429323398535],[5,50.68462788402383,15.72355347268558],[6,50.68417871017839,15.722371941313895],[7,50.68384606618515,15.721385805926388],[8,50.68344008137717,15.72014418606227],[9,50.68308318231026,15.718865180901048],[10,50.68272243545516,15.717589852327364],[11,50.68270243073563,15.716356754717822],[12,50.68225394880817,15.71726891967569],[13,50.68209343921199,15.718627065486999],[14,50.68126504989816,15.719102475273417],[15,50.680449003608,15.719635592862119],[16,50.67961430757119,15.720004500174355],[17,50.67899280742463,15.721002220821106],[18,50.6783678723622,15.721995691716302],[19,50.67767078849072,15.722858772409609],[20,50.67697433344949,15.72372550071691],[21,50.67619122691981,15.72434056618431],[22,50.67536989954446,15.724865920931734],[23,50.67451375938159,15.725028216693545],[24,50.6736432439439,15.724762407984826],[25,50.67307418184019,15.725810800085242],[26,50.67250374530544,15.726846258292653],[27,50.6717544966087,15.727595515963685],[28,50.67116583989325,15.728495686800102],]
podstawa=[[13,50.680449003608,15.719635592862119],['start',50.6880600,15.7274100],['meta',50.6708800,15.7297600]]
daneflot=[[0.0,836.399],[0.1,851.152],[0.2,869.188],[0.3,882.240],[0.4,892.667],[0.5,899.626],[0.6,903.805],[0.7,910.573],[0.8,930.232],[0.9,947.321],[1.0,965.391],[1.1,974.788],[1.2,982.652],[1.3,981.309],[1.4,998.042],[1.5,1006.985],[1.6,1014.594],[1.7,1011.447],[1.8,1009.224],[1.9,1014.243],[2.0,1018.515],[2.1,1028.535],[2.2,1042.314],[2.3,1058.853],[2.4,1071.839],[2.5,1079.236],[2.6,1089.119],[2.7,1098.458],[2.8,1107.709],[2.9,1118.229],]