name=Vosecká Bouda  z Harrachova (Czechy)
slope=6.6km 6.1%
points=290.1
region=2
description=Nawierzchnia: szosa. Ruch samochodowy: minimalny.
Startujemy z Obwodnicy Harrachova, wąską droga cały czas pod górkę. Początkowo nie jest bardzo stromo, ale końcówka już cięższa. Możemy przedłużyć podjazd  i legalnie(jeszcze kilka lat temu był zakaz) wjechać  do schroniska Vosecka Bouda, ale tutaj szuter. Po drodze kilka malowniczych miejsc np. "Krkonoske Snidanie".
Tą samą drogą dojedziemy do przejścia w Jakuszycach. Ładna droga ale góra- dół.
comments=
author=gavia2621
segment=0
locations=[[1,50.77072208150481,15.444542917008334],[2,50.77097732519423,15.447345164100852],[3,50.77140056618127,15.450068972301096],[4,50.77102904564288,15.452838589463681],[5,50.77081609859935,15.45564735200037],[6,50.77062154483195,15.458276300797138],[7,50.76929009187633,15.460135439904093],[8,50.76862445213237,15.462560508652587],[9,50.77006148003444,15.46417457357984],[10,50.77171492380769,15.465197930009936],[11,50.77266273883168,15.467567843185293],[12,50.77213499234603,15.470022692411362],[13,50.77094294832634,15.472103108897272],[14,50.77014772782516,15.47464234290419],[15,50.76998909150284,15.477428619251327],[16,50.77019566829937,15.480243635227794],[17,50.7699324704316,15.482827664042816],[18,50.76850879455707,15.484535709482657],[19,50.76734794879403,15.486689583830184],[20,50.76591335014187,15.488312710808486],[21,50.76553784301063,15.490305684454484],[22,50.76582305890587,15.49300941158549],[23,50.76517000007453,15.495626082155468],[24,50.76582675258069,15.498194535084963],[25,50.76552242723116,15.500976022885652],[26,50.7658771071465,15.503732267085638],[27,50.76557508865256,15.506174962017667],[28,50.76656809422241,15.504113019712577],[29,50.76775078448136,15.50205185650475],[30,50.76908111293816,15.503234331494241],[31,50.77028642416829,15.505206996283277],[32,50.77203209346392,15.505850956574022],]
podstawa=[[13,50.7699324704316,15.482827664042816],['start',50.7705000,15.4417300],['meta',50.7738000,15.5060200]]
daneflot=[[0.0,727.446],[0.2,749.099],[0.4,759.790],[0.6,777.451],[0.8,798.424],[1.0,818.022],[1.2,827.309],[1.4,834.305],[1.6,844.289],[1.8,854.782],[2.0,868.408],[2.2,878.138],[2.4,886.895],[2.6,893.253],[2.8,901.739],[3.0,913.663],[3.2,927.988],[3.4,937.294],[3.6,941.043],[3.8,949.222],[4.0,959.484],[4.2,967.533],[4.4,977.303],[4.6,987.068],[4.8,998.184],[5.0,1019.826],[5.2,1033.075],[5.4,1039.692],[5.6,1046.930],[5.8,1061.509],[6.0,1081.719],[6.2,1102.882],[6.4,1118.814],[6.6,1133.246],]