name=Majdów z Bliżyna
slope=5.2km 2.3%
points=51.2
region=66
description=Nawierzchnia: szosa, stan dobry. Ruch samochodowy: mały.
Długi jak na tę okolicę podjazd w pobliżu Szydłowca i Skarżyska Kamiennej
comments=
author=arturc
segment=0
locations=[[1,51.10670176616303,20.758287157205473],[2,51.10810285489098,20.758332443000768],[3,51.10965857851295,20.75885096343177],[4,51.11135410184885,20.759982269257762],[5,51.11304797565719,20.761119896691298],[6,51.11474183842689,20.762257607528795],[7,51.11646037260564,20.76329018525098],[8,51.1181491374451,20.764443280765136],[9,51.11983136746749,20.765624105166467],[10,51.12151358559765,20.766805015564387],[11,51.12319579183396,20.767986011969697],[12,51.1248975351689,20.769087759910917],[13,51.12666124647023,20.769911682043357],[14,51.1284333354847,20.77069048923363],[15,51.1298556650415,20.770334567336135],[16,51.13033552213481,20.767506949580138],[17,51.13076127292114,20.764658116816463],[18,51.13127454078327,20.761901819750733],[19,51.13305250063328,20.762595657177712],[20,51.13482558601736,20.763368939984275],[21,51.13654757962154,20.764340738029205],[22,51.13810775709197,20.765879685753703],[23,51.13979583503121,20.767039637058588],[24,51.14148390149665,20.768199673194204],[25,51.14317195648677,20.76935979417101],]
podstawa=[[12,51.1284333354847,20.77069048923363],['start',51.1050400,20.7571900],['meta',51.1448600,20.7705200]]
daneflot=[[0.0,254.243],[0.2,261.824],[0.4,264.000],[0.6,266.715],[0.8,271.829],[1.0,279.328],[1.2,285.706],[1.4,294.887],[1.6,308.838],[1.8,321.044],[2.0,323.000],[2.2,320.642],[2.4,322.047],[2.6,324.221],[2.8,327.335],[3.0,327.268],[3.2,330.104],[3.4,331.451],[3.6,332.064],[3.8,330.714],[4.0,336.229],[4.2,348.188],[4.4,351.422],[4.6,351.339],[4.8,357.294],[5.0,367.905],[5.2,374.000],]