name=Pod Kamiennik od Zasania
slope=3.0km 7.1%
points=169.3
region=29
description=Nawierzchnia: szosa, stan fatalny. Ruch samochodowy: żaden.
Przyjemna wspinaczka, prowadząca lokalną dróżką z Zasania na północne zbocza góry Kamiennik. Chcąc zaliczyć ten podjazd w całości, musimy, jadąc drogą Wiśniowa-Trzemieśnia, odbić najpierw na północ, zjechać kawałek i zawrócić z powrotem w stronę Zasania. Niestety nie da się zaliczyć tego podjazdu jadąc od Kornatki, gdyż nie ma tam asfaltu. Początek nierówny, ze sporymi dziurami - ale może być gorzej. Po przejechaniu przez krzyżówkę droga momentami przypomina powierzchnię księżyca. Tylko końcowy fragment podjazdu to nowiutki, gładki asfalt. Tak samo jest na zjeździe do Lipnika. Podjazd można robić też właśnie z Lipnika, ale lepiej wtedy zjechać z powrotem do tej miejscowości, bo zjazd do Zasania może się źle skończyć.
comments=Dnia 2014-04-24 użytkownik Greek dodał:
Zapomniałem dodać, że ta wersja z odbiciem w stronę Kornatki to po prostu najbardziej stromy wariant. Jadąc od strony Trzemieśni jest to niespełna 4km, ze średnim nachyleniem 6.1%. Podjeżdżamy wtedy do góry ok. 20m więcej niż jadąc tą opcją.
author=Greek
segment=0
locations=[[1,49.82247218910456,20.049993337343267],[2,49.8215898361758,20.04966045723529],[3,49.82071107292702,20.049303785478287],[4,49.81983908963577,20.048917080708293],[5,49.81901908592425,20.049387529111982],[6,49.81816802342693,20.049866469028302],[7,49.81735694383563,20.050448847134476],[8,49.8167005439668,20.051335472811843],[9,49.81579820380075,20.051214757168623],[10,49.81492284208125,20.05083943947568],[11,49.81403560376298,20.050541746599265],[12,49.81316139679895,20.05017540731137],[13,49.81248249885122,20.050908531674622],[14,49.81185411463791,20.051914211169787],[15,49.81102367768938,20.052475225081253],[16,49.81021131504322,20.053098477776075],[17,49.80947269872623,20.05390605604373],[18,49.80868194023599,20.054578007243663],[19,49.80789911715312,20.055290396691248],[20,49.80707756045582,20.055881483863686],[21,49.80626598951148,20.05650507876976],[22,49.80538103063403,20.05667910534123],[23,49.80452633726991,20.05713480901568],[24,49.8036958755011,20.05766649296754],[25,49.80295463270669,20.05846717148347],[26,49.80214415272584,20.059100013719444],[27,49.80130587413053,20.05961477734604],[28,49.8004861412655,20.060194286622504],[29,49.7997020361166,20.060833505216806],]
podstawa=[[13,49.81021131504322,20.053098477776075],['start',49.8233700,20.0501900],['meta',49.7988700,20.0613400]]
daneflot=[[0.0,349.739],[0.1,356.595],[0.2,364.153],[0.3,368.266],[0.4,371.505],[0.5,377.194],[0.6,380.828],[0.7,385.139],[0.8,389.752],[0.9,396.574],[1.0,405.171],[1.1,416.841],[1.2,423.650],[1.3,432.172],[1.4,442.233],[1.5,451.030],[1.6,459.993],[1.7,468.582],[1.8,482.042],[1.9,494.060],[2.0,501.509],[2.1,506.520],[2.2,515.179],[2.3,519.620],[2.4,523.860],[2.5,529.781],[2.6,536.899],[2.7,543.594],[2.8,551.201],[2.9,555.401],[3.0,561.788],]