name=Księży Las z Kamieńca
slope=3.8km 1.8%
points=24.9
region=58
description=Nawierzchnia: szosa, stan średni. Ruch samochodowy: mały.
Szosa dziurawa jak ser szwarcarski
comments=
author=?
segment=0
locations=[[1,50.40476840616931,18.71253663054631],[2,50.40633766443635,18.711323166763464],[3,50.40798259213845,18.710375881794334],[4,50.40940275378547,18.708761789808364],[5,50.41100245032539,18.707662011006505],[6,50.41263389257236,18.706650305023004],[7,50.41426061224747,18.705620161181287],[8,50.41587917876205,18.704558756912775],[9,50.41753548549364,18.703657616388682],[10,50.41920805298476,18.702829755014363],[11,50.42094967081764,18.70250505600052],[12,50.42269246483637,18.70219200891438],[13,50.42443805438862,18.701919665598325],[14,50.42618149958851,18.701615004178734],[15,50.42792494399285,18.70131032032532],[16,50.42966842934538,18.701006205342765],[17,50.43141206972548,18.70070427517885],[18,50.43315566892083,18.700401748394825],]
podstawa=[[13,50.422,18.702829755014363],['start',50.4032500,18.7138600],['meta',50.4349000,18.7001100]]
daneflot=[[0.0,240.338],[0.2,256.344],[0.4,260.034],[0.6,263.891],[0.8,270.014],[1.0,273.336],[1.2,277.439],[1.4,280.031],[1.6,279.204],[1.8,279.151],[2.0,278.949],[2.2,281.660],[2.4,284.015],[2.6,286.555],[2.8,287.550],[3.0,293.975],[3.2,297.518],[3.4,303.067],[3.6,303.000],[3.8,308.844],]