name=Bacówka nad Wierchomlą
slope=10.0km 5.0%
points=370.4
region=32
description=Nawierzchnia: szosa+szuter, średni
Początek trasy taki jak podjazd Wierchomla Mała , ale obok kapliczki przed hotelem Wierchomla skręcamy w drogę gruntową w lewo do Bacówki. Jest to najlepsza droga gruntowa w Beskidzie Sądeckim/ lepsza od wielu betonówek i asfaltów/ do wyjechania rowerem szosowym.
comments=Dnia 2015-05-18 użytkownik airstreeem20 dodał:
Dobry sprawdzian przed Wielką Pardubicką.
author=Kuba
segment=0
locations=[[1,49.40445169462731,20.75472729407727],[2,49.40606250718812,20.755955509801993],[3,49.40775399608307,20.756875606377776],[4,49.40916667531157,20.758612643334914],[5,49.41050023482726,20.7604922891627],[6,49.41161070797092,20.762664017970224],[7,49.41215445807673,20.765299409188856],[8,49.4125492125338,20.768014514363017],[9,49.41303172381426,20.770686840939447],[10,49.41426061024912,20.77268121929717],[11,49.41511773368378,20.775127289203738],[12,49.41614500747215,20.77741093981183],[13,49.41760127101752,20.77899292806387],[14,49.41830162843827,20.78153377430658],[15,49.41958861297325,20.783285835451807],[16,49.42110739675014,20.78471916915464],[17,49.42282546383612,20.78542886754724],[18,49.42433928432718,20.786796583932755],[19,49.42550712655378,20.7889227302353],[20,49.42646087761665,20.791270507546187],[21,49.42741687813881,20.793605348284927],[22,49.42832616257312,20.795922567416028],[23,49.42915916037963,20.798344410519917],[24,49.43018107127723,20.800618191317085],[25,49.43155849417856,20.802420106733507],[26,49.43167371941138,20.804794209729494],[27,49.43141977298059,20.80751020599064],[28,49.4321419043935,20.80708744237495],[29,49.43259149641558,20.80622173011818],[30,49.43281904509973,20.80896217217503],[31,49.43270578316659,20.81169336276855],[32,49.43418080283916,20.813059962871648],[33,49.43570732448509,20.814535774812384],[34,49.43712331261425,20.81606792509433],[35,49.43813794328427,20.818233085078987],[36,49.43651472362021,20.818813148969184],[37,49.43496278103095,20.819149101183598],[38,49.43466926778023,20.8218482429063],[39,49.4349597348362,20.824565956087326],[40,49.43587977916951,20.82691357396584],[41,49.43737885632575,20.82837942814649],[42,49.43842690497441,20.830349973730677],[43,49.43965147154291,20.83222341472515],[44,49.44012182156818,20.83431542968799],[45,49.44012737279287,20.836922636013355],[46,49.4408404345041,20.83937224615204],[47,49.44075367350531,20.841777449379947],[48,49.43996053215425,20.84426180921696],[49,49.43891727103482,20.84652716262667],]
podstawa=[[12,49.43167371941138,20.804794209729494],['start',49.4032200,20.7531300],['meta',49.4374300,20.8477800]]
daneflot=[[0.0,403.202],[0.2,400.923],[0.4,407.670],[0.6,411.828],[0.8,417.630],[1.0,422.240],[1.2,423.162],[1.4,435.429],[1.6,442.986],[1.8,450.520],[2.0,448.888],[2.2,452.211],[2.4,456.516],[2.6,467.631],[2.8,465.456],[3.0,470.134],[3.2,480.166],[3.4,487.398],[3.6,480.738],[3.8,488.385],[4.0,495.910],[4.2,499.890],[4.4,505.790],[4.6,512.787],[4.8,517.012],[5.0,534.335],[5.2,545.481],[5.4,557.477],[5.6,571.525],[5.8,586.7],[6.0,610.51],[6.2,624.826],[6.4,646.602],[6.6,666.872],[6.8,688.633],[7.0,712.573],[7.2,725.973],[7.4,734.771],[7.6,743.866],[7.8,762.664],[8.0,776.191],[8.2,792.714],[8.4,810.385],[8.6,823.712],[8.8,829.880],[9.0,833.192],[9.2,842.226],[9.4,860.380],[9.6,875.999],[9.8,893.586],[10.0,903.339],]