name=Sierockie  z Białego Dunajca
slope=5.2km 6.0%
points=244.1
region=23
description=Nawierzchnia: szosa, stan dobry. Ruch samochodowy: mały.
Podjazd z Białęgo Dunacja do Sierockiego. Na trasie piękne widoki na tatry oraz Podhale. Zjeżdżają tędy kolarze na TDP.
comments=
author=hincza
segment=0
locations=[[1,49.37826031368039,20.00728628442016],[2,49.37699120519934,20.00543772194601],[3,49.3755919827793,20.003867829520345],[4,49.37452169939353,20.001711814712507],[5,49.3738641339586,19.99925876557859],[6,49.37371558851279,19.996517591377142],[7,49.37361220496373,19.993771636957945],[8,49.37329648451472,19.99107006038355],[9,49.37290679766723,19.98838632670686],[10,49.37238953600369,19.985761924988537],[11,49.3721166017906,19.983049013685786],[12,49.37177990739224,19.980361536634632],[13,49.37115607469017,19.977803149828333],[14,49.37031207293046,19.975381300974277],[15,49.36973360525049,19.972823539535966],[16,49.36888458503559,19.97040407023519],[17,49.36796416010276,19.968047054938552],[18,49.36706950967249,19.965805072894682],[19,49.36736456633063,19.963327477704524],[20,49.36806586326271,19.960801341710862],[21,49.36812603670661,19.958146685595807],[22,49.36646584300682,19.957631642769456],[23,49.36473711138326,19.956952082569615],[24,49.36299038342937,19.956401750984355],[25,49.36140122148439,19.955135699455695],]
podstawa=[[12,49.37031207293046,19.975381300974277],['start',49.3785200,20.0096200],['meta',49.3597600,19.9540400]]
daneflot=[[0.0,693.000],[0.2,702.657],[0.4,733.781],[0.6,763.017],[0.8,783.132],[1.0,787.568],[1.2,795.306],[1.4,811.166],[1.6,820.474],[1.8,828.144],[2.0,839.944],[2.2,852.440],[2.4,862.017],[2.6,870.245],[2.8,882.118],[3.0,897.098],[3.2,907.396],[3.4,918.277],[3.6,930.420],[3.8,940.464],[4.0,951.321],[4.2,968.366],[4.4,982.921],[4.6,993.400],[4.8,999.090],[5.0,1003.205],[5.2,1007.487],]