name=Podlas od Żeleźnikowa Mała
slope=1.2km 13.8%
points=245.4
region=32
description=Nawierzchnia: szosa, stan dobry. Ruch samochodowy: minimalny.
Jadąc od Nawojowej w lewo tuż przed podjazdem, który idzie dużym łukiem w prawo.
comments=
author=NiemPa
segment=0
locations=[[1,49.53410692586188,20.719730000000027],[2,49.5332303614856,20.71971505102988],[3,49.53303321757787,20.72079540320351],[4,49.53220735936202,20.720703167995907],[5,49.53144047081253,20.721409577990926],[6,49.53062581776447,20.721946411423573],[7,49.52979167219095,20.721592507867513],[8,49.52900062431282,20.721143833620772],[9,49.5283875908553,20.72198240933608],[10,49.52751294088032,20.721840755137805],[11,49.52662908124279,20.721658069446562],]
podstawa=[[14,49.52979167219095,20.721592507867513],['start',49.5349200,20.7201800],['meta',49.5257700,20.7213100]]
daneflot=[[0.0,485.439],[0.1,492.977],[0.2,502.234],[0.3,517.526],[0.4,529.843],[0.5,548.004],[0.6,565.876],[0.7,582.198],[0.8,590.483],[0.9,605.203],[1.0,618.783],[1.1,632.781],[1.2,651.285],]