name=Pardubické Boudy  (Czechy)
slope=9.0km 6.4%
points=572.8
region=2
description=Nawierzchnia: szosa, stan dobry. Ruch samochodowy: minimalny.
W okolicach  schroniska Pardubicke Boudy kończy się asfalt, ale możemy dalej szutrem dojechać do drogi rowerowej łączącej Jańskie Łaźnie przez Cerną Horę  z Pecem pod Snieżką.
Początkowo stromy kilometr odkrytego terenu, potem las. Cały czas wąski asfalt.
comments=
author=???
segment=0
locations=[[1,50.6600963768846,15.817146956178362],[2,50.65936384506956,15.814696922346002],[3,50.6588834210112,15.813495222502752],[4,50.66057429832936,15.812612850891128],[5,50.66152404269784,15.810329786755574],[6,50.66178170413307,15.807555001014634],[7,50.66090817766239,15.805388810686281],[8,50.659382483658,15.803938235779242],[9,50.65794222405744,15.802301819728655],[10,50.65689428005156,15.80005201492304],[11,50.65535218252133,15.798687394115404],[12,50.65385757828171,15.797345135688943],[13,50.65213263552353,15.79798914444666],[14,50.65037170025968,15.797953562644125],[15,50.64964461427762,15.795856530175797],[16,50.64980268561959,15.793163352624902],[17,50.64842753320728,15.792379139068316],[18,50.64665537854007,15.792127860101914],[19,50.64492677675535,15.791478138280581],[20,50.64330284302774,15.790504263304797],[21,50.64229419501192,15.788341459241906],[22,50.64391243485245,15.78820625760818],[23,50.6455573619002,15.787137582918263],[24,50.64730234037925,15.786579442992888],[25,50.64907675621104,15.786474864497109],[26,50.65085456352909,15.78662149165325],[27,50.65256408907893,15.787369563150833],[28,50.65420725558463,15.787667331154012],[29,50.65385171898541,15.78555286437836],[30,50.65245652799198,15.78384001488405],[31,50.65091014925775,15.78270763543037],[32,50.64918136930275,15.782123914763474],[33,50.64755388141089,15.78098528825592],[34,50.64654173634834,15.779595630674748],[35,50.64766637642017,15.777418455441193],[36,50.64883209990916,15.775318759780703],[37,50.65017299474589,15.773477005283326],[38,50.65163565960869,15.771894870996903],[39,50.65290838468001,15.769966619027741],[40,50.65413168531944,15.767930448149627],[41,50.6554544168021,15.766055525596698],[42,50.65647880373886,15.76378809248331],[43,50.65700779998889,15.76111201536878],[44,50.65726933438103,15.758332435428656],]
podstawa=[[13,50.6455573619002,15.787137582918263],['start',50.6592400,15.8192300],['meta',50.6572400,15.7556100]]
daneflot=[[0.0,579.017],[0.2,593.751],[0.4,624.172],[0.6,643.974],[0.8,664.153],[1.0,679.535],[1.2,703.271],[1.4,719.321],[1.6,741.115],[1.8,745.475],[2.0,756.678],[2.2,756.592],[2.4,767.962],[2.6,767.000],[2.8,769.090],[3.0,765.609],[3.2,783.214],[3.4,775.927],[3.6,771.985],[3.8,791.760],[4.0,801.023],[4.2,800.179],[4.4,820.919],[4.6,839.106],[4.8,859.924],[5.0,875.673],[5.2,898.548],[5.4,919.534],[5.6,930.729],[5.8,952.979],[6.0,960.007],[6.2,969.118],[6.4,969.193],[6.6,968.761],[6.8,964.801],[7.0,979.026],[7.2,988.018],[7.4,998.802],[7.6,1023.439],[7.8,1050.992],[8.0,1072.627],[8.2,1088.257],[8.4,1100.886],[8.6,1119.873],[8.8,1145.717],[9.0,1155.320],]