name=Jawornik Przedmieście od Szklary
slope=2.5km 3.4%
points=40
region=47
description=Nawierzchnia: szosa, stan średni  . Ruch samochodowy: średni  .
Uwaga na serpentynę w połowie podjazdu, niebezpieczna przy zjeździe
comments=
author=Narzew
segment=0
locations=[[1,49.87717490767348,22.245139182130288],[2,49.87802905082289,22.24477944971852],[3,49.87880837621118,22.244107778125112],[4,49.8795712971262,22.243391307751608],[5,49.88032590161409,22.242654099344918],[6,49.88101096769094,22.241770872678444],[7,49.88172043933888,22.24093662708026],[8,49.88247686772286,22.240204180479168],[9,49.88323615886461,22.23947838116203],[10,49.88401556383918,22.238806443132148],[11,49.88479958648961,22.23814698694082],[12,49.88549853744122,22.23826221101001],[13,49.88491725821041,22.239290665610497],[14,49.88434732986806,22.240351948863008],[15,49.88384597559011,22.241490545137935],[16,49.88385151898969,22.24282237914565],[17,49.88422923441887,22.244061591389027],[18,49.88411238788972,22.245419659787785],[19,49.88387319230453,22.24675294188887],[20,49.88363398143153,22.248086210777274],[21,49.88345642515932,22.249434202446764],[22,49.88371924406035,22.25075024360683],[23,49.8840149220676,22.252055151742752],[24,49.88423353819895,22.2533961507836],]
podstawa=[[14,49.88,22.24],['start',49.8764700,22.2452700],['meta',49.8843700,22.2547600]]
daneflot=[[0.0,287.330],[0.1,288.388],[0.2,291.165],[0.3,293.820],[0.4,294.161],[0.5,297.043],[0.6,302.584],[0.7,305.453],[0.8,308.186],[0.9,312.093],[1.0,316.612],[1.1,321.526],[1.2,330.915],[1.3,337.557],[1.4,341.047],[1.5,345.535],[1.6,351.198],[1.7,354.046],[1.8,353.505],[1.9,355.868],[2.0,357.172],[2.1,361.925],[2.2,363.416],[2.3,362.868],[2.4,366.531],[2.5,370.833],]