name=Czarnków (Chodzieska)
slope=1.7km 3.4%
points=25.3
region=72
description=Nawierzchnia: szosa, stan dobry. Ruch samochodowy: duży.
Długi podjazd przez centrum miasta.
comments=
author=alpin
segment=0
locations=[[1,52.9056010840394,16.561096818717147],[2,52.90554215001336,16.562563633444142],[3,52.90548319792197,16.564030444180048],[4,52.90530629591989,16.565468899289044],[5,52.90530116408513,16.566936719043838],[6,52.90507529426289,16.56835741412442],[7,52.90475388288495,16.56971512033806],[8,52.90419207977178,16.570851645677294],[9,52.9036290325159,16.571987153462032],[10,52.90307228220894,16.57313098607642],[11,52.90273600920579,16.574356661690217],[12,52.90257628578765,16.575802580166282],[13,52.90283236750364,16.577147892090352],[14,52.90339963245174,16.578264411675036],[15,52.90375289379805,16.579611706054493],[16,52.90424476714125,16.58082192387883],]
podstawa=[[14,52.9036290325159,16.571987153462032],['start',52.9056600,16.5596300],['meta',52.9048600,16.5818800]]
daneflot=[[0.0,41.680],[0.1,42.479],[0.2,45.408],[0.3,48.729],[0.4,51.353],[0.5,53.563],[0.6,57.451],[0.7,59.449],[0.8,61.719],[0.9,65.176],[1.0,65.239],[1.1,67.734],[1.2,70.727],[1.3,77.150],[1.4,80.608],[1.5,85.968],[1.6,94.404],[1.7,98.459],]