name=Sygneczów od Podstolic
slope=1.8km 6.1%
points=73.5
region=41
description=Nawierzchnia: szosa, stan dobry. Ruch samochodowy: minimalny.
Całkiem fajny, stromy podjazd treningowy o największym nachyleniu w środkowej części.
comments=
author=Pączek
segment=0
locations=[[1,49.9659025173796,19.999578139337927],[2,49.9667159095765,19.99898995093963],[3,49.96757718182096,19.998587185938618],[4,49.96844674021123,19.998233105634768],[5,49.96933447752641,19.998011023669278],[6,49.97022737078651,19.998096288005172],[7,49.97111783432574,19.998293110020086],[8,49.9719035367961,19.998901425873328],[9,49.97264957326652,19.99968259425691],[10,49.97339527322067,20.000464556774205],[11,49.97397984936564,20.00143032858341],[12,49.97422681367204,20.00277510148112],[13,49.97442746134246,20.004137147292113],[14,49.97454522716442,20.005521797446704],[15,49.9744775529177,20.006914698391483],[16,49.9743964345055,20.008307518494803],[17,49.97433485180209,20.009702653543172],]
podstawa=[[14,49.97339527322067,20.000464556774205],['start',49.9650200,19.9997400],['meta',49.9743500,20.0111000]]
daneflot=[[0.0,255.121],[0.1,263.803],[0.2,268.742],[0.3,276.221],[0.4,285.699],[0.5,294.257],[0.6,300.454],[0.7,309.363],[0.8,316.388],[0.9,322.135],[1.0,327.735],[1.1,333.876],[1.2,339.531],[1.3,344.420],[1.4,349.144],[1.5,351.976],[1.6,357.099],[1.7,362.787],[1.8,364.189],]