name=Havka  ze Spisska Stara Ves (Słowacja)
slope=5.4km 2.2%
points=116.6
region=28
description=Nawierzchnia: szosa, stan dobry. Ruch samochodowy: minimalny.
Kilka pierwszych zakrętów jest lekko fatygujących, ale następnie sama rekreacja i przyjemność małe nachylenie, niezła nawierzchnia, las, cisza i pusta szosa. W osadzie kończy się asfalt , lecz kilkadziesiąt metrów jeszcze wyżej można podjechać dobrą drogą gruntową. Z Havki trasy MTB prowadzą do Lechnicy i Zalesia.
comments=
author=jeżnarowerze
segment=0
locations=[[1,49.37599133041329,20.36685253788164],[2,49.37489354932435,20.369091547576318],[3,49.37440484672712,20.371687513662096],[4,49.3751471674496,20.37419723665994],[5,49.37470946083618,20.376949874280626],[6,49.3736178226171,20.37853633601833],[7,49.37185039453692,20.37795257539051],[8,49.37035073190874,20.37810014205047],[9,49.3685734378689,20.378510920954454],[10,49.36672766777144,20.378613463197325],[11,49.36491478156408,20.37912132617646],[12,49.36339030327441,20.3806976033037],[13,49.3617936038405,20.38210426838964],[14,49.3600570769047,20.383057327223128],[15,49.35823375214438,20.38331570314574],[16,49.35647743274848,20.384043497436778],[17,49.35498478883837,20.38567593118637],[18,49.35365498928297,20.38762855305822],[19,49.35250100641704,20.389829146074476],[20,49.35217475865477,20.392585775133625],[21,49.35140940579294,20.39516244896754],[22,49.35059427958279,20.39770477989441],[23,49.34970008820019,20.40011498899821],[24,49.34836604061987,20.40207181918936],[25,49.34667368216405,20.403186713113882],[26,49.34516363275231,20.404668243708556],]
podstawa=[[12,49.3600570769047,20.383057327223128],['start',49.3762500,20.3640800],['meta',49.3443400,20.4063600]]
daneflot=[[0.0,507.341],[0.2,528.521],[0.4,546.844],[0.6,566.766],[0.8,585.348],[1.0,570.835],[1.2,564.654],[1.4,565.230],[1.6,552.175],[1.8,548.292],[2.0,551.559],[2.2,544.052],[2.4,541.236],[2.6,544.469],[2.8,557.709],[3.0,554.788],[3.2,559.048],[3.4,569.343],[3.6,578.527],[3.8,586.204],[4.0,592.724],[4.2,588.583],[4.4,592.080],[4.6,595.734],[4.8,602.768],[5.0,614.412],[5.2,619.667],[5.4,627.465],]