name=Wał Trzebnicki z Pobiela
slope=1.1km 3.8%
points=17.7
region=51
description=Nawierzchnia: szosa. Ruch samochodowy: minimalny.
Droga asfaltowa jak na razie dziurawa
comments=
author=?
segment=0
locations=[[1,51.56671156265973,16.747732953945388],[2,51.56754441801455,16.74724779101507],[3,51.56842641173948,16.747349999999983],[4,51.56925489414095,16.747552105161503],[5,51.56985662976381,16.748595867465497],[6,51.57071334370987,16.74875660516068],[7,51.57159867501505,16.748809280024716],[8,51.57248400629667,16.74886195694046],[9,51.57336933755469,16.748914635908136],[10,51.57425466878914,16.748967316927974],]
podstawa=[[14,51.57071334370987,16.74875660516068],['start',51.5658700,16.7481600],['meta',51.5751400,16.7490200]]
daneflot=[[0.0,97.483],[0.1,100.118],[0.2,102.324],[0.3,105.025],[0.4,108.304],[0.5,112.099],[0.6,117.534],[0.7,123.570],[0.8,130.032],[0.9,133.326],[1.0,136.357],[1.1,138.742],]