name=Szczepanowice z Pleśnej
slope=2.2km 7.6%
points=166.4
region=43
description=Nawierzchnia: szosa, stan początkowo dobry, dalej średni. Ruch samochodowy: mały.
Podjazd z Pleśnej na krzyżówkę do górnych Szczepanowic z początkową, ostrą kilometrową ścianką - dalej łagodniej, ze spokojnym pochyleniem pod górkę. Wjazd na tempo wyzwala gwiazdki w oczach. Niezbyt szeroko, nawierzchnia przyzwoita, gdzieniegdzie spękania i rozsypane kamyczki z pobocza.
comments=
author=airstreeem20
segment=0
locations=[[1,49.92619072373744,20.943748521023394],[2,49.9256700005011,20.942670414089434],[3,49.92564878518857,20.941272145274525],[4,49.92551501164757,20.939890122218117],[5,49.92546636491309,20.93849725784696],[6,49.92541531311322,20.937103485934244],[7,49.92558563571102,20.93576316069789],[8,49.92592692060303,20.934468216051187],[9,49.92621426532624,20.93314293886806],[10,49.92662914337398,20.931902990103936],[11,49.92681000034355,20.93055050490625],[12,49.92709105037726,20.929235825822957],[13,49.92752529280764,20.92801005459819],[14,49.9281790226359,20.927135198952328],[15,49.92897742906056,20.926492570969685],[16,49.92962737487426,20.92553391572426],[17,49.93006864497895,20.92435193264646],[18,49.92983045477869,20.923016610001923],[19,49.92928855079431,20.921905957157037],[20,49.92874539109553,20.920796173205304],[21,49.92848942815298,20.91947917100447],]
podstawa=[[14,49.92709105037726,20.929235825822957],['start',49.9260800,20.9442100],['meta',49.9282200,20.9183800]]
daneflot=[[0.0,215.221],[0.1,215.506],[0.2,219.024],[0.3,225.217],[0.4,233.229],[0.5,246.690],[0.6,254.287],[0.7,266.293],[0.8,278.063],[0.9,292.291],[1.0,306.436],[1.1,318.476],[1.2,331.508],[1.3,342.324],[1.4,348.658],[1.5,352.386],[1.6,356.756],[1.7,358.676],[1.8,360.753],[1.9,364.515],[2.0,370.614],[2.1,376.128],[2.2,381.963],]