name=Kalwaria Pacławska od Huwnik
slope=3.8km 4.9%
points=150.9
region=48
description=Nawierzchnia: szosa. Ruch samochodowy: mały.
Podjazd do jednego z najważniejszych Sanktuariów Maryjnych na Podkarpaciu.Wzmożony ruch pielgrzymów w sierpniu.
comments=
author=dlugi73
segment=0
locations=[[1,49.65419040977323,22.694061717837485],[2,49.65344186379019,22.69333400729056],[3,49.65267183158796,22.692653422014814],[4,49.65194661537586,22.691859125387282],[5,49.65123074018512,22.6910451713195],[6,49.65047057324117,22.690742070303827],[7,49.64982287759359,22.69000013763616],[8,49.64907339833855,22.689286711419186],[9,49.6486275045188,22.689930867833482],[10,49.64930879371236,22.69078220564552],[11,49.64961932245276,22.69191542127612],[12,49.64896082037864,22.692433187596976],[13,49.64820868774685,22.692997411286456],[14,49.6477926241557,22.694208581993962],[15,49.64756060194858,22.695531964306042],[16,49.64704622619458,22.696642105433057],[17,49.64686473033042,22.697825912875032],[18,49.64746421704049,22.69879951905648],[19,49.64680370607686,22.699609848880527],[20,49.64598921142308,22.70016052604626],[21,49.64515066461349,22.700617306289814],[22,49.64429039339613,22.70091271944375],[23,49.64340182589189,22.70085863270151],[24,49.64252064262263,22.700681963741772],[25,49.64165968014694,22.70094783480465],[26,49.64083041555715,22.701440455704983],[27,49.6399836657946,22.701729726155236],[28,49.63910253560457,22.701830680418425],[29,49.63822426960157,22.70196490334115],[30,49.63733767567465,22.701860697300503],[31,49.63653570306752,22.702424755620882],[32,49.63571921396412,22.702968315108365],[33,49.63496020642051,22.703634554801283],[34,49.63428510247676,22.704520993704364],[35,49.63367484953095,22.704858184273917],[36,49.63308140845025,22.70472963137786],[37,49.63228669166883,22.70515760501894],]
podstawa=[[13,49.64598921142308,22.70016052604626],['start',49.6547800,22.6950800],['meta',49.6315000,22.7057700]]
daneflot=[[0.0,264.740],[0.1,264.289],[0.2,263.166],[0.3,264.262],[0.4,266.759],[0.5,266.490],[0.6,268.186],[0.7,267.407],[0.8,269.148],[0.9,273.029],[1.0,276.661],[1.1,288.484],[1.2,299.463],[1.3,309.031],[1.4,317.537],[1.5,327.320],[1.6,338.571],[1.7,351.431],[1.8,363.488],[1.9,372.022],[2.0,377.427],[2.1,386.055],[2.2,393.154],[2.3,398.310],[2.4,400.340],[2.5,400.630],[2.6,401.433],[2.7,403.229],[2.8,408.018],[2.9,416.892],[3.0,421.699],[3.1,427.568],[3.2,430.934],[3.3,433.608],[3.4,438.114],[3.5,440.568],[3.6,440.571],[3.7,443.711],[3.8,449.186],]