name=Tylicz
slope=3.2km 5.0%
points=127.8
region=32
description=Nawierzchnia: szosa, stan dobry. Ruch samochodowy: średni.
Trasa od skrzyżowania w dróg w kierunku Krynicy i Powroźnika w Tyliczu. Przyjemny podjazd w kierunku Krynicy.
comments=
author=Dasior
segment=0
locations=[[1,49.3948311149778,21.01712210869937],[2,49.39515859957984,21.0158839640128],[3,49.39549070696382,21.014648870052497],[4,49.39585111742248,21.013432493051823],[5,49.39621861399574,21.012222089672377],[6,49.39666628264465,21.01107707459812],[7,49.3970559289687,21.009883134704296],[8,49.39746616221642,21.008713712634517],[9,49.39814036334032,21.00787272806815],[10,49.39865988259893,21.006802140478044],[11,49.39914579498159,21.005693720821],[12,49.39957373576556,21.004538574862977],[13,49.39973459923811,21.00322873603352],[14,49.39988820648089,21.001913750758376],[15,49.40033578605276,21.000787023285284],[16,49.40110622330543,21.000174392098415],[17,49.40193702656318,20.999787771289334],[18,49.40276804484067,20.99940615632363],[19,49.4034996171644,20.998687055326968],[20,49.40407351904365,20.997689014270804],[21,49.40460381015839,20.99662963988851],[22,49.40513778573252,20.99557443691674],[23,49.40566403547284,20.994510175145365],[24,49.40605875824743,20.99332352485112],[25,49.40634876590998,20.9920633935061],[26,49.40662773764446,20.990797225401707],[27,49.40706672855551,20.989650843067466],[28,49.40735506536319,20.98840903156929],[29,49.40751330223016,20.98709521066496],[30,49.40804930851652,20.986088903517157],[31,49.40864560098532,20.9851489799064],]
podstawa=[[13,49.40193702656318,20.999787771289334],['start',49.3945200,21.0183700],['meta',49.4090100,20.9839700]]
daneflot=[[0.0,569.934],[0.1,576.252],[0.2,583.162],[0.3,588.703],[0.4,594.477],[0.5,599.600],[0.6,603.627],[0.7,608.013],[0.8,612.963],[0.9,618.846],[1.0,619.068],[1.1,621.175],[1.2,619.955],[1.3,617.111],[1.4,619.948],[1.5,625.909],[1.6,634.850],[1.7,646.081],[1.8,657.768],[1.9,660.828],[2.0,665.461],[2.1,672.870],[2.2,674.724],[2.3,678.694],[2.4,687.716],[2.5,698.000],[2.6,712.975],[2.7,716.320],[2.8,713.508],[2.9,714.667],[3.0,719.323],[3.1,722.905],[3.2,730.057],]