name=Orkanów z Kozubowa
slope=4.6km 2.9%
points=56.3
region=65
description=Nawierzchnia: szosa, stan dobry. Ruch samochodowy: mały.
Jeden z najdłuższych podjazdów Niecki Nidziańskiej. Niewielkie nachylenie, ale duże przewyższenie - z pewnością największe na Ponidziu. Za wsią Sadek skręcamy tak jak szosa - w lewo - i dojeżdżamy do przysiółka Mysiak (Orkanów) osiągając wierzchowinę Garbu Wodzisławskiego.
comments=
author=Stradovius
segment=0
locations=[[1,50.43462633475831,20.48222693245134],[2,50.43457000304448,20.47939770106541],[3,50.43459255692022,20.476564372191774],[4,50.43464225408525,20.47373183902539],[5,50.43470588238277,20.470900005222575],[6,50.43477202936064,20.468068294008958],[7,50.43483178131828,20.46523624144129],[8,50.43489261929455,20.462404262695827],[9,50.43498744470858,20.45957488974784],[10,50.43511537019248,20.456748408439353],[11,50.43526277543459,20.45392519902066],[12,50.43547508144552,20.451111218610095],[13,50.43568852427189,20.44829743748039],[14,50.43590254276857,20.445483751881397],[15,50.43611806796074,20.442670336565243],[16,50.43624030699148,20.439846824308916],[17,50.43623665959782,20.437023147855825],[18,50.43563812737149,20.434793283796353],[19,50.43608682844297,20.432065560006436],[20,50.43609343849209,20.42978383186596],[21,50.43518328877784,20.42748126632705],[22,50.43384025579303,20.425907521159047],]
podstawa=[[13,50.43547508144552,20.451111218610095],['start',50.4351200,20.4849400],['meta',50.4320700,20.4254000]]
daneflot=[[0.0,198.810],[0.2,200.252],[0.4,204.383],[0.6,208.444],[0.8,212.974],[1.0,218.864],[1.2,223.144],[1.4,230.679],[1.6,237.527],[1.8,244.443],[2.0,248.323],[2.2,250.488],[2.4,251.983],[2.6,255.605],[2.8,261.713],[3.0,268.312],[3.2,274.544],[3.4,279.521],[3.6,283.201],[3.8,286.249],[4.0,289.428],[4.2,304.876],[4.4,322.216],[4.6,332.745],]