name=Mordarka z Limanowej
slope=4.8km 7.3%
points=461.7
region=29
description=Nawierzchnia: szosa, stan dobry. Ruch samochodowy: zmienny.
Mistrzowski podjazd na stok łysogórski - najpierw ostro ulicą Leśną, a następnie, po obniżeniu ulicą Kasprowicza, wskakujemy na finalny podjazd przez osiedle Łazy w Mordarce, którym wkręcamy się od zaplecza, przez przysiółek przy łysogórskim szczycie, do końca asfaltu, aż pod szlabanik. Twarde przełożenia gwarantowane. Trasa jest popularna wśród biegaczy. Ruch - od małego, do zanikającego.
comments=
author=airstreeem20
segment=0
locations=[[1,49.70871028770601,20.42880400062495],[2,49.71009817300008,20.430487758509457],[3,49.71144205645328,20.432315318206975],[4,49.71291293389567,20.433909372284006],[5,49.71429278125571,20.435647928969956],[6,49.71560346525155,20.43752786899404],[7,49.71553000002682,20.440044525435496],[8,49.71522694726456,20.442766210224704],[9,49.71416450784547,20.444594485810057],[10,49.71264208738915,20.44573621364657],[11,49.71125608863377,20.447366815985333],[12,49.71024032496954,20.449655175745306],[13,49.70859614258974,20.44982299729338],[14,49.70921665182992,20.452419904287353],[15,49.70973562375451,20.45505330051367],[16,49.70969469209232,20.457828762128656],[17,49.7097670709416,20.460603603714503],[18,49.71085994786067,20.45977882663101],[19,49.71186774492673,20.459488177653952],[20,49.71281617606611,20.457748087965797],[21,49.7144938352176,20.458639041198012],[22,49.71553066101821,20.456528614317108],[23,49.71683247507164,20.45490194232775],]
podstawa=[[13,49.70859614258974,20.44982299729338],['start',49.7077600,20.4264600],['meta',49.7177600,20.4528700]]
daneflot=[[0.0,404.115],[0.2,430.620],[0.4,461.203],[0.6,483.406],[0.8,505.124],[1.0,521.531],[1.2,545.665],[1.4,564.065],[1.6,564.125],[1.8,553.395],[2.0,539.924],[2.2,537.937],[2.4,537.337],[2.6,529.021],[2.8,536.231],[3.0,542.836],[3.2,551.323],[3.4,566.267],[3.6,590.980],[3.8,618.568],[4.0,641.455],[4.2,665.372],[4.4,693.572],[4.6,724.896],[4.8,752.849],]