name=Żarnówka Duża
slope=1.8km 5.4%
points=76.8
region=21
description=Nawierzchnia: szosa, stan dobry. Ruch samochodowy: mały.
Spokojny podjazd niezbyt szerokim asfaltem wśród przyjemnej zieleni. Trasa raczej tylko na rozkręcenie nogi przed atakiem na Hrobaczą Łąkę, Nowy Świat lub Groniaki.
comments=
author=jeżnarowerze
segment=0
locations=[[1,49.79946945249234,19.18776603210813],[2,49.7996174216143,19.186385924417777],[3,49.79983485842296,19.185027729406784],[4,49.80024957458831,19.183802942786883],[5,49.80079943351245,19.182693697687682],[6,49.80109422655056,19.18139009905019],[7,49.80133624800077,19.18005684544164],[8,49.8011342231029,19.17875533850281],[9,49.80127757439426,19.177380938460715],[10,49.80115790483261,19.175998278867496],[11,49.80125297344865,19.17462373316721],[12,49.8015009717064,19.17327869135829],[13,49.80165273052104,19.17190321302496],[14,49.80173373537607,19.17050906220254],[15,49.80180001533354,19.169113111218735],[16,49.8020081920194,19.16775447963255],[17,49.80206230441127,19.1663595664819],]
podstawa=[[14,49.80115790483261,19.175998278867496],['start',49.7994400,19.1891600],['meta',49.8021400,19.1649700]]
daneflot=[[0.0,330.718],[0.1,334.502],[0.2,335.010],[0.3,341.375],[0.4,349.286],[0.5,354.009],[0.6,356.730],[0.7,366.464],[0.8,368.886],[0.9,369.438],[1.0,375.509],[1.1,385.062],[1.2,384.472],[1.3,387.822],[1.4,394.150],[1.5,400.288],[1.6,406.879],[1.7,414.690],[1.8,428.834],]