name=Przylasek z Budziwoja  z Budziwoja
slope=4.6km 3.6%
points=81.5
region=47
description=Nawierzchnia: szosa, stan dobry. Ruch samochodowy: średni.
Podjazd dosyć płaski, momentami powyżej 10% nachylenia. Jego trudność polega głównie na długości. 4,5km to jeden z dłuższych podjazdów w tej okolicy.
comments=
author=Haligówka
segment=1749161
locations=[[1,49.96227427212686,21.984833189405435],[2,49.96051769169446,21.984315430517427],[3,49.95877612244724,21.983669948449347],[4,49.95707885165783,21.982813716157352],[5,49.95536775869847,21.98202034431563],[6,49.95358952827572,21.9818052377816],[7,49.95181240954191,21.982097974429166],[8,49.95002795091904,21.981976465428488],[9,49.94826022374953,21.98153560582614],[10,49.94649520274132,21.981070073607157],[11,49.94514604939531,21.979368498672102],[12,49.94346290038142,21.978499048777053],[13,49.94171359707324,21.97806868737655],[14,49.93994420874809,21.978493567842634],[15,49.9383062018242,21.979590171921018],[16,49.93657175511516,21.980217771454022],[17,49.93496091808821,21.98134248152917],[18,49.9341269707967,21.983719452559512],[19,49.93359636269015,21.986366259084775],[20,49.93282186120333,21.988873683334305],[21,49.93226456508532,21.991516765071083],[22,49.93184832474407,21.994215961383816],]
podstawa=[[13,49.951,21.98],['start',49.9640600,21.9850200],['meta',49.9314900,21.9969400]]
daneflot=[[0.0,225.264],[0.2,235.247],[0.4,239.471],[0.6,244.587],[0.8,250.510],[1.0,258.312],[1.2,261.901],[1.4,265.002],[1.6,262.723],[1.8,263.815],[2.0,269.794],[2.2,284.921],[2.4,295.506],[2.6,309.870],[2.8,323.242],[3.0,331.295],[3.2,337.962],[3.4,347.561],[3.6,350.384],[3.8,360.854],[4.0,369.710],[4.2,381.682],[4.4,389.189],[4.6,390.994],]