name=Czarnów przez Kamieniołom
slope=5.4km 4.4%
points=148.6
region=5
description=Nawierzchnia: szosa, stan dobry, w pobliżu kamieniołomu dużo pyłu na drodze. Ruch samochodowy: mały, czasami ciężarówki.
Podjazd do najwyższego punktu drogi nad Czarnowem przejeżdżając obok kamieniołomu. Warto podjechać przy okazji wjazdu na Przeł Rędzińską. Alternatywa dla podjazdu przez Czarnów, ale bez tak trudnego odcinka jak na tej drugiej.
comments=
author=Menchov
segment=0
locations=[[1,50.78972100136218,15.952664990009453],[2,50.7912285734108,15.95112031626195],[3,50.79201787061385,15.948571136052124],[4,50.79323124634067,15.94658668750958],[5,50.79499603778236,15.946170626378944],[6,50.79676372996097,15.946658121905898],[7,50.79848947733646,15.947446420492724],[8,50.80027046610365,15.947541429679632],[9,50.80179840061982,15.946081466475562],[10,50.8031879457963,15.944425399439297],[11,50.80329905648764,15.941880932211006],[12,50.80349529428486,15.93905471327389],[13,50.80327093471646,15.936266126064197],[14,50.8037210199729,15.933566069408812],[15,50.80512727831632,15.931834322744635],[16,50.80594972229337,15.929360774070233],[17,50.80666334977163,15.926763805258815],[18,50.80791777752043,15.924751246529468],[19,50.80933017110591,15.922980727219397],[20,50.81078201479176,15.921303113404974],[21,50.81251822572059,15.920867134882883],[22,50.81370153250302,15.91880915311026],[23,50.81315863499312,15.91750073726405],[24,50.81139096362902,15.916990811591859],[25,50.80960848215025,15.916625673434396],[26,50.80786007318625,15.915974401741096],]
podstawa=[[12,50.8037210199729,15.933566069408812],['start',50.7883100,15.9544100],['meta',50.8062100,15.9151700]]
daneflot=[[0.0,516.690],[0.2,519.382],[0.4,524.528],[0.6,528.110],[0.8,538.592],[1.0,542.985],[1.2,546.290],[1.4,550.683],[1.6,556.133],[1.8,562.897],[2.0,569.592],[2.2,587.398],[2.4,593.316],[2.6,605.190],[2.8,606.170],[3.0,607.823],[3.2,620.939],[3.4,634.746],[3.6,633.959],[3.8,653.375],[4.0,671.738],[4.2,688.528],[4.4,694.283],[4.6,704.479],[4.8,713.078],[5.0,723.582],[5.2,742.381],[5.4,753.032],]