name=Szypliszki od Becejły
slope=2.5km 1.8%
points=36.8
region=94
description=Nawierzchnia: szosa, stan dobry. Ruch samochodowy: średni.
Podjazd rozpoczyna się na wyjeździe z Becejł i prowadzi szosą przez las aż do drogi krajowej nr. 8. Przez pierwsze kilkaset metrów trasa się wznosi i jest pofałdowana by na ostatnim kilometrze zapewnić nam finałowy podjazd.
comments=
author=???
segment=0
locations=[[1,54.26458822853834,23.046518955261377],[2,54.26425440607935,23.048005853143422],[3,54.26392160017523,23.04949359962825],[4,54.2635314962038,23.050936622082872],[5,54.26323817778182,23.052447455564334],[6,54.26300144930475,23.053983917020105],[7,54.26304278475868,23.055569506654706],[8,54.26312935812454,23.057154000616492],[9,54.26295339925687,23.05870429467973],[10,54.26243512579543,23.060022160628705],[11,54.26205293458486,23.06146981998495],[12,54.26130300627272,23.062334431367162],[13,54.26040649273017,23.06276208390568],[14,54.25950848790099,23.063180113687054],[15,54.25859656979848,23.06349658718682],[16,54.25775918802012,23.064138691754124],[17,54.25716146457151,23.06535684309631],[18,54.25655663456405,23.066567069396115],[19,54.25593327726759,23.06775000083576],[20,54.25530126789554,23.06891943994583],[21,54.25466924720681,23.070088843211806],[22,54.2541030619227,23.07134740375318],[23,54.2537292200924,23.072805208108434],[24,54.25337484232195,23.074278251506485],]
podstawa=[[13,54.26040649273017,23.06276208390568],['start',54.2650700,23.0451700],['meta',54.2529900,23.0756500]]
daneflot=[[0.0,180.537],[0.1,187.307],[0.2,192.361],[0.3,201.025],[0.4,209.652],[0.5,209.537],[0.6,210.108],[0.7,205.013],[0.8,206.119],[0.9,213.294],[1.0,213.595],[1.1,210.253],[1.2,211.000],[1.3,213.677],[1.4,211.247],[1.5,207.234],[1.6,202.943],[1.7,202.978],[1.8,205.922],[1.9,206.975],[2.0,210.992],[2.1,212.844],[2.2,216.314],[2.3,222.126],[2.4,225.077],[2.5,226.101],]