name=Żywiec Kocurów
slope=1.5km 5.7%
points=64.8
region=17
description=Nawierzchnia: szosa, stan dobry. Ruch samochodowy: minimalny.
Krótki podjazd na obszarze miasta. Na grzbiecie widoki.
comments=
author=turdus23
segment=0
locations=[[1,49.67473257556797,19.23375552332186],[2,49.67539592720358,19.234752845976914],[3,49.67627582904925,19.23456995341769],[4,49.67715943247089,19.234117380029375],[5,49.67804303412883,19.233664790194098],[6,49.6789244136389,19.23320197699104],[7,49.67980158134206,19.233338221794156],[8,49.6806909145557,19.233745228232465],[9,49.68161678892595,19.233836173042846],[10,49.68232403970755,19.232959568859997],[11,49.68308373214284,19.232138595156812],[12,49.6838512784216,19.2313401802013],[13,49.68475975469872,19.231115607498168],[14,49.68521169079858,19.23234978865048],]
podstawa=[[14,49.6806909145557,19.233745228232465],['start',49.6739400,19.2330200],['meta',49.6859300,19.2314700]]
daneflot=[[0.0,367.212],[0.1,368.633],[0.2,374.627],[0.3,378.869],[0.4,386.749],[0.5,392.427],[0.6,399.617],[0.7,407.219],[0.8,414.736],[0.9,418.855],[1.0,426.710],[1.1,436.914],[1.2,446.735],[1.3,452.446],[1.4,451.252],[1.5,455.664],]