name=Elżbietowo  z Żukowa
slope=2.2km 3.0%
points=27.8
region=78
description=Nawierzchnia: szosa, stan gładki asfalt. Ruch samochodowy: spory, potem niewielki.
Kilkudziesięciometrowy podjazd z pięknym widokiem na Żukowo (za plecami).
comments=
author=Turysta
segment=8856667
locations=[[1,54.34059035173006,18.352911049890963],[2,54.34033902025914,18.35150974195699],[3,54.34062944101365,18.349994753609735],[4,54.34063498659529,18.348398084334235],[5,54.3406389481796,18.346800503746522],[6,54.34085146294239,18.345264886490213],[7,54.34089250154323,18.34372700211088],[8,54.34088463905223,18.342544595114987],[9,54.34114030441986,18.341110445605068],[10,54.34154798038767,18.339676383497476],[11,54.34198085024554,18.338258599197616],[12,54.3421209679443,18.33670738416629],[13,54.34205381835821,18.335110773600945],[14,54.34198068816959,18.333514941068188],[15,54.34235712391906,18.332060253332656],[16,54.34315565587865,18.331336289770093],[17,54.34406442751388,18.330973401305982],[18,54.34497291514267,18.330608112133064],[19,54.3458850952757,18.33027187179846],[20,54.34667180133733,18.329438095287628],[21,54.34729170758423,18.32824267784565],]
podstawa=[[14,54.3421209679443,18.33670738416629],['start',54.3410100,18.3543300],['meta',54.3478400,18.3269500]]
daneflot=[[0.0,114.570],[0.1,115.140],[0.2,116.499],[0.3,121.044],[0.4,128.988],[0.5,132.653],[0.6,135.510],[0.7,138.004],[0.8,138.351],[0.9,139.579],[1.0,142.590],[1.1,146.711],[1.2,150.913],[1.3,153.866],[1.4,157.147],[1.5,161.593],[1.6,168.883],[1.7,171.585],[1.8,172.791],[1.9,175.878],[2.0,177.320],[2.1,179.522],[2.2,181.000],]