name=Chropaczów
slope=1.2km 1.8%
points=9.8
region=59
description=Nawierzchnia: szosa, stan średni. Ruch samochodowy: średni.
Na trasie widać tory tramwajowe, sklep Lidl i wieżowce.
comments=
author=strak
segment=0
locations=[[1,50.30091153953964,18.91202461526052],[2,50.30182011340251,18.912094828633485],[3,50.30272830073158,18.91217696875526],[4,50.30363643892181,18.912260476814026],[5,50.3045439261407,18.912357077394745],[6,50.30543617530785,18.912619362980422],[7,50.30630906963944,18.91301902156181],[8,50.30721040722527,18.91307319760608],[9,50.30806022131566,18.91257466031732],[10,50.30889348367901,18.912003126908758],[11,50.30972674324052,18.911431573470054],]
podstawa=[[14,50.30630906963944,18.91301902156181],['start',50.3001500,18.9118800],['meta',50.3105600,18.9108600]]
daneflot=[[0.0,281.227],[0.1,283.000],[0.2,282.911],[0.3,282.100],[0.4,280.947],[0.5,282.220],[0.6,286.801],[0.7,290.756],[0.8,291.655],[0.9,290.433],[1.0,293.420],[1.1,299.019],[1.2,302.940],]