name=Zielona Góra (Michalskiego)
slope=2.3km 2.5%
points=24.8
region=49
description=Nawierzchnia: szosa, stan dobry. Ruch samochodowy: średni.
Podjazd z ulicy Zawiszy Czarnego, prze rondo Botaniczna na Biedronkę.
comments=
author=Rico
segment=0
locations=[[1,51.9135123728336,15.508686754458267],[2,51.91399567663328,15.507468880962051],[3,51.91441085508409,15.506186752252233],[4,51.91465607721554,15.504795204140805],[5,51.91482827513865,15.503372473186687],[6,51.91484826054585,15.501928397300617],[7,51.91479000002062,15.500482553359348],[8,51.91522379013166,15.499471496709816],[9,51.91608648425759,15.49949418769836],[10,51.91695797981222,15.499820377052856],[11,51.91783006756226,15.500142386276707],[12,51.91869827547212,15.500490863700065],[13,51.91957336051505,15.500788467723623],[14,51.92046253706321,15.500944129220443],[15,51.92135297887288,15.501080944737396],[16,51.92224361362749,15.501214541853187],[17,51.92297502706009,15.5011451352525],[18,51.92360296485366,15.500197807284167],[19,51.92425518544451,15.49920865363265],[20,51.92488661162625,15.498181561167826],[21,51.92557220940351,15.49725039270379],[22,51.92626544694641,15.496333897652562],]
podstawa=[[13,51.91869827547212,15.500490863700065],['start',51.9129000,15.5096600],['meta',51.9269600,15.4954200]]
daneflot=[[0.0,127.281],[0.1,128.532],[0.2,129.180],[0.3,131.877],[0.4,131.999],[0.5,133.156],[0.6,135.113],[0.7,141.920],[0.8,144.234],[0.9,143.380],[1.0,144.000],[1.1,145.641],[1.2,146.698],[1.3,148.466],[1.4,150.188],[1.5,149.821],[1.6,152.533],[1.7,156.197],[1.8,159.811],[1.9,163.943],[2.0,167.428],[2.1,171.923],[2.2,179.182],[2.3,185.048],]