name=Rudzica od Iłownicy
slope=1.5km 5.5%
points=64.3
region=40
description=Nawierzchnia: szosa, stan dobry. Ruch samochodowy: żaden.
polecam kilka pętli na dogrzanie nogi przed dalszą wycieczką.
comments=
author=artur
segment=0
locations=[[1,49.8567997929166,18.849486534766925],[2,49.85606901867747,18.8504054457934],[3,49.8552638685463,18.85112385587047],[4,49.85574795247829,18.852216246202488],[5,49.85555823128202,18.853523800253015],[6,49.8559304003394,18.85486913262821],[7,49.85557834182607,18.856083469860437],[8,49.85490761889941,18.857050003843483],[9,49.8551763233902,18.858443578676656],[10,49.85479718408023,18.859584024375977],[11,49.85415272434994,18.860654149421634],[12,49.85362627242822,18.861869174345657],[13,49.85316868139467,18.863152726805424],[14,49.85270972718525,18.86432658107242],]
podstawa=[[14,49.85490761889941,18.857050003843483],['start',49.8572300,18.8482100],['meta',49.8522900,18.8641500]]
daneflot=[[0.0,263.260],[0.1,263.218],[0.2,263.602],[0.3,270.742],[0.4,274.642],[0.5,283.039],[0.6,287.239],[0.7,297.736],[0.8,307.527],[0.9,311.085],[1.0,316.952],[1.1,327.659],[1.2,336.705],[1.3,342.271],[1.4,345.188],[1.5,345.409],]