name=Zachełmna od Budzowa
slope=3.0km 4.8%
points=130.4
region=22
description=Nawierzchnia: szosa, stan dobry. Ruch samochodowy: mały.
Krótki ale dość intensywny podjazd z ładnymi widokami na końcu.
comments=
author=parurex
segment=0
locations=[[1,49.78905277489052,19.685044282338026],[2,49.79070349134604,19.685560369609448],[3,49.79235094239423,19.68517761984117],[4,49.7940625910039,19.685659999999984],[5,49.79567114572448,19.685886404830512],[6,49.79733590204433,19.6865491537028],[7,49.79850871639541,19.68852604223173],[8,49.80015442982437,19.6893978867912],[9,49.80184023167597,19.690087343781897],[10,49.80356614753844,19.690431867461598],[11,49.80507580808515,19.68945885784524],[12,49.80625739800857,19.687812245278337],[13,49.80779146889441,19.687416764196314],[14,49.8092263904518,19.688165009675345],]
podstawa=[[13,49.80015442982437,19.6893978867912],['start',49.7874600,19.6848200],['meta',49.8107200,19.6888900]]
daneflot=[[0.0,385.776],[0.2,391.191],[0.4,396.042],[0.6,401.770],[0.8,421.754],[1.0,437.641],[1.2,453.685],[1.4,446.869],[1.6,436.457],[1.8,438.360],[2.0,445.831],[2.2,462.762],[2.4,470.625],[2.6,493.574],[2.8,509.807],[3.0,530.260],]