name=Koprova Dolina  z Podbanskie (Słowacja)
slope=7.8km 3.2%
points=137
region=24
description=Nawierzchnia: szosa, stan średni. Ruch samochodowy: żaden.
Początkowy odcinek ścieżki pieszo-rowerowej wspólny z trasą do sąsiedniej, o podobnym charakterze Tichej Doliny. Niezłej jakości asfalt wije się wzdłuż Koprowskiego Potoku, do którego spływają wody z Vodopadu Kmetov (Niewcyrskie Śiklawy), 3 min pieszo od ścieżki.
Trasa rodzinna, z jednym tylko stromszym podjazdem
comments=Dnia 2015-05-04 użytkownik Kuba dodał:
Ten podjazd zaczyna się w Liptovskim Hradoku
author=jeżnarowerze
info@jerzyk.zakopane.pl
segment=0
locations=[[1,49.14273097668698,19.9066188244243],[2,49.14407922731972,19.90816513675213],[3,49.14524784042652,19.910188741595675],[4,49.14666988773501,19.911775010417614],[5,49.14828525536387,19.912875215330928],[6,49.14890077535387,19.91528953046793],[7,49.14937929545618,19.91788083974268],[8,49.15059672868355,19.919751602365295],[9,49.15149837841046,19.92206561801038],[10,49.15121862627974,19.924679615350442],[11,49.15058964134224,19.927212742655115],[12,49.14985115718668,19.929671152933565],[13,49.14988215929466,19.93226283334218],[14,49.14990302457283,19.93473258760241],[15,49.14974891160602,19.937349534107398],[16,49.14957675741734,19.94004601554525],[17,49.14982894886057,19.94263512967575],[18,49.15025104749144,19.945264941438836],[19,49.1500228679897,19.9479120314503],[20,49.15055382173257,19.950474954955098],[21,49.15110189421606,19.95304568025267],[22,49.15146785768697,19.95566857185463],[23,49.152524001559,19.957707290479902],[24,49.15328197281972,19.960068427661326],[25,49.15439614298097,19.962158520079583],[26,49.15564806315933,19.963789932716395],[27,49.15691650491578,19.96551690945182],[28,49.15827182610496,19.967027274065117],[29,49.16003752715032,19.966853158919662],[30,49.16180851885802,19.96688440215189],[31,49.16355160233302,19.967201108478434],[32,49.16525702771173,19.967827059913475],[33,49.1669338959343,19.968530190606316],[34,49.16848589672201,19.969800641798088],[35,49.16937738810477,19.97196827490552],[36,49.17010000046755,19.97421914395329],[37,49.17152881265172,19.975527226567237],[38,49.17322737610456,19.97624904027225],]
podstawa=[[12,49.15055382173257,19.950474954955098],['start',49.1410500,19.9058400],['meta',49.1747200,19.9776300]]
daneflot=[[0.0,943.492],[0.2,943.994],[0.4,951.016],[0.6,961.313],[0.8,963.187],[1.0,969.717],[1.2,979.395],[1.4,978.980],[1.6,984.605],[1.8,995.810],[2.0,1016.197],[2.2,1032.171],[2.4,1046.803],[2.6,1058.160],[2.8,1065.224],[3.0,1075.467],[3.2,1086.158],[3.4,1087.485],[3.6,1084.915],[3.8,1088.684],[4.0,1096.196],[4.2,1095.346],[4.4,1096.555],[4.6,1097.647],[4.8,1101.976],[5.0,1112.003],[5.2,1120.348],[5.4,1131.768],[5.6,1142.334],[5.8,1135.751],[6.0,1137.461],[6.2,1144.235],[6.4,1149.076],[6.6,1161.448],[6.8,1165.495],[7.0,1163.219],[7.2,1174.017],[7.4,1179.511],[7.6,1181.731],[7.8,1192.054],]