name=Chorągwica przez Miętniów
slope=4.0km 4.5%
points=120.5
region=41
description=Nawierzchnia: szosa, stan dobry. Ruch samochodowy: średni.
Podjazd rozpoczynający się w samym centrum Wieliczki i prowadzący na najwyższe wzniesienie w okolicy. W połowie trasy krótkie wypłaszczenie pozwalające złapać oddech a reszta to jednostajna wspinaczka bez stromych ścianek.
comments=
author=Artu
segment=0
locations=[[1,49.98342152327462,20.06675111632535],[2,49.98174609778784,20.06753795967552],[3,49.98104502351591,20.069380000000024],[4,49.9792607641594,20.069521076043202],[5,49.97747799709341,20.06971088413593],[6,49.97575507770554,20.069933679086944],[7,49.97411835165234,20.070893260638286],[8,49.97234667933109,20.07094256314042],[9,49.97071731136359,20.07152675412908],[10,49.96938455052883,20.073140892905712],[11,49.96846542234962,20.07549200921335],[12,49.96699740923142,20.076880257968355],[13,49.96624711794353,20.075470149198395],[14,49.96499526917425,20.074744852026015],[15,49.96332197573498,20.075714419483006],[16,49.96204405147772,20.07765207187606],[17,49.96125104704862,20.080025385738622],[18,49.96073542832364,20.082598885401012],[19,49.95933911148313,20.084319972418484],]
podstawa=[[13,49.974,20.07549200921335],['start',49.9842000,20.0643100],['meta',49.9584700,20.0865500]]
daneflot=[[0.0,241.769],[0.2,251.298],[0.4,261.728],[0.6,271.635],[0.8,280.551],[1.0,292.937],[1.2,298.141],[1.4,289.426],[1.6,297.755],[1.8,315.983],[2.0,333.653],[2.2,342.237],[2.4,363.857],[2.6,374.284],[2.8,376.529],[3.0,376.153],[3.2,386.296],[3.4,393.583],[3.6,401.294],[3.8,416.634],[4.0,421.959],]