name=Kozińce od Wisły
slope=2.6km 9.9%
points=325.4
region=16
description=Nawierzchnia: szosa, stan jest miejscami zły. Ruch samochodowy: minimalny.
Z szosy na Kubalonkę skręcamy w lewo w stronę osiedla Kozińce. Pnąc się w górę droga zamienia z asfaltu na płyty, ze względu na bardzo duże nachylenie i nagromadzony żwir przejezdna w całości tylko na terenowych oponach. Spod nadajnika na szczycie widoki, możliwość kontynuowania asfaltem na Kubalonkę.
comments=
author=turdus23
segment=0
locations=[[1,49.62193603188934,18.884589025472337],[2,49.62371543659594,18.884550760570164],[3,49.62321608417839,18.88696770748379],[4,49.6221173424637,18.88896488741807],[5,49.62297842705426,18.890707410828213],[6,49.62270747269104,18.893375347430833],[7,49.62191581022099,18.89581041502902],[8,49.62077677655422,18.897941777004576],[9,49.61933601588672,18.899261992107427],[10,49.61759304665853,18.898814586649564],[11,49.61588403583407,18.89838527283257],[12,49.6140953765559,18.898582819586977],]
podstawa=[[14,49.620,18.89581041502902],['start',49.6202900,18.8840000],['meta',49.6123100,18.8988200]]
daneflot=[[0.0,546.248],[0.2,560.114],[0.4,574.229],[0.6,592.510],[0.8,624.865],[1.0,643.110],[1.2,690.097],[1.4,721.530],[1.6,729.839],[1.8,749.817],[2.0,762.868],[2.2,771.100],[2.4,789.848],[2.6,802.079],]