name=Pogorzyce  z Zagórza
slope=1.0km 7.4%
points=68
region=64
description=Nawierzchnia: szosa, stan dobry, świeżo wyremontowany. Ruch samochodowy: niewielki.
Krótka, typowa ścianka. W połowie trasy piękny widok na Beskidy.  Ruch samochodowy jest niewielki, lecz trzeba uważać, bo trasa wąska
comments=
author=Tomo
segment=5559629
locations=[[1,50.09390132821998,19.411255585823596],[2,50.09474304208752,19.41154512040805],[3,50.09561661062963,19.411754724130105],[4,50.09646099931544,19.41152419112757],[5,50.09731463913171,19.41151755140072],[6,50.09802634922643,19.41231228306924],[7,50.09875254809139,19.41308776012079],[8,50.09932665153622,19.41409327918791],[9,50.09985938641197,19.415181023981404],]
podstawa=[[15,50.09802634922643,19.41231228306924],['start',50.0932600,19.4103100],['meta',50.1004400,19.4162000]]
daneflot=[[0.0,284.516],[0.1,287.430],[0.2,293.656],[0.3,303.219],[0.4,312.415],[0.5,324.096],[0.6,335.601],[0.7,345.966],[0.8,353.624],[0.9,358.031],[1.0,358.328],]