name=Wójtowice
slope=2.6km 10.4%
points=318.4
region=11
description=Nawierzchnia: szosa, stan średni. Ruch samochodowy: minimalny.
Perełka w Górach Bystrzyckich. Jeden z najbardziej stromych podjazdów w całej Kotlinie Kłodzkiej. Trochę ponad 2,5 km długości z morderczą końcówką. Podjazd wymagający dobrego przygotowania kondycyjnego.
comments=Dnia 2015-03-27 użytkownik Średni dodał:
Na pewno się tam niebawem pojawię będąc w rodzinnym domu.
author=Tomek
segment=0
locations=[[1,50.30310048898865,16.563876066635203],[2,50.30396235181585,16.564073187942427],[3,50.30481909080029,16.564047851478904],[4,50.30565263794166,16.563576145011552],[5,50.30649491362271,16.563146314810638],[6,50.30720620519324,16.56230953859813],[7,50.30747200695544,16.560996466839015],[8,50.30803111012575,16.560006773731175],[9,50.30848200571703,16.558863314921382],[10,50.30891661751109,16.55766276069005],[11,50.30939371681728,16.55652089175146],[12,50.30975552766687,16.555256999704397],[13,50.30987796619355,16.55387819176451],[14,50.31031338269479,16.55266445643906],[15,50.31082189155703,16.55157468907464],[16,50.31169010848843,16.551352902909457],[17,50.31245723093564,16.55067811533354],[18,50.3132752027276,16.550184797753104],[19,50.31400108352882,16.5493888602507],[20,50.31478057470689,16.548714770985498],[21,50.31563270000644,16.548411000045917],[22,50.31624652325379,16.547405317404127],[23,50.31696976152108,16.5465921004037],[24,50.31782609568335,16.546378520617964],[25,50.31862946023845,16.545883009698855],]
podstawa=[[14,50.31031338269479,16.55266445643906],['start',50.3024300,16.5647500],['meta',50.3185000,16.5447000]]
daneflot=[[0.0,444.130],[0.1,445.799],[0.2,458.199],[0.3,473.850],[0.4,488.592],[0.5,499.389],[0.6,516.297],[0.7,525.592],[0.8,533.458],[0.9,542.361],[1.0,553.882],[1.1,564.905],[1.2,572.517],[1.3,580.876],[1.4,590.820],[1.5,598.052],[1.6,610.006],[1.7,621.024],[1.8,627.432],[1.9,641.159],[2.0,649.922],[2.1,660.408],[2.2,671.445],[2.3,680.695],[2.4,697.247],[2.5,712.602],[2.6,713.798],]