name=Ludwikowo
slope=1.2km 3.8%
points=28.8
region=72
description=Nawierzchnia: szosa, stan dobry. Ruch samochodowy: mały.
Ciekawe urozmaicenie dla kolarzy trenujących podjazdy na Osowej Górze. Na mecie szpital płucny. Na jego terenie podjazd ciągnie się jeszcze trochę, ale to już za szlabanem.
comments=
author=mrkta
segment=0
locations=[[1,52.23513260780938,16.81735044236973],[2,52.23595831197593,16.816850323661583],[3,52.23678747412997,16.816372390858533],[4,52.23766149298144,16.81650000000002],[5,52.23849039010373,16.81605492827896],[6,52.23930358849416,16.81550275688437],[7,52.24011593576425,16.81494725666039],[8,52.2409273898941,16.814388263797355],[9,52.24173884138364,16.81382925049138],[10,52.24255772322579,16.813300308969474],[11,52.24338575821506,16.812816387425983],]
podstawa=[[14,52.24011593576425,16.81494725666039],['start',52.2344400,16.8179400],['meta',52.2442500,16.8125400]]
daneflot=[[0.0,62.925],[0.1,63.000],[0.2,64.856],[0.3,74.450],[0.4,83.534],[0.5,90.361],[0.6,94.351],[0.7,97.450],[0.8,101.367],[0.9,105.093],[1.0,106.845],[1.1,106.322],[1.2,108.748],]