name=Sługocin
slope=1.5km 1.7%
points=10.6
region=82
description=Nawierzchnia: szosa, stan średni. Ruch samochodowy: mały.
Droga jest stara i dziurawa. Trasa ta jest raczej poboczna, rzadko uczęszczana.
comments=Dnia 2015-03-08 użytkownik Narzew dodał:
Droga wyremontowana całkowicie, nie jest już stara i dziurawa tylko nowiutka, stan oceniam na bardzo dobry.
author=Narzew
segment=0
locations=[[1,51.30997837109953,22.36386504426855],[2,51.31081482346539,22.364428878375975],[3,51.31167996680013,22.36486351569306],[4,51.31256216744511,22.365201598576277],[5,51.31346553459949,22.365321495044668],[6,51.3143633044766,22.365215436073868],[7,51.31523768585619,22.36482857457554],[8,51.31608075906897,22.364300562645212],[9,51.31672247256616,22.363311734344506],[10,51.31730612369414,22.3622212989942],[11,51.31802701259025,22.361338839680798],[12,51.31875001734537,22.360460829444946],[13,51.31952746066871,22.359720677371115],[14,51.32035133296648,22.35911159449381],]
podstawa=[[14,51.31608075906897,22.364300562645212],['start',51.3091600,22.3632400],['meta',51.3212300,22.3587700]]
daneflot=[[0.0,192.486],[0.1,193.572],[0.2,194.790],[0.3,197.160],[0.4,202.026],[0.5,205.511],[0.6,205.706],[0.7,203.855],[0.8,201.373],[0.9,200.527],[1.0,203.899],[1.1,206.234],[1.2,209.988],[1.3,214.254],[1.4,217.417],[1.5,218.653],]