name=Bielsko-Biała (ks. Brzóski)
slope=1.8km 4.7%
points=68.3
region=40
description=Nawierzchnia: szosa, stan dobry. Ruch samochodowy: średni.
krótki ale ostry podjazd
comments=
author=3gibon
segment=0
locations=[[1,49.81729917455183,19.089138573142463],[2,49.81654841944632,19.089876842758144],[3,49.81566150785116,19.090054390869227],[4,49.81476739893282,19.090040930354235],[5,49.81387264562245,19.090002940926524],[6,49.81297762652668,19.089989999999943],[7,49.81278269983927,19.091058519652165],[8,49.81252314614571,19.092048580177902],[9,49.81205421586342,19.092918231855947],[10,49.81176344999491,19.094222691349046],[11,49.8110987471076,19.09512223407114],[12,49.81022688156003,19.095403345229556],[13,49.80937333561497,19.095821070900342],[14,49.80852084617573,19.096244016487503],[15,49.80766835519744,19.09666694717714],[16,49.80679502640333,19.096795363644105],[17,49.80591348889351,19.09655468308506],]
podstawa=[[14,49.81176344999491,19.094222691349046],['start',49.8180400,19.0883600],['meta',49.8050300,19.0963600]]
daneflot=[[0.0,364.608],[0.1,374.046],[0.2,385.109],[0.3,395.920],[0.4,404.146],[0.5,412.157],[0.6,414.669],[0.7,412.184],[0.8,410.952],[0.9,412.022],[1.0,415.692],[1.1,418.424],[1.2,422.148],[1.3,429.847],[1.4,436.604],[1.5,442.760],[1.6,448.906],[1.7,449.124],[1.8,449.585],]