name=Radomice  od Pilichowic
slope=4.6km 5.0%
points=187.8
region=4
description=Nawierzchnia: szosa, stan średni. Ruch samochodowy: żaden.
Zapomniana górka (trasa ) z Pilichowic do Radomic potem na Kleczę i do Wlenia. Kiedyś końcówka podjazu i przebicie do Kleczy była szutrowo-kamienista. teraz wyłożony nowy asfalt i cała trasa jest przejezdna na kolarzówce,można zakręcić niezłą pętelkę.
 Sama końcówka stroma ale najcięższy  kawałek to  poprzedzający ją kilkusetmetrowy odcinek.
Dane wysokościowe  dla tego miejsca coś nie za dokładne ale nachylenie nie schodzi tam poniżej 10% ,najczęściej 15%  jest też odcinek ponad 20% procentowy. Ten najstromszy odcinek można też zrobić lewą stroną. Na Google droga się urywa ale w rzeczywistości jest asfalt.
comments=
author=gavia2621
segment=0
locations=[[1,50.97983935299841,15.635909271055198],[2,50.98075974937708,15.633491562768768],[3,50.98144915831955,15.630848767951193],[4,50.98213437915132,15.628319574860939],[5,50.98242461196704,15.625547961774487],[6,50.98254254966358,15.62274093215683],[7,50.98260179026119,15.619870456955823],[8,50.98255317934234,15.617021437624999],[9,50.98320984188165,15.614514221966488],[10,50.98413089784,15.612099476477624],[11,50.98558341572171,15.610448400591281],[12,50.98706838855308,15.608823098153607],[13,50.98872506641339,15.608111586039058],[14,50.99044935465399,15.60812712523989],[15,50.99203550320697,15.609354563520583],[16,50.99367765352383,15.609953351496529],[17,50.9951182585746,15.611233913846263],[18,50.99671222439297,15.61240252414575],[19,50.99815564977764,15.613641692392093],[20,50.99969778661404,15.614758725571505],[21,51.00066427534099,15.616977153445873],[22,51.0006055126364,15.619768943068038],]
podstawa=[[13,50.98706838855308,15.608823098153607],['start',50.9791500,15.6383600],['meta',51.0009300,15.6224900]]
daneflot=[[0.0,238.768],[0.2,241.999],[0.4,245.740],[0.6,247.918],[0.8,254.863],[1.0,261.291],[1.2,272.365],[1.4,290.381],[1.6,323.863],[1.8,336.732],[2.0,348.269],[2.2,360.830],[2.4,366.694],[2.6,361.944],[2.8,373.259],[3.0,379.252],[3.2,387.534],[3.4,409.754],[3.6,427.234],[3.8,427.095],[4.0,427.769],[4.2,437.463],[4.4,451.856],[4.6,467.802],]