name=Wzgórza Habaliny od promu w Tropiu
slope=5.2km 3.4%
points=178.9
region=43
description=Nawierzchnia: szosa, stan zmienny. Ruch samochodowy: minimalny.
Fantastyczna wspinaczka po ekscytującym hopkach Habaliny, naszpikowana kombinacjami utrudnień - także od strony nawierzchni. Zjazd dostarcza szczególnych wrażeń widowiskowych - bez bezpośredniego zaznajomienia się z trasą i nawierzchnią zalecana ostrożność. Na trasie występują wielokrotne zmiany rodzaju nawierzchni od bardzo dobrej po przyniszczoną, a na tych odcinkach o gorszej jezdni mini muldki. Napotkać też można na niespodziewane ławiczki kamyczków.
comments=
author=airstreeem20
segment=0
locations=[[1,49.79600781820346,20.659614270133147],[2,49.79680537967436,20.661957103926397],[3,49.79709468151508,20.664395389326387],[4,49.79705113289128,20.666630104349906],[5,49.79799958917953,20.66891818764259],[6,49.79838156119874,20.671561856433982],[7,49.79830904346796,20.673990956663943],[8,49.79797094688222,20.67640381400531],[9,49.7981708724774,20.679114001210905],[10,49.79881921616186,20.681564114363255],[11,49.79933962350972,20.683987153424255],[12,49.79861378009348,20.68642165571066],[13,49.79838007289489,20.689119545493554],[14,49.79941531863248,20.69040019304134],[15,49.80035070389133,20.692632499509727],[16,49.80167219739719,20.694399005736045],[17,49.80268032414558,20.69568816237586],[18,49.80419112882921,20.694407293709105],[19,49.80572640116768,20.69309999999996],[20,49.80649727321718,20.695247397163826],[21,49.80601850389834,20.697860247236576],[22,49.80521408075231,20.70028950350752],[23,49.80517648050979,20.703003599172575],[24,49.805392877183,20.705713324389762],[25,49.80571848597354,20.708302620589848],]
podstawa=[[13,49.79941531863248,20.69040019304134],['start',49.7958300,20.6586800],['meta',49.8064800,20.7107100]]
daneflot=[[0.0,260.468],[0.2,274.276],[0.4,286.720],[0.6,287.844],[0.8,298.468],[1.0,321.136],[1.2,342.047],[1.4,341.492],[1.6,349.316],[1.8,357.798],[2.0,358.064],[2.2,369.468],[2.4,350.111],[2.6,336.835],[2.8,332.429],[3.0,324.459],[3.2,332.420],[3.4,352.196],[3.6,372.253],[3.8,393.223],[4.0,387.836],[4.2,384.174],[4.4,389.316],[4.6,399.295],[4.8,403.605],[5.0,419.194],[5.2,433.980],]