name=Zawada Lanckorońska
slope=2.2km 4.8%
points=98.2
region=42
description=Nawierzchnia: szosa, stan dobry. Ruch samochodowy: mały.
Krótki, ostro wyprofilowany podjazd przez Zawadę. Po przełamaniu za poprzecznym odbiciem - małe siodełko - po którym następuje lekka poprawka, a za kolejnym odbiciem  finalizujemy podjazd obok masztu.
comments=
author=airstreeem20
segment=0
locations=[[1,49.87083314710235,20.805339187020763],[2,49.87158582611319,20.804681520019244],[3,49.87232257285083,20.803953665381414],[4,49.87299154198593,20.803076493671142],[5,49.87359952311565,20.802101913154615],[6,49.87413811556842,20.801032871788834],[7,49.87474776368187,20.800143800189517],[8,49.87530872274318,20.799931461602796],[9,49.87553201113478,20.801202011126406],[10,49.87640010886183,20.801289978227715],[11,49.87722340675163,20.800843309933498],[12,49.87807144384839,20.80102550803838],[13,49.87889558080518,20.800630697770316],[14,49.8797384448489,20.8009019003066],[15,49.88049697939215,20.801563699434496],[16,49.88126185042565,20.802222591373834],[17,49.88211549214909,20.802478145637565],[18,49.88297025910221,20.802762185170195],[19,49.88382023303674,20.802571829166823],[20,49.88359640062367,20.803550760131657],[21,49.88317984560318,20.804746817680098],]
podstawa=[[14,49.87807144384839,20.80102550803838],['start',49.8702200,20.8063100],['meta',49.8827600,20.8059400]]
daneflot=[[0.0,210.475],[0.1,215.755],[0.2,224.011],[0.3,232.869],[0.4,240.909],[0.5,247.312],[0.6,254.142],[0.7,262.638],[0.8,275.206],[0.9,283.530],[1.0,294.071],[1.1,297.700],[1.2,291.488],[1.3,284.857],[1.4,278.748],[1.5,284.334],[1.6,294.478],[1.7,300.410],[1.8,304.848],[1.9,305.931],[2.0,310.744],[2.1,314.793],[2.2,316.758],]