name=Bychawa
slope=3.0km 1.4%
points=13.5
region=82
description=Nawierzchnia: szosa, stan dobry. Ruch samochodowy: średni.
Pare hopek
comments=
author=jajo
segment=0
locations=[[1,51.05838270144761,22.532921712149005],[2,51.05654855290769,22.53344821987173],[3,51.05471462133297,22.53397662298812],[4,51.0528806873761,22.534504984252294],[5,51.05104675103742,22.53503330367039],[6,51.04921281231725,22.535561581248203],[7,51.04737886262188,22.536089741490514],[8,51.04554490947786,22.536617850523044],[9,51.04371095395418,22.53714591773985],[10,51.04187931668165,22.537693712980058],[11,51.04004365087162,22.538206485683077],[12,51.0382074263836,22.538713937128477],[13,51.03635960124738,22.53909771780809],[14,51.03450802810993,22.5394361009121],]
podstawa=[[13,51.049,22.536617850523044],['start',51.0601800,22.5334400],['meta',51.0326500,22.5396300]]
daneflot=[[0.0,206.679],[0.2,209.778],[0.4,213.937],[0.6,219.330],[0.8,223.901],[1.0,223.507],[1.2,223.176],[1.4,224.119],[1.6,227.194],[1.8,228.175],[2.0,225.256],[2.2,226.740],[2.4,232.763],[2.6,232.021],[2.8,242.274],[3.0,248.715],]