name=Święta Katarzyna z Bodzentyna
slope=8.6km 1.7%
points=81.3
region=33
description=Nawierzchnia: szosa, stan średni. Ruch samochodowy: duży.
Duży ruch tirów, autokarów. Po drodze kilka wypłaszczeń i hopek.
comments=
author=m
segment=0
locations=[[1,50.93962936006776,20.94691624034772],[2,50.93863042611923,20.944622483738613],[3,50.93833348440543,20.941871227731667],[4,50.93750598066286,20.939356668750293],[5,50.93645178893535,20.93707549779174],[6,50.93555705231085,20.9346651897431],[7,50.93496996867206,20.93198319569001],[8,50.93412562460858,20.92949092192464],[9,50.93311424628577,20.927159116518737],[10,50.93184410746996,20.92515939297175],[11,50.93054178546513,20.923212677415563],[12,50.92904032509131,20.921679834388442],[13,50.92793826871702,20.919506717763852],[14,50.9267418512214,20.917471851199025],[15,50.9252512039466,20.91590143914675],[16,50.92416628854804,20.913732327677508],[17,50.92337246039088,20.91119192795304],[18,50.92276566380556,20.90853265984333],[19,50.92166949948476,20.90630055991187],[20,50.92077461901108,20.903844891856124],[21,50.92018473025969,20.901169279339683],[22,50.91945100311577,20.898584910927752],[23,50.91834604037323,20.896372249551405],[24,50.91749708526186,20.893900026085475],[25,50.91660994507276,20.891463046926333],[26,50.91556668365085,20.88915713598624],[27,50.91452337681519,20.886851328432954],[28,50.91329469445449,20.884897091977564],[29,50.91155038783324,20.884309769415495],[30,50.91002449030429,20.88283685764077],[31,50.90842883522219,20.88159787298173],[32,50.90667335248583,20.881115150816072],[33,50.9048870160151,20.881159402388562],[34,50.90309894282099,20.88123982948491],[35,50.90145700880912,20.880269690572504],[36,50.90023556632666,20.87823263176074],[37,50.89894076346543,20.876280574649627],[38,50.89748544965933,20.87467181652346],[39,50.89586187605497,20.873602644835387],[40,50.89453001410605,20.87173192159787],[41,50.89366912882225,20.869265494091906],[42,50.89249544823128,20.867124268838552],]
podstawa=[[12,50.91945100311577,20.898584910927752],['start',50.9396600,20.9496400],['meta',50.8913800,20.8649200]]
daneflot=[[0.0,272.000],[0.2,274.239],[0.4,279.851],[0.6,287.087],[0.8,294.372],[1.0,301.391],[1.2,310.714],[1.4,319.413],[1.6,325.789],[1.8,334.638],[2.0,332.840],[2.2,335.135],[2.4,345.640],[2.6,343.308],[2.8,345.143],[3.0,341.837],[3.2,332.770],[3.4,329.740],[3.6,324.126],[3.8,320.225],[4.0,311.129],[4.2,308.561],[4.4,317.404],[4.6,318.450],[4.8,317.927],[5.0,311.860],[5.2,306.832],[5.4,309.761],[5.6,310.976],[5.8,312.661],[6.0,315.806],[6.2,321.681],[6.4,331.134],[6.6,340.314],[6.8,347.986],[7.0,360.960],[7.2,371.300],[7.4,384.933],[7.6,394.735],[7.8,396.559],[8.0,397.073],[8.2,401.900],[8.4,410.768],[8.6,413.652],]