name=Serpentyny Domaradzkie
slope=2.3km 6.3%
points=114
region=47
description=Nawierzchnia: szosa, stan b. dobry. Ruch samochodowy: Średni.
Bardzo fajny podjazd, wymagający z bardzo dobrym asfaltem. Ruch samochodowy jest 
średni, zależy od pory dnia. Dodane przez użytkownika: Beymont.
comments=
author=???
segment=3518387
locations=[[1,49.79463942393794,21.94863734468072],[2,49.79542962547418,21.949298276078594],[3,49.79621982325154,21.94995922904627],[4,49.79700968150628,21.95062115522319],[5,49.79768775736429,21.950705468633032],[6,49.79726000000116,21.949488186699227],[7,49.79789941790348,21.949279333422737],[8,49.79870463034143,21.949841543318144],[9,49.79946239490938,21.949377746686537],[10,49.80015556337879,21.948667125094744],[11,49.80096791363999,21.949217435511173],[12,49.80173665172914,21.949936192959512],[13,49.80249847257372,21.95067285234245],[14,49.80309737575861,21.951684492526056],[15,49.8035788585656,21.952858875408197],[16,49.80399705524273,21.954085933590363],[17,49.80421424676218,21.955435402523335],[18,49.80439957409786,21.956796871052006],[19,49.80482176228293,21.958011463884986],[20,49.80535267649205,21.95913361592045],[21,49.80578628129688,21.960346279504392],[22,49.80611606284469,21.961639318792322],]
podstawa=[[14,49.79921730076509,21.952786445617676],['start',49.7940300,21.9478100],['meta',49.8062600,21.9630000]]
daneflot=[[0.0,251.986],[0.1,258.918],[0.2,268.817],[0.3,276.180],[0.4,285.060],[0.5,295.188],[0.6,295.552],[0.7,307.772],[0.8,317.921],[0.9,327.191],[1.0,334.743],[1.1,339.448],[1.2,348.280],[1.3,354.636],[1.4,361.753],[1.5,369.954],[1.6,374.284],[1.7,375.643],[1.8,378.311],[1.9,379.705],[2.0,384.672],[2.1,390.465],[2.2,393.886],[2.3,396.172],]