name=Gorzków od Złotego Potoku
slope=2.4km 4.0%
points=59
region=61
description=Nawierzchnia: szosa, stan dobry. Ruch samochodowy: minimalny.
Warto odwiedzić ten w sumie mało znany region i podjazd ze względu na unikalne widoki. Obojętne w którą stronę się pojedzie i tak się trafi w fajne miejsce. Podjazd ma w sobie krótki zjazd, ale bardzo krótki i od razu zaczyna się ponownie. Widoki fajne i na szczycie i na dole.
comments=
author=xtnt
segment=0
locations=[[1,50.68502412728328,19.46853455450946],[2,50.68336780462371,19.469687801302825],[3,50.6817136900817,19.470848943912415],[4,50.68006187593558,19.472018167918236],[5,50.67841124173074,19.47318928110633],[6,50.67668708849033,19.474030330263986],[7,50.6749720894495,19.47489036166644],[8,50.67317626747543,19.475237634934047],[9,50.67136686374479,19.475279686373142],[10,50.66986521553802,19.473838468241524],[11,50.66847484905174,19.47202488299081],]
podstawa=[[13,50.6749720894495,19.47489036166644],['start',50.6866800,19.4673800],['meta',50.6668100,19.4710600]]
daneflot=[[0.0,292.089],[0.2,297.167],[0.4,299.577],[0.6,305.528],[0.8,309.641],[1.0,313.393],[1.2,326.107],[1.4,339.561],[1.6,351.138],[1.8,349.591],[2.0,360.650],[2.2,381.791],[2.4,387.614],]