name=Skarpa Połaniec
slope=0.6km 3.5%
points=13.1
region=65
description=Nawierzchnia: szosa, stan dobry. Ruch samochodowy: bardzo maly.
Krótka ścianka w Połańcu, jeden nawrót.
comments=
author=?
segment=0
locations=[[1,50.41705157129242,21.286822075107693],[2,50.41762106335851,21.287821898845323],[3,50.41827963933642,21.288751807524932],[4,50.41899173065448,21.289563384334087],[5,50.41943203385683,21.28969057790016],]
podstawa=[[15,50.41899173065448,21.289563384334087],['start',50.4162800,21.2866600],['meta',50.4190300,21.2884900]]
daneflot=[[0.0,162.237],[0.1,170.931],[0.2,172.310],[0.3,173.573],[0.4,173.786],[0.5,177.630],[0.6,183.682],]