name=Sołtysi Dział od Harbutowic
slope=4.8km 5.3%
points=219.6
region=22
description=Nawierzchnia: szosa. Ruch samochodowy: żaden.
Z początku łatwy podjazd zamienia się w końcówce w walkę o przetrwanie na ponad 20% fragmencie. Prowadzi dość wąską drogą, głównie przez las.
comments=
author=Greek
segment=5297695
locations=[[1,49.81641348356651,19.783456025034184],[2,49.81468200469845,19.782913171762402],[3,49.81309737309311,19.78172822936608],[4,49.81191170769502,19.779666202349972],[5,49.81040917920612,19.77832236733093],[6,49.80933022577756,19.77631708338606],[7,49.80796770265013,19.774737387307937],[8,49.80642909291333,19.7733261173006],[9,49.80526495187713,19.77119364720886],[10,49.80398937805072,19.76923682330721],[11,49.8023250080706,19.768162462231203],[12,49.80059349624015,19.767421318830884],[13,49.79879987741342,19.76755288948584],[14,49.79714439315187,19.7667309800147],[15,49.7955480439903,19.765579459828245],[16,49.79376950894682,19.76565959064783],[17,49.79259692732165,19.763568301098758],[18,49.791912073026,19.760994762798305],[19,49.79167000010706,19.75823696721045],[20,49.79104776286739,19.756975774277976],[21,49.7897506355221,19.755050408937336],[22,49.78805180900781,19.754177514751063],[23,49.78643479077561,19.754694095602872],]
podstawa=[[13,49.80179987741342,19.76755288948584],['start',49.8180500,19.7823700],['meta',49.7851400,19.7541100]]
daneflot=[[0.0,348.885],[0.2,353.059],[0.4,355.116],[0.6,361.501],[0.8,365.820],[1.0,372.001],[1.2,374.400],[1.4,379.520],[1.6,385.830],[1.8,390.521],[2.0,395.637],[2.2,405.361],[2.4,419.148],[2.6,424.154],[2.8,434.286],[3.0,433.079],[3.2,444.504],[3.4,459.870],[3.6,477.524],[3.8,491.071],[4.0,505.896],[4.2,531.195],[4.4,549.947],[4.6,586.748],[4.8,604.404],]