name=Blizianka wersja I
slope=5.0km 3.9%
points=166.7
region=47
description=Nawierzchnia: szosa, stan dobry. Ruch samochodowy: minimalny.
Jeden z ciekawszych podjazdów w okolicy. Jego trudność polega na tym, że mamy do pokonania kilka stromych "ścianek". Po pokonaniu tego podjazdu mamy bardzo fajny zjazd.
comments=
author=Beymont
segment=5691608
locations=[[1,49.85542087160778,21.911550550690436],[2,49.85510520956664,21.91424064548005],[3,49.85547469566097,21.91696356939883],[4,49.85580904068703,21.919685498968875],[5,49.85656166676968,21.922208891823402],[6,49.85735316899562,21.92469753461353],[7,49.85754040716321,21.927426412592467],[8,49.85789586958,21.93004433683609],[9,49.85916327270754,21.931986140652953],[10,49.86068829450914,21.93343276823009],[11,49.86193859200458,21.935411757777956],[12,49.86315827394565,21.937452827207153],[13,49.86437792005259,21.939493999698016],[14,49.86531230367231,21.941844001989352],[15,49.86612620579442,21.944324444302197],[16,49.86686044548112,21.94684072921666],[17,49.86758176170289,21.949264566183615],[18,49.8687021615602,21.951438539279934],[19,49.8698225207663,21.953612613232394],[20,49.86898116877279,21.9554230867883],[21,49.86735222047461,21.956582072417405],[22,49.86589346366041,21.957989999999995],[23,49.86433406490278,21.959247970458705],[24,49.86262060586672,21.95925934543584],]
podstawa=[[13,49.86437792005259,21.939493999698016],['start',49.8550300,21.9089700],['meta',49.8608400,21.9594500]]
daneflot=[[0.0,257.025],[0.2,254.897],[0.4,264.021],[0.6,284.459],[0.8,307.303],[1.0,323.696],[1.2,320.635],[1.4,306.522],[1.6,298.305],[1.8,307.341],[2.0,312.959],[2.2,325.721],[2.4,336.544],[2.6,353.448],[2.8,356.997],[3.0,371.931],[3.2,377.461],[3.4,390.698],[3.6,411.857],[3.8,431.239],[4.0,435.580],[4.2,439.962],[4.4,440.030],[4.6,442.880],[4.8,448.871],[5.0,452.233],]