name=Jodłów od Goworowa
slope=6.0km 6.2%
points=275
region=13
description=Nawierzchnia: szosa, stan dobry. Ruch samochodowy: minimalny.
Godny polecenia podjazd w Masywie Śnieżnika. Zasadniczy odcinek liczy ok 6 km i jest dość wymagający szczególnie w drugiej części dystansu.
comments=
author=Tomek
segment=0
locations=[[1,50.17823191278618,16.712588121398994],[2,50.17670675164282,16.713995553837094],[3,50.17519682868801,16.715488624573936],[4,50.17393358293655,16.71740803314151],[5,50.17279775950251,16.719535801526604],[6,50.17209626547344,16.722108201127185],[7,50.17139526723117,16.724676720471166],[8,50.17104312166699,16.7274129208256],[9,50.17117400233762,16.730189612059576],[10,50.17147853271442,16.732937380771205],[11,50.17172122655374,16.735693125987382],[12,50.17244897184671,16.738016616158916],[13,50.17219041653792,16.74071790552216],[14,50.17296473554713,16.74318205405814],[15,50.17443115094986,16.744686438341887],[16,50.17454876586002,16.747198182436478],[17,50.17433953169532,16.749910366465656],[18,50.17494039085057,16.752526758592467],[19,50.17648072181592,16.75322421500323],[20,50.1775529708947,16.75482324898576],[21,50.17834174535157,16.75723390622852],[22,50.17921716342848,16.759660230675195],[23,50.17990239387285,16.762243578365656],[24,50.18008282254495,16.76465364223384],[25,50.17955180651946,16.767304419482457],[26,50.17839627348493,16.769431217312103],[27,50.17685356795339,16.770845725204254],[28,50.17516002635462,16.771637191623995],[29,50.1742996061984,16.77377262933601],]
podstawa=[[13,50.17454876586002,16.747198182436478],['start',50.1794500,16.7105500],['meta',50.1728600,16.7736800]]
daneflot=[[0.0,464.758],[0.2,469.430],[0.4,475.749],[0.6,481.293],[0.8,489.695],[1.0,493.745],[1.2,502.143],[1.4,510.152],[1.6,519.497],[1.8,530.668],[2.0,546.860],[2.2,561.485],[2.4,565.872],[2.6,582.658],[2.8,606.848],[3.0,619.041],[3.2,629.519],[3.4,649.650],[3.6,661.986],[3.8,680.949],[4.0,696.800],[4.2,709.725],[4.4,723.817],[4.6,728.046],[4.8,739.555],[5.0,756.752],[5.2,772.811],[5.4,795.955],[5.6,810.511],[5.8,827.622],[6.0,835.593],]