name=Sanatorium Leśnik
slope=2.0km 4.0%
points=48.3
region=90
description=Nawierzchnia: szosa, stan średni. Ruch samochodowy: średni.
Świetny podjazd do treningu w środku lasu. Meta przy Sanatorium Leśńik
comments=
author=Lipa
segment=0
locations=[[1,54.44596232475579,18.554314576198294],[2,54.44645041563083,18.553068440468905],[3,54.44690995262998,18.551790700625816],[4,54.44720106197789,18.550374387071884],[5,54.44747151578351,18.548944888966957],[6,54.44773579997458,18.547512151926753],[7,54.44799732656334,18.546080213288406],[8,54.44813000087978,18.544601474324395],[9,54.44810280777943,18.543099403998895],[10,54.44804725893666,18.541599183211247],[11,54.44796239713997,18.540103544904582],[12,54.44774662051076,18.538650143748896],[13,54.4475017774496,18.537207046714457],[14,54.44726098219848,18.535762118909133],[15,54.44723604467903,18.53428211084679],[16,54.44758644612779,18.53291459915158],[17,54.44799194471254,18.531583198649628],[18,54.44826924997194,18.530165375276397],[19,54.4487253374142,18.528884359631206],]
podstawa=[[14,54.44796239713997,18.540103544904582],['start',54.4455600,18.5556300],['meta',54.4494200,18.5280200]]
daneflot=[[0.0,33.261],[0.1,38.180],[0.2,39.953],[0.3,42.661],[0.4,43.843],[0.5,44.665],[0.6,46.768],[0.7,48.882],[0.8,49.933],[0.9,52.654],[1.0,54.123],[1.1,60.034],[1.2,64.268],[1.3,68.015],[1.4,79.459],[1.5,86.921],[1.6,91.467],[1.7,101.915],[1.8,105.767],[1.9,109.419],[2.0,113.667],]