name=Lasocin od Pieszyc
slope=4.8km 5.3%
points=289.4
region=8
description=Nawierzchnia: szosa+bruk, dobry
Podjazd podobny do tego znajdującego się kawałek dalej w stronę Podolina. Początek wspinaczki na przełęcz Walimską i odbicie w Rościszowie. Ostatnie metry ze znaczącym nachyleniem trasy. Ruch samochodowy uzależniony od dnia tygodnia ze względu na bliskość w końcówce hotelu i gospodarstwa agroturystycznego.
comments=
author=LukaszLuniewski
segment=0
locations=[[1,50.71262451938028,16.578194500853215],[2,50.7124038266536,16.575448038426885],[3,50.71253682875417,16.57261916603386],[4,50.71202436523844,16.56987555490923],[5,50.71160509797426,16.567093132169816],[6,50.71114700079639,16.564332339175053],[7,50.7106516867715,16.561596264259833],[8,50.71070079952545,16.55873440590699],[9,50.71079064097044,16.556004353270623],[10,50.71009388249325,16.55335069152966],[11,50.70930204239032,16.550772901303958],[12,50.70876891400781,16.548064709139453],[13,50.70829008010396,16.545309577726357],[14,50.70760707188522,16.5426592745539],[15,50.70705280881463,16.53995162846138],[16,50.70599630086359,16.537617787043246],[17,50.70480473524857,16.535455204622508],[18,50.70353856933727,16.53384331191978],[19,50.70195026613403,16.533148932941913],[20,50.70044539782406,16.53159805494397],[21,50.69929655053657,16.529484912044268],[22,50.69766058344143,16.529676870958383],[23,50.69616065335054,16.531273816641033],]
podstawa=[[13,50.70829008010396,16.545309577726357],['start',50.7120200,16.5807800],['meta',50.6945900,16.5327100]]
daneflot=[[0.0,299.534],[0.2,302.910],[0.4,307.309],[0.6,312.999],[0.8,317.809],[1.0,321.618],[1.2,328.017],[1.4,334.370],[1.6,337.968],[1.8,341.474],[2.0,353.060],[2.2,363.062],[2.4,365.696],[2.6,373.458],[2.8,381.354],[3.0,390.498],[3.2,392.002],[3.4,396.885],[3.6,404.773],[3.8,423.789],[4.0,437.087],[4.2,442.792],[4.4,461.489],[4.6,500.077],[4.8,551.425],]