name=Kaszubskie Oko (drogą techniczną)
slope=1.7km 6.2%
points=82.6
region=90
description=Nawierzchnia: szosa, stan dobry. Ruch samochodowy: brak (droga wyłączona z ruchu).
Podjazd do Kaszubskiego Oka wyłaczoną z ruchu samochodowego drogą techniczną wzdłuż rur łączących zbiornik górny z Jeziorem Żarnowieckim.
comments=
author=Turysta
segment=2203406
locations=[[1,54.72354211931152,18.078468964014405],[2,54.72273067264418,18.07809658388203],[3,54.72220505178765,18.07687645605779],[4,54.72162637957531,18.075763730269387],[5,54.72105008472508,18.074737408269357],[6,54.72070548095247,18.073338079272958],[7,54.72014215999892,18.07219298068742],[8,54.71951346582489,18.071134404431405],[9,54.7189684354525,18.069940363908472],[10,54.71848392348546,18.068671990920166],[11,54.71825153139829,18.067225246603357],[12,54.71817609377629,18.06570935960292],[13,54.71804331248274,18.0642102340405],[14,54.71796686077904,18.062697852690576],[15,54.71812786975767,18.061220954128316],[16,54.71822021927473,18.059738294530916],]
podstawa=[[14,54.7189684354525,18.069940363908472],['start',54.7244200,18.0785500],['meta',54.7180700,18.0582700]]
daneflot=[[0.0,10.193],[0.1,15.910],[0.2,24.573],[0.3,39.455],[0.4,52.862],[0.5,58.280],[0.6,64.034],[0.7,67.709],[0.8,74.432],[0.9,80.173],[1.0,82.628],[1.1,88.457],[1.2,94.108],[1.3,99.037],[1.4,104.166],[1.5,108.019],[1.6,111.844],[1.7,115.070],]