name=Ochojno z Wrząsowic
slope=2.3km 6.1%
points=103.2
region=41
description=Nawierzchnia: szosa. Ruch samochodowy: minimalny.
Podjazd niemal z samego Krakowa, jednak mało uczęszczana okolica zapewnia wrażenia jak z jazdy w terenach znacznie bardziej oddalonych od dużego miasta. Jedno z większych wzniesień w bliskiej okolicy.
comments=Dnia 2014-07-27 użytkownik waxmund dodał:
Zdecydowanie nie warto zjeżdżać tą drogą (tzn z Ochojna do Wrząsowic). Postępujące osuwiska niszczą coraz bardziej drogę, szkoda roweru.
author=Greek
segment=1459631
locations=[[1,49.96666976211711,19.9550360138893],[2,49.96584007161157,19.954999690498425],[3,49.96498365421044,19.95460996881684],[4,49.96412545066984,19.95422975280553],[5,49.96326487769208,19.953862865436804],[6,49.96238840244406,19.953849669107512],[7,49.96154878381499,19.95431834745682],[8,49.9606870124457,19.954677394266696],[9,49.96027388230039,19.955847121270835],[10,49.96003033741574,19.957167584350373],[11,49.96009366327014,19.95831420339357],[12,49.96051663488247,19.95948300367934],[13,49.96072481671032,19.960735672510395],[14,49.9604052144098,19.96199565722543],[15,49.95965708623048,19.962741142310392],[16,49.95929449333429,19.96396868497561],[17,49.95900124586176,19.965273259291507],[18,49.95858499628245,19.96648894451414],[19,49.95806315238828,19.967610543235196],[20,49.9577590311212,19.968908651847414],[21,49.9576153286293,19.970269689218412],[22,49.95719080174747,19.971486987052685],]
podstawa=[[14,49.96051663488247,19.95948300367934],['start',49.9671400,19.9538600],['meta',49.9567200,19.9726600]]
daneflot=[[0.0,239.163],[0.1,242.246],[0.2,248.441],[0.3,251.820],[0.4,258.735],[0.5,265.753],[0.6,271.791],[0.7,278.940],[0.8,277.994],[0.9,289.035],[1.0,297.602],[1.1,305.023],[1.2,315.186],[1.3,322.168],[1.4,327.584],[1.5,336.512],[1.6,341.597],[1.7,345.825],[1.8,346.009],[1.9,348.937],[2.0,357.895],[2.1,367.974],[2.2,373.271],[2.3,377.218],]