name=Rezerwat Świnia Góra
slope=4.0km 1.7%
points=22.9
region=66
description=Nawierzchnia: szosa, stan dobry. Ruch samochodowy: żaden.
Podjazd położony w sercu Puszczy Świętokrzyskiej. Bardzo dobra, asfaltowa nawierzchnia. Droga prowadzi do rezerwatu Świnia Góra.
comments=
author=arturc
segment=0
locations=[[1,51.07823805589409,20.65306873236625],[2,51.07706939280979,20.655323428500083],[3,51.07589660210649,20.657545413054663],[4,51.07462558939103,20.65956730120638],[5,51.07404777822485,20.662343677861145],[6,51.0734552416923,20.665112080247013],[7,51.07285377364074,20.66787563030084],[8,51.07225224043552,20.670639108514706],[9,51.07161596433366,20.673382402501147],[10,51.07127868425977,20.676249313637754],[11,51.07059344425154,20.678944647239177],[12,51.06952137831886,20.68124630905959],[13,51.06797817563653,20.682833612112404],[14,51.06639272421744,20.684312123428754],[15,51.06481211092603,20.68580096284984],[16,51.06350399168246,20.687852773911004],[17,51.06245648620049,20.69015665728682],[18,51.06178797094847,20.69288025666924],[19,51.0610813549955,20.695578315698867],]
podstawa=[[13,51.07059344425154,20.678944647239177],['start',51.0793500,20.6507400],['meta',51.0603500,20.6982600]]
daneflot=[[0.0,292.789],[0.2,298.848],[0.4,298.563],[0.6,299.424],[0.8,300.324],[1.0,305.054],[1.2,309.083],[1.4,311.785],[1.6,317.600],[1.8,325.591],[2.0,331.999],[2.2,335.126],[2.4,342.020],[2.6,347.807],[2.8,352.588],[3.0,345.916],[3.2,345.511],[3.4,347.521],[3.6,357.145],[3.8,356.910],[4.0,361.925],]