name=Tłumaczów
slope=1.5km 8.4%
points=140.3
region=7
description=Nawierzchnia: szosa, stan dobry. Ruch samochodowy: minimalny.
Krótki, acz dający się we znaki podjazd czyhający na chętnych skrócenia sobie trasy z Nowej Rudy do Radkowa.
comments=
author=PaStKaz
segment=0
locations=[[1,50.55303966077533,16.432155553742177],[2,50.55226038211835,16.431474200997854],[3,50.55183566513604,16.43151989580599],[4,50.55134629844323,16.43273269205497],[5,50.55048713475491,16.43265135561944],[6,50.54974651034232,16.431785629752994],[7,50.54897880993852,16.430979661291758],[8,50.5482327749471,16.43012380418577],[9,50.5474891964074,16.429262352344153],[10,50.54673728693245,16.42841912992685],[11,50.54618232589851,16.42743953616764],[12,50.54600204837188,16.426084096266777],[13,50.54519442794955,16.425449259675133],[14,50.5442987780585,16.42515204838753],]
podstawa=[[14,50.5482327749471,16.43012380418577],['start',50.5537300,16.4328700],['meta',50.5434300,16.4246600]]
daneflot=[[0.0,349.714],[0.1,353.950],[0.2,366.153],[0.3,377.227],[0.4,383.385],[0.5,402.202],[0.6,419.115],[0.7,426.103],[0.8,430.216],[0.9,436.587],[1.0,446.199],[1.1,458.667],[1.2,461.901],[1.3,468.145],[1.4,471.499],[1.5,476.029],]