name=Milsko
slope=0.7km 3.6%
points=11.5
region=49
description=Nawierzchnia: szosa, stan bardzo dobry. Ruch samochodowy: minimalny.
Fajna hopa w okolicach Zielonej Góry, od rzeki wspinamy się krótko na skarpę. Początek na przeprawie promowej więc można wjeżdżać przy zerowym ruchu samochodowym.
comments=
author=Virenque (autor bloga   trzymajkolo.blogspot.com)
segment=4914229
locations=[[1,51.94769758409266,15.774103404959646],[2,51.94675527119562,15.77388227222491],[3,51.94580772078307,15.773691487543488],[4,51.94499086422711,15.773278233265614],[5,51.94487671649524,15.771746780450144],[6,51.94413862344049,15.770798145565095],]
podstawa=[[15,51.947,15.773278233265614],['start',51.9486600,15.7740300],['meta',51.9442200,15.7692900]]
daneflot=[[0.0,56.113],[0.1,57.661],[0.2,61.380],[0.3,65.080],[0.4,67.496],[0.5,74.244],[0.6,78.182],[0.7,82.571],]