name=Hranicne Mlacky  od granicy (Słowacja)
slope=9.2km 3.5%
points=158.1
region=32
description=Nawierzchnia: szosa, stan średni. Ruch samochodowy: mały.
Z pod nowego mostu granicznego udajemy się drogą 68 w kierunku Starej Lubowni / tak jak podjazd na przełęcz Vabec we wsi Hranicne skręcamy w prawo przed mostem na potoku Eliaszówka i jedziemy wzdłuż potoku do końca asfaltu. Ruch do skrętu w Hranicnym mały potem żaden.
comments=
author=Kuba99
segment=0
locations=[[1,49.41460777257476,20.716997577304483],[2,49.41327767835501,20.715179966719916],[3,49.41292366726137,20.712534834937514],[4,49.41235435857693,20.709970057246778],[5,49.41076776844553,20.708878411385967],[6,49.40933901551625,20.707262785503076],[7,49.40795011149584,20.705555167040984],[8,49.4067613749563,20.703564423105945],[9,49.40531757846959,20.701959854822917],[10,49.40365479729127,20.701487001780833],[11,49.40190074210377,20.701512053932902],[12,49.40015103288862,20.70104105570522],[13,49.39845418723924,20.70177121511881],[14,49.39706542103695,20.700143537648728],[15,49.39532454537733,20.69979838020072],[16,49.39357841112376,20.69981748355076],[17,49.39196003897129,20.698675019165194],[18,49.39019324806078,20.698367546679833],[19,49.38869845977307,20.699058304199752],[20,49.38718919204774,20.700352845345947],[21,49.38547059979843,20.700832495475538],[22,49.38369918756935,20.70077803141305],[23,49.38192115861338,20.700925797455398],[24,49.38017960775174,20.70067699968297],[25,49.37842045976713,20.700789578010244],[26,49.37681328833644,20.700246512023682],[27,49.37547697078854,20.698719902200537],[28,49.37541598132499,20.696021682007768],[29,49.37616707699501,20.69365248097438],[30,49.37719719401729,20.691447022275497],[31,49.3785047540371,20.689606158338734],[32,49.37975686866937,20.6876701402457],[33,49.38124796061395,20.686208926342374],[34,49.38288585661903,20.685355796525528],[35,49.38436032727591,20.683834867253495],[36,49.38482285128222,20.681277601157944],[37,49.38443804074026,20.678629988848797],[38,49.38406438418422,20.676014107968513],[39,49.38446134367054,20.673389581658967],[40,49.38525937800802,20.671036987015782],[41,49.38595462156047,20.66854803781257],[42,49.38686535489559,20.666192723826953],[43,49.38755119314322,20.663692442747674],[44,49.38821403633126,20.661162389667766],[45,49.38822724039694,20.658441038552382],]
podstawa=[[12,49.40,20.70067699968297],['start',49.4158800,20.7188400],['meta',49.3897000,20.6571100]]
daneflot=[[0.0,396.920],[0.2,402.464],[0.4,409.091],[0.6,412.717],[0.8,416.601],[1.0,421.729],[1.2,433.085],[1.4,440.626],[1.6,449.489],[1.8,451.333],[2.0,452.618],[2.2,462.405],[2.4,471.387],[2.6,473.116],[2.8,474.119],[3.0,485.617],[3.2,496.261],[3.4,504.312],[3.6,506.116],[3.8,512.410],[4.0,521.525],[4.2,527.541],[4.4,534.221],[4.6,538.472],[4.8,538.795],[5.0,532.806],[5.2,527.328],[5.4,529.435],[5.6,536.502],[5.8,546.731],[6.0,550.648],[6.2,555.302],[6.4,562.911],[6.6,570.241],[6.8,578.871],[7.0,587.812],[7.2,604.5],[7.4,616.203],[7.6,626.589],[7.8,639.089],[8.0,649.491],[8.2,658.106],[8.4,667.360],[8.6,675.267],[8.8,683.200],[9.0,693.761],[9.2,713.775],]