name=Osiek
slope=1.2km 3.3%
points=19
region=76
description=Nawierzchnia: szosa, stan dobry. Ruch samochodowy: mały.
Nowy asfalt
comments=
author=Gabrych
segment=0
locations=[[1,53.16683807857273,19.37094024184978],[2,53.16687613904315,19.372410486308013],[3,53.16691418141119,19.373880733373653],[4,53.1669522056768,19.375350983045223],[5,53.16699021183992,19.376821235321586],[6,53.16705027841813,19.378289279659157],[7,53.16718797991361,19.37973377652554],[8,53.16754370961907,19.38108046886464],[9,53.16790497274324,19.382423064270597],[10,53.16826666358425,19.383765353553372],[11,53.16862833933666,19.38510766546335],]
podstawa=[[14,53.16718797991361,19.37973377652554],['start',53.1668000,19.3694700],['meta',53.1689900,19.3864500]]
daneflot=[[0.0,66.235],[0.1,67.156],[0.2,70.602],[0.3,75.415],[0.4,79.050],[0.5,88.022],[0.6,92.821],[0.7,96.824],[0.8,99.440],[0.9,100.374],[1.0,101.866],[1.1,101.688],[1.2,105.056],]