name=Mazańkowice
slope=1.3km 3.9%
points=30.4
region=40
description=Nawierzchnia: szosa, stan średni. Ruch samochodowy: minimalny.
Krótki podjazd na drodze do Bielska-Białej. Jedna z kilku opcji na drodze z Goczałkowic.
comments=
author=Zlew
segment=7085226
locations=[[1,49.85749338787494,18.98162438325471],[2,49.85747713849846,18.98304069977803],[3,49.85798032755067,18.984259510340735],[4,49.85865646500014,18.985247100666584],[5,49.85935996501151,18.98620030778568],[6,49.86002016538796,18.987223654883906],[7,49.86065986263804,18.98827977321548],[8,49.86102109767979,18.98960838854657],[9,49.86125483602128,18.99100074387775],[10,49.86119261385537,18.9924432955911],[11,49.86110928835657,18.993881858419286],[12,49.86097298483832,18.995315302862878],]
podstawa=[[14,49.86065986263804,18.98827977321548],['start',49.8579700,18.9804100],['meta',49.8609000,18.9967600]]
daneflot=[[0.0,276.524],[0.1,277.421],[0.2,280.126],[0.3,286.397],[0.4,295.739],[0.5,303.749],[0.6,309.777],[0.7,314.932],[0.8,318.993],[0.9,323.265],[1.0,323.062],[1.1,322.909],[1.2,324.675],[1.3,326.764],]