name=Zarębki z Olszówki
slope=1.9km 7.4%
points=144.4
region=27
description=Nawierzchnia: szosa, stan dobry. Ruch samochodowy: minimalny.
Krótki i bardzo łagodny podjazd, którego urozmaiceniem jest jedynie "ściana" na sam koniec. Dla szosowców - ślepy.
Na góralu można jechać na Jasionów lub w kierunku Rabki - przez Słone (w dolinie) lub górą przez Grzebień.
comments=Dnia 2014-11-11 użytkownik Koler dodał:
Można by rozpocząć ten podjazd w tym samym punkcie co sąsiedni do Jasionowa. (prośba o aktualizacje profilu)
author=maciekg
segment=0
locations=[[1,49.61287388927945,20.027960390614],[2,49.61216570370985,20.027077413759116],[3,49.61146312663649,20.02617741521783],[4,49.6112133887335,20.024914573675233],[5,49.61057173722203,20.023918552210148],[6,49.60989463153044,20.022973199157946],[7,49.60933573190913,20.021878319068037],[8,49.60903587655861,20.020547376458126],[9,49.60874128224825,20.01921313813409],[10,49.60849874301625,20.017855001330645],[11,49.60825469878704,20.016496802158144],[12,49.60798976185001,20.015149085935263],[13,49.60757891656514,20.013893034333933],[14,49.60701372124308,20.01286481376178],[15,49.60689093348861,20.011468099300714],[16,49.60684836151302,20.010061251814022],[17,49.60679759022186,20.00865681493144],[18,49.60663160450888,20.007298517763047],]
podstawa=[[14,49.60849874301625,20.017855001330645],['start',49.6131800,20.0290800],['meta',49.6067700,20.0059100]]
daneflot=[[0.0,494.850],[0.1,499.874],[0.2,502.088],[0.3,504.963],[0.4,512.881],[0.5,516.663],[0.6,524.024],[0.7,531.856],[0.8,546.717],[0.9,561.286],[1.0,566.724],[1.1,567.378],[1.2,572.563],[1.3,577.586],[1.4,583.231],[1.5,586.357],[1.6,596.356],[1.7,611.996],[1.8,628.289],[1.9,635.126],]