name=Gliczarów Górny z Białego Dunajca
slope=5.4km 5.7%
points=267
region=23
description=Nawierzchnia: szosa. Ruch samochodowy: mały.
Trasa wiedzie wąskim asfaltem między zabudowaniami. Jest to  trasa z Tour de Pologne. Szosa jest w średnim stanie.
comments=Dnia 2014-05-08 użytkownik TOMO dodał:
Witam w najstromszym momencie podjazdu pod gliczarów jest ponad 20% a nie 16 jak w opisie
pozdrawiam
Dnia 2014-05-09 Admin dodał:
Pewnie masz rację, ale dane wysokościowe są rejestrowane  co 200 metrów, aby pomiar był jak najbardziej konkretny.  Oznacza to że najstromsze 200 metrów ma 16,8 %. Dla wszystkich podjazdów zastosowany jest ten sam schemat. Przy zastosowaniu schematu co 10 metrów dane wysokościowe Google Maps pokazują na tym podjeździe na jednym z fragmentów ponad 23%, ale nie są już dane zbyt wiarygodne. Fakt pozostaje faktem... na 400 metrach jest ponad 16% co stanowi dość stromy fragment podjazdu, ale na pewno nie jest to najtrudniejszy podjazd w Polsce jak to się reklamuje w TVP. Pozdrawiam     
Dnia 2014-08-08 użytkownik Bartosz dodał:
stromy - bardziej stromy - najbardziej stromy ))))
author=Dzatek
segment=2002907
locations=[[1,49.38275715748009,20.02024713750575],[2,49.38223867467827,20.02290426718821],[3,49.38140110004455,20.025395018388053],[4,49.38035966169856,20.027678965652512],[5,49.37925670607736,20.029910782113006],[6,49.37807398035233,20.03184046807928],[7,49.37667876134452,20.033624185203507],[8,49.37513619744147,20.035090886733087],[9,49.37379767701265,20.036980663712598],[10,49.37203489619174,20.03642151903341],[11,49.37032330651424,20.037220907299343],[12,49.36880116539065,20.03865677188105],[13,49.36698377392598,20.03884856082459],[14,49.365184827179,20.039175828454063],[15,49.36418198214375,20.041324828656116],[16,49.36245040159383,20.04197016536159],[17,49.36069798522426,20.042252945561813],[18,49.36019274288958,20.04477252175684],[19,49.35911701229378,20.046500000000037],[20,49.35752200339748,20.047787644986215],[21,49.35601369774423,20.049322604859867],[22,49.35489936038874,20.051531279484607],[23,49.35330195905314,20.052760537859285],[24,49.35153852428132,20.05317575307174],[25,49.35024777014902,20.0551419637859],[26,49.3489475390891,20.057071489618238],]
podstawa=[[12,49.365184827179,20.039175828454063],['start',49.3832400,20.0176100],['meta',49.3478500,20.0593100]]
daneflot=[[0.0,681.023],[0.2,690.805],[0.4,701.880],[0.6,709.021],[0.8,725.218],[1.0,735.558],[1.2,742.999],[1.4,746.804],[1.6,753.504],[1.8,763.430],[2.0,759.013],[2.2,768.220],[2.4,777.433],[2.6,779.394],[2.8,790.909],[3.0,798.113],[3.2,806.950],[3.4,817.987],[3.6,829.308],[3.8,856.342],[4.0,890.008],[4.2,923.348],[4.4,938.596],[4.6,950.832],[4.8,958.349],[5.0,968.417],[5.2,982.405],[5.4,991.908],]