name=Żegrowo
slope=1.0km 3.4%
points=19.1
region=71
description=Nawierzchnia: szosa, stan średni. Ruch samochodowy: mały.
Krótki, przyjemny podjazd.
Droga asfaltowa, ale występuje trochę dziur.
comments=
author=Adams
segment=0
locations=[[1,52.03178092348697,16.476082619457543],[2,52.03166352244437,16.477578091113628],[3,52.03154610247025,16.479073554915885],[4,52.03145042984288,16.480571947893054],[5,52.03180027540054,16.48179651510793],[6,52.03139754067792,16.483154572889816],[7,52.03091827875379,16.484444982807986],[8,52.03044026764685,16.485736056379892],[9,52.03007085667767,16.487118219374565],]
podstawa=[[15,52.03139754067792,16.483154572889816],['start',52.0317500,16.4749600],['meta',52.0297000,16.4885000]]
daneflot=[[0.0,78.799],[0.1,82.869],[0.2,85.687],[0.3,85.969],[0.4,86.238],[0.5,88.420],[0.6,94.497],[0.7,103.332],[0.8,109.614],[0.9,111.793],[1.0,113.251],]