name=Szpitary z Nowego Brzeska
slope=1.4km 3.4%
points=23.6
region=65
description=Nawierzchnia: szosa, stan dobry. Ruch samochodowy: średni.
Żaden wyjątkowy podjazd, bardzo łatwy i lekki, jednak jak na położenie w dolinie Wisły - nie taki mały.
comments=
author=Greek
segment=2439578
locations=[[1,50.13119785899326,20.372122170334023],[2,50.13201458680475,20.371662890231846],[3,50.13283769588003,20.37123075174179],[4,50.13366245083028,20.370806250006353],[5,50.1344872042331,20.37038173363692],[6,50.13527925151917,20.369836440678],[7,50.13591503381365,20.368924086334346],[8,50.13648478500666,20.367901628468076],[9,50.13717386363499,20.367093304947048],[10,50.13796027013291,20.366518298257006],[11,50.13875900956896,20.365986506982154],[12,50.139603175477,20.365742632763272],[13,50.14046628111507,20.36584282058891],]
podstawa=[[14,50.13648478500666,20.367901628468076],['start',50.1304500,20.3728100],['meta',50.1413000,20.3654800]]
daneflot=[[0.0,197.773],[0.1,198.000],[0.2,198.668],[0.3,201.076],[0.4,205.446],[0.5,208.647],[0.6,210.653],[0.7,215.044],[0.8,218.087],[0.9,218.805],[1.0,220.189],[1.1,226.263],[1.2,234.538],[1.3,241.103],[1.4,245.014],]