name=Chrostkowo
slope=1.4km 2.4%
points=10.8
region=76
description=Nawierzchnia: szosa, stan dobry. Ruch samochodowy: mały.
Jeden z wielu podjazdów związanych z doliną rzeki Ruziec
comments=
author=Gabrych
segment=0
locations=[[1,52.96033877407731,19.252302739290258],[2,52.9597005699312,19.25138403170331],[3,52.95929357646994,19.250097809738918],[4,52.9585693849173,19.249254643970858],[5,52.95790750456673,19.248280444630154],[6,52.95704984451668,19.247934758820747],[7,52.95618737495546,19.24811269579584],[8,52.95538871867471,19.248752451800556],[9,52.95459628263887,19.249414615148453],[10,52.95382905348301,19.250153577112314],[11,52.95305911195424,19.25088480073009],[12,52.95227824745977,19.251582798920026],[13,52.95185742868384,19.252860560740146],]
podstawa=[[14,52.95538871867471,19.248752451800556],['start',52.9611600,19.2528600],['meta',52.9516100,19.2542700]]
daneflot=[[0.0,86.126],[0.1,87.749],[0.2,91.265],[0.3,90.896],[0.4,95.216],[0.5,99.117],[0.6,101.955],[0.7,105.017],[0.8,107.031],[0.9,108.704],[1.0,110.957],[1.1,114.817],[1.2,118.311],[1.3,119.544],[1.4,120.218],]