name=Pstrągowa
slope=2.2km 6.1%
points=98.3
region=46
description=Nawierzchnia: szosa, stan bardzo dobry. Ruch samochodowy: mały.
Początek dość stromy potem, potem wypłaszczenie.
Możliwy podjazd też od strony Zawadki, Nawsia czy Wircan
comments=
author=dion2
segment=0
locations=[[1,49.95494023507967,21.720004000815948],[2,49.95549204616024,21.71889245290822],[3,49.95610273858867,21.717852009986245],[4,49.95656742014201,21.71665580805052],[5,49.9569800998294,21.71540197713648],[6,49.95738193664599,21.714139699517318],[7,49.95777978361214,21.71287430223572],[8,49.95813820126958,21.71158083536079],[9,49.95849449438311,21.710285847665546],[10,49.95885205112763,21.70899175130296],[11,49.95929271214249,21.707763842296686],[12,49.95983683064262,21.706639040259233],[13,49.96045018908834,21.70560232415653],[14,49.96106765305344,21.70457147539844],[15,49.96168353270958,21.703538331359596],[16,49.96240943441696,21.702698839633626],[17,49.96318029617122,21.701962301555568],[18,49.96363582707774,21.70083936985577],[19,49.9637828732136,21.699449447219877],[20,49.9639612077262,21.698069131667125],[21,49.9638771688611,21.696671085685466],]
podstawa=[[14,49.95983683064262,21.706639040259233],['start',49.9544000,21.7211200],['meta',49.9640300,21.6953000]]
daneflot=[[0.0,289.458],[0.1,295.017],[0.2,305.655],[0.3,314.720],[0.4,324.137],[0.5,335.779],[0.6,344.526],[0.7,351.671],[0.8,359.416],[0.9,362.728],[1.0,368.255],[1.1,374.906],[1.2,380.497],[1.3,384.916],[1.4,389.718],[1.5,397.646],[1.6,402.187],[1.7,404.346],[1.8,407.005],[1.9,407.274],[2.0,410.993],[2.1,415.319],[2.2,423.138],]