name=Kamienna Ławka od Karpnik
slope=6.6km 6.2%
points=377.7
region=5
description=Nawierzchnia: szosa. Ruch samochodowy: minimalny.
Stromsza wersja podjazdu pod Średnicę od Karpnik. Najbardziej stromo we wiosce ale za to nowy gładki asfalt na tym odcinku. Później skręt i bardzo stromo na Kamienną Ławkę.
comments=
author=gavia2621
segment=0
locations=[[1,50.84556535308833,15.857538705183856],[2,50.84380491340869,15.857440291096509],[3,50.842038225616,15.857428984676517],[4,50.84025311114782,15.857227667793723],[5,50.83852713516826,15.85646836749686],[6,50.8368551552439,15.855439344860997],[7,50.83508639472032,15.85539974329572],[8,50.83331084978683,15.855777872453586],[9,50.8315979946994,15.856507147381308],[10,50.83017494734641,15.85818336893135],[11,50.8297121412423,15.86084464580972],[12,50.82836079522726,15.86258208352615],[13,50.82726771267777,15.864820811033269],[14,50.82603222758746,15.866880398748094],[15,50.82458396146532,15.86849304646421],[16,50.82307223399656,15.86996487297904],[17,50.82158308446279,15.8715493425658],[18,50.82083321884488,15.86911161948774],[19,50.8201169307527,15.866506183318052],[20,50.8197088606193,15.867296791477884],[21,50.81870392872352,15.866331504889331],[22,50.81737498398246,15.864426399853755],[23,50.81583070709731,15.863004098530496],[24,50.81486478722796,15.862726976310796],[25,50.81545794828901,15.865102444831564],[26,50.81562910639843,15.867784181172965],[27,50.8148408583377,15.870182381608288],[28,50.8135542647894,15.872155735253045],[29,50.81184162713546,15.87297872659667],[30,50.81046154532799,15.874679600520267],[31,50.81035170148787,15.877107649283403],[32,50.8101043192291,15.879757607753277],]
podstawa=[[12,50.82158308446279,15.8715493425658],['start',50.8473500,15.8572600],['meta',50.8089400,15.8818900]]
daneflot=[[0.0,384.595],[0.2,382.825],[0.4,378.365],[0.6,384.641],[0.8,386.753],[1.0,396.122],[1.2,403.969],[1.4,403.570],[1.6,404.220],[1.8,414.151],[2.0,418.854],[2.2,427.109],[2.4,452.867],[2.6,472.359],[2.8,481.427],[3.0,488.459],[3.2,504.346],[3.4,519.397],[3.6,529.999],[3.8,544.940],[4.0,553.260],[4.2,567.731],[4.4,577.711],[4.6,594.365],[4.8,604.044],[5.0,625.951],[5.2,654.448],[5.4,669.419],[5.6,686.592],[5.8,717.393],[6.0,746.657],[6.2,768.953],[6.4,786.806],[6.6,791.249],]