name=Chmielnik
slope=1.7km 6.4%
points=84.2
region=47
description=Nawierzchnia: szosa, stan dobry. Ruch samochodowy: mały.
Krótki podjazd z Chmielnika w kierunku Woli Rafałowskiej z dość wymagającym początkiem, im dalej tym łagodniej. Warto przejechać trasę do samego końca, czyli do ronda w Woli Rafałowskiej.
comments=
author=Barnaba
segment=0
locations=[[1,49.97545504250562,22.145611901442862],[2,49.9763369038785,22.145811870985426],[3,49.97723427505765,22.145749320575874],[4,49.9781245778518,22.14592580013732],[5,49.97899746259358,22.146260717437713],[6,49.97986664498708,22.146618618488787],[7,49.98073287951353,22.146991039567865],[8,49.98107487457447,22.148236331520707],[9,49.98120185864377,22.149618759262808],[10,49.98144670260969,22.150963564388576],[11,49.98160593522467,22.1523254786523],[12,49.98244909654062,22.1527970029681],[13,49.98330544866933,22.15322256457125],[14,49.98417480280121,22.153578769100932],[15,49.98496301252102,22.153193832800298],[16,49.98575575954639,22.15253493478224],]
podstawa=[[14,49.98120185864377,22.149618759262808],['start',49.9746900,22.1448900],['meta',49.9865500,22.1518800]]
daneflot=[[0.0,242.781],[0.1,253.173],[0.2,263.859],[0.3,273.242],[0.4,279.964],[0.5,290.387],[0.6,300.090],[0.7,304.535],[0.8,308.144],[0.9,314.140],[1.0,320.902],[1.1,327.261],[1.2,332.851],[1.3,340.717],[1.4,344.593],[1.5,347.554],[1.6,349.099],[1.7,351.997],]