name=Zasypnica
slope=3.0km 7.0%
points=187.2
region=22
description=Nawierzchnia: szosa, stan średni. Ruch samochodowy: minimalny.
Przyjemna trasa biegnąca Doliną Zasypnicy. Podjazd można sobie przedłużyć jeszcze o kilometr jadąc odcinkiem szutrowym przez las.
comments=
author=Eses
segment=0
locations=[[1,49.73625716977745,19.573273904868188],[2,49.73453915766578,19.573784553317182],[3,49.7328410246263,19.57320922439021],[4,49.73128779584103,19.571930846858095],[5,49.72953542770745,19.571623079810024],[6,49.72778619814407,19.571636409173607],[7,49.72608443448291,19.572417751940748],[8,49.72434226931019,19.572753671607643],[9,49.72272598936316,19.57375133696314],[10,49.7209979556927,19.574318673573543],[11,49.71926895463868,19.574589456116428],[12,49.71754406606757,19.573988086941426],[13,49.71577830683102,19.574160000000006],[14,49.71401109518363,19.57438000000002],]
podstawa=[[13,49.72434226931019,19.572753671607643],['start',49.7379800,19.5726300],['meta',49.7127700,19.5726800]]
daneflot=[[0.0,348.736],[0.2,359.868],[0.4,371.621],[0.6,379.093],[0.8,391.077],[1.0,394.944],[1.2,404.877],[1.4,422.697],[1.6,436.905],[1.8,446.467],[2.0,453.761],[2.2,473.758],[2.4,495.333],[2.6,508.979],[2.8,525.385],[3.0,559.766],]