name=Kalisz (Górnośląska)
slope=1.6km 1.9%
points=6.8
region=54
description=Nawierzchnia: szosa, stan dobry. Ruch samochodowy: duży.
Droga w centrum miasta, niestety z większym ruchem ulicznym i poprzecinana poprzecznymi uliczkami z sygnalizacją świetlną
comments=
author=blindman
segment=0
locations=[[1,51.75682972140073,18.082480844037946],[2,51.7560794372462,18.081671714963477],[3,51.75532914753675,18.08086261277515],[4,51.75457885227272,18.0800535374716],[5,51.75382855145443,18.079244489051234],[6,51.75307824508222,18.078435467512918],[7,51.75232793315643,18.077626472854945],[8,51.75157761567739,18.076817505076065],[9,51.75082729264543,18.0760085641748],[10,51.75007696406088,18.075199650149784],[11,51.74932605378552,18.07439216381499],[12,51.74857358847203,18.073588471800804],[13,51.7478211176777,18.07278480656271],[14,51.74706864140282,18.071981168099],[15,51.7463220156655,18.071163731493925],]
podstawa=[[14,51.75082729264543,18.0760085641748],['start',51.7575800,18.0832900],['meta',51.7456300,18.0702300]]
daneflot=[[0.0,109.198],[0.1,112.985],[0.2,113.657],[0.3,114.835],[0.4,116.932],[0.5,118.005],[0.6,119.000],[0.7,119.758],[0.8,121.507],[0.9,122.809],[1.0,125.123],[1.1,128.249],[1.2,131.567],[1.3,133.199],[1.4,134.770],[1.5,136.917],[1.6,139.011],]