name=Borki Chechełskie od Ropczyc
slope=1.9km 7.4%
points=115.5
region=46
description=Nawierzchnia: szosa, stan dobry. Ruch samochodowy: znikomy.
Bardzo fajny podjazd wąską drogą asfaltową.
comments=
author=thedk63
segment=0
locations=[[1,50.03462234793549,21.578074170331774],[2,50.03399501583934,21.579089750396747],[3,50.03335662359049,21.5800881894952],[4,50.0326293789743,21.580888243620393],[5,50.03175977485537,21.581278790484134],[6,50.03089319563022,21.581683415396583],[7,50.03007116102076,21.582268839311837],[8,50.02940592845507,21.583208240764748],[9,50.0288121505239,21.584268578249635],[10,50.02808091774632,21.58509571645982],[11,50.02736561379302,21.585954874955178],[12,50.02694492645829,21.587130540548515],[13,50.02659361916906,21.588419741772668],[14,50.02606419392473,21.589550426367964],[15,50.02531953599855,21.590312153822538],[16,50.02447571561673,21.59082120820267],[17,50.02361408014931,21.591248918274914],[18,50.02273354000666,21.591549999999984],]
podstawa=[[14,50.02808091774632,21.58509571645982],['start',50.0349300,21.5770900],['meta',50.0218800,21.5910900]]
daneflot=[[0.0,219.940],[0.1,224.695],[0.2,232.231],[0.3,237.803],[0.4,245.124],[0.5,251.798],[0.6,259.898],[0.7,267.364],[0.8,276.045],[0.9,284.182],[1.0,289.296],[1.1,294.621],[1.2,304.562],[1.3,317.677],[1.4,329.013],[1.5,338.022],[1.6,344.797],[1.7,352.616],[1.8,359.094],[1.9,360.230],]