name=Rudawka
slope=1.0km 5.6%
points=40.2
region=40
description=Nawierzchnia: szosa, stan dobry. Ruch samochodowy: mały.
Podjazd z jeden z wielu w stronę Bielska. O tyle ciekawy że z widocznym znakiem 10 %
comments=
author=00dexter
segment=0
locations=[[1,49.83772000007836,18.941267364247324],[2,49.83759383722193,18.942763870521276],[3,49.83688452155177,18.94381056230543],[4,49.83654138183311,18.945160742309326],[5,49.83647541428578,18.946683481870537],[6,49.83641551922111,18.948206804202755],[7,49.83634083207536,18.949727843352093],[8,49.83603149591232,18.951174023611543],[9,49.83567575666586,18.952597022274176],]
podstawa=[[15,49.83641551922111,18.948206804202755],['start',49.8374900,18.9400100],['meta',49.8353200,18.9540200]]
daneflot=[[0.0,288.567],[0.1,293.686],[0.2,303.670],[0.3,310.265],[0.4,316.548],[0.5,323.578],[0.6,323.311],[0.7,324.533],[0.8,329.703],[0.9,338.587],[1.0,344.596],]