name=Maszt Kosztowy
slope=1.1km 3.7%
points=26.4
region=59
description=Nawierzchnia: szosa, stan zmienny. Ruch samochodowy: średni/mały.
Podjazd pod wzniesienie na którym ustawiony jest Radiowo-Telewizyjne Centrum Nadawcze Katowice-Kosztowy. Podjazd od strony dzielnicy Wesoła. Do skrzyżowania z ul. 3 Maja droga bardzo dobrej jakości. Później słabej.
comments=
author=?
segment=0
locations=[[1,50.18952518994438,19.10460918254148],[2,50.18974645455537,19.106022629168137],[3,50.1899000005499,19.107452750476],[4,50.18986469106955,19.108905861281187],[5,50.18989443617634,19.110352606762262],[6,50.19016854607358,19.111724374751702],[7,50.19078132583427,19.11281525111849],[8,50.19132643587222,19.11399082795276],[9,50.19166517330159,19.115263775864264],[10,50.1915895157687,19.11671245628952],]
podstawa=[[14,50.19016854607358,19.111724374751702],['start',50.1892500,19.1032200],['meta',50.1910600,19.1178900]]
daneflot=[[0.0,268.000],[0.1,268.876],[0.2,270.135],[0.3,271.746],[0.4,275.465],[0.5,281.004],[0.6,291.527],[0.7,298.801],[0.8,301.091],[0.9,299.915],[1.0,305.967],[1.1,308.990],]