name=Los Reales  (Hiszpania)
slope=21.8km 6.6%
points=1230.4
region=133
description=Nawierzchnia: szosa+szuter, zmienny
Popularny podjazd, w 2013 część etapu Vuelty, do przełęczy Peñas Blancas. Pierwsza część podjazdu to na zmianę strome odcinki i miejsca odpoczynkowe. Druga część to już klasyczny, trzymający nachylenie, podjazd do Peñas Blancas. I Tu kończy się dobra nawierzchnia. Ostatnia część, od przełęczy pod anteny, to już poważniejsze wyzwanie za sprawą słabej nawierzchni - momentami ubity drobny żwirek, tam gdzie brakuje asfaltu. Ale na szosówce da się wjechać. Z powodu słabej nawierzchni, większość kolarzy dojeżdż tylko do Peñas Blancas, stąd kilka wariantöw zjazdu. Wielkie walory widokowe - w pogodny dzień widać Gibraltar, Cieśninę i północne wybrzeże Afryki. Przez Esteponę można przejechać dowolnie, natomiast jeśli wsiadamy na rower właśnie w Esteponie, to warto się dobrze rozgrzać, bo przejazd przez miasto i pierwsza część nad miastem możne nas nieźle zaskoczyć. Po opuszczeniu Estepony ruch kołowy niewielki.
comments=
author=Menchov
segment=0
locations=[[1,36.42847295850215,-5.1404017529876],[2,36.42966802189425,-5.1419834840514795],[3,36.43092836353747,-5.143495206965213],[4,36.43142367926492,-5.145551674198032],[5,36.43236031169014,-5.146643521423471],[6,36.43410080410916,-5.146970529488499],[7,36.43573652261119,-5.147526078798933],[8,36.43741760000484,-5.1481287345918645],[9,36.43895365979714,-5.148967304127723],[10,36.44027027147713,-5.150410459026034],[11,36.44198786011787,-5.150764142173102],[12,36.4437266096622,-5.150655965757551],[13,36.44508731996785,-5.1519402809205985],[14,36.44646055523445,-5.153183072357251],[15,36.44808336860653,-5.153927764262903],[16,36.449349654878,-5.155218964103597],[17,36.45041542068881,-5.1561265105297025],[18,36.45132602287146,-5.157224059160285],[19,36.45262220796583,-5.158629712665743],[20,36.45397279259171,-5.159989212477285],[21,36.45568686948953,-5.160256825282204],[22,36.45731382355062,-5.160012793785313],[23,36.45885948676216,-5.160977698729653],[24,36.460559912945,-5.16138663756999],[25,36.46171639910234,-5.162821723812954],[26,36.46249875002289,-5.16465142476909],[27,36.46382393122745,-5.166094308346601],[28,36.46522566647894,-5.167087735002042],[29,36.46651003296298,-5.168346244309191],[30,36.46804272388208,-5.169259547682827],[31,36.46924751732365,-5.1698269728118476],[32,36.47055932827617,-5.17115610527992],[33,36.47097425084376,-5.172647300651079],[34,36.47054083674422,-5.172898613134521],[35,36.47170888341105,-5.174468741415694],[36,36.4728894084237,-5.175905019709262],[37,36.47437217656947,-5.177082275705402],[38,36.47521742311424,-5.178539559470892],[39,36.4767887749471,-5.179085536865273],[40,36.47835589522116,-5.180031222516732],[41,36.47940307295589,-5.180000623441515],[42,36.48022560103837,-5.178946801918414],[43,36.48105662892522,-5.179330024385763],[44,36.48191794967213,-5.1787059429364035],[45,36.48222578851674,-5.176556933598249],[46,36.48248193516766,-5.174647087443873],[47,36.48300238875094,-5.173819075177107],[48,36.48419470196966,-5.175419986422412],[49,36.48524815909229,-5.17582980373129],[50,36.48568873629459,-5.1737359842366],[51,36.48579829147746,-5.1731006030238404],[52,36.48613419936299,-5.175177081882566],[53,36.48621550455267,-5.17736558552258],[54,36.48666732349989,-5.179401665897444],[55,36.48821986775141,-5.179838277410568],[56,36.48956556078209,-5.180837039309154],[57,36.48961365569664,-5.183011561149215],[58,36.48951642785338,-5.1851631379457785],[59,36.4905157812771,-5.184920191088395],[60,36.49155315122871,-5.185706644555239],[61,36.49222878307464,-5.187627566059177],[62,36.49385535784781,-5.187783040398699],[63,36.49544193810954,-5.187362422625711],[64,36.49679870630548,-5.188626870623693],[65,36.49834190030357,-5.187610654912646],[66,36.49967655616248,-5.186213563143838],[67,36.50128696398936,-5.185956908061144],[68,36.50296719683076,-5.186130325200452],[69,36.50438519662842,-5.18545705765348],[70,36.50420250437237,-5.183397728063028],[71,36.50412454723756,-5.181240614145622],[72,36.50435594773069,-5.179081247142221],[73,36.50465790357369,-5.177411613544791],[74,36.50462566970987,-5.179583295032899],[75,36.50482369144529,-5.181755477603929],[76,36.50546326952944,-5.183782878356169],[77,36.50543713206719,-5.185943240592451],[78,36.5048446331968,-5.188005771296503],[79,36.50369234167842,-5.188908521034932],[80,36.50204481312311,-5.189308407601516],[81,36.50040596752755,-5.1900379487628925],[82,36.49951392255636,-5.191838233800013],[83,36.49816392124386,-5.19322013318606],[84,36.49650948609153,-5.193931260713271],[85,36.49480902772832,-5.194437832055883],[86,36.49314214554467,-5.195004760510415],[87,36.49276240887772,-5.195886499681478],[88,36.49396037055708,-5.196639259834228],[89,36.49262290297003,-5.1980370973521985],[90,36.49307005731259,-5.196959552009275],[91,36.4918656242253,-5.198461157488964],[92,36.49163643981145,-5.200344906425698],[93,36.49162456011187,-5.199272551653507],[94,36.49015996156825,-5.198157098440447],[95,36.48852437761679,-5.197427207533906],[96,36.48679987959656,-5.197572016554432],[97,36.48594056602332,-5.199411196393157],[98,36.48432947280735,-5.1996823046819145],[99,36.48485897136657,-5.200580623930364],[100,36.48365728214122,-5.20049322474722],[101,36.48272632498396,-5.201597024589205],[102,36.48257582319581,-5.202500859375959],[103,36.48430617959659,-5.202340471809407],[104,36.4834359976707,-5.203463564945196],[105,36.48190175988534,-5.2044268982104995],[106,36.4823531267193,-5.20548081560753],[107,36.48346849461844,-5.206902312521606],[108,36.48442796751939,-5.207155517312799],]
podstawa=[[12,36.47,-5.179838277410568],['start',36.4277000,-5.1384900],['meta',36.4849700,-5.2077300]]
daneflot=[[0.0,10.100],[0.2,14.085],[0.4,20.313],[0.6,23.584],[0.8,24.990],[1.0,38.911],[1.2,43.582],[1.4,47.416],[1.6,68.169],[1.8,89.554],[2.0,101.516],[2.2,115.388],[2.4,124.196],[2.6,146.435],[2.8,159.143],[3.0,173.662],[3.2,198.738],[3.4,224.703],[3.6,233.529],[3.8,233.888],[4.0,255.527],[4.2,271.099],[4.4,274.292],[4.6,284.915],[4.8,284.182],[5.0,277.998],[5.2,288.159],[5.4,288.868],[5.6,290.954],[5.8,305.512],[6.0,321.025],[6.2,329.666],[6.4,318.614],[6.6,325.493],[6.8,335.656],[7.0,360.573],[7.2,380.917],[7.4,409.811],[7.6,425.988],[7.8,443.337],[8.0,453.505],[8.2,463.714],[8.4,482.166],[8.6,497.957],[8.8,526.109],[9.0,535.419],[9.2,549.200],[9.4,555.306],[9.6,571.776],[9.8,591.405],[10.0,607.420],[10.2,609.552],[10.4,616.131],[10.6,623.697],[10.8,643.016],[11.0,661.963],[11.2,678.244],[11.4,701.698],[11.6,721.790],[11.8,730.401],[12.0,741.178],[12.2,754.283],[12.4,766.920],[12.6,779.705],[12.8,796.258],[13.0,813.747],[13.2,818.842],[13.4,834.194],[13.6,860.633],[13.8,881.694],[14.0,880.472],[14.2,883.877],[14.4,897.208],[14.6,901.613],[14.8,916.428],[15.0,925.650],[15.2,941.144],[15.4,953.652],[15.6,961.797],[15.8,977.521],[16.0,986.573],[16.2,1002.735],[16.4,1018.135],[16.6,1028.823],[16.8,1036.771],[17.0,1044.249],[17.2,1054.088],[17.4,1061.590],[17.6,1079.730],[17.8,1104.572],[18.0,1119.813],[18.2,1137.953],[18.4,1145.166],[18.6,1154.364],[18.8,1177.664],[19.0,1190.350],[19.2,1205.589],[19.4,1225.365],[19.6,1244.348],[19.8,1264.511],[20.0,1279.656],[20.2,1296.067],[20.4,1318.756],[20.6,1329.729],[20.8,1344.377],[21.0,1356.332],[21.2,1371.259],[21.4,1397.481],[21.6,1420.117],[21.8,1437.898],]