name=Tymowa
slope=2.7km 5.4%
points=97.4
region=43
description=Nawierzchnia: szosa. Ruch samochodowy: mały.
Ciekawy podjazd po serpentynach w okolicach Tymowa.
comments=
author=piotrkol91
segment=5809738
locations=[[1,49.85085258961666,20.619592919995853],[2,49.85039564026203,20.61841384558761],[3,49.84997073983254,20.617205505072207],[4,49.84954582684377,20.615997185802257],[5,49.84879930081846,20.61536192925746],[6,49.84796972690046,20.614912644610627],[7,49.84814288085699,20.61381808391991],[8,49.84843320483783,20.612622819297712],[9,49.84758967318042,20.612245825654554],[10,49.8472654251708,20.61111704447967],[11,49.84757991917627,20.60987959575357],[12,49.84678941833546,20.609443883026643],[13,49.84621391332185,20.608736245470027],[14,49.84620181658978,20.607631068578257],[15,49.84534670101899,20.607262989080823],[16,49.84516624459491,20.606294710251973],[17,49.84526599594361,20.605189173741906],[18,49.84446002133109,20.60508407242969],[19,49.84413659751568,20.60381879655324],[20,49.84329740291914,20.603520000000003],[21,49.84243319063405,20.603398443332253],[22,49.84236939224274,20.60209019875458],[23,49.84172639660245,20.60223843675817],[24,49.84113820265215,20.602817303966845],[25,49.84049766807819,20.601864872122064],[26,49.83972753599303,20.601378254649603],]
podstawa=[[14,49.84620181658978,20.607631068578257],['start',49.8512900,20.6206700],['meta',49.8390200,20.6021300]]
daneflot=[[0.0,271.577],[0.1,269.505],[0.2,270.682],[0.3,277.077],[0.4,284.051],[0.5,290.084],[0.6,292.571],[0.7,299.997],[0.8,306.057],[0.9,309.935],[1.0,317.202],[1.1,319.563],[1.2,325.543],[1.3,331.706],[1.4,339.089],[1.5,346.036],[1.6,351.857],[1.7,354.083],[1.8,359.756],[1.9,367.630],[2.0,371.522],[2.1,378.995],[2.2,381.972],[2.3,392.062],[2.4,394.157],[2.5,403.684],[2.6,412.857],[2.7,414.433],]