name=Chorągwica od Wieliczki
slope=3.5km 4.7%
points=121.7
region=41
description=Nawierzchnia: szosa, stan dobry. Ruch samochodowy: minimalny.
Jedna z opcji szosowego podjazdu z Wieliczki na Chorągwicę. Trasa rozpoczyna się przy drodze nr 966, wiedzie cały czas wąskim asfaltem wśród zabudowań. Z początku jest kilka wypłaszczeń, następnie wjeżdżamy na najbardziej strony odcinek. Jest to prawie 200 metrowa ścianka, wyłożona płytami betonowymi. Następnie podjazd staje się łagodniejszy, a po lewej roztacza się panorama Krakowa. Obok lasu droga skręca o 90 stopni w prawo i rozpoczyna się drugi stromy odcinek, dochodzący do ważniejszej drogi gminnej. Po skręcie w prawo, na łagodniejszym już odcinku dojeżdża się do najwyższego punktu obok kościoła w Chorągwicy
comments=Dnia 2015-02-11 użytkownik Greek dodał:
Nie każdy lubi jeździć po płytach ażurowych. Rozumiem, kiedy nie ma innej trasy, ale tu bez problemu można poprowadzić trasę od skrzyżowania w Tomaszkowicach.Trasy te pokrywają się od 2km tej wersji. Powinno być dokładnie tak jak ten segment: https://www.strava.com/segments/4592269
author=cymek
segment=0
locations=[[1,49.97782670656078,20.08668720056346],[2,49.97712011928246,20.085809807964097],[3,49.97642977139368,20.08489189386421],[4,49.97572423125831,20.08400160406154],[5,49.97502174756961,20.083105329877526],[6,49.974356160786,20.082144239779154],[7,49.97366546191368,20.081226991201902],[8,49.97301177107973,20.08093168077926],[9,49.97221498235425,20.081591954497753],[10,49.97172689809253,20.082776204907987],[11,49.97116243332788,20.083875941829888],[12,49.97068034732791,20.085023043933575],[13,49.96998574935321,20.085907288889757],[14,49.96958074170909,20.086888899034875],[15,49.96919342992094,20.088106623419662],[16,49.96842048632325,20.08877452095578],[17,49.96798237653908,20.089830864097394],[18,49.9677815409796,20.0910633298256],[19,49.96700538139384,20.09177524654774],[20,49.96634215216051,20.092699280434772],[21,49.96556292734628,20.09341423470687],[22,49.96489771853157,20.094175335475484],[23,49.96419754910028,20.09505332444769],[24,49.96363025552565,20.096153947557468],[25,49.96298683138895,20.0971256060285],[26,49.9622186224727,20.09783974895322],[27,49.96150441786442,20.097639611824548],[28,49.96063185806651,20.097289114436308],[29,49.95978518737355,20.096945763735675],[30,49.95917620153677,20.09599156434274],[31,49.95900391835977,20.094914326765547],[32,49.95922834701145,20.09354669770505],[33,49.95938006082888,20.092155178698818],[34,49.95969228703803,20.09083345477211],]
podstawa=[[13,49.9677815409796,20.0910633298256],['start',49.9784800,20.0859400],['meta',49.9598300,20.0894600]]
daneflot=[[0.0,258.917],[0.1,260.377],[0.2,265.092],[0.3,272.299],[0.4,279.069],[0.5,283.830],[0.6,287.458],[0.7,290.589],[0.8,292.069],[0.9,293.266],[1.0,298.979],[1.1,305.115],[1.2,304.946],[1.3,302.895],[1.4,301.070],[1.5,303.453],[1.6,317.281],[1.7,330.225],[1.8,333.485],[1.9,343.193],[2.0,347.310],[2.1,352.418],[2.2,357.221],[2.3,362.292],[2.4,365.082],[2.5,367.875],[2.6,369.792],[2.7,371.768],[2.8,379.233],[2.9,390.183],[3.0,400.654],[3.1,406.003],[3.2,410.225],[3.3,414.700],[3.4,420.905],[3.5,421.569],]