name=Helusz od Pruchnika
slope=2.3km 4.7%
points=88.1
region=47
description=Nawierzchnia: szosa, stan dobry. Ruch samochodowy: minimalny.
Bardzo fajny podjazd przez las, a nagrodą za jego pokonanie są widoki na Pogórze Dynowskie
comments=
author=parurex
segment=0
locations=[[1,49.86472999207402,22.514341667989356],[2,49.86385404622978,22.514127976906593],[3,49.86306157675417,22.514840599940726],[4,49.86228855921495,22.515605720409212],[5,49.86137531506095,22.515751898867393],[6,49.86045619164847,22.515748299069855],[7,49.85953773846236,22.515682694871316],[8,49.85862330700844,22.515724304625223],[9,49.85772244830896,22.51600338540152],[10,49.85681244772687,22.515820602509166],[11,49.85589328788992,22.515829654865456],[12,49.8550060345466,22.51619656378125],[13,49.85409927045956,22.516303080119087],[14,49.85319495622268,22.5164611733303],[15,49.85229881739774,22.51676999999995],[16,49.851390689985,22.516563435679814],[17,49.85049697675708,22.516229383095833],[18,49.84960474606023,22.51588513652041],[19,49.84869165921975,22.515774742915255],[20,49.84778005877207,22.515604334827685],[21,49.84687893512273,22.515335361062853],[22,49.84622438957274,22.514354462778215],]
podstawa=[[13,49.8550060345466,22.51619656378125],['start',49.8653600,22.5133400],['meta',49.8456200,22.5132800]]
daneflot=[[0.0,272.262],[0.1,275.978],[0.2,281.646],[0.3,291.412],[0.4,301.908],[0.5,308.310],[0.6,312.701],[0.7,316.534],[0.8,324.408],[0.9,336.158],[1.0,344.845],[1.1,355.420],[1.2,360.381],[1.3,365.384],[1.4,366.874],[1.5,366.030],[1.6,366.334],[1.7,372.188],[1.8,374.661],[1.9,367.628],[2.0,368.042],[2.1,373.363],[2.2,379.523],[2.3,381.449],]