name=Dąbrowska Góra (szczyt) z Wielogłowy
slope=4.4km 6.7%
points=261.9
region=43
description=Nawierzchnia: szosa+beton, dobry
Solidna porcja wspinaczki na widokowe wzgórze. Od skrętu w kierunku na stok podjazd z łagodnego nabiera impetu i wyprowadza nas stromą rampką pod szczyt, gdzie kończy się droga. Przy ostatniej nawrotce przez zagajnik nawierzchnia przechodzi w gładką betonową jezdnię. Zjazd kontrolowany do prostej na Wielogłowy. Ruch mały - dalej zanikający.
comments=
author=airstreeem20
segment=0
locations=[[1,49.67357035937688,20.686711187445553],[2,49.67485214597217,20.688578218839893],[3,49.67622456439783,20.6901262088561],[4,49.67778638650128,20.691152506986214],[5,49.67926569906484,20.692394377507412],[6,49.68065186047809,20.69406714805018],[7,49.68169058664272,20.696258306397795],[8,49.68309870617021,20.697866592699484],[9,49.68439314367445,20.699521143579886],[10,49.68489454248766,20.70210348639148],[11,49.68479729687247,20.70480107832941],[12,49.68545797306115,20.70662556832565],[13,49.68717515466824,20.70717462494656],[14,49.68891807775518,20.707036154039656],[15,49.6899662208321,20.70912225046959],[16,49.69054658706676,20.70711139750813],[17,49.6906837340304,20.704457280269708],[18,49.69114162116342,20.70291693304216],[19,49.69158000067217,20.70034526981067],[20,49.69178541924949,20.697662794187636],[21,49.6922210767443,20.695036639226828],]
podstawa=[[13,49.68545797306115,20.70662556832565],['start',49.6724600,20.6849600],['meta',49.6926400,20.6924000]]
daneflot=[[0.0,274.758],[0.2,279.252],[0.4,286.154],[0.6,292.742],[0.8,298.207],[1.0,307.519],[1.2,313.174],[1.4,322.565],[1.6,334.165],[1.8,347.375],[2.0,353.869],[2.2,360.722],[2.4,374.091],[2.6,394.321],[2.8,421.416],[3.0,447.205],[3.2,471.816],[3.4,497.417],[3.6,519.230],[3.8,532.615],[4.0,542.758],[4.2,547.727],[4.4,569.254],]