name=Byniowa Zagorzyńska z Czernca
slope=2.8km 7.0%
points=182.2
region=29
description=Nawierzchnia: szosa, stan średni. Ruch samochodowy: średni.
Podjazd przez przekaźnik w Jeżowej. Dobre widoki wokoło. Przekaźnik - ok. 50m.
comments=
author=mx2047
segment=0
locations=[[1,49.55371910194373,20.42397789068582],[2,49.55442428323913,20.42454329991847],[3,49.55533140107755,20.424551383122434],[4,49.55622190763337,20.424292493088387],[5,49.55704881684909,20.42371222103327],[6,49.55770393274479,20.422770202017773],[7,49.55819785878953,20.42159254154126],[8,49.55877393802383,20.420508682368336],[9,49.55934449658521,20.419427302057557],[10,49.55978606291234,20.418500542580432],[11,49.5600161634592,20.417172978698545],[12,49.56034287812188,20.415965975599306],[13,49.56123253916491,20.415819172888177],[14,49.56205714444713,20.41594270120345],[15,49.56251225356511,20.417152402932516],[16,49.56320967236647,20.41800149269352],[17,49.56405803842975,20.418497670701527],[18,49.56492963237275,20.41889061763436],[19,49.5657622324409,20.41838765498892],[20,49.56636644410879,20.41739349549971],[21,49.56673628203713,20.416122308036734],[22,49.56680463816889,20.414729405588673],[23,49.56678014202767,20.413327473894242],[24,49.56667756437138,20.41193436775984],[25,49.56648078417405,20.41056738574855],[26,49.56613851973002,20.409271533319156],[27,49.56616564737053,20.407884241013335],]
podstawa=[[14,49.56251225356511,20.417152402932516],['start',49.5529100,20.4235300],['meta',49.5662500,20.4065200]]
daneflot=[[0.0,365.520],[0.1,370.336],[0.2,375.525],[0.3,381.472],[0.4,386.955],[0.5,393.157],[0.6,401.012],[0.7,411.386],[0.8,422.196],[0.9,434.267],[1.0,442.729],[1.1,454.778],[1.2,461.928],[1.3,477.078],[1.4,486.351],[1.5,499.559],[1.6,508.347],[1.7,517.071],[1.8,527.329],[1.9,532.415],[2.0,531.237],[2.1,531.506],[2.2,532.468],[2.3,531.998],[2.4,535.737],[2.5,541.042],[2.6,549.273],[2.7,555.554],[2.8,561.814],]