name=Champex-du-Lac  od Bovernier (Szwajcaria)
slope=10.6km 8.0%
points=757.5
region=116
description=Nawierzchnia: szosa, stan dobry. Ruch samochodowy: mały.
Podjazd do Champex-lac to trudny, wymagający podjazd szczególnie w czasie upału. Od początku podjazd mocno trzyma w okolicach 8-10% wspinając się po licznych serpentynach. Później nieco lżej, ale wcale nie powiem, że łatwo. Na szczycie kurort i jezioro, które można spokojnie całe objechać.
comments=Dnia 2015-06-14 użytkownik BartekLC dodał:
Jakaś pomyłka nastąpiła bo przewyższenie wychodzi 864 metry a nie 844. Chyba że wysokości są błędnie podane. Jeżeli faktycznie przewyższenie wynosi 864 metry to i średnie nachylenie powinno wzrosnąć do 8,1 % a nawet można dać 8,2 % :) Pozdrawiam !
author=Bystry
segment=0
locations=[[1,46.07541806887025,7.075311480422897],[2,46.07409694045995,7.07383928029401],[3,46.07254470480585,7.073219412194248],[4,46.0708196965074,7.072776795942332],[5,46.06991267088217,7.072053932940776],[6,46.07121109525164,7.073810569810121],[7,46.07260068470437,7.074829025438021],[8,46.07224783458472,7.077357648313296],[9,46.0718877649923,7.07657200111737],[10,46.07145829345094,7.076168215995722],[11,46.07105997580364,7.078223238647638],[12,46.07013993180684,7.076013781060965],[13,46.0690288781738,7.074872460773349],[14,46.06774881037073,7.073272463324429],[15,46.06816516928205,7.074272050194168],[16,46.06755554796944,7.075204649998568],[17,46.0672033027844,7.075473669504618],[18,46.0668150136644,7.075495040455166],[19,46.06651939214654,7.075618419569764],[20,46.06516064716339,7.075163301926523],[21,46.06379598771526,7.076382906852359],[22,46.06518146290276,7.07675576110978],[23,46.06530559743189,7.07776897123756],[24,46.06352524916546,7.078037443812946],[25,46.06175313193083,7.078477430649173],[26,46.06000605425968,7.078711844045074],[27,46.05848458319883,7.079279800615268],[28,46.05683473701455,7.080128120348036],[29,46.05518564875335,7.081099743795107],[30,46.0534511514051,7.08169513148664],[31,46.0548452552379,7.08236817573129],[32,46.05316765391335,7.083189022185934],[33,46.05405406222535,7.083533986097677],[34,46.05299268632095,7.084627927509132],[35,46.0514056323985,7.085765229864251],[36,46.0496779021242,7.085892447525225],[37,46.04970733562529,7.086624614167022],[38,46.04821796137394,7.0880040772759685],[39,46.04865073227252,7.088518292209642],[40,46.04871333918481,7.089317389481721],[41,46.04772510718028,7.091381002751746],[42,46.04640318362247,7.093078107350266],[43,46.04489615480017,7.093663955827196],[44,46.04345374935681,7.095073902265312],[45,46.04213600130947,7.09653871990065],[46,46.04040504582466,7.096891345765243],[47,46.03930677139932,7.098895354969159],[48,46.03845931115453,7.101083625498632],[49,46.03697578800381,7.102301870914971],[50,46.03528818284683,7.103021711494762],[51,46.03351483799089,7.10305286796256],[52,46.03242740164314,7.104902517135315],[53,46.03174277934184,7.106882391583213],[54,46.03193181614356,7.108842057485276],[55,46.03163454034395,7.111358821998692],[56,46.03092305210289,7.113663042211442],[57,46.02934971076546,7.113013429868943],]
podstawa=[[12,46.0534511514051,7.08169513148664],['start',46.0771600,7.0758000],['meta',46.0277400,7.1140000]]
daneflot=[[0.0,628.572],[0.2,645.614],[0.4,660.142],[0.6,679.446],[0.8,695.157],[1.0,712.394],[1.2,726.824],[1.4,741.925],[1.6,761.890],[1.8,779.516],[2.0,795.899],[2.2,813.825],[2.4,829.636],[2.6,843.332],[2.8,864.008],[3.0,885.686],[3.2,905.981],[3.4,926.798],[3.6,947.913],[3.8,970.517],[4.0,990.247],[4.2,1010.865],[4.4,1028.294],[4.6,1045.164],[4.8,1061.393],[5.0,1079.499],[5.2,1098.199],[5.4,1119.329],[5.6,1134.781],[5.8,1152.929],[6.0,1168.688],[6.2,1186.208],[6.4,1204.957],[6.6,1224.881],[6.8,1242.809],[7.0,1260.468],[7.2,1279.210],[7.4,1297.685],[7.6,1315.862],[7.8,1330.331],[8.0,1341.978],[8.2,1357.234],[8.4,1368.120],[8.6,1379.173],[8.8,1392.099],[9.0,1405.853],[9.2,1423.261],[9.4,1442.419],[9.6,1459.016],[9.8,1471.811],[10.0,1483.948],[10.2,1493.326],[10.4,1495.088],[10.6,1493.099],]