name=Kluski
slope=2.0km 2.0%
points=22.4
region=60
description=Nawierzchnia: szosa, stan bardzo dobry. Ruch samochodowy: żaden.
Początek podjazdu w lesie później na polach .W wietrzne dni bardzo trudny wiatr wiejący w twarz
comments=
author=sector87
segment=0
locations=[[1,51.08600483769815,18.667252942269897],[2,51.08522705668467,18.666505881399644],[3,51.08432541326621,18.666296559921193],[4,51.08407247039319,18.664928372803956],[5,51.0839895389057,18.663484001346887],[6,51.08315989796969,18.663244325302458],[7,51.0822456286615,18.663255266165038],[8,51.08133710759098,18.66338763146132],[9,51.08043974426714,18.66366537311046],[10,51.07953595380743,18.663747982313225],[11,51.07868388249675,18.663226339036328],[12,51.07780965909068,18.662804124318427],[13,51.07692367358101,18.66244477416717],[14,51.07603818452073,18.66254134478345],[15,51.07518055836454,18.663044659585466],[16,51.07432588488577,18.663561553803675],[17,51.07346896451394,18.664068366494575],[18,51.07257047683957,18.6639909581628],[19,51.07167488072808,18.663698289392528],]
podstawa=[[14,51.07868388249675,18.663226339036328],['start',51.0868600,18.6677600],['meta',51.0707800,18.6634000]]
daneflot=[[0.0,175.478],[0.1,184.973],[0.2,192.052],[0.3,193.751],[0.4,198.000],[0.5,198.000],[0.6,197.485],[0.7,198.058],[0.8,200.115],[0.9,202.785],[1.0,201.807],[1.1,201.787],[1.2,200.437],[1.3,199.155],[1.4,200.166],[1.5,203.142],[1.6,208.269],[1.7,210.870],[1.8,211.771],[1.9,213.483],[2.0,215.572],]