name=Ryżyn
slope=1.3km 1.5%
points=4.6
region=72
description=Nawierzchnia: szosa, stan średni. Ruch samochodowy: mały.
Fajna górka jakich wiele w okolicy
comments=
author=kecaj
segment=0
locations=[[1,52.63932450870991,16.174178950418764],[2,52.63936480416248,16.17558916228836],[3,52.63962165489549,16.177006786420975],[4,52.63973115928165,16.178449276804372],[5,52.63943095449436,16.179837757362634],[6,52.63875844622146,16.180817864996584],[7,52.63808524427817,16.181796651384957],[8,52.63740649517874,16.18276497615716],[9,52.63672773818604,16.18373327088159],[10,52.63604897330052,16.184701535559725],[11,52.63537020052263,16.18566977019293],[12,52.63469141985279,16.186637974782343],]
podstawa=[[14,52.63808524427817,16.181796651384957],['start',52.6398900,16.1731200],['meta',52.6340200,16.1876200]]
daneflot=[[0.0,47.074],[0.1,47.427],[0.2,49.556],[0.3,53.929],[0.4,55.915],[0.5,58.141],[0.6,58.234],[0.7,59.464],[0.8,60.330],[0.9,62.266],[1.0,64.000],[1.1,64.186],[1.2,65.349],[1.3,67.000],]