name=Zazadnia z Kośnych Hamrów
slope=5.8km 2.2%
points=52
region=23
description=Nawierzchnia: szosa, stan dobry. Ruch samochodowy: mały.
Łatwy, rekreacyjny podjazd po dobrej jakości szosie przy małym ruchu samochodowym.
Ograniczone walory widokowe rekompensowane są możliwością oddychania czystym, leśnym powietrzem. Na końcu wsi Małe Ciche asfalt zamienia się w drogę gruntowa (miejscami luźne kocie łby). Trasa dla rodziny z niewyrośniętymi dziećmi.
comments=
author=jeżnarowerze
segment=0
locations=[[1,49.3308700771127,20.04221365036767],[2,49.33006123792942,20.044605451618168],[3,49.32887972489995,20.046638686106235],[4,49.32775224046141,20.048740588519195],[5,49.3264658723711,20.050613007490824],[6,49.32484749552311,20.05154340867125],[7,49.32316441657398,20.052338112057896],[8,49.32183429774305,20.054080165498817],[9,49.32028972235474,20.05540124992035],[10,49.3188373138799,20.056963145024156],[11,49.31731918118293,20.058373500734888],[12,49.3159133536271,20.059851808306348],[13,49.31479335462338,20.061907582472372],[14,49.31336720042344,20.063529515227742],[15,49.31185284233301,20.06488812399357],[16,49.31015659353446,20.065603406910782],[17,49.30852183119889,20.066408385620434],[18,49.30691655936792,20.06753029559843],[19,49.30528599417431,20.068582684460353],[20,49.30381079554385,20.069901241163734],[21,49.30244053419883,20.071572921374923],[22,49.30075020051338,20.072366599896895],[23,49.29907044350715,20.073083709795128],[24,49.29761785768192,20.07450876515429],[25,49.29630338753291,20.076256990376805],[26,49.2951264938563,20.078264091392384],[27,49.29376289466004,20.079990263267405],[28,49.29201215643855,20.080183512820213],]
podstawa=[[12,49.31185284233301,20.06488812399357],['start',49.3323200,20.0413500],['meta',49.2902400,20.0800300]]
daneflot=[[0.0,780.063],[0.2,782.669],[0.4,789.630],[0.6,803.368],[0.8,802.962],[1.0,804.474],[1.2,806.630],[1.4,815.964],[1.6,817.401],[1.8,820.200],[2.0,830.078],[2.2,829.023],[2.4,833.557],[2.6,838.123],[2.8,843.563],[3.0,840.487],[3.2,844.618],[3.4,841.268],[3.6,842.517],[3.8,847.058],[4.0,847.932],[4.2,855.806],[4.4,858.944],[4.6,870.928],[4.8,872.000],[5.0,877.487],[5.2,882.359],[5.4,892.691],[5.6,898.904],[5.8,906.914],]