name=Sulnówko
slope=1.4km 3.6%
points=33.5
region=76
description=Nawierzchnia: szosa, stan zły. Ruch samochodowy: średni.
Wzdłuż drogi drzewa, a na podjeździe znajduje się przejazd kolejowy z rogatkami. Trzeba uważać na ubytki w asfalcie przez które można złapać gumę.
comments=
author=blazej.r
segment=0
locations=[[1,53.43468818553564,18.377667289324336],[2,53.43505612959763,18.379026095876497],[3,53.43543810270055,18.380374751480304],[4,53.4358240669866,18.381720238481876],[5,53.43617698905963,18.38309021564487],[6,53.43651984194518,18.384468070848925],[7,53.43687069880495,18.3858404145667],[8,53.43722355145278,18.387211320454526],[9,53.43757592620069,18.3885824962166],[10,53.4379030917278,18.389971268014165],[11,53.43802300805646,18.391379289462293],[12,53.43752233779067,18.39260905035917],[13,53.43693503981521,18.39372968865723],]
podstawa=[[14,53.43722355145278,18.387211320454526],['start',53.4345500,18.3762000],['meta',53.4364800,18.3950100]]
daneflot=[[0.0,32.000],[0.1,32.945],[0.2,36.059],[0.3,39.366],[0.4,40.464],[0.5,44.215],[0.6,43.894],[0.7,43.833],[0.8,44.757],[0.9,50.060],[1.0,53.052],[1.1,57.684],[1.2,69.530],[1.3,78.056],[1.4,83.289],]