name=Dulsk od Sitna
slope=1.3km 3.6%
points=19
region=76
description=Nawierzchnia: szosa, stan średni. Ruch samochodowy: mały.
Jeden z wielu podjazdów związanych z doliną rzeki Ruziec. Umiarkowane nachylenia.
comments=
author=ArturGabrych
segment=0
locations=[[1,53.04367314587813,19.10311858894306],[2,53.04396032021216,19.10448604024532],[3,53.0444933011167,19.105615509397694],[4,53.04516823387176,19.106534862009084],[5,53.04586350180784,19.10740870334132],[6,53.04660900213777,19.108162155223113],[7,53.04736106208095,19.108897572143633],[8,53.04811311748925,19.109633014728615],[9,53.04886516836242,19.11036848297954],[10,53.04961701094949,19.11110455188964],[11,53.05036801187205,19.111843008855544],[12,53.05111900822232,19.112581491558558],]
podstawa=[[14,53.04736106208095,19.108897572143633],['start',53.0435600,19.1016800],['meta',53.0518700,19.1133200]]
daneflot=[[0.0,62.642],[0.1,63.485],[0.2,68.650],[0.3,73.985],[0.4,77.327],[0.5,82.180],[0.6,87.004],[0.7,90.701],[0.8,91.804],[0.9,93.496],[1.0,96.185],[1.1,99.872],[1.2,105.096],[1.3,108.275],]