name=Radkowice
slope=0.6km 9.8%
points=67
region=33
description=Nawierzchnia: szosa, stan szosa. Ruch samochodowy: minimalny.
Podjazd wspinający się po zboczu doliny rzecznej w Radkowicach ułożony prosto w górę.
comments=
author=seraph
segment=0
locations=[[1,50.97591293781678,21.02705955505371],[2,50.976737086855614,21.02686643600464],[3,50.977540955842684,21.026158332824707],[4,50.978317790801,21.02584719657898],[5,50.97927699516578,21.025933027267456],]
podstawa=[[15,50.977047827777916,21.02830410003662],['start',50.97508877415098,21.02708101272583],['meta',50.98025644396386,21.026008129119873]]
daneflot=[[0.0,241.373],[0.1,249.547],[0.2,262.998],[0.3,276.106],[0.4,287.249],[0.5,295.549],[0.6,300.440],]