name=Kalisz (Os. Majków)
slope=1.0km 3.6%
points=16.3
region=54
description=Nawierzchnia: szosa, stan bruk. Ruch samochodowy: żaden.
Krótki lecz miejscami na tyle stromy że przy zjeździe pozwala rozwinąć rekordowe prędkości(>60km/h). Całość na drodze rowerowej, współdzielonej z chodnikiem
comments=
author=blindman
segment=0
locations=[[1,51.77427189844476,18.075831897131366],[2,51.77505624151696,18.076553527168926],[3,51.7758590257427,18.07722251797486],[4,51.77663922920757,18.077957183101603],[5,51.77739895916648,18.078742854077973],[6,51.77817022939471,18.079502268569627],[7,51.77893093290278,18.080288331335282],[8,51.77967091945935,18.08112516994845],[9,51.7803558865301,18.082076786166795],]
podstawa=[[15,51.77817022939471,18.079502268569627],['start',51.7735300,18.0750000],['meta',51.7810400,18.0830300]]
daneflot=[[0.0,99.668],[0.1,103.832],[0.2,112.026],[0.3,116.795],[0.4,119.130],[0.5,121.078],[0.6,122.793],[0.7,126.396],[0.8,130.594],[0.9,133.218],[1.0,135.605],]