name=Ondrejovice  (Czechy)
slope=2.2km 7.1%
points=137.5
region=14
description=Nawierzchnia: szosa, stan dobry. Ruch samochodowy: mały.
Jadąc z Mikulovic do Zlatych Hor w miejscowości Ondrejovice skręcamy przed boiskiem w prawo i zaczyna się podjazd. Początkowo spokojnie, ostro zaczyna się na rozwidleniu dróg - my jedziemy prosto, chociaż w lewo niewiele jest łatwiej. Dalej możemy przez Dolni Udoli przejechać do Hermanovic, Zlatych Hor, albo podjechać na Rejviz.
comments=
author=biru
segment=0
locations=[[1,50.26261215887912,17.35200921588148],[2,50.2617149844509,17.35185833149569],[3,50.26097101495879,17.351174638677094],[4,50.26022878910725,17.350405809965196],[5,50.2594102171508,17.34980879147861],[6,50.25854541662911,17.349397192009974],[7,50.25766255217388,17.34909314093329],[8,50.25699092985077,17.3481612392452],[9,50.25637504505734,17.347127980347977],[10,50.25556917323956,17.346551186413762],[11,50.25470184421452,17.346193242579602],[12,50.25383488210463,17.34638755896833],[13,50.25294095778685,17.346332160916404],[14,50.25203821180661,17.346242632108556],[15,50.25113733511061,17.346136261281345],[16,50.2503078540665,17.34559544811691],[17,50.24948934596624,17.344994866835805],[18,50.24867050998107,17.34439680694254],[19,50.24785980050829,17.343787781793935],[20,50.24700160907938,17.34334110575253],[21,50.24611013110351,17.343146327140403],]
podstawa=[[13,50.25383488210463,17.34638755896833],['start',50.2635000,17.3517500],['meta',50.2452500,17.3432300]]
daneflot=[[0.0,405.885],[0.1,407.125],[0.2,410.760],[0.3,415.022],[0.4,418.407],[0.5,422.745],[0.6,430.136],[0.7,438.557],[0.8,444.761],[0.9,450.174],[1.0,453.863],[1.1,460.554],[1.2,468.560],[1.3,478.375],[1.4,488.891],[1.5,501.009],[1.6,513.899],[1.7,526.641],[1.8,537.955],[1.9,547.475],[2.0,554.858],[2.1,561.172],[2.2,563.216],]