name=Będkowice od Kobylan
slope=2.2km 5.6%
points=87.9
region=62
description=Nawierzchnia: szosa, stan dobry. Ruch samochodowy: średni.
Podjazd o podobnych parametrach jak podjazdy do Zelkowa z Bolechowic i z Gacek czyli około 2km  trasy przy przewyższeniu ponad 100m, bez szczególnie stromych odcinków.  Gdy już się go zdobędzie z satysfakcją można zjechać w prawo bądź lewo szlakami do Doliny Będkowskiej lub Kobylańskiej.
comments=Dnia 2014-08-07 użytkownik xtnt dodał:
Ciekawy podjazd, dzięki za info.
author=Tmina
segment=0
locations=[[1,50.148870769186,19.75918264940151],[2,50.14848775589311,19.757895511417246],[3,50.14808407215352,19.75662831467048],[4,50.14800000010998,19.755197615058933],[5,50.14805240484603,19.75376068200046],[6,50.14801615237826,19.752329431466478],[7,50.14837570175101,19.751043854114414],[8,50.14890971558054,19.74987019854825],[9,50.14951902414366,19.748798738091068],[10,50.15027705154522,19.74798126087626],[11,50.15108107775266,19.747277476387694],[12,50.15186857514335,19.74653033269601],[13,50.15273628381967,19.746638898946912],[14,50.15359327368542,19.747171273957065],[15,50.15448379072862,19.74705373187487],[16,50.15539161808999,19.746876816492772],[17,50.15631399157638,19.746870455243652],[18,50.15723503469486,19.746912675815224],[19,50.15810921796308,19.747356288187575],[20,50.15897931509545,19.747834131903005],[21,50.1598893451408,19.74802999999997],]
podstawa=[[14,50.155,19.74653033269601],['start',50.1491200,19.7605600],['meta',50.1607500,19.7484600]]
daneflot=[[0.0,281.679],[0.1,287.995],[0.2,294.465],[0.3,300.376],[0.4,305.220],[0.5,306.974],[0.6,308.753],[0.7,309.670],[0.8,311.347],[0.9,316.245],[1.0,325.711],[1.1,336.159],[1.2,345.371],[1.3,356.396],[1.4,361.600],[1.5,363.567],[1.6,365.907],[1.7,372.095],[1.8,380.485],[1.9,383.268],[2.0,389.453],[2.1,398.797],[2.2,403.641],]