name=Bukowina-Osiedle  z Załucznego
slope=3.8km 5.5%
points=255.5
region=17
description=Nawierzchnia: szosa, stan bardzo dobry. Ruch samochodowy: minimalny.
Krótki podjazd z jedną cięższą ścianką. Z Osiedla przy dobrej pogodzie widać całe Tatry.
comments=
author=hincza
segment=0
locations=[[1,49.49693261099357,19.827944004919686],[2,49.49838089043941,19.826421775960284],[3,49.49984911202835,19.82516719680018],[4,49.50083603259801,19.82350812683967],[5,49.50212530246703,19.82175777276916],[6,49.50379563487731,19.82094048501449],[7,49.50521876773094,19.819827003543196],[8,49.50665588835926,19.818648660460212],[9,49.507869930906,19.81681119657128],[10,49.50901865563436,19.814809159502374],[11,49.51060243670022,19.814937274317572],[12,49.51159648778612,19.81705129473994],[13,49.51217814387685,19.81954381280491],[14,49.51224816702385,19.822233846305494],[15,49.51194254203769,19.82490038880269],[16,49.51157083611872,19.82754164470748],[17,49.51152902210078,19.83022839442765],[18,49.51279804291941,19.83208750982635],]
podstawa=[[13,49.50901865563436,19.818],['start',49.4955500,19.8282200],['meta',49.5139500,19.8340800]]
daneflot=[[0.0,680.246],[0.2,686.055],[0.4,698.232],[0.6,697.901],[0.8,713.187],[1.0,732.647],[1.2,768.974],[1.4,787.886],[1.6,798.120],[1.8,794.296],[2.0,793.910],[2.2,802.618],[2.4,816.029],[2.6,837.346],[2.8,858.721],[3.0,872.111],[3.2,867.420],[3.4,859.627],[3.6,873.596],[3.8,888.590],]