name=Wierch Oderne od Uścia Gorlickiego
slope=4.4km 4.8%
points=170.4
region=34
description=Nawierzchnia: szosa, stan dobry. Ruch samochodowy: minimalny.
Podjazd na widokowy Wierch nad Odernym, przy drodze drewniany kościół.
comments=Dnia 2014-07-29 użytkownik airstreeem20 dodał:
Dość wąsko, nawierzchnia pofalowana z wygryzieniami, nie kwalifikująca do szybkiego zjazdu - także w stronę Nowicy.
author=turdus23
segment=0
locations=[[1,49.51807586008454,21.148487381673704],[2,49.51706253185073,21.149457468370656],[3,49.51679334218908,21.152003087128037],[4,49.51773325860736,21.154423694830257],[5,49.51892368639916,21.156540588590246],[6,49.52040883747099,21.15818883225461],[7,49.52204559679028,21.15944396432758],[8,49.52323717010913,21.16155672636478],[9,49.52482222728234,21.16277408862811],[10,49.52633325850829,21.164233846330376],[11,49.52800983685751,21.165218054432444],[12,49.52981861873573,21.1649098230896],[13,49.53142495973394,21.16600991301118],[14,49.53255963663377,21.168227661093283],[15,49.53372616965306,21.170406325770273],[16,49.53472065914429,21.172723117490477],[17,49.53344813819896,21.174618611932374],[18,49.53367739651123,21.17631029204904],[19,49.53543186573481,21.17711754742902],[20,49.53697574706129,21.178620036004418],[21,49.5385947248872,21.179931821773835],]
podstawa=[[13,49.52981861873573,21.1649098230896],['start',49.5164000,21.1490500],['meta',49.5403500,21.1795000]]
daneflot=[[0.0,409.765],[0.2,418.252],[0.4,414.765],[0.6,421.505],[0.8,426.247],[1.0,433.174],[1.2,433.847],[1.4,442.811],[1.6,444.808],[1.8,445.429],[2.0,448.865],[2.2,457.430],[2.4,464.589],[2.6,478.278],[2.8,507.747],[3.0,530.990],[3.2,548.583],[3.4,565.039],[3.6,583.088],[3.8,588.478],[4.0,602.973],[4.2,619.253],[4.4,621.839],]