name=Lanckorona  od kościoła
slope=2.5km 6.2%
points=137.3
region=22
description=Nawierzchnia: szosa, stan średni. Ruch samochodowy: minimalny.
Kolejny wariant wjazdu na Lanckorońską Górę. Zaczyna się podjazdem do kościoła wyłożonym dziwacznym brukiem - odcinek 20m. Odbijamy w prawo i od razu nachylenie staje się bardzo duże. Z początku szosa jest bardzo dobra, ale z każdym metrem pojawia się coraz więcej pęknięć i brudu na drodze. Po tym intensywnym 800-metrowym odcinku droga wypłaszcza się, a stan nawierzchni się poprawia. Po chwili mamy poprawkę pod górę, ale już nie tak stromo, znów lekkie wypłaszczenie i na deser 100-metrową ściankę - najcięższy fragment całego podjazdu. I jesteśmy na górze.
comments=
author=Greek
segment=5706153
locations=[[1,49.85376784540115,19.692061541671592],[2,49.85298568680696,19.692743061282385],[3,49.85303029012378,19.693488549631866],[4,49.85306116406893,19.694845195194603],[5,49.85358003286407,19.695790293117398],[6,49.85367222770719,19.697171187422214],[7,49.85376506288043,19.698553252262627],[8,49.85380731086026,19.699943172286794],[9,49.85388677436456,19.701327936186544],[10,49.85417206073377,19.702629493319023],[11,49.85414917275486,19.70401013386254],[12,49.85387880957403,19.7053367482398],[13,49.85366119320322,19.706686446620097],[14,49.85342235695225,19.70802722876681],[15,49.85346270728203,19.709371652477785],[16,49.85314966489161,19.710673757334007],[17,49.85286758073193,19.711993225055267],[18,49.85251600259297,19.71326837584354],[19,49.85233527049306,19.714630660862895],[20,49.85183907942486,19.715742942357906],[21,49.85117690483697,19.71668055070404],[22,49.85040237880961,19.717378097043706],[23,49.84981053717239,19.718396084789447],[24,49.849280836811,19.719515550994515],]
podstawa=[[14,49.85366119320322,19.706686446620097],['start',49.8545500,19.6913800],['meta',49.8484200,19.7193800]]
daneflot=[[0.0,297.032],[0.1,302.503],[0.2,309.343],[0.3,316.884],[0.4,328.722],[0.5,339.833],[0.6,354.707],[0.7,363.104],[0.8,373.709],[0.9,382.202],[1.0,382.378],[1.1,383.682],[1.2,384.870],[1.3,389.728],[1.4,391.609],[1.5,397.402],[1.6,403.130],[1.7,413.013],[1.8,423.706],[1.9,429.327],[2.0,433.028],[2.1,433.016],[2.2,431.090],[2.3,440.805],[2.4,449.239],[2.5,452.761],]