name=Niegowonice od Mitręgi
slope=2.5km 3.0%
points=36
region=61
description=Nawierzchnia: szosa, stan dobry. Ruch samochodowy: średni.
Ciekawy podjazd, odwrotna wersja podjazdu Niegowonic. Zjazdy są równie ciekawe w obie strony, a sam podjazd podobny w obie strony. Na szczycie znane skałki. Warto zobaczyć.
comments=
author=xtnt
segment=0
locations=[[1,50.41416469309405,19.448060586904035],[2,50.41337704420016,19.44728709901767],[3,50.4125841004396,19.446526991254927],[4,50.41179202014588,19.44576470328002],[5,50.41100402585128,19.444992050245332],[6,50.4102141165836,19.444224315585416],[7,50.40941746166846,19.443473874704978],[8,50.40862080192634,19.44272345905847],[9,50.4078169972138,19.44199255507283],[10,50.40700287207885,19.44128982936718],[11,50.40618914263587,19.44058600281346],[12,50.4053803240806,19.43986837402099],[13,50.40457150111109,19.439150769723938],[14,50.40376267372763,19.43843318992117],[15,50.40295405635361,19.437715040074522],[16,50.40214549275937,19.436996753358244],[17,50.40131018299394,19.436416227129712],[18,50.40050175847279,19.43709165832388],[19,50.40029542125769,19.43595202681081],[20,50.40019007123514,19.434618434165372],[21,50.39944912825442,19.435114985699784],[22,50.39867975776224,19.4356114647793],[23,50.39817567827467,19.434492991913203],[24,50.39761502938227,19.433344099588567],]
podstawa=[[14,50.4065,19.439150769723938],['start',50.4149500,19.4488400],['meta',50.3969800,19.4322800]]
daneflot=[[0.0,344.815],[0.1,350.205],[0.2,354.868],[0.3,355.000],[0.4,354.000],[0.5,354.178],[0.6,356.905],[0.7,359.943],[0.8,362.416],[0.9,362.383],[1.0,365.288],[1.1,370.990],[1.2,377.353],[1.3,383.084],[1.4,386.113],[1.5,386.174],[1.6,387.933],[1.7,392.603],[1.8,399.977],[1.9,405.256],[2.0,405.392],[2.1,411.402],[2.2,414.236],[2.3,415.674],[2.4,418.295],[2.5,419.687],]