name=Gałąźnia Wielka
slope=2.5km 3.6%
points=56.8
region=90
description=Nawierzchnia: szosa, stan zły. Ruch samochodowy: mały.
Wjazd od mostu na rzece Słupia. W pobliżu największa elektrownia rzeczna na pomożu.
comments=
author=bercik3d
segment=0
locations=[[1,54.28862020653896,17.302941783960932],[2,54.28947883840713,17.303326936814074],[3,54.29022974250454,17.3041350731163],[4,54.29080799058939,17.305286868176154],[5,54.2911588438116,17.30668621447569],[6,54.29166550329658,17.307949086839244],[7,54.29223736168031,17.30908646514149],[8,54.29311448019231,17.309386531197106],[9,54.29394435835325,17.309900556877437],[10,54.29454253492258,17.311015947246233],[11,54.29485609814141,17.31239843628839],[12,54.29519660365969,17.313786175469772],[13,54.29566559262126,17.315091191332044],[14,54.29623690074976,17.316235265592468],[15,54.29711296999543,17.31641082933595],[16,54.29800690263048,17.316462023777945],[17,54.2988866416008,17.31663720605036],[18,54.29976639273333,17.316562418262833],[19,54.30065560942319,17.31653890214966],[20,54.30153882678892,17.31678002242802],[21,54.30241743802605,17.31701791458886],[22,54.30324120897579,17.31756544976804],[23,54.30393831523742,17.31847758562367],[24,54.30425836966962,17.319905943423464],]
podstawa=[[13,54.29566559262126,17.315091191332044],['start',54.2877700,17.3027600],['meta',54.3046400,17.3212900]]
daneflot=[[0.0,53.295],[0.1,55.601],[0.2,59.512],[0.3,61.636],[0.4,64.628],[0.5,66.923],[0.6,71.818],[0.7,77.243],[0.8,80.449],[0.9,86.102],[1.0,97.720],[1.1,109.394],[1.2,116.998],[1.3,121.616],[1.4,121.302],[1.5,122.753],[1.6,126.463],[1.7,128.912],[1.8,127.450],[1.9,127.064],[2.0,129.084],[2.1,131.529],[2.2,132.000],[2.3,132.861],[2.4,137.755],[2.5,142.847],]