name=Czarny Potok z Łącka
slope=2.8km 5.3%
points=101.2
region=29
description=Nawierzchnia: szosa, stan dobry. Ruch samochodowy: średni.
Trasa zaczyna się od skrętu na Czarny Potok obok Kościoła w Łącku. Trasa nie jest zbyt stroma poza dwoma konkretnymi podjazdami pod koniec. Na szczycie niesamowite widoki. Można później zjechać dość długą trasą pod Kościół w Czarnym Potoku.
comments=
author=mx2047
segment=0
locations=[[1,49.56022856162107,20.438051695213176],[2,49.56120816362554,20.44051628570287],[3,49.56229979011358,20.4426619574906],[4,49.56395217003865,20.44404805866816],[5,49.5657268025409,20.444798738839268],[6,49.5673720522118,20.446147381038713],[7,49.56844240824244,20.448481265689452],[8,49.56904101691561,20.451217118312115],[9,49.56998126714495,20.453683003530273],[10,49.5707537659936,20.4562900037256],[11,49.57124616177389,20.459055519278536],[12,49.57127091300646,20.461953651873273],[13,49.5723814999299,20.4642684157169],]
podstawa=[[14,49.56904101691561,20.451217118312115],['start',49.5591500,20.4358700],['meta',49.5737500,20.4660600]]
daneflot=[[0.0,369.272],[0.2,370.593],[0.4,380.371],[0.6,382.070],[0.8,385.899],[1.0,401.030],[1.2,411.625],[1.4,420.532],[1.6,436.237],[1.8,450.650],[2.0,461.050],[2.2,478.742],[2.4,497.285],[2.6,512.805],[2.8,517.416],]