name=Dziekanowice
slope=1.4km 5.4%
points=61.1
region=42
description=Nawierzchnia: szosa, stan dobry. Ruch samochodowy: duży.
Z doliny wzgórze wydaje się być niemal pionowe i początek rzeczywiście jest bardzo stromy. Po minięciu kościoła droga się znacznie wypłaszacza lecz najwyższy punkt znajduje się jeszcze ponad 500 metrów dalej.
comments=
author=Artu
segment=0
locations=[[1,49.89855131534433,20.099812106834065],[2,49.89945282526854,20.099845100887933],[3,49.89997872459207,20.100761959325155],[4,49.90085885518429,20.10094778621101],[5,49.90095342001153,20.100057977099596],[6,49.90069915947657,20.09876739203446],[7,49.90131422361011,20.09800805065231],[8,49.90219739652428,20.0977409802515],[9,49.90306380508181,20.09797986016565],[10,49.90392344998174,20.09794855915311],[11,49.9047708595095,20.097470270595295],[12,49.90566014675141,20.097262612289114],[13,49.90655146661793,20.09731036061123],]
podstawa=[[14,49.90219739652428,20.0977409802515],['start',49.8976500,20.0998100],['meta',49.9074100,20.0977200]]
daneflot=[[0.0,236.000],[0.1,240.433],[0.2,253.541],[0.3,263.496],[0.4,269.658],[0.5,277.454],[0.6,285.128],[0.7,286.512],[0.8,289.313],[0.9,294.653],[1.0,299.907],[1.1,303.897],[1.2,305.425],[1.3,306.311],[1.4,310.666],]