name=Krościenko nad Dunajcem
slope=1.0km 11.2%
points=157.8
region=27
description=Nawierzchnia: szosa, stan dobry. Ruch samochodowy: minimalny.
Krótki ale dosyć stromy podjazd asfaltowy w kierunku Lubania...
comments=
author=zbyszekzie
segment=0
locations=[[1,49.44274062112677,20.423043409161323],[2,49.44326089914298,20.422080359656434],[3,49.44380576340689,20.42151794473034],[4,49.44401610601715,20.420239013900073],[5,49.44347115443474,20.419631762865947],[6,49.44367502592447,20.418621384823155],[7,49.44436100666493,20.417843132239568],[8,49.4448412097365,20.416775580301305],[9,49.44517480622214,20.415618813551646],]
podstawa=[[15,49.44367502592447,20.418621384823155],['start',49.4420700,20.4236900],['meta',49.4460100,20.4153000]]
daneflot=[[0.0,421.882],[0.1,422.653],[0.2,431.422],[0.3,440.372],[0.4,458.817],[0.5,463.969],[0.6,471.017],[0.7,489.010],[0.8,504.217],[0.9,517.538],[1.0,534.000],]