name=Zakręt Śmierci drogą główną
slope=8.0km 4.3%
points=238.3
region=3
description=Nawierzchnia: szosa, stan dobry. Ruch samochodowy: duży.
Początkowo  do Szklarskiej Poręby niewielkie nachylenie  ( avg 3-4%)  potem od rozwidlenia na Jakuszyce dużo stromiej.
comments=
author=gavia2621
segment=0
locations=[[1,50.8411750407207,15.566842520196474],[2,50.83940334445673,15.56699641920818],[3,50.83773128489553,15.568058715289794],[4,50.83623101797038,15.569212791209793],[5,50.83580872422585,15.56653541132107],[6,50.83504517477746,15.563996509980939],[7,50.83511850069087,15.561170169322281],[8,50.83358265987065,15.56043733284207],[9,50.83242156715774,15.558425576466561],[10,50.83183718631573,15.55590490314762],[11,50.83125831328347,15.553248132189651],[12,50.83082620752816,15.550615268338333],[13,50.83009785829331,15.548472270496859],[14,50.82853109404759,15.547522821464668],[15,50.82915824094806,15.545643798893025],[16,50.82961357619229,15.543641086129469],[17,50.82895003507199,15.540980140286479],[18,50.82837627385857,15.53844154255944],[19,50.82935001516528,15.53610976449329],[20,50.82856850636928,15.53367543897616],[21,50.82794665256952,15.531228528758561],[22,50.82805592305682,15.52839961477946],[23,50.82740397576662,15.525774138098654],[24,50.82728100494001,15.523060227429482],[25,50.82714787704521,15.520436701419271],[26,50.82860257448192,15.518774670995754],[27,50.83024574955124,15.517812404338201],[28,50.83160560182712,15.517722685373997],[29,50.83119000067563,15.520438361872834],[30,50.83237032553933,15.520997581322831],[31,50.83408056260701,15.521902920749199],[32,50.835745866538,15.52247523443134],[33,50.8373873382759,15.521276435040818],[34,50.83873658271111,15.519510202842639],[35,50.84023149028862,15.51938614840742],[36,50.84167740506952,15.521072031785593],[37,50.84291198855932,15.523162981794258],[38,50.84448455668946,15.524542606876025],[39,50.84596936058972,15.52612849107095],]
podstawa=[[13,50.82794665256952,15.531228528758561],['start',50.8428900,15.5677300],['meta',50.8470800,15.5283800]]
daneflot=[[0.0,462.956],[0.2,470.341],[0.4,475.584],[0.6,488.007],[0.8,499.523],[1.0,489.706],[1.2,499.219],[1.4,515.004],[1.6,517.416],[1.8,528.231],[2.0,536.785],[2.2,550.500],[2.4,558.448],[2.6,560.329],[2.8,560.201],[3.0,566.218],[3.2,564.047],[3.4,586.125],[3.6,599.802],[3.8,617.383],[4.0,628.009],[4.2,635.892],[4.4,636.470],[4.6,629.451],[4.8,638.922],[5.0,646.559],[5.2,658.440],[5.4,670.382],[5.6,688.559],[5.8,692.002],[6.0,703.942],[6.2,714.122],[6.4,713.933],[6.6,720.473],[6.8,722.461],[7.0,729.315],[7.2,745.162],[7.4,757.937],[7.6,777.847],[7.8,799.225],[8.0,804.502],]