name=Góra Siniewska (taras widokowy)
slope=1.5km 7.3%
points=96.4
region=33
description=Nawierzchnia: szosa, stan dobry. Ruch samochodowy: minimalny.
Podjazd znajduje się przy liczącym 36 kilometrów żółtym szlaku rowerowym, prowadzi do tarasu widokowego na Górze Siniewskiej. Trudy wspinaczki wynagrodzi nam widok z tarasu, skąd można podziwiać między innymi Kielce, Padół Strawczyński, Małogoszcz, Bukową. Widać też zamek w Chęcinach kościół chełmiecki, kościół w Piekoszowie i Strawczynie.
comments=
author=piotrpom
segment=0
locations=[[1,50.96092293550467,20.448540431118545],[2,50.96183260207944,20.448963287483366],[3,50.96277179029226,20.44899353725077],[4,50.96367700292821,20.449328726689828],[5,50.96460214419024,20.449310823671],[6,50.96547814634422,20.448736774296776],[7,50.96638235043284,20.448309999999992],[8,50.96711862618346,20.447498611002402],[9,50.96749369445446,20.446126180324086],[10,50.96797126339744,20.44482590706002],[11,50.96845792550526,20.44353414904583],[12,50.96915592871795,20.442527312069842],[13,50.96983085485945,20.441514452449724],[14,50.97049338388871,20.44043861277021],]
podstawa=[[14,50.96711862618346,20.447498611002402],['start',50.9599900,20.4486000],['meta',50.9711000,20.4393000]]
daneflot=[[0.0,289.949],[0.1,294.446],[0.2,297.623],[0.3,303.595],[0.4,310.833],[0.5,315.424],[0.6,321.632],[0.7,326.931],[0.8,334.329],[0.9,343.364],[1.0,358.241],[1.1,369.963],[1.2,380.207],[1.3,390.654],[1.4,397.158],[1.5,400.039],]