name=Wola Łagowska z Łagowa
slope=2.0km 3.5%
points=35.4
region=33
description=Nawierzchnia: szosa, stan dobry. Ruch samochodowy: średni.
Panorama na góry świętokrzyskie
comments=
author=grzesiek
segment=0
locations=[[1,50.76485379365926,21.083442519166965],[2,50.76392709767721,21.083441171657114],[3,50.76300104719088,21.08326554105929],[4,50.76207843029263,21.083053974567065],[5,50.76120629820297,21.082540150418822],[6,50.76035175348535,21.081950030423172],[7,50.7594692330907,21.081495939899696],[8,50.7585445924024,21.08130265166244],[9,50.75761745306409,21.081176224426486],[10,50.75668694387909,21.081269678300487],[11,50.75579639394031,21.080903330942647],[12,50.75491877371327,21.080435677186415],[13,50.7540080753034,21.080648284137055],[14,50.7531357759087,21.081169805867603],[15,50.75223763299,21.081528684148452],[16,50.75142663511972,21.080902322039606],[17,50.75117890760874,21.079525031863795],[18,50.75127566440363,21.078058816978796],[19,50.75136304906295,21.076591154986545],]
podstawa=[[14,50.76,21.080903330942647],['start',50.7657400,21.0829900],['meta',50.7511300,21.0751900]]
daneflot=[[0.0,296.822],[0.1,300.988],[0.2,303.686],[0.3,304.269],[0.4,304.577],[0.5,307.985],[0.6,313.704],[0.7,321.850],[0.8,327.791],[0.9,330.507],[1.0,332.475],[1.1,335.833],[1.2,340.478],[1.3,345.052],[1.4,351.949],[1.5,358.880],[1.6,362.675],[1.7,362.023],[1.8,362.678],[1.9,364.089],[2.0,366.729],]