name=Majdanek od Justynówka
slope=1.6km 4.4%
points=34.1
region=83
description=Nawierzchnia: szosa, stan średni. Ruch samochodowy: minimalny.
Podjazd zaczyna się na wysokości "wyciągu"  narciarskiego - jaki wyciąg taki podjazd )
comments=
author=Bartosz
segment=0
locations=[[1,50.47933651930172,23.475333413937847],[2,50.47879254657732,23.47422207445652],[3,50.47829305294502,23.473061666248668],[4,50.47783351258947,23.471860162808525],[5,50.47741317971541,23.47062463470934],[6,50.47702850770063,23.46936044819529],[7,50.47681895990534,23.467999104940873],[8,50.47663971786103,23.466625690244086],[9,50.47646045965593,23.465252285963288],[10,50.47628118529027,23.463878892099274],[11,50.47609979014238,23.462506192101614],[12,50.47591793567942,23.461133646566395],[13,50.47570069779805,23.459774997572822],[14,50.47535552307051,23.458484337223467],[15,50.47492850036592,23.45725500041999],]
podstawa=[[14,50.47646045965593,23.465252285963288],['start',50.4799000,23.4764200],['meta',50.4743800,23.4561500]]
daneflot=[[0.0,258.663],[0.1,261.022],[0.2,264.207],[0.3,270.301],[0.4,278.083],[0.5,283.729],[0.6,286.437],[0.7,291.482],[0.8,296.487],[0.9,300.928],[1.0,305.602],[1.1,310.524],[1.2,316.291],[1.3,319.989],[1.4,323.906],[1.5,325.999],[1.6,328.536],]