name=Hucisko z Szydłowca
slope=4.0km 3.2%
points=77.9
region=13
description=Nawierzchnia: szosa, stan dobry, oprócz środkowego odcinka. Ruch samochodowy: mały.
Najbliższy większy podjazd blisko Radomia.
comments=
author=emix
segment=0
locations=[[1,51.20594872262124,20.791954238537414],[2,51.20540969058754,20.789426993433608],[3,51.20416123519541,20.78740044130609],[4,51.20284155801541,20.785495004654194],[5,51.20149939180374,20.78362698825913],[6,51.19984937890059,20.782603874754955],[7,51.1984412951962,20.780863956507687],[8,51.19695970845244,20.77929719849726],[9,51.19542530918168,20.777868162297978],[10,51.194104989324,20.77597498073544],[11,51.19299610072023,20.77375284292043],[12,51.19155929360799,20.77213143355891],[13,51.18993703132288,20.770959645698895],[14,51.188175237795,20.770678639355424],[15,51.18655116159366,20.769611486059034],[16,51.18488562925196,20.76860992990032],[17,51.18456956287882,20.76595274738861],[18,51.18445023700048,20.763118047998205],[19,51.18492232987255,20.760447148764342],]
podstawa=[[13,51.19299610072023,20.77375284292043],['start',51.2071900,20.7939900],['meta',51.1856300,20.7578400]]
daneflot=[[0.0,236.747],[0.2,238.728],[0.4,240.297],[0.6,243.999],[0.8,246.986],[1.0,248.679],[1.2,253.630],[1.4,260.445],[1.6,267.117],[1.8,271.013],[2.0,279.878],[2.2,293.419],[2.4,313.453],[2.6,329.021],[2.8,330.783],[3.0,329.526],[3.2,324.294],[3.4,332.829],[3.6,343.712],[3.8,359.968],[4.0,365.856],]