name=Żydowo od Elektrowni
slope=1.6km 4.8%
points=46.6
region=74
description=Nawierzchnia: szosa, stan dobry. Ruch samochodowy: minimalny.
Pierwsza część podjazdu dobry asfalt , następna płyty betonowe w miarę przyzwoite. Wspaniały widok na jezioro i elektrownię wodną .
comments=
author=majkakmw
segment=0
locations=[[1,54.02626303035967,16.704903233708706],[2,54.02696075585712,16.70429967845905],[3,54.0272071982702,16.705710191343883],[4,54.02714904361024,16.70721472178832],[5,54.02662066124488,16.708456256100362],[6,54.02684708388083,16.709540169295337],[7,54.02770979055924,16.709090120430915],[8,54.02849447176867,16.708355812578475],[9,54.02931751473235,16.708011147659477],[10,54.02997346438055,16.709018449632822],[11,54.03057788965039,16.71017061778332],[12,54.03118230390616,16.711322819429824],[13,54.03177679556316,16.71248986970386],[14,54.03236959370597,16.71365946775552],[15,54.03319054894436,16.714311417346607],]
podstawa=[[14,54.02931751473235,16.708011147659477],['start',54.0258400,16.7062500],['meta',54.0340500,16.7147400]]
daneflot=[[0.0,86.274],[0.1,89.115],[0.2,91.849],[0.3,99.671],[0.4,104.890],[0.5,106.096],[0.6,114.147],[0.7,123.921],[0.8,130.515],[0.9,135.683],[1.0,138.488],[1.1,140.800],[1.2,145.534],[1.3,152.484],[1.4,157.049],[1.5,161.726],[1.6,163.140],]