name=Hochtor  od Rojach (Austria)
slope=18.8km 7.6%
points=1416.2
region=103
description=Nawierzchnia: szosa, stan dobry. Ruch samochodowy: średni.
Hochtor to jeden ze słynniejszych podjazdów w Austrii. Dla mnie to jak do tej pory mój najtrudniejszy podjazd jaki zdobyłem. Zaczynamy w miejscowości Rojach, na początku jest dosyć spokojnie, ale już w miejscowości Heiligenblut robi się naprawdę ostro. Kilka kilometrów dalej chwila odpoczynku przy bramkach (rowerzyści nie płacą) i dalej bardzo ostro w górę przez około 2 kilometry do zjazdu. Po zjeździe finałowe 6 kilometrów z średnim nachyleniem około 10%. Na szczycie tunel do dalszej jazdy Grossglockner Hochalpenstraße (Edelwesspitze) i sklep z pamiątkami.
comments=
author=Arczi
segment=0
locations=[[1,47.01848356655933,12.865824881334106],[2,47.02003916238646,12.864643823605888],[3,47.02140165307129,12.862994600971206],[4,47.02292697410245,12.861810968200189],[5,47.02469066942429,12.861774296653834],[6,47.0264403092315,12.861417496064632],[7,47.02820122198577,12.861358182124718],[8,47.0299672726939,12.861398714747793],[9,47.03124220179918,12.860045682296459],[10,47.03226226218771,12.858024275075422],[11,47.03332971952147,12.856019948466269],[12,47.03349547466246,12.853787869593134],[13,47.03184700662765,12.852919681428261],[14,47.03244905055003,12.850904903630067],[15,47.03402831921338,12.849763609585807],[16,47.03555604080248,12.848504801003742],[17,47.03666078628206,12.846485400910865],[18,47.0382361736507,12.84541511320981],[19,47.03957866171339,12.843778053737765],[20,47.039227513971,12.84489344034398],[21,47.03830332001296,12.84701063549278],[22,47.03812008279638,12.849531983107],[23,47.03794601922299,12.852067442170778],[24,47.03789190477696,12.854474256462936],[25,47.03701811746756,12.856660368925759],[26,47.03683856694556,12.859206020981333],[27,47.03641450267632,12.861617376076879],[28,47.03631275336632,12.864085225048257],[29,47.03646688106429,12.866602573626892],[30,47.03690345975218,12.869086338667103],[31,47.03711120279442,12.867819058727264],[32,47.03722972098864,12.865259452565397],[33,47.03818567140349,12.863129107922418],[34,47.03921978480906,12.861048528924584],[35,47.04021818235506,12.858912271863801],[36,47.04154606795701,12.857243587940275],[37,47.04279109313558,12.855623989479795],[38,47.04343325932055,12.853382559687361],[39,47.04360382698778,12.855754151858832],[40,47.04387758209277,12.853715284831082],[41,47.04469062512223,12.851461331789551],[42,47.04631009378212,12.851117249910999],[43,47.04736749264391,12.850683402804293],[44,47.04812091186223,12.848448940724097],[45,47.04922779513623,12.84644789776246],[46,47.04961827494385,12.844003263598893],[47,47.04973421095573,12.841609624959574],[48,47.05044181510828,12.839336372222874],[49,47.05172722867003,12.837577344898591],[50,47.05299444400179,12.835792963712947],[51,47.05411678400553,12.833805948054646],[52,47.05558716889143,12.832373313182188],[53,47.05734500693686,12.832195126969737],[54,47.05910667890788,12.832072534255644],[55,47.05930635275389,12.829979400072261],[56,47.05986054127946,12.827521590111473],[57,47.06039803430044,12.82508280287766],[58,47.06104801321177,12.822788879023165],[59,47.06245460783288,12.821416928195163],[60,47.06358347961633,12.819469370328648],[61,47.0632477537731,12.818057211498171],[62,47.0648619435275,12.819003653110485],[63,47.06660683296645,12.8193740811912],[64,47.06836579728363,12.819204318895572],[65,47.0672053280289,12.820351934662881],[66,47.0656029168353,12.821378308554586],[67,47.06427038048929,12.823025188451084],[68,47.06345354908233,12.825258707499415],[69,47.06398801941548,12.825254618390545],[70,47.06436669304203,12.826161779783206],[71,47.06430190709616,12.827760866062135],[72,47.06504828107562,12.826364813740838],[73,47.06446178500558,12.82870052400608],[74,47.06371039509935,12.830747292091019],[75,47.0650517205668,12.832434180820883],[76,47.06646483793214,12.83396214492825],[77,47.06672811602179,12.836076274555353],[78,47.06691599681181,12.838648305770107],[79,47.0669247018928,12.84123992729701],[80,47.06825555551244,12.8420323063865],[81,47.0699913877168,12.84171314569312],[82,47.07110816399527,12.841154923714043],[83,47.06941124060281,12.840443777145992],[84,47.07057695015793,12.8394690085604],[85,47.07209018528017,12.83887608846885],[86,47.07314399242734,12.839805942865382],[87,47.07386876338671,12.840680011881773],[88,47.07543027995222,12.839940724607686],[89,47.07712962832341,12.840569873768914],[90,47.07795551043124,12.842535056701763],[91,47.07911926780716,12.840799051353542],[92,47.07902816938632,12.838444196767796],[93,47.08004177004642,12.840413757562601],]
podstawa=[[12,47.06,12.839336372222874],['start',47.0168000,12.8666100],['meta',47.0810100,12.8425200]]
daneflot=[[0.0,1074.064],[0.2,1077.271],[0.4,1083.242],[0.6,1085.799],[0.8,1091.042],[1.0,1096.594],[1.2,1110.274],[1.4,1127.531],[1.6,1148.864],[1.8,1162.607],[2.0,1180.124],[2.2,1194.55],[2.4,1205.73],[2.6,1212.867],[2.8,1224.375],[3.0,1240.458],[3.2,1250.244],[3.4,1254.26],[3.6,1262.188],[3.8,1275.467],[4.0,1290.429],[4.2,1308.416],[4.4,1328.751],[4.6,1349.717],[4.8,1374.218],[5.0,1394.695],[5.2,1414.547],[5.4,1432.618],[5.6,1454.402],[5.8,1481.895],[6.0,1504.4],[6.2,1519.182],[6.4,1533.447],[6.6,1548.907],[6.8,1567.783],[7.0,1582.821],[7.2,1601.47],[7.4,1624.96],[7.6,1639.823],[7.8,1652.4],[8.0,1656.109],[8.2,1660.607],[8.4,1673.991],[8.6,1697.853],[8.8,1720.803],[9.0,1743.952],[9.2,1763.853],[9.4,1786.213],[9.6,1806.679],[9.8,1831.073],[10.0,1854.225],[10.2,1872.909],[10.4,1863.626],[10.6,1855.172],[10.8,1850.01],[11.0,1849.656],[11.2,1848.817],[11.4,1839.171],[11.6,1833.744],[11.8,1833.91],[12.0,1843.145],[12.2,1857.007],[12.4,1877.379],[12.6,1892.391],[12.8,1904.028],[13.0,1909.303],[13.2,1922.772],[13.4,1943.833],[13.6,1964.853],[13.8,1984.006],[14.0,2002.267],[14.2,2021.311],[14.4,2037.251],[14.6,2055.152],[14.8,2078.192],[15.0,2103.877],[15.2,2126.647],[15.4,2142.426],[15.6,2160.723],[15.8,2180.051],[16.0,2197.71],[16.2,2213.901],[16.4,2229.74],[16.6,2249.402],[16.8,2270.259],[17.0,2296.471],[17.2,2316.458],[17.4,2337.45],[17.6,2359.88],[17.8,2387.115],[18.0,2411.33],[18.2,2437.296],[18.4,2460.038],[18.6,2482.193],[18.8,2504.48],]