name=Słomczyn
slope=0.5km 4.0%
points=14.5
region=80
description=Nawierzchnia: szosa, stan dobry. Ruch samochodowy: średni.
Klasyczny podjazd pod kościół w Słomczynie od strony Cieciszewa
comments=
author=Marcin
segment=0
locations=[[1,52.05897499609763,21.16659596328816],[2,52.05870075379188,21.165040642330496],[3,52.05857102923324,21.163444081299076],[4,52.05854428346974,21.161827182439538],]
podstawa=[[15,52.05857102923324,21.163444081299076],['start',52.0592300,21.1681600],['meta',52.0591300,21.1607400]]
daneflot=[[0.0,87.908],[0.1,88.910],[0.2,90.790],[0.3,100.135],[0.4,107.389],[0.5,108.339],]