name=Chełmek
slope=1.8km 2.9%
points=34.4
region=59
description=Nawierzchnia: szosa+bruk, średni
Super podjazd, dochodzi do 15%, a panorama ze szczytu jest the best, dojazd jest skomplikowany więc od mostu nad Przemszą w pierwsze lewo, ul. Mieszka, potem kolejne lewo w ul. Bolesława Chrobrego, potem w prawo w ul. Bolesława Krzywoustego potem znowu w lewo w ul. Słowackiego bo jest ładny asfalt. Ruch jest duży tylko na 780tce, potem jest zupełny lajt. Na szczycie same atrakcje, pomnik, panorama we wszystkie strony i niezapomniane wrażenia z 15% w tak niepozornym miejscu
comments=
author=xtnt
segment=0
locations=[[1,50.09710820317871,19.22931492679038],[2,50.09688428922148,19.230691169776946],[3,50.0977764174157,19.23100560732155],[4,50.09864202705292,19.2314595003852],[5,50.09938033344107,19.231922888796817],[6,50.10027785891996,19.232018645321205],[7,50.10116334417527,19.232375500785565],[8,50.10203588630981,19.232804168221264],[9,50.10262766757243,19.233467642283358],[10,50.10240009383132,19.234811803994944],[11,50.10226203757785,19.23622055378212],[12,50.10264998400191,19.237162654145777],[13,50.1033781858211,19.23797548614641],[14,50.10318345178986,19.239352357932944],[15,50.10288730015353,19.240698673317638],[16,50.10201397085185,19.240269534722756],[17,50.10113629847734,19.239862834278256],]
podstawa=[[15,50.100,19.234811803994944],['start',50.0973300,19.2279300],['meta',50.1004100,19.2393400]]
daneflot=[[0.0,227.859],[0.1,229.663],[0.2,232.358],[0.3,233.577],[0.4,235.569],[0.5,234.760],[0.6,234.314],[0.7,235.581],[0.8,236.025],[0.9,238.062],[1.0,245.925],[1.1,259.179],[1.2,262.585],[1.3,265.552],[1.4,271.964],[1.5,274.154],[1.6,275.427],[1.7,278.701],[1.8,280.615],]