name=Priesmyk Branisko  z Korytné (Słowacja)
slope=4.0km 6.1%
points=176.4
region=30
description=Nawierzchnia: szosa, stan dobry. Ruch samochodowy: mały.
Wymagający, dość stabilny podjazd pokręconymi serpentynami na priesmyk Branisko, którędy kiedyś prowadziła główna droga z Popradu do Preszowa. Teraz samochody mają tunel na rozbudowywanej autostradzie i pojawiają się tu nielicznie - dzięki czemu mamy świetną i spokojną trasę wspinaczkową oraz super szybki zjazd na przeciwną stronę, gdzie jezdnia jest lepsza, a droga prawie pusta - uważajmy jednak na szybkie hulajnogi.
comments=
author=airstreeem20
segment=0
locations=[[1,49.00805059365786,20.838258003644228],[2,49.00902239590719,20.840508923448624],[3,49.00948318064372,20.843043967898666],[4,49.0095960658751,20.845434693182824],[5,49.01114468507075,20.846734392237522],[6,49.00996738962953,20.84734971055252],[7,49.00828544398205,20.846641358882152],[8,49.00673690535162,20.84588071601445],[9,49.00830075810997,20.8470855608158],[10,49.00879466457845,20.849259329144616],[11,49.01049078832598,20.849225548718323],[12,49.01129581884553,20.850913511395902],[13,49.01262624237304,20.85114300655141],[14,49.01408315303808,20.8513541886457],[15,49.01276058655146,20.85200561728891],[16,49.01245037656476,20.852063474864053],[17,49.013900520733,20.852350260332855],[18,49.01539411489336,20.853776340592617],[19,49.01664241636636,20.855193556574818],]
podstawa=[[14,49.01049078832598,20.849225548718323],['start',49.0079200,20.8356900],['meta',49.0172900,20.8573400]]
daneflot=[[0.0,509.145],[0.2,528.673],[0.4,546.496],[0.6,566.609],[0.8,585.701],[1.0,599.746],[1.2,617.755],[1.4,631.598],[1.6,642.453],[1.8,646.770],[2.0,653.666],[2.2,663.319],[2.4,677.708],[2.6,687.605],[2.8,694.241],[3.0,710.643],[3.2,713.766],[3.4,719.260],[3.6,733.941],[3.8,747.427],[4.0,752.385],]