name=Kulin Kłodzki z Jeleniowa
slope=7.0km 3.7%
points=196.2
region=10
description=Nawierzchnia: szosa, stan dobry. Ruch samochodowy: mały.
Jeśli chcemy dostać się z Kudowy do Dusznik nie pchając się na bardzo ruchliwą drogę nr 8 czeka nas ciekawy podjazd. Szosa pnie się w górę od miejscowości Jeleniów ale właściwy podjazd zaczyna się w okolicach Dańczowa. Nachylenie raczej umiarkowane, brak walorów krajobrazowych, cały czas jedziemy lasem.
comments=
author=Kornel (  http://kornel.bikestats.pl/)
segment=0
locations=[[1,50.42230894881891,16.263424984507765],[2,50.4228575383078,16.26605367548791],[3,50.42306887763259,16.268805650538297],[4,50.42350315516842,16.27143008386463],[5,50.42384939499919,16.274130209215627],[6,50.42421031679512,16.276852620083787],[7,50.42500351702261,16.279333579295553],[8,50.42602465617549,16.28157821023376],[9,50.42665600211166,16.284153084802938],[10,50.42749924718811,16.286595583449753],[11,50.42846051232805,16.288906342558676],[12,50.42962505964353,16.290997926752652],[13,50.43075578254012,16.293124727637064],[14,50.43146600864416,16.295413751643537],[15,50.43115177368643,16.29777424141912],[16,50.43027164878217,16.29975620783398],[17,50.42964785887612,16.302354518865513],[18,50.42948732781581,16.305109341748675],[19,50.4295962918147,16.30787457755912],[20,50.43050632710189,16.31023914811817],[21,50.43064696594486,16.312780423921026],[22,50.42959518355055,16.314934630186826],[23,50.42799499453144,16.315924329419204],[24,50.42642343663205,16.31712897388445],[25,50.42469548189974,16.317689024758806],[26,50.42293681936472,16.31804213789121],[27,50.42120979271831,16.31863701828445],[28,50.42034706761792,16.32084553389882],[29,50.42028661402479,16.323617623388827],[30,50.41985646891704,16.326310109892688],[31,50.41963000105827,16.32903978746765],[32,50.41997353519343,16.331745268551686],[33,50.42036579839061,16.334453621111606],[34,50.42099294779207,16.337052942786727],]
podstawa=[[13,50.42948732781581,16.305109341748675],['start',50.4221700,16.2607200],['meta',50.4213000,16.3395100]]
daneflot=[[0.0,404.024],[0.2,414.647],[0.4,410.895],[0.6,409.249],[0.8,413.530],[1.0,428.620],[1.2,428.210],[1.4,424.531],[1.6,426.519],[1.8,427.304],[2.0,433.979],[2.2,448.636],[2.4,444.483],[2.6,466.527],[2.8,480.410],[3.0,477.528],[3.2,480.528],[3.4,491.543],[3.6,503.060],[3.8,518.398],[4.0,516.756],[4.2,523.935],[4.4,537.600],[4.6,567.374],[4.8,574.480],[5.0,592.164],[5.2,599.368],[5.4,615.674],[5.6,623.862],[5.8,627.628],[6.0,630.221],[6.2,635.082],[6.4,641.082],[6.6,647.616],[6.8,658.389],[7.0,662.366],]