name=Limba drogą główną
slope=5.8km 5.4%
points=207.2
region=1
description=Nawierzchnia: szosa. Ruch samochodowy: mały.
Często premia górska wyścigów kolarskich.
comments=
author=gavia2621
segment=0
locations=[[1,50.83190407799437,15.684656182651452],[2,50.83019229529059,15.685515926320136],[3,50.82847464776248,15.6863462828411],[4,50.82675641970996,15.68717359323773],[5,50.82511723669754,15.687162345848492],[6,50.82366655991891,15.685833039851332],[7,50.82204192143298,15.684752133030997],[8,50.82058616975723,15.683097007850279],[9,50.81925752554398,15.68121298695064],[10,50.81803279637863,15.680162687949746],[11,50.81670039889047,15.681922556550944],[12,50.81498924490172,15.682631318476979],[13,50.81321861413156,15.682694188235018],[14,50.81161798404546,15.68140517288407],[15,50.8100509989028,15.680084908597223],[16,50.80826589507458,15.680291728019029],[17,50.80658021547237,15.679629514275348],[18,50.8056862808235,15.679025577633183],[19,50.80458405507203,15.681226872477282],[20,50.80309387624663,15.68280615158983],[21,50.80164136947892,15.684452808205265],[22,50.80072016740461,15.68686656187856],[23,50.79930122620633,15.688072644974682],[24,50.79797516453744,15.688621019347465],[25,50.79684470215182,15.690716473960379],[26,50.79610778732723,15.693166040432857],[27,50.79462375012504,15.694738250838327],[28,50.79402023164798,15.697324401244032],]
podstawa=[[12,50.8100509989028,15.680084908597223],['start',50.8335100,15.6836900],['meta',50.7951800,15.6993800]]
daneflot=[[0.0,356.671],[0.2,360.532],[0.4,366.167],[0.6,371.303],[0.8,379.684],[1.0,387.857],[1.2,398.698],[1.4,403.186],[1.6,420.054],[1.8,423.189],[2.0,425.567],[2.2,450.259],[2.4,460.232],[2.6,478.278],[2.8,491.643],[3.0,496.500],[3.2,506.255],[3.4,519.085],[3.6,526.049],[3.8,548.523],[4.0,563.872],[4.2,573.248],[4.4,584.519],[4.6,594.692],[4.8,607.809],[5.0,619.293],[5.2,628.319],[5.4,640.185],[5.6,654.614],[5.8,667.640],]