name=Szczecin (Miodowa)
slope=2.4km 3.1%
points=36.9
region=89
description=Nawierzchnia: szosa, stan dobry. Ruch samochodowy: średni.
Podjazd treningowy.
comments=
author=?
segment=0
locations=[[1,53.47375791513171,14.494401239467038],[2,53.47405105478431,14.49582368709207],[3,53.47441535712341,14.497197040207084],[4,53.47483783216134,14.498524692254477],[5,53.47527484811695,14.499838735701587],[6,53.47592589608337,14.500760000000014],[7,53.47681815996243,14.500799079936996],[8,53.47734101158247,14.50194662225158],[9,53.47773045699782,14.503301696331278],[10,53.47806675097648,14.50468665656274],[11,53.4779269333126,14.506147487645535],[12,53.47790702605414,14.507591452197403],[13,53.47824238165985,14.508987619387199],[14,53.47847013385395,14.51043984623891],[15,53.47866400338074,14.511909837610915],[16,53.47882057599748,14.513391218686365],[17,53.47909809473647,14.5148120957615],[18,53.47949502837124,14.516161366955771],[19,53.47986869921456,14.51752610277265],[20,53.48029473494309,14.518824698662684],[21,53.48070131195319,14.5201253863288],[22,53.48136764626068,14.521113664124414],[23,53.48198121955313,14.52221017325769],]
podstawa=[[14,53.47824238165985,14.508987619387199],['start',53.4734800,14.4929700],['meta',53.4826400,14.5232300]]
daneflot=[[0.0,32.366],[0.1,35.418],[0.2,39.332],[0.3,45.883],[0.4,55.768],[0.5,61.802],[0.6,67.420],[0.7,70.052],[0.8,72.959],[0.9,75.770],[1.0,78.725],[1.1,83.357],[1.2,86.543],[1.3,86.169],[1.4,82.666],[1.5,84.026],[1.6,86.961],[1.7,89.687],[1.8,92.741],[1.9,94.201],[2.0,95.247],[2.1,97.504],[2.2,100.611],[2.3,104.673],[2.4,107.727],]