name=Gruszka od Leska
slope=3.4km 5.7%
points=131
region=35
description=Nawierzchnia: szosa, stan dobry. Ruch samochodowy: mały.
Dłuższa wersja podjazdu, od strony Leska.
comments=Dnia 2015-03-10 użytkownik Lechoń dodał:
Bardzo miły i przyjemny podjazd na rozgrzewkę, później zjazd do Tarnawy i podjazd pod Brzozowiec zjazd do Szczawnego i powrót do Leska cały trening i mamy 1000m przewyższenia.
author=rocks6
segment=0
locations=[[1,49.47307735335382,22.312857208414698],[2,49.47205258908007,22.310851571716853],[3,49.47068305640901,22.309194277445386],[4,49.46948843000224,22.307242863338047],[5,49.46810071156735,22.30562025843028],[6,49.46684327114419,22.303797453024572],[7,49.46547815528437,22.302191220773693],[8,49.46431780604033,22.30018947164581],[9,49.46335232569395,22.297960317904653],[10,49.46246493816914,22.295651282803874],[11,49.46159219446513,22.293329053184948],[12,49.46157332797613,22.2906821414864],[13,49.46077210305778,22.288333350626317],[14,49.45944416076026,22.286936298529554],[15,49.45803850889513,22.285645843234306],[16,49.45764779712758,22.28303843551032],]
podstawa=[[13,49.46335232569395,22.297960317904653],['start',49.4727600,22.3152700],['meta',49.4576900,22.2804000]]
daneflot=[[0.0,319.177],[0.2,321.883],[0.4,330.520],[0.6,337.616],[0.8,345.583],[1.0,352.389],[1.2,358.755],[1.4,366.994],[1.6,381.250],[1.8,387.120],[2.0,405.922],[2.2,424.552],[2.4,442.021],[2.6,464.909],[2.8,480.486],[3.0,489.020],[3.2,500.248],[3.4,508.725],]