name=Chodzież
slope=1.8km 2.8%
points=22
region=73
description=Nawierzchnia: szosa, stan dobry. Ruch samochodowy: duży.
Początek przypada w miejscu przepływu rzeki Bolemki, ca 75 m przed rondem (można dostrzec po barierkach drogowych). Teoretycznie trzeba jechać przyległą (brukowaną) drogą rowerową.
comments=
author=BRS
segment=0
locations=[[1,52.98482960679283,16.921939016981128],[2,52.98472403851968,16.922599557764784],[3,52.98423725997516,16.923763700183486],[4,52.98372061837937,16.92489261631215],[5,52.98314334432217,16.92593484421036],[6,52.98235192937792,16.926410423601396],[7,52.98149863088408,16.926426459140202],[8,52.9806623879881,16.92614467534372],[9,52.97983077905103,16.925824699831082],[10,52.97898676398371,16.925933294459696],[11,52.97817373700108,16.926363932622053],[12,52.97742683515483,16.9270254804577],[13,52.97679157337314,16.92797360660518],[14,52.97602490374917,16.928567711599953],[15,52.97517720579644,16.928735567206672],[16,52.97433003719664,16.92892316094708],[17,52.9734981138081,16.929248164303317],]
podstawa=[[14,52.98,16.925933294459696],['start',52.9854000,16.9209500],['meta',52.9726700,16.9295800]]
daneflot=[[0.0,55.883],[0.1,58.245],[0.2,58.884],[0.3,61.192],[0.4,65.318],[0.5,68.657],[0.6,73.119],[0.7,77.142],[0.8,80.843],[0.9,85.265],[1.0,85.639],[1.1,86.232],[1.2,89.466],[1.3,98.797],[1.4,101.001],[1.5,101.337],[1.6,102.603],[1.7,104.757],[1.8,106.469],]