name=Zamek Tenczyn
slope=1.7km 4.0%
points=46.3
region=64
description=Nawierzchnia: szosa, stan słaby. Ruch samochodowy: minimalny.
Podjazd pod zamek Tenczyn w Rudnie.
Początek ostry i wymagający. Im wyżej tym lżej.
comments=
author=Parker
segment=0
locations=[[1,50.10840974526189,19.5775811123558],[2,50.10780482815351,19.576524826792706],[3,50.10743761343491,19.57525699722339],[4,50.10730245357644,19.573933367064],[5,50.10653799694298,19.5731838672516],[6,50.10590945090636,19.572181060707862],[7,50.10543877711741,19.57098057561575],[8,50.10480031458464,19.570007696598623],[9,50.10392665345842,19.569950986642993],[10,50.10307135373774,19.570383695080068],[11,50.10231078620718,19.5705369377431],[12,50.10201787863235,19.571803666289952],[13,50.10202985988248,19.57317497874783],[14,50.10252015763346,19.574349269051936],[15,50.10269356743498,19.575728536890892],[16,50.10282362542033,19.577126495622338],]
podstawa=[[14,50.10392665345842,19.569950986642993],['start',50.1090200,19.5786300],['meta',50.1028100,19.5784800]]
daneflot=[[0.0,320.454],[0.1,324.813],[0.2,327.703],[0.3,329.869],[0.4,330.952],[0.5,338.617],[0.6,347.786],[0.7,357.934],[0.8,365.272],[0.9,372.288],[1.0,375.651],[1.1,374.550],[1.2,375.499],[1.3,379.644],[1.4,386.717],[1.5,387.279],[1.6,387.750],[1.7,388.673],]