name=Wólka Batorska
slope=1.4km 4.2%
points=32.9
region=83
description=Nawierzchnia: szosa, stan średni. Ruch samochodowy: minimalny.
Minimalny ruch, najstromszy fragment osłonięty od wiatru
comments=
author=???
segment=0
locations=[[1,50.86431182431648,22.49790622592195],[2,50.86449910921701,22.496519598827376],[3,50.86470694876954,22.495115165723178],[4,50.86503179874705,22.49376193451826],[5,50.86527385436435,22.492365488220457],[6,50.86548212725243,22.490956813107005],[7,50.86553000380965,22.48951231811907],[8,50.86553000626255,22.488064153354685],[9,50.86554421124588,22.48661637621501],[10,50.86571116128223,22.48521293253998],[11,50.86618007259867,22.483972735928432],[12,50.86674537348245,22.48284470383078],[13,50.86741261600633,22.481854966922356],]
podstawa=[[14,50.86553000626255,22.488064153354685],['start',50.8634300,22.4979800],['meta',50.8681200,22.4809600]]
daneflot=[[0.0,238.266],[0.1,240.107],[0.2,245.312],[0.3,246.073],[0.4,249.525],[0.5,250.520],[0.6,252.179],[0.7,255.628],[0.8,260.166],[0.9,263.699],[1.0,272.533],[1.1,280.454],[1.2,286.419],[1.3,292.234],[1.4,297.529],]