name=Sokola Góra
slope=1.2km 2.8%
points=12.5
region=63
description=Nawierzchnia: szosa, stan dobry   . Ruch samochodowy: niewielki  .
Ładne widoki na Pasmo Przedborskie położone na drugim brzegu Pilicy.
comments=
author=Stradovius
segment=0
locations=[[1,51.07200508735821,19.837648918785362],[2,51.0711584334634,19.837369747552316],[3,51.07031177890368,19.837090586533463],[4,51.06945630088987,19.836906971583858],[5,51.06859346906346,19.83681815056491],[6,51.06773054413379,19.83673166674987],[7,51.06686757597168,19.8366462690841],[8,51.06600780727219,19.83651365853109],[9,51.06515859289466,19.836256515748005],[10,51.06436766837037,19.835710334271653],[11,51.06352795827802,19.835398891113982],]
podstawa=[[14,51.06686757597168,19.8366462690841],['start',51.0727700,19.8382100],['meta',51.0626800,19.8351300]]
daneflot=[[0.0,202.910],[0.1,204.328],[0.2,204.033],[0.3,205.325],[0.4,207.017],[0.5,210.371],[0.6,214.908],[0.7,220.419],[0.8,225.195],[0.9,227.588],[1.0,230.239],[1.1,234.042],[1.2,236.581],]