name=Skomielna Biała od złomu
slope=1.2km 11.3%
points=176.1
region=29
description=Nawierzchnia: szosa, stan dobry. Ruch samochodowy: minimalny.
Ciekawy podjazd w miejscowości Skomielna Biała
comments=
author=Karql
segment=0
locations=[[1,49.65054654870089,19.911507803032464],[2,49.65146262835161,19.91181744785547],[3,49.65236177882603,19.91222540852425],[4,49.65229662925112,19.913416113781977],[5,49.65188951711899,19.914712092184118],[6,49.65165350545512,19.916117898130096],[7,49.65128120902074,19.91744741798084],[8,49.65163375043171,19.91811352764705],[9,49.65252899972776,19.918254357797196],[10,49.65315312760179,19.91920609804197],[11,49.65388640205601,19.92004705260149],]
podstawa=[[14,49.65128120902074,19.91744741798084],['start',49.6497600,19.9107200],['meta',49.6548100,19.9203300]]
daneflot=[[0.0,591.962],[0.1,596.746],[0.2,608.211],[0.3,620.557],[0.4,629.261],[0.5,637.361],[0.6,644.875],[0.7,650.246],[0.8,659.272],[0.9,676.526],[1.0,691.459],[1.1,707.315],[1.2,726.592],]