name=Kobylec od Woli Wieruszyckiej
slope=2.5km 5.8%
points=128.9
region=42
description=Nawierzchnia: szosa, stan dobry  . Ruch samochodowy: minimalny  .
Początek podjazdu to wymagająca ścianka z fragmentem ok 20%. Dalej, po dojeździe do zabudowań dojeżdżamy do skrzyżowania i skręcamy w prawo. Druga część podjazdu jest już o wiele łagodniejsza i prowadzi do drogi na grzbiecie wzgórza.
comments=
author=cymek
segment=8447571  
locations=[[1,49.88687900717651,20.31834281368765],[2,49.88669496292916,20.317112480117657],[3,49.88675905006687,20.31574544793682],[4,49.88662647559976,20.314382810743155],[5,49.88649188051021,20.313026836777226],[6,49.88668432463847,20.31170378275806],[7,49.88689196957429,20.31037434622624],[8,49.88712312165249,20.309045414802767],[9,49.88742099984032,20.30774687692019],[10,49.88755306323986,20.306383609151453],[11,49.88744251977425,20.305043070514785],[12,49.88788495499145,20.30394099168882],[13,49.88815180009134,20.30263578675965],[14,49.8887643230744,20.301877879209655],[15,49.88954712364463,20.301391878169852],[16,49.88972687658232,20.300079043176993],[17,49.89022046939238,20.29895749121647],[18,49.89073161918458,20.297839934647527],[19,49.89110762860507,20.296590168856483],[20,49.89147795555863,20.29533818423124],[21,49.89177464133196,20.29403792014773],[22,49.89219409056862,20.292831819200728],[23,49.89250450263548,20.29157467144546],[24,49.89261011324097,20.290208444481323],]
podstawa=[[14,49.88815180009134,20.30263578675965],['start',49.8876300,20.3190800],['meta',49.8927600,20.2888500]]
daneflot=[[0.0,220.584],[0.1,229.438],[0.2,240.570],[0.3,250.742],[0.4,261.232],[0.5,274.366],[0.6,288.420],[0.7,295.738],[0.8,305.433],[0.9,312.097],[1.0,313.235],[1.1,314.014],[1.2,316.866],[1.3,322.277],[1.4,323.741],[1.5,323.657],[1.6,325.822],[1.7,334.497],[1.8,341.698],[1.9,349.291],[2.0,356.766],[2.1,358.272],[2.2,357.977],[2.3,359.650],[2.4,363.382],[2.5,364.995],]