name=Kamienna Góra z Chrząstowic
slope=7.4km 1.8%
points=68.8
region=61
description=Nawierzchnia: szosa, stan średni. Ruch samochodowy: średni.
Jadąc drogą 783 z Olkusza w kierunku na Wolbrom, skręcamy w prawo ul. Nadmłynie, jedziemy praktycznie cały czas prosto jak droga prowadzi. W Gołaczewach trzeba uważać, żeby nie odbić w prawo tuż za rondem. Jest zjazd w połowie, o 30m, ale warto dodać podjazd w całości. Trzeba się zatrzymać na stopie przekraczając 794kę. Jest to najciekawszy sposób dostania się do Wolbromia, o wiele ciekawsze widoki. Również najlepszy sposób dostania się na Chełm i tym małym sposobem najlepszy sposób na zrobienie dużej ilości przewyższenia (jak na region)
comments=
author=xtnt
segment=0
locations=[[1,50.34978228650937,19.690719561720925],[2,50.35051186804618,19.69329141790331],[3,50.35115590775913,19.69591137244163],[4,50.35163345963232,19.698624711963248],[5,50.35217317041855,19.701308228428275],[6,50.35283669512727,19.70392347472398],[7,50.35296113894745,19.70671715224728],[8,50.35325648143667,19.709140567449708],[9,50.35488371534551,19.710241857672145],[10,50.35522867962302,19.712926627883235],[11,50.35514552342057,19.715738447094736],[12,50.3553341593405,19.718501812694967],[13,50.35599157425811,19.721121421205453],[14,50.35637143410473,19.723867820691567],[15,50.35670226580714,19.726634687881074],[16,50.35703864223791,19.729399956378302],[17,50.35738177792255,19.73216316224739],[18,50.35773798907026,19.7349223618628],[19,50.3580346282312,19.73769674878315],[20,50.35836438562832,19.740459915237693],[21,50.35863145166127,19.743239510134003],[22,50.35863696814444,19.746054039677347],[23,50.35861681374126,19.748869009109285],[24,50.35863534554902,19.751677755925925],[25,50.35902442501244,19.754426101668514],[26,50.35937525194425,19.75718692775399],[27,50.35976648929073,19.759933352841927],[28,50.36027856838047,19.76263086336553],[29,50.36079624037217,19.765325932203268],[30,50.36137058841079,19.767979578943596],[31,50.36226893346721,19.770415190449967],[32,50.36310004578849,19.772902785350198],[33,50.36339666092488,19.775675729198042],[34,50.363147680927,19.77846020956963],[35,50.36205823773769,19.780594428228824],[36,50.36064648554929,19.782332733789644],]
podstawa=[[12,50.3580346282312,19.73769674878315],['start',50.3489200,19.6884900],['meta',50.3591900,19.7839800]]
daneflot=[[0.0,353.031],[0.2,355.563],[0.4,364.948],[0.6,371.675],[0.8,374.750],[1.0,386.924],[1.2,395.237],[1.4,398.616],[1.6,401.369],[1.8,410.084],[2.0,422.415],[2.2,427.114],[2.4,426.376],[2.6,414.300],[2.8,415.570],[3.0,411.327],[3.2,407.975],[3.4,402.505],[3.6,404.558],[3.8,406.407],[4.0,409.128],[4.2,410.086],[4.4,416.344],[4.6,427.434],[4.8,435.507],[5.0,434.561],[5.2,431.565],[5.4,440.526],[5.6,448.306],[5.8,459.762],[6.0,460.463],[6.2,455.832],[6.4,463.817],[6.6,464.993],[6.8,467.024],[7.0,476.831],[7.2,484.110],[7.4,486.112],]