name=Góry Jamnickie z Jamnicy
slope=2.0km 9.0%
points=229
region=34
description=Nawierzchnia: szosa, stan dobry. Ruch samochodowy: minimalny.
Wymagający, choć krótki podjazd. Podczas zjazdu na zakrętach niebezpiecznie ze względu na zalegający żwir. Ciekawe widoki na Kotlinę Sądecką i okoliczne pasma górskie.
comments=
author=Miki
segment=0
locations=[[1,49.58643431071902,20.745152820548128],[2,49.58598620241427,20.74634323097837],[3,49.58599662126249,20.74768099002108],[4,49.58650555325991,20.748819829643594],[5,49.58688669988566,20.75008796413283],[6,49.58725440236116,20.7513637441765],[7,49.587550496837,20.75266368873929],[8,49.58708962652282,20.753505420050146],[9,49.58630000000211,20.754173543124807],[10,49.58711436461,20.754611970461838],[11,49.58792908481117,20.755193627120093],[12,49.58778059269981,20.756476633395323],[13,49.58714229991438,20.757454304734324],[14,49.58632007167,20.757855591479824],[15,49.58586549187405,20.759061475433782],[16,49.58536142972331,20.760201423343574],[17,49.58526477752017,20.76158833898637],[18,49.58517379937177,20.762959081819304],[19,49.58550415158955,20.764253623227432],]
podstawa=[[15,49.58792908481117,20.755193627120093],['start',49.5865800,20.7439700],['meta',49.5860400,20.7653200]]
daneflot=[[0.0,325.596],[0.1,327.153],[0.2,329.321],[0.3,335.318],[0.4,338.825],[0.5,339.202],[0.6,343.526],[0.7,357.327],[0.8,369.103],[0.9,382.813],[1.0,388.897],[1.1,400.544],[1.2,416.205],[1.3,430.459],[1.4,443.653],[1.5,465.968],[1.6,482.459],[1.7,490.359],[1.8,496.642],[1.9,499.719],[2.0,504.198],]