name=Stare Dworzysko od Alwerni
slope=2.5km 4.9%
points=87.7
region=64
description=Nawierzchnia: szosa, stan dobry. Ruch samochodowy: minimalny.
Jeden z kilku dojazdów do Starego Dworzyska z którego dalej biegnie droga na Kamionkę Dużą.
comments=Dnia 2014-10-22 użytkownik xtnt dodał:
Świetny podjazd, na końcu ławki, schronienie pod daszkiem, nawet woda z kranu, no i ciekawe widoki, a sam podjazd bardzo nietypowy.
author=?
segment=0
locations=[[1,50.06220614521706,19.509377541991057],[2,50.06305040573567,19.50884544750545],[3,50.06395339462851,19.508741185589088],[4,50.0648630344709,19.50864720879929],[5,50.06575797455025,19.508413924358592],[6,50.06665086080348,19.50812926852143],[7,50.06754596487838,19.50833430591001],[8,50.06844570284132,19.508326654096322],[9,50.06935070548672,19.508459871730338],[10,50.07024639656092,19.508200557633245],[11,50.07114862935904,19.508056977129627],[12,50.07199256741626,19.508521781909963],[13,50.07281836278624,19.50911268947482],[14,50.07356529452707,19.508684598730383],[15,50.07427525144676,19.507794663519007],[16,50.0749320287625,19.506810178838805],[17,50.07557433685934,19.505801757683116],[18,50.07622984689976,19.50481421401264],[19,50.07686537916501,19.50379539359824],[20,50.07761957497127,19.50330291896944],[21,50.07851458166999,19.503365695643197],[22,50.07937010808794,19.502877418953062],[23,50.08004292198859,19.501927587656837],[24,50.0808518662927,19.501478091181866],]
podstawa=[[13,50.07281836278624,19.50911268947482],['start',50.0613200,19.5092300],['meta',50.0817300,19.5015200]]
daneflot=[[0.0,263.229],[0.1,263.744],[0.2,266.019],[0.3,270.022],[0.4,274.124],[0.5,277.634],[0.6,281.763],[0.7,285.368],[0.8,288.437],[0.9,292.585],[1.0,294.782],[1.1,295.932],[1.2,297.934],[1.3,300.067],[1.4,301.646],[1.5,305.269],[1.6,312.040],[1.7,316.754],[1.8,323.464],[1.9,331.311],[2.0,340.434],[2.1,351.066],[2.2,362.579],[2.3,375.219],[2.4,383.940],[2.5,385.971],]