name=Sietesz od Siedleczki
slope=2.2km 4.3%
points=64.7
region=47
description=Nawierzchnia: szosa, stan dostaczny. Ruch samochodowy: mały.
Przed pierwszą próbą podjazdu mało doświadczonym rowerzystom zalecam potrenować na mniejszych górkach.Podjazd niewysoki ale dość wymagający.
comments=
author=dlugi73
segment=0
locations=[[1,49.96599017776797,22.36208419570869],[2,49.96616307346579,22.360755701840276],[3,49.96656000001786,22.359566385005223],[4,49.96671560601235,22.3583381885137],[5,49.96653000038307,22.35701548667373],[6,49.9663137825552,22.355701668440588],[7,49.96629107944992,22.354355274963268],[8,49.96633281252694,22.353004171980842],[9,49.96634963313161,22.351629192500468],[10,49.9664425205648,22.35026467121736],[11,49.96640222374891,22.348889371415908],[12,49.96634828667398,22.347515857980852],[13,49.96639626683617,22.346175828317996],[14,49.96671699580265,22.344900627328116],[15,49.96712355264728,22.343792895217803],[16,49.96764586781492,22.342681943357093],[17,49.96814458047,22.341544254600308],[18,49.96869079563947,22.340463896994606],[19,49.96930305670726,22.339472139975555],[20,49.97009256708354,22.338879641912627],[21,49.97079672790096,22.33809871085373],]
podstawa=[[14,49.96634828667398,22.347515857980852],['start',49.9659600,22.3634600],['meta',49.9716000,22.3375800]]
daneflot=[[0.0,233.474],[0.1,235.571],[0.2,236.290],[0.3,238.618],[0.4,241.531],[0.5,241.767],[0.6,243.390],[0.7,245.837],[0.8,249.966],[0.9,255.644],[1.0,256.686],[1.1,258.248],[1.2,258.856],[1.3,261.161],[1.4,263.520],[1.5,269.969],[1.6,279.282],[1.7,289.732],[1.8,300.448],[1.9,310.156],[2.0,318.029],[2.1,324.014],[2.2,327.432],]