name=Zawadka od Chomranice
slope=1.8km 8.2%
points=130.6
region=29
description=Nawierzchnia: szosa, stan dobry. Ruch samochodowy: średni.
Jadąc drogą nr 1551 Limanowa - Nowy Sącz skręcamy w miejscowości Chomranice na Tęgoborze. Podjazd zaczyna się od samego skrzyżowania. Na szczycie sklep oraz ładne widoki. Ze szczytu można zjechać do Ujanowic lub wspomnianego Tęgoborza.
comments=
author=piotrkol91
segment=9268813
locations=[[1,49.67674818815779,20.6009700042664],[2,49.67732303252403,20.60037833564786],[3,49.67785542398057,20.599432288111075],[4,49.67866595216519,20.599115952109287],[5,49.67925668139387,20.60011314481119],[6,49.67995661038302,20.600689797094674],[7,49.68073682858681,20.601306003025456],[8,49.68151299702793,20.601934327504978],[9,49.68229195513378,20.602554333537228],[10,49.68309773474151,20.603079926092278],[11,49.68393064307956,20.60350031550388],[12,49.68476430462113,20.603917140995918],[13,49.68559796466668,20.604333980783395],[14,49.68645860919661,20.604552860532635],[15,49.68733341600121,20.604626856362415],[16,49.6882080084261,20.604706574089505],[17,49.68907218389175,20.604886560360228],]
podstawa=[[14,49.684,20.603079926092278],['start',49.6760000,20.6003800],['meta',49.6898800,20.6054100]]
daneflot=[[0.0,314.593],[0.1,323.090],[0.2,332.662],[0.3,341.207],[0.4,349.520],[0.5,360.837],[0.6,369.679],[0.7,379.268],[0.8,389.736],[0.9,397.593],[1.0,404.125],[1.1,410.081],[1.2,415.887],[1.3,421.762],[1.4,433.192],[1.5,445.044],[1.6,452.363],[1.7,455.279],[1.8,462.419],]