name=Bobrzak
slope=2.7km 8.8%
points=261.5
region=5
description=Nawierzchnia: szosa, stan kiepski. Ruch samochodowy: żaden.
Jadąc od strony Jeleniej Góry odbijamy w lewo z obwodnicy Kowar na wąski asfalt. Dość stromo. Tam gdzie zaznaczyłem koniec podjazdu mniej więcej kończy się asfalt. Dalej jadąc prosto możemy szutrem wyjechać na Przełęcz Bobrzak. Jak skręcimy w lewo na nowy szuter, dojedziemy do punktu, który oznaczony na mapach jest jako "Kamienna Ławka". Nawierzchnia taka sobie, kiedyś było lepiej.
comments=
author=gavia2621
segment=0
locations=[[1,50.79351004246335,15.849779103619426],[2,50.79388026426631,15.851060625077366],[3,50.79405817237711,15.852451720682893],[4,50.79411227364722,15.853868798966914],[5,50.79458641486163,15.855000711682123],[6,50.79535803948117,15.855699549297924],[7,50.7962416415314,15.855913820942988],[8,50.79686469085402,15.856844198893668],[9,50.79735684701927,15.858028179099165],[10,50.79799739514557,15.858819886230094],[11,50.79889435855442,15.858777627298537],[12,50.79971992135608,15.859108461226697],[13,50.80033963190733,15.860135316015544],[14,50.80095954079827,15.861156996444493],[15,50.80104131808667,15.862524013991674],[16,50.80105374864723,15.863878588282091],[17,50.8016754798435,15.864882157751026],[18,50.80229617249494,15.865846809798654],[19,50.80257991680642,15.867194601009487],[20,50.80311353985444,15.868313539521296],[21,50.80296905671924,15.869425848878791],[22,50.80282385741006,15.87082712111237],[23,50.80237221722138,15.872010880049743],[24,50.80218268980418,15.873390192701095],[25,50.8023618330332,15.874777599650997],[26,50.80214325302817,15.876091710127753],]
podstawa=[[14,50.80095954079827,15.861156996444493],['start',50.7928500,15.8488300],['meta',50.8014300,15.8769500]]
daneflot=[[0.0,484.375],[0.1,485.007],[0.2,486.711],[0.3,492.847],[0.4,498.784],[0.5,500.643],[0.6,505.369],[0.7,515.088],[0.8,524.896],[0.9,536.828],[1.0,550.161],[1.1,559.583],[1.2,567.999],[1.3,570.867],[1.4,580.132],[1.5,588.470],[1.6,602.211],[1.7,615.629],[1.8,624.593],[1.9,633.035],[2.0,640.455],[2.1,651.486],[2.2,668.976],[2.3,678.482],[2.4,691.634],[2.5,708.753],[2.6,719.056],[2.7,723.402],]