name=Niżankowice
slope=4.2km 1.6%
points=17.7
region=60
description=Nawierzchnia: szosa, stan dobry. Ruch samochodowy: średni.
Stosunkowo długi jak na okolicę podjazd z mostu na Warcie do Niżankowic przez Kamion. Piękne lasy Załęczańskiego Parku Krajobrazowego. Latem mocne nasłonecznienie na odkrytych odcinkach.
comments=
author=Dasior
segment=0
locations=[[1,51.15325123613759,18.744107724593732],[2,51.15303671084246,18.746968010402952],[3,51.15249323418166,18.74972417130084],[4,51.1528770035432,18.7525756514907],[5,51.15334053826378,18.75540123740643],[6,51.1539784045001,18.758134495446257],[7,51.1544360362651,18.760960852136577],[8,51.15463990318793,18.763863813216858],[9,51.15515089922076,18.76666321288883],[10,51.15561809509926,18.769472445692713],[11,51.15561646502418,18.772392173289063],[12,51.1555680810847,18.77531264998197],[13,51.15530179571909,18.77819756441727],[14,51.15525625259714,18.78111645688159],[15,51.15515629768063,18.78402221433771],[16,51.15473740806397,18.78681670094545],[17,51.15471235101545,18.789729800857913],[18,51.15447120091862,18.79262582163301],[19,51.15432067091613,18.79553216994998],[20,51.15428788952219,18.798452830044425],]
podstawa=[[13,51.15561646502418,18.772392173289063],['start',51.1540700,18.7415100],['meta',51.1541900,18.8013700]]
daneflot=[[0.0,163.633],[0.2,168.027],[0.4,175.783],[0.6,184.618],[0.8,189.984],[1.0,192.388],[1.2,189.009],[1.4,190.559],[1.6,191.376],[1.8,196.557],[2.0,200.361],[2.2,201.662],[2.4,203.945],[2.6,207.538],[2.8,209.200],[3.0,212.524],[3.2,218.000],[3.4,218.527],[3.6,220.672],[3.8,221.000],[4.0,225.501],[4.2,230.622],]