name=Kudowa Zdrój ul Słoneczna
slope=1.6km 4.4%
points=40.4
region=10
description=Nawierzchnia: szosa, stan dobry. Ruch samochodowy: minimalny.
Krótki podjazd odkryty przy okazji omijania bardzo ruchliwej drogi nr 8.
comments=
author=Kornel (  http://kornel.bikestats.pl/)
segment=0
locations=[[1,50.44144008174745,16.24699240571863],[2,50.44063866239777,16.247589781879924],[3,50.43982858765716,16.24817015760277],[4,50.43901759112201,16.248748807995753],[5,50.43851042385852,16.249836970269826],[6,50.4377685813974,16.25058285146133],[7,50.43718750010889,16.251578456401603],[8,50.43673649396269,16.252784681862522],[9,50.43621699564385,16.253913242815884],[10,50.43569555293542,16.255044850583545],[11,50.43519457994479,16.256199027402204],[12,50.43458361243815,16.2572125699636],[13,50.43391349769676,16.258134248292095],[14,50.43326636446695,16.259094371142055],[15,50.43265086256631,16.26010566420416],]
podstawa=[[14,50.43621699564385,16.253913242815884],['start',50.4422100,16.2462900],['meta',50.4320500,16.2610600]]
daneflot=[[0.0,389.404],[0.1,391.657],[0.2,394.985],[0.3,397.387],[0.4,400.570],[0.5,402.731],[0.6,408.687],[0.7,414.807],[0.8,418.648],[0.9,422.866],[1.0,426.002],[1.1,431.659],[1.2,431.693],[1.3,435.534],[1.4,441.339],[1.5,450.438],[1.6,459.814],]