name=Janówka
slope=0.7km 10.6%
points=83.2
region=41
description=Nawierzchnia: szosa, stan dobry. Ruch samochodowy: mały.
Krótki podjazd wznoszący się równo od początku do końca. Cały czas stromo, nie ma miejsca na odpoczynek ale można złapać rytm.
comments=
author=Artu
segment=0
locations=[[1,49.92379370899859,20.06516871656345],[2,49.92421149427354,20.06638331422937],[3,49.92498189489606,20.067207658233883],[4,49.92585190170091,20.067758314397224],[5,49.9267428117982,20.068220395276285],[6,49.92763242779148,20.068685900364017],]
podstawa=[[15,49.92585190170091,20.067758314397224],['start',49.9241000,20.0637900],['meta',49.9280700,20.0698200]]
daneflot=[[0.0,274.276],[0.1,280.438],[0.2,290.471],[0.3,300.263],[0.4,312.126],[0.5,322.708],[0.6,337.923],[0.7,348.491],]