name=Obory
slope=1.7km 2.4%
points=18
region=76
description=Nawierzchnia: szosa, stan dobry. Ruch samochodowy: mały.
Najtrudniejsza pierwsza cześć podjazdu w samych Oborach. Bezpośrednio obok podjazdu znajduje się Sanktuarium Maryjne które można zwiedzić.
comments=
author=Gabrych
segment=0
locations=[[1,52.99864548514998,19.2114064133159],[2,52.9994684277276,19.211304716828295],[3,52.9997529474919,19.21252783802686],[4,52.99986259843681,19.213886614640842],[5,52.99963155541145,19.21528222402503],[6,52.99918409582761,19.21652164960335],[7,52.99872107239158,19.217748664624764],[8,52.99813954111537,19.218814310961307],[9,52.99747239353762,19.219746292803734],[10,52.99681237647247,19.220691511255495],[11,52.99634090704981,19.221900480465024],[12,52.99599030695158,19.22322253612208],[13,52.99585615173781,19.224649705350203],[14,52.99575396729123,19.22608775324602],[15,52.99579091159245,19.227511684479055],[16,52.99613628558888,19.22884117230774],]
podstawa=[[14,52.99747239353762,19.219746292803734],['start',52.9982900,19.2101000],['meta',52.9964000,19.2302100]]
daneflot=[[0.0,74.139],[0.1,78.367],[0.2,83.087],[0.3,88.571],[0.4,93.823],[0.5,95.927],[0.6,94.660],[0.7,98.800],[0.8,102.898],[0.9,103.528],[1.0,102.298],[1.1,104.339],[1.2,106.841],[1.3,107.749],[1.4,107.290],[1.5,106.713],[1.6,111.328],[1.7,114.595],]