name=Łomnica Wodospad z Piwnicznej
slope=5.0km 3.2%
points=77.9
region=32
description=Nawierzchnia: szosa, stan średni. Ruch samochodowy: mały.
Podjazd wzdłuż potoku Łomniczanka do pętli autobusowej przy wodospadzie i żródłach wodu mineralnej.
comments=
author=Kuba99
segment=0
locations=[[1,49.42066131404292,20.72703245610012],[2,49.42190326519364,20.72898866816945],[3,49.42219396153161,20.731585061538112],[4,49.42202420769663,20.73431079650004],[5,49.42261935565588,20.73686943873122],[6,49.42374671184767,20.73896820416678],[7,49.42517827503422,20.740558071859937],[8,49.42672181431509,20.74189497255793],[9,49.42790121943401,20.743452276275548],[10,49.42968470938124,20.743620985631424],[11,49.43146650717178,20.74355407532221],[12,49.43324985373987,20.743435878005812],[13,49.43503186154503,20.743631493862154],[14,49.43681537054201,20.74379975093052],[15,49.43859588480167,20.74402522632522],[16,49.44023526463857,20.745061959800296],[17,49.44182916136809,20.7463031150628],[18,49.44333355756344,20.747611610963304],[19,49.44495502435206,20.748213285394286],[20,49.44644449283207,20.749729672915237],[21,49.44771777653405,20.75163242311328],[22,49.44882612270096,20.753787884447547],[23,49.45012176179333,20.755590950629767],[24,49.45151916240214,20.757303327197178],]
podstawa=[[13,49.43503186154503,20.743631493862154],['start',49.4196500,20.7254400],['meta',49.4531500,20.7583300]]
daneflot=[[0.0,385.219],[0.2,388.206],[0.4,399.387],[0.6,398.058],[0.8,411.299],[1.0,412.918],[1.2,415.788],[1.4,416.020],[1.6,421.718],[1.8,425.050],[2.0,431.687],[2.2,430.674],[2.4,434.317],[2.6,438.970],[2.8,447.364],[3.0,452.019],[3.2,459.929],[3.4,466.542],[3.6,472.395],[3.8,479.837],[4.0,490.628],[4.2,501.834],[4.4,507.371],[4.6,516.799],[4.8,525.988],[5.0,545.603],]