name=Štrbské Pleso  z Podbanske (Słowacja)
slope=17.6km 2.5%
points=281.1
region=24
description=Nawierzchnia: szosa, stan dobry. Ruch samochodowy: w sezonie turystycznym duzy.
Długi podjazd urozmaiconym, pofałdowanym terenem.  Duże walory widokowe. W Strbskim Plesie w r 2014 będzie kończył się etap TdP.
comments=Dnia 2014-05-29 użytkownik Maćko dodał:
Podjazd można zacząć w Liptowskim Mikulaszu. Wtedy będzie ze 40km pod górę :)
Dnia 2015-05-04 użytkownik Kuba dodał:
Ten podjazd zaczyna się w Liptovskim Hradoku
author=jeżnarowerze
segment=0
locations=[[1,49.1420758262966,19.904302712026265],[2,49.14084358883436,19.906155027323393],[3,49.1401743043076,19.907682193007986],[4,49.13980303376007,19.910212257396893],[5,49.1382826136361,19.911710482724175],[6,49.13664436117865,19.912906623627123],[7,49.13746092601477,19.91536648773581],[8,49.1385014318985,19.917643416963415],[9,49.13937749931107,19.920069990418142],[10,49.13992494575874,19.922712053943087],[11,49.14030016829059,19.92542966198721],[12,49.1406581058207,19.928152763087155],[13,49.14085631583516,19.9308984238603],[14,49.14026581094116,19.933517231104474],[15,49.13959399030371,19.936097749365217],[16,49.13874834479024,19.93855420240243],[17,49.13795314754285,19.941046360767587],[18,49.13826485245408,19.94371975015065],[19,49.13892427885132,19.94628029442015],[20,49.13906810013691,19.949048719640018],[21,49.139178413274,19.951820496948017],[22,49.13884321508026,19.95454222366334],[23,49.13895985818991,19.95731186026319],[24,49.13912815601003,19.960077364971653],[25,49.13929638778359,19.962842888457885],[26,49.13907268276671,19.965545646098008],[27,49.13782157922186,19.96747306798511],[28,49.13606391872147,19.96811780029293],[29,49.13427024346336,19.96856205783388],[30,49.13247687401542,19.969009178414012],[31,49.1306835789667,19.969456977806885],[32,49.1288904755942,19.969906551613235],[33,49.12710600994957,19.970419996351325],[34,49.12552219127898,19.97172869229837],[35,49.12448041393178,19.97397307815197],[36,49.1241682221419,19.976686215324207],[37,49.12466342036144,19.97933245114018],[38,49.12555570538634,19.981749867103417],[39,49.12653836408689,19.984085373745415],[40,49.12754685216688,19.986395024391868],[41,49.1279169571731,19.989015216186885],[42,49.12713308093124,19.991440843365808],[43,49.12533532714627,19.991687939501276],[44,49.12451924550553,19.993797080719332],[45,49.1249173469012,19.996506256638554],[46,49.12531169338013,19.999216742411363],[47,49.12537156323624,20.001955327583573],[48,49.12485483737206,20.004613883428192],[49,49.12475266277787,20.007377081280765],[50,49.1244514574044,20.01006550636896],[51,49.12314170085315,20.011964639942562],[52,49.12172512681033,20.013703200077543],[53,49.12069281916663,20.015947084298546],[54,49.12042358429291,20.018663587804213],[55,49.12037791252826,20.021430656851066],[56,49.11963180137101,20.023949192383725],[57,49.11996250996095,20.026597553419265],[58,49.11954627465985,20.02921574522793],[59,49.11878665897466,20.03173783316288],[60,49.11805011627067,20.03427567977303],[61,49.11741178275741,20.036869306409812],[62,49.11729610232347,20.039615565296685],[63,49.11778031679124,20.04229021769993],[64,49.11791063693641,20.045056685276336],[65,49.11820412665018,20.04777650526944],[66,49.1189462349997,20.050287876289303],[67,49.11786055822018,20.052370101991983],[68,49.11697364345213,20.054790757969386],[69,49.11590937800683,20.056963232748103],[70,49.11479418212107,20.059064544874104],[71,49.11349170820629,20.06098558980625],[72,49.11230320231905,20.06305369475683],[73,49.11164814599314,20.065627052029868],[74,49.11134610787904,20.06836422094034],[75,49.11103073325508,20.07091069246394],[76,49.11206105274663,20.06896974958363],[77,49.11346542563073,20.06766751383452],[78,49.11376000002111,20.068471061282025],[79,49.11521972512604,20.067905457210713],[80,49.11701064884532,20.06772126434214],[81,49.1183571269726,20.068615747457102],[82,49.11975392651858,20.06695898326734],[83,49.12022533286269,20.06441900494451],[84,49.12149748824569,20.063388275836132],[85,49.12321843811966,20.06415084799255],[86,49.12476770587221,20.062750487096764],[87,49.12649015004166,20.061866115543353],]
podstawa=[[12,49.1249173469012,19.996506256638554],['start',49.1413000,19.9019900],['meta',49.1282100,20.0609700]]
daneflot=[[0.0,929.635],[0.2,932.900],[0.4,959.101],[0.6,970.800],[0.8,984.689],[1.0,1001.169],[1.2,1007.514],[1.4,1019.286],[1.6,1028.046],[1.8,1042.536],[2.0,1057.965],[2.2,1069.880],[2.4,1072.163],[2.6,1080.863],[2.8,1087.673],[3.0,1094.342],[3.2,1101.553],[3.4,1104.822],[3.6,1102.644],[3.8,1099.812],[4.0,1101.817],[4.2,1095.021],[4.4,1100.182],[4.6,1102.137],[4.8,1111.440],[5.0,1132.299],[5.2,1133.946],[5.4,1148.149],[5.6,1155.755],[5.8,1159.916],[6.0,1164.198],[6.2,1167.714],[6.4,1169.535],[6.6,1167.809],[6.8,1169.479],[7.0,1172.153],[7.2,1174.751],[7.4,1178.718],[7.6,1178.072],[7.8,1181.129],[8.0,1183.395],[8.2,1186.564],[8.4,1197.405],[8.6,1192.871],[8.8,1196.085],[9.0,1195.864],[9.2,1197.002],[9.4,1203.903],[9.6,1204.829],[9.8,1209.605],[10.0,1209.042],[10.2,1211.832],[10.4,1214.307],[10.6,1210.999],[10.8,1214.544],[11.0,1222.496],[11.2,1233.722],[11.4,1248.607],[11.6,1249.853],[11.8,1250.122],[12.0,1248.238],[12.2,1243.321],[12.4,1237.177],[12.6,1238.828],[12.8,1234.059],[13.0,1224.360],[13.2,1214.651],[13.4,1216.810],[13.6,1226.431],[13.8,1224.055],[14.0,1228.180],[14.2,1233.317],[14.4,1236.733],[14.6,1243.392],[14.8,1258.323],[15.0,1260.625],[15.2,1275.769],[15.4,1290.873],[15.6,1295.349],[15.8,1311.499],[16.0,1311.014],[16.2,1316.394],[16.4,1329.068],[16.6,1334.757],[16.8,1346.753],[17.0,1351.734],[17.2,1354.312],[17.4,1357.236],[17.6,1367.816],]