name=Tatranska Javorina   z Podspady (Słowacja)
slope=4.0km 3.1%
points=48.7
region=24
description=Nawierzchnia: szosa, stan dobry. Ruch samochodowy: w sezonie turystycznym duży.
Fragment pięknej drogi Łysa Polana - Szczyrbskie Pleso. Walory widokowe tylko w górnej sekcji.
comments=
author=jeżnarowerze
segment=0
locations=[[1,49.27965789596975,20.172690364425307],[2,49.27872551393968,20.170407614583837],[3,49.2777998275552,20.168118523695284],[4,49.27687612228556,20.16582758647678],[5,49.27594894888659,20.163539992116057],[6,49.27501927204713,20.161254823083482],[7,49.2740898785287,20.158969429787362],[8,49.27317215950442,20.156673044422178],[9,49.27224220902992,20.154388265604098],[10,49.27144017919847,20.1520043087296],[11,49.27091812898018,20.1494338974544],[12,49.26965147274638,20.147708630293096],[13,49.26867977270095,20.145477836067585],[14,49.26774794406721,20.143197610100174],[15,49.26634681011083,20.141586748621307],[16,49.26572959909788,20.140693029018962],[17,49.26744266141062,20.14011432905602],[18,49.26917554220855,20.139673632755603],[19,49.27027523578541,20.138057584521448],]
podstawa=[[13,49.27091812898018,20.1494338974544],['start',49.2804400,20.1750600],['meta',49.2697000,20.1355400]]
daneflot=[[0.0,912.209],[0.2,916.966],[0.4,929.960],[0.6,941.240],[0.8,948.823],[1.0,952.131],[1.2,955.294],[1.4,960.698],[1.6,964.200],[1.8,970.892],[2.0,976.839],[2.2,979.471],[2.4,982.348],[2.6,991.701],[2.8,995.871],[3.0,1003.595],[3.2,1006.969],[3.4,1020.901],[3.6,1026.883],[3.8,1029.915],[4.0,1034.515],]