name=Łapszanka przez Potok Grocholów
slope=2.0km 6.5%
points=147.3
region=23
description=Nawierzchnia: szosa. Ruch samochodowy: żaden.
Krótki , stromy podjazd.
comments=
author=kubens
segment=0
locations=[[1,49.34794198641206,20.163416096048877],[2,49.34760314331971,20.164747593602215],[3,49.34735881800858,20.166116774416196],[4,49.34725983098691,20.167538712698047],[5,49.34723957014374,20.16897020509009],[6,49.3472750818376,20.170399150541243],[7,49.34735638861569,20.171825679279323],[8,49.34738501758797,20.173254607389026],[9,49.3472961620654,20.17467988606711],[10,49.34708550144673,20.176073135620413],[11,49.34690092760958,20.177440736946437],[12,49.3466451922702,20.17880706920971],[13,49.3465447400268,20.180186300424793],[14,49.34614561098825,20.1814737905554],[15,49.34581619133992,20.182809700896996],[16,49.3455262495352,20.184166707881786],[17,49.34547999780334,20.18557995276842],[18,49.34508704809204,20.186840166425213],[19,49.34460037176243,20.18804776974912],]
podstawa=[[14,49.34690092760958,20.177440736946437],['start',49.3479500,20.1620000],['meta',49.3445100,20.1894700]]
daneflot=[[0.0,837.728],[0.1,849.912],[0.2,867.604],[0.3,879.810],[0.4,896.372],[0.5,911.094],[0.6,912.517],[0.7,913.849],[0.8,918.339],[0.9,923.017],[1.0,925.245],[1.1,931.134],[1.2,941.864],[1.3,948.381],[1.4,956.074],[1.5,963.421],[1.6,963.504],[1.7,962.688],[1.8,961.231],[1.9,964.624],[2.0,967.591],]