name=Marzecice od  Nowego Miasta Lubawskiego
slope=3.6km 1.9%
points=23.4
region=91
description=Nawierzchnia: szosa, stan średni. Ruch samochodowy: średni.
Trasa o srednim ruchu i srednim stanie nawierzchni. Nachylenie wzrasta w miare zblizania sie do Marzecic. Najmniejszy ruch w poznych godzinach popoludniowych.
comments=
author=mm
segment=0
locations=[[1,53.42586768728798,19.5861337451571],[2,53.42545412533287,19.58322325644076],[3,53.4263088097549,19.580625363518948],[4,53.42600980677032,19.57786827175346],[5,53.42522403366196,19.575207935573644],[6,53.42459547131668,19.57237110381493],[7,53.42395606983514,19.56954115954659],[8,53.42335894101231,19.566691048972643],[9,53.42359246189975,19.563758895748606],[10,53.42430344283038,19.560977470072203],[11,53.42501435914467,19.55819595136836],[12,53.42572557911336,19.55541460483505],[13,53.42640055357765,19.552608703541182],[14,53.42703717571523,19.549776817568727],[15,53.42767373087285,19.546944846779184],[16,53.42828501329772,19.544098060516944],[17,53.42877608489275,19.541216400406256],]
podstawa=[[13,53.42430344283038,19.560977470072203],['start',53.4254100,19.5881200],['meta',53.4282100,19.5384000]]
daneflot=[[0.0,87.838],[0.2,89.899],[0.4,93.629],[0.6,96.525],[0.8,107.103],[1.0,113.781],[1.2,115.118],[1.4,119.145],[1.6,126.669],[1.8,134.913],[2.0,143.742],[2.2,149.680],[2.4,150.295],[2.6,146.880],[2.8,145.899],[3.0,147.217],[3.2,150.844],[3.4,154.734],[3.6,155.403],]