name=Gubałówka od Szałas Holny
slope=3.2km 7.8%
points=233
region=23
description=Nawierzchnia: szosa, stan dobry. Ruch samochodowy: średni/mały.
Przyjemny podjazd, od mety biegnie wiele ciekawych tras. Ruch samochodowy jest do Salamandry - średni, od Salamandra - mały
comments=Dnia 2014-04-27 użytkownik Nemiras dodał:
Zapomniałem dodać - w około 3/4 podjazdu po wypłaszczeniu w połowie Salamandry, rozchodzi się cudowny widok na Tatry w całej długości oraz na Zakopane.
author=Nemiras
segment=0
locations=[[1,49.28750360067728,19.90925988544882],[2,49.28881724262722,19.907600839634824],[3,49.29041419587514,19.906713614616706],[4,49.29120944522025,19.904661123329788],[5,49.29057375448735,19.902207516365138],[6,49.29116060863178,19.899844662395935],[7,49.29243152961536,19.899700650725208],[8,49.2930775048879,19.901996820814247],[9,49.29475569839836,19.901896174235276],[10,49.2961243420444,19.903123215176038],[11,49.29738489419935,19.904257247275382],[12,49.29723006677434,19.906901398223226],[13,49.29819081976763,19.908984289302566],[14,49.2998565382947,19.909605905675903],[15,49.30151505832604,19.910351713768478],]
podstawa=[[14,49.29475569839836,19.901896174235276],['start',49.2861400,19.9084000],['meta',49.3031100,19.9113600]]
daneflot=[[0.0,880.774],[0.2,894.687],[0.4,911.606],[0.6,924.612],[0.8,939.087],[1.0,948.982],[1.2,954.371],[1.4,967.252],[1.6,980.183],[1.8,999.984],[2.0,1023.504],[2.2,1046.846],[2.4,1044.193],[2.6,1066.222],[2.8,1089.256],[3.0,1113.915],[3.2,1128.900],]