name=Koniusza z Piotrkowic Małych
slope=2.4km 4.8%
points=60.7
region=65
description=Nawierzchnia: szosa, stan dobry. Ruch samochodowy: niewielki.
Kapitalny podjazd mający ponad 100 metrów przewyższenia, którego nikt się tutaj nie spodziewa. Na najwyższym punkcie wzniesienia położony jest zabytkowy kościół.
comments=
author=Stradovius
segment=0
locations=[[1,50.19466577968937,20.237276139597498],[2,50.19302507703656,20.236030002799794],[3,50.19120228495287,20.23595578277468],[4,50.18939310693598,20.23553230249513],[5,50.18761301167081,20.234876310878235],[6,50.18635810038891,20.2333838521904],[7,50.18605088488196,20.230568026725905],[8,50.1857993067656,20.22776487592637],[9,50.1862482754058,20.22500059789661],[10,50.18574633187087,20.222257289340405],[11,50.18586304634205,20.220026092936223],]
podstawa=[[14,50.189,20.230568026725905],['start',50.1953200,20.2391900],['meta',50.1872800,20.2183100]]
daneflot=[[0.0,210.620],[0.2,217.143],[0.4,221.348],[0.6,230.442],[0.8,245.039],[1.0,255.789],[1.2,262.180],[1.4,271.934],[1.6,284.179],[1.8,298.624],[2.0,309.841],[2.2,315.425],[2.4,324.998],]