name=Dzierżaniny z Filipowic
slope=6.0km 3.0%
points=112.6
region=43
description=Nawierzchnia: szosa, stan średni. Ruch samochodowy: mały.
Kameralny podjazd wąwozem Rudzianki o niezbyt skomplikowanym stopniu nachylenia. Początkowy łagodny pasaż wzdłuż strumienia Rudzianki wyprowadza nas końcową rampką na przełęcz w Borowej, skąd odbijając w prawo przez siodełko, docieramy stromo, obok cerkiewki, na przeciwległy stok w Dzierżaninach. Stan nawierzchni zróżnicowany - od średniego po dobry -  z licznymi połataniami. Przejazd oferuje głównie walory rekreacyjne i czyste powietrze, pomimo nielicznych samochodów.
comments=
author=airstreeem20
segment=0
locations=[[1,49.83502479904512,20.726429110641902],[2,49.83328983902756,20.72584710966305],[3,49.83198896778913,20.724169182532705],[4,49.83080181891017,20.722510454463077],[5,49.82907641060559,20.72305456422646],[6,49.82737629755128,20.72312881477228],[7,49.8258800845496,20.72446817556306],[8,49.82492533487594,20.72677838982065],[9,49.8236808031512,20.728742008439895],[10,49.82247333365468,20.730759999728434],[11,49.82113710714091,20.732573593914367],[12,49.81951913747565,20.733477026337596],[13,49.81794947034366,20.734722112327063],[14,49.8164427432015,20.736058719755192],[15,49.81472998676263,20.736766089211642],[16,49.81303584823004,20.737594971107796],[17,49.81132064239934,20.73827178618353],[18,49.80993037078244,20.739919729942358],[19,49.80884183727729,20.74206794092106],[20,49.80799329735651,20.74447949153455],[21,49.8069844306883,20.746709493227854],[22,49.80665070345134,20.749399867089892],[23,49.80637090538422,20.752116450254903],[24,49.80608034165637,20.754830146860627],[25,49.80524278660491,20.75707362724347],[26,49.80409290396592,20.759057324031232],[27,49.80253732503211,20.758872154406163],[28,49.80080153348067,20.759396373462664],[29,49.79904079115069,20.759344146924036],]
podstawa=[[12,49.81303584823004,20.737594971107796],['start',49.8367700,20.7263000],['meta',49.7974400,20.7602400]]
daneflot=[[0.0,224.805],[0.2,228.992],[0.4,236.351],[0.6,237.952],[0.8,248.862],[1.0,248.580],[1.2,252.150],[1.4,248.461],[1.6,255.346],[1.8,259.964],[2.0,263.824],[2.2,265.561],[2.4,266.322],[2.6,264.694],[2.8,272.984],[3.0,272.232],[3.2,274.297],[3.4,278.635],[3.6,285.315],[3.8,290.200],[4.0,290.200],[4.2,296.539],[4.4,313.889],[4.6,330.744],[4.8,345.475],[5.0,351.153],[5.2,356.740],[5.4,357.394],[5.6,376.832],[5.8,386.507],[6.0,407.138],]