name=Magura Małastowska z Małastowa
slope=5.4km 5.7%
points=245.7
region=34
description=Nawierzchnia: szosa. Ruch samochodowy: .
Magura Małastowska: Małastów - Nowica, serpentyny.
comments=Dnia 2014-10-10 użytkownik Rich Perthes dodał:
Świetny podjazd treningowy. Dobrej jakości asfalt.
author=lukasm
segment=0
locations=[[1,49.56953254044853,21.242254762555717],[2,49.56799583176527,21.2437597916487],[3,49.56659094478797,21.24551637024649],[4,49.56506312559797,21.246812755534847],[5,49.56347060403608,21.248151727802792],[6,49.5618944703907,21.249556304931616],[7,49.56028182950698,21.250856946090153],[8,49.55865624864648,21.252119709180533],[9,49.55695380047673,21.253113819828968],[10,49.55613555333434,21.253034332438006],[11,49.55644212360932,21.251991567620507],[12,49.55478609609285,21.25315717349281],[13,49.55341991003889,21.254994818446562],[14,49.55223933841276,21.25340814536412],[15,49.55159605786122,21.25116582145722],[16,49.5502438191273,21.249310718508468],[17,49.5485931876996,21.24814353437],[18,49.54683275832365,21.24762355301766],[19,49.5452093758151,21.248428127180887],[20,49.54487647301619,21.245777161649812],[21,49.54445233282328,21.243048681255914],[22,49.54442688537344,21.240619467731904],[23,49.54481575509439,21.23792011948251],[24,49.54473049817145,21.2351410968771],[25,49.54500135779237,21.23258306237676],[26,49.54422572112384,21.23004578809173],]
podstawa=[[13,49.56,21.257],['start',49.5712100,21.2412800],['meta',49.5447700,21.2287300]]
daneflot=[[0.0,399.952],[0.2,406.020],[0.4,407.321],[0.6,412.907],[0.8,419.570],[1.0,420.523],[1.2,427.334],[1.4,435.553],[1.6,451.614],[1.8,468.646],[2.0,483.695],[2.2,495.169],[2.4,509.421],[2.6,511.601],[2.8,527.788],[3.0,544.123],[3.2,555.568],[3.4,560.717],[3.6,566.974],[3.8,587.316],[4.0,595.782],[4.2,604.140],[4.4,615.888],[4.6,632.593],[4.8,657.344],[5.0,687.652],[5.2,692.133],[5.4,709.887],]