name=Ostaš  (Czechy)
slope=1.3km 8.0%
points=95.6
region=10
description=Nawierzchnia: szosa, stan dobry. Ruch samochodowy: mały, latem spory.
Krótki podjazd do skalnego miasta Ostaš. Do labiryntów skalnych rowerem wjechać niestety nie można, ale można terenem zjechać w kierunku Teplic i Adrszpachu.
comments=
author=mrkta
segment=0
locations=[[1,50.55798348802938,16.222860959225955],[2,50.55725933020989,16.22200806349474],[3,50.55643209674794,16.22140329141496],[4,50.55571340452057,16.22050995201539],[5,50.55484201045344,16.220157720828638],[6,50.55403000000153,16.219676653993133],[7,50.55481307064356,16.219090144719303],[8,50.55568393683295,16.218643769030564],[9,50.55648676729446,16.218008295085383],[10,50.55681144572099,16.216666567220955],[11,50.55724695249246,16.215416983695377],[12,50.55747278687554,16.21416760060515],]
podstawa=[[15,50.557,16.219090144719303],['start',50.5583400,16.2237200],['meta',50.5583500,16.2138100]]
daneflot=[[0.0,480.464],[0.1,483.582],[0.2,495.180],[0.3,505.712],[0.4,513.358],[0.5,520.729],[0.6,521.947],[0.7,526.966],[0.8,537.540],[0.9,546.854],[1.0,555.684],[1.1,563.294],[1.2,571.798],[1.3,584.334],]