name=Huta-Chojno
slope=0.5km 4.4%
points=16.6
region=76
description=Nawierzchnia: szosa, stan średni. Ruch samochodowy: mały.
Krótki dość stromy podjazd związany z doliną rzeki Ruziec.
comments=
author=Gabrych
segment=0
locations=[[1,52.98767240435784,19.301252627153303],[2,52.98736848855636,19.30015259423965],[3,52.98711948944131,19.299028412326265],[4,52.98772031563535,19.297934251261154],]
podstawa=[[15,52.98711948944131,19.299028412326265],['start',52.9872200,19.3025300],['meta',52.9881200,19.2966200]]
daneflot=[[0.0,94.189],[0.1,103.103],[0.2,111.589],[0.3,112.429],[0.4,116.112],[0.5,116.596],]