name=Brzozów
slope=4.0km 3.6%
points=92.5
region=47
description=Nawierzchnia: szosa, stan dobry. Ruch samochodowy: zmienny.
Na początku podjazd od szpitala dw 886 do świateł - duży ruch. Następnie skręcamy w lewo na Krosno cały czas pod górę, ale łagodnie tutaj już ruch mniejszy. Ostatni kilometr już trochę trudniejszy.
comments=
author=ktostam
segment=0
locations=[[1,49.69167661478952,22.023868613741342],[2,49.69287897946492,22.021802279237022],[3,49.69412738460481,22.01991128731879],[4,49.69399377905976,22.017277583056284],[5,49.69327013698016,22.01474278995238],[6,49.69317892133145,22.01206510255554],[7,49.69268419496814,22.00941574486535],[8,49.69228094005297,22.0067064456764],[9,49.69184922399255,22.00400760461764],[10,49.69131630759077,22.001353653885417],[11,49.69083632221239,21.998679062865335],[12,49.69055680993844,21.99593279115504],[13,49.69073283376457,21.99325511897598],[14,49.69130137766392,21.990644484438917],[15,49.69139035970061,21.987867915757306],[16,49.69119567864887,21.985118842621887],[17,49.6900659518115,21.983060638828874],[18,49.6886762279393,21.981297783718446],[19,49.68727482175734,21.979555557076992],]
podstawa=[[13,49.69083632221239,21.998679062865335],['start',49.6903100,22.0255500],['meta',49.6858700,21.9778200]]
daneflot=[[0.0,274.759],[0.2,283.933],[0.4,292.715],[0.6,300.997],[0.8,305.286],[1.0,312.341],[1.2,320.828],[1.4,327.520],[1.6,323.848],[1.8,325.339],[2.0,325.895],[2.2,327.102],[2.4,331.965],[2.6,340.875],[2.8,351.483],[3.0,353.744],[3.2,361.456],[3.4,384.725],[3.6,408.058],[3.8,412.439],[4.0,419.523],]