name=Karpacz (os. Skalne)
slope=2.8km 5.1%
points=83.9
region=1
description=Nawierzchnia: szosa, stan dobry. Ruch samochodowy: minimalny.
Całość podjazdu przez zabudowania. Po lewej stronie widać "Western City" taka lokalna atrakcja turystyczna. Samą końcówkę możemy modyfikować jadąc ul.Grottgerra, Narutowicza, Komuny Paryskiej czy Granitową, nachylenia podobne.
comments=
author=gavia2621
segment=0
locations=[[1,50.79293976316783,15.778108255860275],[2,50.79205552485866,15.778289637354646],[3,50.79119767530899,15.778638959576256],[4,50.79031495174893,15.77879807318459],[5,50.78943349114257,15.778591835876796],[6,50.78857801483747,15.7782000768118],[7,50.78773015375923,15.778172392638226],[8,50.78685499212218,15.778033844053766],[9,50.78597616975202,15.77820873234134],[10,50.78510270443942,15.777932799437508],[11,50.78423715374832,15.77759717581921],[12,50.78336754588165,15.777445516006424],[13,50.78249845338744,15.777451892815748],[14,50.78162261954092,15.777338115042198],[15,50.78076555459989,15.777682274852737],[16,50.77988779539085,15.777469999999994],[17,50.77904839123166,15.777746782248187],[18,50.77846376560635,15.77673076423332],[19,50.77777454690806,15.775836151067892],[20,50.77707707018375,15.774958002260746],[21,50.77636976597292,15.774099444980493],[22,50.77564875081918,15.773273409219314],[23,50.77522526121763,15.772166968323745],[24,50.77450639463619,15.771356287963727],[25,50.77375202587038,15.770606597464962],[26,50.77303592022992,15.76976742948068],[27,50.77227794313963,15.769024910642429],]
podstawa=[[13,50.78076555459989,15.777682274852737],['start',50.7938100,15.7778200],['meta',50.7715300,15.7685400]]
daneflot=[[0.0,489.458],[0.1,492.840],[0.2,495.557],[0.3,499.533],[0.4,503.188],[0.5,507.339],[0.6,510.986],[0.7,514.653],[0.8,518.724],[0.9,522.385],[1.0,526.501],[1.1,531.302],[1.2,535.717],[1.3,540.868],[1.4,546.550],[1.5,553.515],[1.6,558.319],[1.7,564.269],[1.8,568.277],[1.9,572.871],[2.0,575.556],[2.1,580.311],[2.2,586.707],[2.3,589.195],[2.4,594.966],[2.5,601.666],[2.6,610.822],[2.7,620.705],[2.8,631.448],]