name=Ogrodniczki na Supraśl
slope=1.0km 3.9%
points=17.2
region=85
description=Nawierzchnia: szosa, stan dobry. Ruch samochodowy: na ścieżce brak.
Podjazd na ścieżce rowerowej z Białegostoku na Supraśl za Ogrodniczkami. Ścieżka idzie wyżej niż droga wojewódzka z boku i ma bardziej stromy podjazd.
comments=
author=ptaqnabajq
segment=5322808
locations=[[1,53.18888316457495,23.271294522292465],[2,53.18938397418768,23.272655998289792],[3,53.18986532468145,23.274037147022568],[4,53.19018428153679,23.2755383376018],[5,53.19033711728213,23.277115221514237],[6,53.19048287605234,23.278694901743734],[7,53.19062934479928,23.28027440692358],[8,53.19077733058343,23.281853518879302],[9,53.19092867571884,23.283431753869195],]
podstawa=[[15,53.19048287605234,23.278694901743734],['start',53.1886300,23.2697600],['meta',53.1910800,23.2850100]]
daneflot=[[0.0,131.177],[0.1,134.558],[0.2,138.260],[0.3,143.711],[0.4,149.396],[0.5,152.727],[0.6,157.588],[0.7,159.811],[0.8,160.788],[0.9,165.151],[1.0,170.097],]