name=Dvorská Bouda  od Vrchlabí (Czechy)
slope=12.8km 6.3%
points=688
region=2
description=Nawierzchnia: szosa, stan bardzo dobry. Ruch samochodowy: minimalny.
Podjazd do Schroniska Dvorská Bouda od Vrchlabí przeważnie wąskim bardzo dobrym asfaltem.  Samochody dojeżdżają do samego końca, więc należy na nie uważać. Istnieje możliwość podjazdu wyżej, ale drogą szutrową (dobrą).
Droga do schroniska oznaczona została jako trasa rowerowa A1. Należy uważać na jej liczne łagodniejszej wersji odnogi, ale przy każdej jest drogowskaz na Dvorská Bouda. Podjazd od Podgórzyna do Odrodzenia przez Przesiekę jest świetną rozgrzewką )
comments=
author=roki
segment=0
locations=[[1,50.64860668945173,15.606474501665048],[2,50.64918296242702,15.606984075377909],[3,50.64806798283584,15.609182663757565],[4,50.64689491389763,15.61130403414495],[5,50.64621501022113,15.613888815990435],[6,50.64642882005567,15.615169177360258],[7,50.64776313713258,15.613306863051434],[8,50.64945289478968,15.612513850252185],[9,50.65119555366542,15.611981957029457],[10,50.65293356427981,15.611483706360673],[11,50.6546732406035,15.610920454219013],[12,50.65629786265357,15.609762681014558],[13,50.65796070883608,15.609257779659401],[14,50.65962938829983,15.61015472819588],[15,50.66121695495745,15.60909574442951],[16,50.66194464211273,15.606540716478776],[17,50.66276910681446,15.606047009786835],[18,50.66236413061603,15.608750355371171],[19,50.66211898557288,15.611532416811542],[20,50.66124486499618,15.613950270210125],[21,50.6613303080125,15.615586713825337],[22,50.66305200065327,15.614960734674582],[23,50.66481238023212,15.615098203460548],[24,50.66644658590175,15.616218991327287],[25,50.66797842586478,15.61761522830443],[26,50.66970103403763,15.618316206768327],[27,50.67146684611162,15.617943684081297],[28,50.67311128574153,15.618937746788447],[29,50.67483758054628,15.619591743848673],[30,50.67644526054274,15.620681591774087],[31,50.67735772808017,15.62185877812442],[32,50.676754170011,15.624450347800462],[33,50.6775955115784,15.626934350740385],[34,50.67766234473633,15.629707555258278],[35,50.67782692381309,15.632474385523324],[36,50.67864077333367,15.634931542108461],[37,50.67974157914345,15.637123471593895],[38,50.68058009620888,15.63960581094841],[39,50.68095121994416,15.641746950430615],[40,50.68145660003314,15.64422068982742],[41,50.68260897867035,15.646372354262326],[42,50.68358007141957,15.648724862682457],[43,50.68412682716244,15.651394220830753],[44,50.68460256205527,15.654088919977085],[45,50.68468422670088,15.656877738872709],[46,50.68574052900319,15.658901309770727],[47,50.68620820141936,15.656331632181718],[48,50.68740385171761,15.65424979920931],[49,50.68838076600295,15.651891798358974],[50,50.68915419586896,15.649374826352073],[51,50.68958517906353,15.646640034855409],[52,50.69043932740315,15.644178899122608],[53,50.69115301776085,15.646426746478369],[54,50.69214157422944,15.648545933214336],[55,50.69317490682754,15.650830243429596],[56,50.69415305370487,15.653168335624514],[57,50.69518586277147,15.655458505200272],[58,50.6961507235621,15.657827262591127],[59,50.6973329091916,15.659911566483288],[60,50.69901299551864,15.660835849654404],[61,50.70039306651815,15.662585686943316],[62,50.70162111581767,15.664630639683764],[63,50.70247580753281,15.667089201239378],]
podstawa=[[12,50.6775955115784,15.626934350740385],['start',50.6469400,15.6072200],['meta',50.7034600,15.6694300]]
daneflot=[[0.0,519.441],[0.2,532.953],[0.4,547.713],[0.6,559.647],[0.8,572.892],[1.0,591.040],[1.2,605.260],[1.4,615.024],[1.6,629.446],[1.8,644.332],[2.0,657.454],[2.2,676.994],[2.4,690.564],[2.6,709.920],[2.8,717.239],[3.0,723.807],[3.2,734.970],[3.4,749.793],[3.6,752.610],[3.8,762.422],[4.0,778.881],[4.2,796.909],[4.4,786.502],[4.6,779.193],[4.8,769.868],[5.0,765.438],[5.2,767.498],[5.4,765.526],[5.6,762.801],[5.8,759.151],[6.0,768.473],[6.2,780.619],[6.4,794.909],[6.6,802.230],[6.8,809.072],[7.0,834.410],[7.2,853.303],[7.4,869.727],[7.6,885.283],[7.8,900.078],[8.0,920.333],[8.2,942.939],[8.4,964.582],[8.6,982.085],[8.8,1002.748],[9.0,1019.767],[9.2,1037.072],[9.4,1051.485],[9.6,1070.540],[9.8,1087.989],[10.0,1104.954],[10.2,1118.641],[10.4,1126.094],[10.6,1141.911],[10.8,1159.612],[11.0,1179.292],[11.2,1200.128],[11.4,1223.466],[11.6,1241.452],[11.8,1250.594],[12.0,1268.333],[12.2,1279.719],[12.4,1291.570],[12.6,1304.632],[12.8,1320.203],]