name=Kühtai  z Haiming (Austria)
slope=19.0km 7.1%
points=1472.7
region=105
description=Nawierzchnia: szosa, stan dobra. Ruch samochodowy: zmienny.
Jedna z wersji podjazdu na Kuhtai, raczej mało uczęszczana. Początek stromo, potem po dojechaniu do głównej drogi nr. 237 jest krótki zjazd po czym znowu ostro w górę do ośrodka narciarskiego. Zjazd w drugą stronę do Sellrain - super pędzicho (jakieś +90 km/h w paru miejscach). Znowu nie tak wysoko, ale naprawdę ciężko. Ruch samochodowy początkowo bardzo mały potem średni.
comments=Dnia 2015-06-27 użytkownik Lionheart33 dodał:
Od samego początku do przełęczy Silzer Sattel położonej na wysokości 1690 m.n.p.m. podjazd nie daje wytchnienia cały czas oscyluje w granicach 10-12 % Z przełęczy krótki zjazd następnie wspinaczka docelowa na Kuhtai. Krótko przed szczytem po prawej stronie mamy szmaragdowe jeziorko Speicher Langental.
author=gavia 2621
segment=0
locations=[[1,47.24244388440908,10.881882816231155],[2,47.24270490705234,10.882796817804433],[3,47.24411629245893,10.88443894263628],[4,47.2449354767429,10.886757801140789],[5,47.24654459322184,10.88778067366843],[6,47.24822762519468,10.88858946137725],[7,47.24938986863879,10.890613227363815],[8,47.24997241476962,10.893077013669426],[9,47.24906688630473,10.892099194349385],[10,47.24745461713639,10.891555857715616],[11,47.24567594889584,10.891582986831281],[12,47.2440526994409,10.892100690405982],[13,47.24474621433948,10.89345908618759],[14,47.24599324547462,10.895333857123433],[15,47.24717394553517,10.897310379645887],[16,47.24766204184016,10.899731492427463],[17,47.24739725164313,10.902062366965424],[18,47.2467392162139,10.900110907154613],[19,47.24630373828771,10.90156970536998],[20,47.2456889247045,10.903799570171032],[21,47.24529580799678,10.905367484440603],[22,47.24428877262533,10.903239464392072],[23,47.24341664731861,10.900905783618668],[24,47.24232268096024,10.898792680890779],[25,47.24116757871879,10.89681469733614],[26,47.24140269575621,10.899341393478153],[27,47.24168649687061,10.90197032638855],[28,47.2417014779039,10.904631519683107],[29,47.24149371546337,10.90723393251153],[30,47.24171391022525,10.908934204799607],[31,47.24067455485446,10.90675365384061],[32,47.23992145988414,10.904360086224301],[33,47.23901250915878,10.902069184445736],[34,47.23732838851852,10.902010793696377],[35,47.23631914191464,10.90297941712447],[36,47.23695787415512,10.905387796313107],[37,47.23744883958287,10.907705453615677],[38,47.23794654095786,10.910249545355782],[39,47.23826899412241,10.912852030987779],[40,47.23917959717145,10.915075619452637],[41,47.23960824601374,10.917567453343281],[42,47.23943557364098,10.920205226271946],[43,47.23791846192876,10.921267692104266],[44,47.23655894069986,10.922625425727006],[45,47.23494785696819,10.923706786062553],[46,47.23342019218158,10.924947055310781],[47,47.23209707744794,10.926641294950514],[48,47.2308224406336,10.927072605344279],[49,47.23076675382199,10.92446711215257],[50,47.23022632435314,10.925110724371507],[51,47.22940959235716,10.927488907172346],[52,47.22904903638978,10.930029801735827],[53,47.22939745325496,10.932508512051754],[54,47.22975464979023,10.935113643491036],[55,47.22981137043408,10.937761874405055],[56,47.22967052004629,10.940341093017878],[57,47.22864697337546,10.94186018789901],[58,47.22879070483853,10.94450843445577],[59,47.22953092420779,10.946882748744656],[60,47.22987294815974,10.949487240738222],[61,47.22985921763668,10.952143331104253],[62,47.22956792309185,10.954717559102619],[63,47.22925293062069,10.957315637667307],[64,47.22881243505243,10.959722742355325],[65,47.22763806284493,10.961614830105532],[66,47.2275120543982,10.964210128042623],[67,47.22685351807579,10.966684742380266],[68,47.22617928589345,10.969157197341929],[69,47.22554166115555,10.971526501863423],[70,47.22553607621904,10.973969890418743],[71,47.22520255162661,10.976555272431028],[72,47.22442650126008,10.97885832964107],[73,47.22364978257148,10.981187174223578],[74,47.22247316088612,10.983186051656503],[75,47.22126519324365,10.985153972823468],[76,47.21973469640727,10.985994696384523],[77,47.21897741039123,10.986288786770046],[78,47.21900036298666,10.988749382924652],[79,47.21749140710421,10.990009970413439],[80,47.21715439960069,10.992615633311402],[81,47.21577577483809,10.99409550888231],[82,47.21493168767549,10.996321573219575],[83,47.21386468115045,10.998005531472927],[84,47.21466502349989,10.999302052846247],[85,47.21345716560978,11.0012875585536],[86,47.21258624819785,11.003624596092777],[87,47.21106484684437,11.004856591768089],[88,47.21035143705082,11.007094197054812],[89,47.21148820855961,11.00846241249883],[90,47.21145795646333,11.011079334672445],[91,47.21226918875491,11.013461551725072],[92,47.21236297109458,11.016109592343014],[93,47.21282844912194,11.018684827226025],[94,47.21357341190549,11.02108637829997],]
podstawa=[[12,47.2308224406336,10.93],['start',47.2439000,10.8816100],['meta',47.2136500,11.0237300]]
daneflot=[[0.0,680.083],[0.2,694.392],[0.4,713.008],[0.6,733.378],[0.8,754.326],[1.0,773.694],[1.2,792.556],[1.4,817.217],[1.6,843.67],[1.8,870.876],[2.0,894.836],[2.2,920.248],[2.4,946.388],[2.6,969.965],[2.8,998.383],[3.0,1023.467],[3.2,1047.478],[3.4,1072.405],[3.6,1090.901],[3.8,1110.950],[4.0,1136.096],[4.2,1162.154],[4.4,1187.536],[4.6,1206.008],[4.8,1226.204],[5.0,1247.123],[5.2,1269.932],[5.4,1293.405],[5.6,1317.355],[5.8,1342.413],[6.0,1364.697],[6.2,1382.853],[6.4,1403.260],[6.6,1426.673],[6.8,1452.972],[7.0,1475.458],[7.2,1496.952],[7.4,1519.546],[7.6,1542.539],[7.8,1564.312],[8.0,1578.269],[8.2,1589.848],[8.4,1607.197],[8.6,1624.04],[8.8,1645.234],[9.0,1661.245],[9.2,1672.212],[9.4,1677.847],[9.6,1673.245],[9.8,1666.922],[10.0,1654.891],[10.2,1641.209],[10.4,1623.640],[10.6,1605.138],[10.8,1591.970],[11.0,1575.096],[11.2,1560.562],[11.4,1551.954],[11.6,1550.128],[11.8,1555.012],[12.0,1557.375],[12.2,1561.779],[12.4,1568.656],[12.6,1577.881],[12.8,1590.523],[13.0,1603.394],[13.2,1625.26],[13.4,1650.681],[13.6,1674.353],[13.8,1696.539],[14.0,1714.783],[14.2,1728.284],[14.4,1736.392],[14.6,1743.456],[14.8,1750.003],[15.0,1758.754],[15.2,1771.299],[15.4,1785.847],[15.6,1799.136],[15.8,1810.37],[16.0,1821.029],[16.2,1835.534],[16.4,1855.956],[16.6,1876.926],[16.8,1894.86],[17.0,1906.404],[17.2,1913.313],[17.4,1916.968],[17.6,1924.099],[17.8,1934.204],[18.0,1944.12],[18.2,1955.872],[18.4,1970.369],[18.6,1989.344],[18.8,2010.594],[19.0,2019.945],]