name=Tokarne ze Skawicy
slope=5.0km 5.7%
points=232.6
region=17
description=Nawierzchnia: szosa, stan początek - fatalny, 2-ga część - bardzo dobry. Ruch samochodowy: minimalny.
Początek pokrywa się z podjazdem do Suchej Góry, odbijamy w prawo przy przystanku. Odtąd jest już bardziej stromo, podjazd prowadzi zakrętami, które mogą zaskoczyć na zjeździe. Asfalt od rozwidlenia jest dobrej jakości, podjazd zakończyłem w miejscu gdzie droga nie nadaje się już za bardzo do jazdy.
comments=
author=Greek
segment=0
locations=[[1,49.67521232880647,19.624272661989266],[2,49.67359495064283,19.625311200797228],[3,49.67188744058883,19.62595150932259],[4,49.67047150191893,19.627567365028426],[5,49.6688211799447,19.628514726155345],[6,49.66712635931723,19.629246448330377],[7,49.66538833750526,19.62952150111107],[8,49.66364607246339,19.629310000000032],[9,49.66188273245592,19.629347258240728],[10,49.66014015947327,19.62937583139751],[11,49.65838689510547,19.629460385953166],[12,49.6566359312391,19.62968607868106],[13,49.65505196800613,19.630612045546513],[14,49.65369600036004,19.632321301007664],[15,49.65241902178653,19.63407309783213],[16,49.65086174081765,19.632975800881013],[17,49.64932530286833,19.63164679450847],[18,49.64819162863979,19.62969174651846],[19,49.6469935811449,19.627767610429828],[20,49.64542936042252,19.62682262354997],[21,49.64588012031644,19.624426500142704],[22,49.64537908509272,19.621976942522565],[23,49.64589983200906,19.619694261705945],[24,49.64756924102253,19.619538966094638],]
podstawa=[[13,49.664,19.630612045546513],['start',49.6768500,19.6233200],['meta',49.6475900,19.6171500]]
daneflot=[[0.0,453.957],[0.2,460.996],[0.4,469.318],[0.6,477.289],[0.8,485.627],[1.0,494.428],[1.2,501.344],[1.4,508.096],[1.6,514.746],[1.8,526.402],[2.0,533.386],[2.2,551.034],[2.4,569.155],[2.6,569.531],[2.8,574.356],[3.0,579.375],[3.2,589.042],[3.4,602.234],[3.6,623.523],[3.8,622.592],[4.0,643.338],[4.2,662.916],[4.4,689.235],[4.6,713.509],[4.8,714.777],[5.0,736.905],]