name=Rozdroże pod Gromnikiem od Białego Kościoła
slope=6.6km 2.8%
points=100
region=39
description=Nawierzchnia: szosa+szuter, zły
Wydaje mi się, że trudniejsza wersja podjazdu pod Gromnik. Można zacząć od samej stacji kolejowej w Białym Kościele. Początek z nawierzchnią przyzwoitą, później fragment wspólny z drugą wersją, więc nawierzchnia bardzo zła.
 Ruch mały na początku, pod sam koniec minimalny.
comments=
author=Fibiusz
segment=0
locations=[[1,50.72286093095648,17.042584280961364],[2,50.72281664458585,17.04547892955327],[3,50.7229858897651,17.04836230104729],[4,50.72317000056708,17.051243002764068],[5,50.72363731260467,17.053817748310166],[6,50.72389846684895,17.05667878838881],[7,50.72413670404664,17.059549254320814],[8,50.72444134603876,17.062405155613533],[9,50.72463297630306,17.065269850809045],[10,50.72341604873846,17.0674173729559],[11,50.72178146122763,17.068718883803513],[12,50.7209442908759,17.07124406015464],[13,50.71996349329812,17.073651949602436],[14,50.71830694351422,17.074160805010933],[15,50.71658544249941,17.0749159289918],[16,50.71505267062872,17.076500986386122],[17,50.71390571820419,17.078612838232857],[18,50.71341311024555,17.08139435017688],[19,50.71257157130178,17.083964343399657],[20,50.71216193665591,17.08678021132073],[21,50.71060560070116,17.087369600745888],[22,50.70886065239989,17.08659326096415],[23,50.70702955122006,17.08673719173737],[24,50.70538195044767,17.087766825241715],[25,50.70392433866327,17.08952282992584],[26,50.70244206448866,17.091220348429488],[27,50.70067477304919,17.09188479201441],[28,50.69914314395997,17.093474833305663],[29,50.69785166687885,17.09547666694209],[30,50.69669732713386,17.09736178903563],[31,50.6967711493833,17.100135444675516],[32,50.69823241982613,17.10175386150229],]
podstawa=[[12,50.71390571820419,17.078612838232857],['start',50.7229800,17.0397100],['meta',50.6997200,17.1034300]]
daneflot=[[0.0,175.753],[0.2,180.550],[0.4,178.266],[0.6,177.919],[0.8,182.328],[1.0,180.376],[1.2,177.031],[1.4,180.526],[1.6,183.987],[1.8,188.101],[2.0,195.317],[2.2,199.052],[2.4,201.126],[2.6,209.353],[2.8,222.796],[3.0,228.735],[3.2,227.887],[3.4,225.347],[3.6,225.115],[3.8,228.366],[4.0,234.671],[4.2,238.023],[4.4,246.607],[4.6,257.803],[4.8,270.200],[5.0,276.894],[5.2,286.198],[5.4,293.385],[5.6,308.845],[5.8,324.099],[6.0,339.149],[6.2,352.639],[6.4,362.339],[6.6,362.052],]