name=Vyšné Hágy  z Mengusovce (Słowacja)
slope=5.6km 5.2%
points=188
region=24
description=Nawierzchnia: szosa, stan dobry. Ruch samochodowy: średni.
Droga do osiedla o charakterze uzdrowiskowym położonym przy trasie Łysa Polana (granica państwa) - Szczyrbskie Jezioro. Jazdy nie ułatwiają długie odcinki prostych. Wielkie walory widokowe.
comments=Dnia 2015-05-04 użytkownik Kuba dodał:
Ale to nie jest koniec podjazdu ! Można jechać wyżej do Popradzkiego lub Szczyrbskiego Plesa.
author=jeżnarowerze
segment=0
locations=[[1,49.07660627601818,20.14309013415709],[2,49.07841991100487,20.14285140756624],[3,49.08023556984577,20.14265154460793],[4,49.08205103723753,20.142447614996513],[5,49.08386726157925,20.14226076599266],[6,49.08568291727169,20.142061393224367],[7,49.08749817755125,20.141853187584047],[8,49.08931343745631,20.14164496671947],[9,49.09112949583001,20.1414553428217],[10,49.09294698413871,20.141303311582078],[11,49.09476452579854,20.14115699105855],[12,49.09658309158026,20.14103309317818],[13,49.09840165722939,20.140909186219005],[14,49.10020645373769,20.14111014877244],[15,49.10183413201648,20.14234726991208],[16,49.10359402764887,20.142858409150335],[17,49.1054020102703,20.142550704409018],[18,49.10702412395215,20.14139114124862],[19,49.10849474390638,20.139752735066054],[20,49.10997110009862,20.138125898615726],[21,49.11140708773925,20.136420013801853],[22,49.11276614768933,20.134572315987384],[23,49.11427515987148,20.13303555315747],[24,49.1160578882799,20.132554894628925],[25,49.11786554817632,20.132246910359754],[26,49.11834224743425,20.129844205535505],[27,49.11802605493483,20.127616557939064],]
podstawa=[[12,49.10183413201648,20.14234726991208],['start',49.0747900,20.1432500],['meta',49.1173100,20.1259200]]
daneflot=[[0.0,801.784],[0.2,803.490],[0.4,806.322],[0.6,810.038],[0.8,813.352],[1.0,816.563],[1.2,820.411],[1.4,824.746],[1.6,832.875],[1.8,842.415],[2.0,855.007],[2.2,871.461],[2.4,888.143],[2.6,898.617],[2.8,910.364],[3.0,914.707],[3.2,928.031],[3.4,944.266],[3.6,955.590],[3.8,972.042],[4.0,990.942],[4.2,1009.546],[4.4,1023.324],[4.6,1035.302],[4.8,1048.868],[5.0,1059.924],[5.2,1073.561],[5.4,1083.144],[5.6,1092.820],]