name=Zielona Góra (Kisielińska)
slope=1.1km 3.1%
points=11.8
region=49
description=Nawierzchnia: szosa, stan dobry. Ruch samochodowy: średni.
Podjazd z przystanku na oś Pomorskim na Lotnik
comments=
author=Rico
segment=0
locations=[[1,51.93861500487074,15.55173684282056],[2,51.93854999034384,15.550223690026087],[3,51.93848495641936,15.54871054161788],[4,51.93846570292852,15.547195177768344],[5,51.93847425605999,15.545678422230708],[6,51.93848219528687,15.544161657280256],[7,51.9384901150234,15.542644891793543],[8,51.93849801526957,15.541128125772047],[9,51.93850589602536,15.539611359217133],[10,51.93855844958438,15.538100853895799],]
podstawa=[[14,51.93848219528687,15.544161657280256],['start',51.9386800,15.5532500],['meta',51.9388300,15.5366500]]
daneflot=[[0.0,142.669],[0.1,144.296],[0.2,148.340],[0.3,149.901],[0.4,154.385],[0.5,157.850],[0.6,159.174],[0.7,162.801],[0.8,166.390],[0.9,169.019],[1.0,172.018],[1.1,176.596],]