name=Pod Kamiennik od Lipnika
slope=4.0km 5.0%
points=123.8
region=29
description=Nawierzchnia: szosa, stan dobry. Ruch samochodowy: minimalny.
Z początku, jadąc przez Lipnik, nachylenie jest nieduże, a podjazd nie sprawia trudności. Po skręcie w prawo zaczyna się właściwa wspinaczka. Nie jest to odcinek bardzo trudny, ale na pewno cięższy niż początek. Należy uważać, gdyż jest wiele zakrętów, a droga to typowa boczna wiejska dróżka, więc może się zdarzyć niebezpieczna sytuacja z jakimś samochodem z naprzeciwka. Stan nawierzchni jest dobry, choć znajdzie się tam sporo brudu. Zjazd w stronę Zasania - niepolecany. Jest tam odcinek z ogromnymi kraterami, co czyni zjazd katorgą.
comments=
author=Greek
segment=2294937
locations=[[1,49.79893833099128,20.09458623313583],[2,49.79741708151586,20.09324982983287],[3,49.79573057577837,20.092474307994053],[4,49.79402752291197,20.091843267474246],[5,49.79264735774573,20.090298496641026],[6,49.79131945245015,20.08854624098103],[7,49.78987755846315,20.08708275666288],[8,49.78892443094099,20.08479653162999],[9,49.78774272734292,20.082776822759],[10,49.78782443914108,20.080265590900126],[11,49.78820719186736,20.077738909544223],[12,49.78915157615626,20.07546251812971],[13,49.79053841288601,20.07379175418714],[14,49.79160676870982,20.071647218454245],[15,49.79298961123197,20.070718598626286],[16,49.79409427061297,20.068608900653885],[17,49.79529870934217,20.06680578801206],[18,49.79664249898686,20.065070920261974],[19,49.79814469234568,20.063692592323605],]
podstawa=[[13,49.78820719186736,20.077738909544223],['start',49.8003300,20.0955900],['meta',49.7988000,20.0614300]]
daneflot=[[0.0,364.017],[0.2,368.192],[0.4,374.828],[0.6,380.636],[0.8,387.766],[1.0,395.862],[1.2,403.078],[1.4,410.366],[1.6,417.562],[1.8,428.335],[2.0,435.772],[2.2,447.826],[2.4,462.501],[2.6,478.351],[2.8,488.898],[3.0,493.241],[3.2,514.124],[3.4,531.979],[3.6,546.788],[3.8,546.821],[4.0,562.098],]