name=Zielona Góra (Waryńskiego)
slope=1.0km 3.3%
points=14.2
region=49
description=Nawierzchnia: szosa, stan dobry. Ruch samochodowy: duży.
Od Elektronika ul. Staszica do ul. Podgórnej
comments=
author=Rico
segment=0
locations=[[1,51.94628765401207,15.51974245458382],[2,51.94547594832758,15.520192894217644],[3,51.94466017001859,15.520624915125381],[4,51.94383267102869,15.520970211387635],[5,51.94305390323758,15.521536096840578],[6,51.9423854209913,15.522407879618413],[7,51.94168389859234,15.523208811685095],[8,51.94092642000131,15.523852045978515],[9,51.94009614758239,15.524198585063118],]
podstawa=[[14,51.9423854209913,15.522407879618413],['start',51.9471000,15.5193100],['meta',51.9392400,15.5242600]]
daneflot=[[0.0,133.105],[0.1,135.208],[0.2,136.916],[0.3,141.633],[0.4,148.554],[0.5,153.835],[0.6,156.692],[0.7,157.266],[0.8,158.973],[0.9,162.824],[1.0,165.998],]