name=Starogród
slope=2.0km 3.2%
points=37.4
region=76
description=Nawierzchnia: szosa, stan dobry. Ruch samochodowy: średni.
Podjazd znajduje się w zalesionej części które przesłaniają widoki, ale można w trakcie podjazdu skręcić na Starogród gdzie znajduje się punkt widokowy.
comments=
author=blazej.r
segment=0
locations=[[1,53.31341502619095,18.373886473493712],[2,53.31393834128971,18.375048589069593],[3,53.31469956731603,18.375930938042075],[4,53.31550158221718,18.376704652453554],[5,53.31634051291179,18.37736011146262],[6,53.31724222210843,18.3776977434826],[7,53.31815039562277,18.37800070934827],[8,53.31876597860068,18.37906490941009],[9,53.31869858009491,18.38054617706439],[10,53.31832214946859,18.381961708264612],[11,53.31759839754778,18.382886243674193],[12,53.31720217113806,18.384249374501223],[13,53.3175907022109,18.38558424202688],[14,53.31826724688576,18.38663898132768],[15,53.31898850190147,18.387610930491974],[16,53.31928164471156,18.38893812523827],[17,53.31893395771105,18.39036459279464],[18,53.31937111026132,18.391705958660623],[19,53.31990310550619,18.39297500182056],]
podstawa=[[14,53.31759839754778,18.382886243674193],['start',53.3129800,18.3726600],['meta',53.3204300,18.3942500]]
daneflot=[[0.0,23.903],[0.1,27.194],[0.2,30.997],[0.3,37.721],[0.4,38.254],[0.5,41.340],[0.6,42.090],[0.7,39.893],[0.8,42.116],[0.9,52.778],[1.0,58.454],[1.1,60.447],[1.2,60.367],[1.3,60.971],[1.4,67.172],[1.5,73.983],[1.6,79.000],[1.7,83.584],[1.8,83.868],[1.9,86.261],[2.0,87.000],]