name=Gwoźnica Dolna
slope=2.6km 5.7%
points=123.8
region=47
description=Nawierzchnia: szosa, stan dobry. Ruch samochodowy: minimalny.
Kolejna alternatywa podjazdu w stronę Blizianki. Często tutaj odbywa się tutaj Rajd Rzeszowski. Początkowo płasko. Na skrzyżowaniu musimy uważać na drobne kamyczki pośrodku drogi. Skręcamy w lewo i czeka nas półkilometrowy bardzo stromy odcinek. Dalsza część podjazdu jest już dość łagodna, a sama końcówka prawie po płaskim.
comments=
author=Beymont
segment=0
locations=[[1,49.84153332986069,21.975185792806087],[2,49.84232301342319,21.975846540116095],[3,49.84303541309291,21.976692319649374],[4,49.84380250587586,21.977398512429545],[5,49.8446024510159,21.977621801237547],[6,49.84523944615627,21.976645514394477],[7,49.84609419328278,21.97635354867748],[8,49.84688314873983,21.975729711858776],[9,49.84755058027919,21.974814676705137],[10,49.84823198384949,21.97394090174771],[11,49.84909119134685,21.974218287828535],[12,49.84996201696435,21.973883629618626],[13,49.85074322411918,21.97322345372936],[14,49.85159038993172,21.972927968634394],[15,49.85246417681013,21.972783716054323],[16,49.85329808174724,21.972657754714874],[17,49.85412775028477,21.973185769645397],[18,49.85493374929664,21.973786901191147],[19,49.85579826178006,21.973969347830234],[20,49.85667260562737,21.97408031047496],[21,49.85750166914995,21.974577157260683],[22,49.85822245868361,21.975358655627588],[23,49.85911229079428,21.975316360357624],[24,49.86000410235579,21.975308927691344],[25,49.86077423990117,21.974598975636354],]
podstawa=[[13,49.85159038993172,21.972927968634394],['start',49.8407900,21.9747000],['meta',49.8615400,21.9738800]]
daneflot=[[0.0,306.890],[0.1,310.033],[0.2,314.185],[0.3,317.800],[0.4,318.653],[0.5,321.317],[0.6,327.168],[0.7,340.432],[0.8,351.843],[0.9,363.959],[1.0,378.618],[1.1,380.073],[1.2,380.897],[1.3,387.964],[1.4,393.666],[1.5,398.249],[1.6,405.626],[1.7,410.425],[1.8,415.621],[1.9,423.422],[2.0,430.491],[2.1,429.496],[2.2,436.265],[2.3,442.271],[2.4,450.437],[2.5,453.762],[2.6,455.143],]