name=Cisownik z Miedzierzy
slope=2.3km 3.1%
points=27.1
region=66
description=Nawierzchnia: szosa, stan dobry. Ruch samochodowy: minimalny.
Krótki podjazd, prowadzący przez las. Bardzo dobra jakość asfaltu i mały ruch na drodze.
comments=
author=arturc
segment=0
locations=[[1,51.07998629368393,20.396919572926436],[2,51.08034257273738,20.39822916602293],[3,51.08069883715996,20.399538779289514],[4,51.08105508695123,20.400848412725736],[5,51.08142239566302,20.40215028192472],[6,51.08179052255726,20.403451586495294],[7,51.08219977079304,20.404719950246204],[8,51.08269672587441,20.405902106141298],[9,51.08339356771607,20.40679233933031],[10,51.08413485582197,20.40759491214419],[11,51.08488251188785,20.408382594172394],[12,51.08563016266084,20.409170301663835],[13,51.08637780814065,20.40995803461965],[14,51.08702233134759,20.410935230598398],[15,51.08751790808711,20.412124561315295],[16,51.08801244353,20.413315131138916],[17,51.08856507636581,20.4144334348274],[18,51.08929223751933,20.41526137532071],[19,51.08990208989433,20.41621985088466],[20,51.09019435355427,20.41756883891162],[21,51.09040770273315,20.41895089608704],[22,51.09044679850528,20.420373207873695],]
podstawa=[[14,51.08563016266084,20.409170301663835],['start',51.0796300,20.3956100],['meta',51.0904200,20.4218000]]
daneflot=[[0.0,238.260],[0.1,239.622],[0.2,240.934],[0.3,242.635],[0.4,246.226],[0.5,250.078],[0.6,251.499],[0.7,252.164],[0.8,252.569],[0.9,253.319],[1.0,256.092],[1.1,260.228],[1.2,264.701],[1.3,267.145],[1.4,270.027],[1.5,273.902],[1.6,278.022],[1.7,282.789],[1.8,285.933],[1.9,289.676],[2.0,294.579],[2.1,299.557],[2.2,304.925],[2.3,309.145],]