name=Bystra
slope=0.8km 10.4%
points=90.2
region=44
description=Nawierzchnia: szosa, stan dobry. Ruch samochodowy: minimalny.
Stosunkowo krótka ale sztywna sztajfa.
comments=
author=Rich Perthes Bumblebee
segment=0
locations=[[1,49.65945850050586,21.090082159407984],[2,49.66013897683008,21.09101146021203],[3,49.66082330887664,21.091934441378044],[4,49.66158066862137,21.09270811780516],[5,49.66242110143437,21.093231795207316],[6,49.66328821573905,21.09364974026937],[7,49.66414538676766,21.094102404390014],]
podstawa=[[15,49.66242110143437,21.093231795207316],['start',49.6588500,21.0892300],['meta',49.6650400,21.0940000]]
daneflot=[[0.0,379.894],[0.1,387.773],[0.2,398.972],[0.3,411.029],[0.4,421.888],[0.5,435.334],[0.6,447.315],[0.7,456.933],[0.8,462.739],]