name=Kruklanki
slope=0.5km 4.0%
points=9.7
region=93
description=Nawierzchnia: szosa, stan dobry. Ruch samochodowy: minimalny.
Podjazd pomiędzy domami. Wnętrze miasteczka
comments=
author=szem
segment=0
locations=[[1,54.08849803211261,21.92121652699541],[2,54.08820857679673,21.920013693752935],[3,54.08819716122377,21.918721936883912],[4,54.08846116427965,21.917505297797106],]
podstawa=[[15,54.08819716122377,21.918721936883912],['start',54.0884200,21.9224800],['meta',54.0887200,21.9162900]]
daneflot=[[0.0,129.000],[0.1,130.914],[0.2,133.996],[0.3,140.676],[0.4,145.989],[0.5,149.319],]