name=Sopot
slope=3.2km 3.4%
points=47.7
region=90
description=Nawierzchnia: szosa, stan dobry. Ruch samochodowy: minimalny.
Popularny podjazd w Trójmiejskim Parku Krajobrazowym. Minimalny ruch samochodowy sprawia, że jest bardzo lubiany przez trójmiejskich kolarzy.
comments=
author=dywyn
segment=746404
locations=[[1,54.4309671098395,18.55859122453876],[2,54.43066193193355,18.557196272209694],[3,54.43063292562617,18.55567353045319],[4,54.43065000018205,18.554150531656205],[5,54.43076267597866,18.552645396730895],[6,54.43095930317892,18.55115980301673],[7,54.43115785982814,18.549674987045705],[8,54.43143694404663,18.548237802793665],[9,54.43187009579409,18.546911314949398],[10,54.43233296691646,18.545612026622166],[11,54.43277762468976,18.54429411429976],[12,54.43325466474664,18.543011249627625],[13,54.43375367111721,18.54175207222761],[14,54.43425629174481,18.540497161859776],[15,54.43476305156005,18.539247140116004],[16,54.43519354059195,18.537918849144944],[17,54.43527621642021,18.53642940714326],[18,54.43523729587822,18.53490714780287],[19,54.43520257809639,18.53338462999136],[20,54.43518346100667,18.531861574914046],[21,54.43530820172746,18.53035895714015],[22,54.43560864899296,18.528932262704757],[23,54.43597147278636,18.527542061695044],[24,54.43633428062046,18.52615183606008],[25,54.4364593149698,18.52471354096849],[26,54.43613185521406,18.523329845769354],[27,54.43568065111714,18.52202639916311],[28,54.43540554308645,18.520580343777056],[29,54.4354293991466,18.519098487584415],[30,54.4356810532091,18.51764307927374],[31,54.43587439079669,18.516159449455472],]
podstawa=[[13,54.43527621642021,18.53642940714326],['start',54.4313300,18.5599800],['meta',54.4356400,18.5147900]]
daneflot=[[0.0,25.924],[0.1,29.946],[0.2,33.885],[0.3,37.712],[0.4,41.188],[0.5,45.732],[0.6,50.285],[0.7,52.245],[0.8,57.140],[0.9,60.945],[1.0,64.321],[1.1,67.983],[1.2,69.799],[1.3,71.943],[1.4,73.125],[1.5,74.349],[1.6,73.589],[1.7,73.022],[1.8,76.868],[1.9,79.758],[2.0,83.057],[2.1,85.578],[2.2,88.918],[2.3,93.534],[2.4,97.347],[2.5,99.393],[2.6,106.918],[2.7,117.030],[2.8,121.412],[2.9,125.285],[3.0,128.115],[3.1,128.961],[3.2,131.672],]