name=Swoszowice od północy
slope=1.7km 5.1%
points=51.3
region=41
description=Nawierzchnia: szosa, stan średni. Ruch samochodowy: minimalny.
Pierwsza faza podjazdu to najlepszy odcinek asfaltu, potem zaczyna się małe wyzwanie.
Na samej górze wzniesienia stroma ścianka, ale do przejechania dla każdego.
comments=
author=???
segment=0
locations=[[1,50.00142910024686,19.957616703561484],[2,50.00055474971156,19.95794570948283],[3,49.99966329364907,19.95794220286757],[4,49.99878120337435,19.957915127954948],[5,49.99789070329506,19.958127929740044],[6,49.99699452086729,19.958290423325252],[7,49.99636803524353,19.959225763857376],[8,49.99555071246805,19.959793820961522],[9,49.99485497853218,19.96068550745997],[10,49.99420903875181,19.961651745447398],[11,49.99358417609995,19.96265976563143],[12,49.99283996814254,19.963456505795193],[13,49.99204762307277,19.96306394607359],[14,49.99126123022814,19.96247273812878],[15,49.99036422140211,19.96234212931097],[16,49.9894647601418,19.96227231913042],]
podstawa=[[14,49.998,19.96068550745997],['start',50.0023200,19.9574800],['meta',49.9885900,19.9625500]]
daneflot=[[0.0,229.843],[0.1,232.896],[0.2,235.848],[0.3,243.069],[0.4,248.810],[0.5,251.752],[0.6,254.831],[0.7,256.673],[0.8,261.119],[0.9,264.964],[1.0,270.460],[1.1,277.725],[1.2,281.994],[1.3,290.171],[1.4,300.027],[1.5,306.221],[1.6,312.486],[1.7,315.571],]