name=Dolina Maskawy
slope=0.8km 2.1%
points=4.5
region=72
description=Nawierzchnia: szosa, stan średni. Ruch samochodowy: mały.
Łatwy, do łyknięcia nawet z blatu, nieco dłuższy.
comments=
author=?
segment=0
locations=[[1,52.19846158889317,17.36851713726105],[2,52.19922317424636,17.36916429670009],[3,52.19998475605939,17.36981147831864],[4,52.20074633433204,17.370458682117714],[5,52.20150790906406,17.371105908098798],[6,52.20226948025525,17.371753156262912],[7,52.2030310479054,17.372400426611534],]
podstawa=[[15,52.20150790906406,17.371105908098798],['start',52.1977000,17.3678700],['meta',52.2037600,17.3730800]]
daneflot=[[0.0,68.615],[0.1,71.039],[0.2,73.005],[0.3,75.934],[0.4,79.627],[0.5,82.890],[0.6,84.000],[0.7,84.498],[0.8,85.382],]