name=Pastewnik od Domanowa
slope=5.4km 3.3%
points=91.9
region=4
description=Nawierzchnia: szosa, stan idealny. Ruch samochodowy: mały.
Widoki w pierwszej częsci trasy reszta przez wieś. Idealnie równy asfalt na całej trasie.
comments=
author=Śmiechu
segment=0
locations=[[1,50.87075634715431,16.062918554031285],[2,50.87121186580585,16.060512536788792],[3,50.87066725440459,16.058127187068067],[4,50.87025852857603,16.055392108301476],[5,50.87017007971478,16.052576214529836],[6,50.87076426781434,16.04994409477672],[7,50.87110729187508,16.047179613405092],[8,50.87203222416775,16.044813835712148],[9,50.87266961195397,16.042190585599542],[10,50.87370934647027,16.039920166960883],[11,50.87477772693878,16.037663572569045],[12,50.87577285646098,16.035336734854923],[13,50.87655198974898,16.03279896019194],[14,50.87816107855497,16.03172647482461],[15,50.87992269277925,16.031342769285743],[16,50.88169319519223,16.03105096810532],[17,50.88345862341095,16.0311198941082],[18,50.88493006075065,16.029924168100024],[19,50.88662632971097,16.029129726746078],[20,50.88817926591167,16.027835146641337],[21,50.88989577337976,16.02725256773647],[22,50.89162370137034,16.026839999999993],[23,50.89331358487433,16.027531387346812],[24,50.89463679075179,16.02941054377527],[25,50.89566413856564,16.030890582517145],[26,50.89577300918519,16.028419643501365],]
podstawa=[[13,50.885,16.04],['start',50.8701200,16.0649900],['meta',50.8957300,16.0256000]]
daneflot=[[0.0,455.735],[0.2,457.753],[0.4,462.432],[0.6,470.048],[0.8,477.766],[1.0,481.614],[1.2,487.786],[1.4,482.310],[1.6,485.575],[1.8,483.655],[2.0,484.873],[2.2,489.024],[2.4,496.299],[2.6,496.130],[2.8,504.657],[3.0,518.455],[3.2,521.301],[3.4,536.286],[3.6,540.948],[3.8,550.974],[4.0,562.861],[4.2,577.747],[4.4,587.651],[4.6,598.253],[4.8,610.820],[5.0,621.900],[5.2,623.630],[5.4,633.061],]