name=Gozdno od Świerzawy
slope=3.5km 3.9%
points=73.8
region=37
description=Nawierzchnia: szosa, stan średni, pierwszy  1km słaby. Ruch samochodowy: minimalny.
Start  dosyć trudny nachylenie sięga 11%, po 1 kilometrze około 3-5%. Łagodniej, ale teren odkryty i często wiatr utrudnia jazdę. Na 2 kilometrze wypłaszczenie 0,7%, wjazd do lasu i znowu stromo dochodzi do 11 %. Wyjazd z lasu i łagodnie ostatnie 500 metrów około 1,7%
comments=
author=Guzi Team
segment=8349801
locations=[[1,51.01876548847911,15.888909023111523],[2,51.02029795602503,15.887646706551322],[3,51.02177011034704,15.888320218190302],[4,51.02271469113383,15.890671011197583],[5,51.02298181074767,15.893412871873693],[6,51.02305493663467,15.896171040992954],[7,51.02396335629673,15.898556172068197],[8,51.02513945818545,15.900636758329256],[9,51.02630617406619,15.902730804124076],[10,51.02748937313604,15.904801393569187],[11,51.02902709886964,15.906097305786261],[12,51.03068774293969,15.906979999999976],[13,51.03240247434464,15.907535944402866],[14,51.03406505142421,15.908451442228966],[15,51.03575927901849,15.908262368897681],[16,51.03751521770431,15.908301837863405],[17,51.03925218988259,15.907881866951243],]
podstawa=[[13,51.029,15.904801393569187],['start',51.0170500,15.8894200],['meta',51.0409800,15.9073600]]
daneflot=[[0.0,264.038],[0.2,280.333],[0.4,282.498],[0.6,294.720],[0.8,304.629],[1.0,313.983],[1.2,322.234],[1.4,331.934],[1.6,341.471],[1.8,348.364],[2.0,349.076],[2.2,348.854],[2.4,359.560],[2.6,374.605],[2.8,380.871],[3.0,392.635],[3.2,392.462],[3.4,399.024],[3.6,402.131],]