name=Leszczawa Dolna od Birczy
slope=4.6km 4.8%
points=147.6
region=48
description=Nawierzchnia: szosa, stan dobry. Ruch samochodowy: średni.
Podjazd znajdujący się na DK28 pomiędzy wsiami Bircza i Kuźmina. Podjazd wynosi podróżnych na wysokość ponad 500 m.n.p.m. Prezentowany odcinek drogi znajduje się w granicach dwóch parków krajobrazowych(Park Krajobrazowy Pogórza Przemyskiego,Park Krajobrazowy Gór Słonnych). Ze szczytu rozlega się malowniczy widok
comments=
author=dlugi73
segment=0
locations=[[1,49.66013058116405,22.432472985746017],[2,49.6585561563224,22.431036860415475],[3,49.65688651398345,22.4299285197294],[4,49.65531022816145,22.428700912323734],[5,49.65491712414006,22.426018132267473],[6,49.65345783704678,22.424513150777443],[7,49.65424409774964,22.423777951149987],[8,49.65291851550069,22.422872425740934],[9,49.65126222637979,22.421678634297223],[10,49.64953910445794,22.42087031183644],[11,49.64771051732476,22.42082000000005],[12,49.64599213392139,22.421590093609552],[13,49.64441346955233,22.4230164958758],[14,49.64275720015222,22.424118279991262],[15,49.64104969923599,22.423175444020558],[16,49.63923097009044,22.423279999999977],[17,49.63740194056103,22.423279999999977],[18,49.63559615718292,22.423679110139688],[19,49.63382521263261,22.424361308679636],[20,49.63250199107586,22.42629987848943],[21,49.63087629896823,22.427512053937562],[22,49.62927269264378,22.42884386317212],]
podstawa=[[13,49.64599213392139,22.421590093609552],['start',49.6616300,22.4340500],['meta',49.6275600,22.4297100]]
daneflot=[[0.0,303.101],[0.2,323.513],[0.4,334.056],[0.6,344.732],[0.8,350.836],[1.0,361.110],[1.2,378.550],[1.4,382.515],[1.6,402.493],[1.8,422.715],[2.0,440.448],[2.2,452.114],[2.4,458.596],[2.6,467.114],[2.8,470.274],[3.0,477.519],[3.2,486.644],[3.4,489.770],[3.6,488.732],[3.8,496.623],[4.0,507.294],[4.2,515.618],[4.4,523.841],[4.6,526.574],]