name=Bachledówka od Ratułowa
slope=2.5km 7.0%
points=192.9
region=23
description=Nawierzchnia: szosa, stan dobry. Ruch samochodowy: mały.
Jest to najkrótsza droga  na Bachledówkę od Ratułowa.  Pierwszy kilometr bardzo ciężki, potem lekkie wypłaszczenie i wspinaczka na Bachledówkę.
comments=
author=hincza
segment=0
locations=[[1,49.35099060590223,19.917245150287044],[2,49.35184864617661,19.91779905170165],[3,49.35266706978828,19.918470795147414],[4,49.35342046533211,19.91930953291171],[5,49.35418527274842,19.92012409019776],[6,49.35495262776672,19.92093262622018],[7,49.35573678088623,19.921702709715305],[8,49.35637257152884,19.922711142236494],[9,49.35676351164926,19.924006219535045],[10,49.35721934009339,19.925251886840215],[11,49.35764767766044,19.926518924980655],[12,49.35840715479874,19.927161754525628],[13,49.35932859296779,19.927363983219948],[14,49.36025414462199,19.927513540052246],[15,49.36118116239955,19.927643492471248],[16,49.36210611122336,19.927790444442053],[17,49.36301907292128,19.927758296148454],[18,49.36394845579036,19.9276809939239],[19,49.3647025194171,19.926906496886204],[20,49.36543280277915,19.926020113781078],[21,49.3661595148675,19.925126830957197],[22,49.36696620301294,19.924419326414977],[23,49.36781072163174,19.92381924831352],[24,49.36865300177359,19.923250000000053],]
podstawa=[[13,49.35932859296779,19.927363983219948],['start',49.3501600,19.9166400],['meta',49.3695800,19.9231400]]
daneflot=[[0.0,780.957],[0.1,788.416],[0.2,801.065],[0.3,816.106],[0.4,830.318],[0.5,842.719],[0.6,857.780],[0.7,868.333],[0.8,875.959],[0.9,884.193],[1.0,889.943],[1.1,893.097],[1.2,889.728],[1.3,884.421],[1.4,887.353],[1.5,888.177],[1.6,888.930],[1.7,890.950],[1.8,895.037],[1.9,903.360],[2.0,911.327],[2.1,918.829],[2.2,933.161],[2.3,944.348],[2.4,951.975],[2.5,956.103],]