name=Pod Kopiec  z Wojakowej
slope=3.2km 6.8%
points=206.7
region=29
description=Nawierzchnia: szosa, stan dobry. Ruch samochodowy: minimalny.
Solidny i wymagający podjazd, z licznymi nasileniami pochyleń, pod wzgórze Kopiec. Droga stabilna i spokojna, z pojawiającym się gdzieniegdzie żwirkiem - i choć wąska, nieźle nadająca się również do zjazdu, ponieważ główny ruch na przełęcz prowadzi przez Drużków. Początkowo, przed odbiciem na zbocze, ruch średni.
comments=
author=airstreeem20
segment=0
locations=[[1,49.80446907183231,20.558700954391952],[2,49.80461665181042,20.556054026067613],[3,49.80334104680886,20.555014376988993],[4,49.80212821200961,20.553127931922177],[5,49.80154805221182,20.550731415697783],[6,49.80128267550673,20.548089358130028],[7,49.80003210633117,20.54858477165817],[8,49.79914954085417,20.546723674597843],[9,49.79854122631038,20.54456841971944],[10,49.7974338664042,20.542974410562238],[11,49.79732185703688,20.540291003582297],[12,49.79727276241702,20.537656911883914],[13,49.79688449623736,20.53510364797785],[14,49.79562791512756,20.533307915111436],[15,49.79396622102615,20.532571234767488],]
podstawa=[[13,49.79854122631038,20.54456841971944],['start',49.8036700,20.5610300],['meta',49.7925600,20.5316000]]
daneflot=[[0.0,307.536],[0.2,317.313],[0.4,322.071],[0.6,314.961],[0.8,323.289],[1.0,331.530],[1.2,348.103],[1.4,370.279],[1.6,397.431],[1.8,417.326],[2.0,440.685],[2.2,456.184],[2.4,473.899],[2.6,493.543],[2.8,512.977],[3.0,523.094],[3.2,526.513],]