name=Gliczarów Górny z Pozawodzie
slope=4.6km 6.2%
points=273.6
region=23
description=Nawierzchnia: szosa, stan dobry. Ruch samochodowy: mały.
Ciekawy wariant podjazdu do Gliczarowa Górnego o średnim nachyleniu wiekszym niż  trasa, której używa TdP. Pierwsze 2 km o średnim nachyleniu około 10% z fragmentami 14-16%.
comments=
author=jeżnarowerze
segment=0
locations=[[1,49.36486361231404,20.00895406999507],[2,49.36478514683702,20.011028922008677],[3,49.36413252377235,20.01364317298885],[4,49.36343616583875,20.01616479178756],[5,49.36272611728985,20.018732356188252],[6,49.36249829010562,20.02146715588674],[7,49.36199517668811,20.024156109772434],[8,49.36164956382922,20.026904372447007],[9,49.36150000153186,20.029690878136762],[10,49.36149212478219,20.032488975111164],[11,49.36112522423998,20.035196939563434],[12,49.3596639852438,20.03676677076544],[13,49.35798742632484,20.03786363459858],[14,49.35649883703931,20.039475199086155],[15,49.35503771982808,20.04114411578678],[16,49.35364136953481,20.042928913122978],[17,49.35249912443144,20.045109033740573],[18,49.35116781643382,20.047017258025903],[19,49.34999545637192,20.049112268632598],[20,49.34975952449718,20.051824767624225],[21,49.34963995663906,20.054608997628975],[22,49.34888150448753,20.057107391408067],]
podstawa=[[13,49.3596639852438,20.03676677076544],['start',49.3654100,20.0065900],['meta',49.3477900,20.0593500]]
daneflot=[[0.0,707.822],[0.2,716.117],[0.4,737.064],[0.6,760.606],[0.8,779.346],[1.0,807.372],[1.2,825.744],[1.4,843.183],[1.6,864.201],[1.8,877.948],[2.0,900.360],[2.2,905.336],[2.4,901.205],[2.6,909.087],[2.8,918.101],[3.0,912.392],[3.2,907.581],[3.4,919.210],[3.6,937.659],[3.8,961.179],[4.0,974.964],[4.2,974.979],[4.4,982.243],[4.6,992.026],]