name=Jankowo od Biskupic
slope=1.0km 2.0%
points=6.1
region=72
description=Nawierzchnia: szosa, stan średni. Ruch samochodowy: średni.
Jeden z podjazdów w dolinie Cybiny. Asfalt już dość sfatygowany.
comments=
author=mrkta
segment=0
locations=[[1,52.44892087206846,17.162860305666072],[2,52.44820761766724,17.163781005060855],[3,52.44779470917597,17.165079391195377],[4,52.44756552105637,17.16652009477923],[5,52.44684198349697,17.167336539981306],[6,52.44599983186063,17.167893650507267],[7,52.44520477007493,17.168611979299726],[8,52.44442163171729,17.16936579070375],[9,52.44361240423297,17.170030398230097],]
podstawa=[[15,52.44599983186063,17.167893650507267],['start',52.4496300,17.1619300],['meta',52.4427900,17.1696900]]
daneflot=[[0.0,75.492],[0.1,78.454],[0.2,83.555],[0.3,87.000],[0.4,87.388],[0.5,89.501],[0.6,91.954],[0.7,93.188],[0.8,94.275],[0.9,95.000],[1.0,95.651],]