name=Zręczyce z Gdowa
slope=1.2km 6.9%
points=87
region=42
description=Nawierzchnia: szosa, stan dobry. Ruch samochodowy: minimalny.
Krótka ścianka, już z daleka widać stromo pnącą się do góry szosę, wygląda chyba na groźniejszą niż jest w rzeczywistości.
comments=
author=Greek
segment=7065904
locations=[[1,49.89555860001314,20.215947673126607],[2,49.89487271523301,20.21683738726813],[3,49.89426772161968,20.21779344944457],[4,49.8934239551654,20.218213671744593],[5,49.89289448170792,20.21932098075945],[6,49.89211901420448,20.220013054918695],[7,49.89131019644674,20.220611882153207],[8,49.89042984283127,20.22045722973121],[9,49.88957249467044,20.22005506406981],[10,49.88872534429922,20.219611918008013],[11,49.88784874900455,20.21936847099812],]
podstawa=[[15,49.892,20.220611882153207],['start',49.8962600,20.2150800],['meta',49.8873400,20.2182500]]
daneflot=[[0.0,219.065],[0.1,220.313],[0.2,227.668],[0.3,241.835],[0.4,257.280],[0.5,270.894],[0.6,278.136],[0.7,276.825],[0.8,281.278],[0.9,287.487],[1.0,294.570],[1.1,298.945],[1.2,302.087],]