name=Kolbark
slope=3.8km 1.8%
points=42.7
region=61
description=Nawierzchnia: szosa, stan dobry. Ruch samochodowy: mały.
Podjazd spokojną trasą. W Kolbarku skręcamy w prawo w ulicę Źródlaną lub Słoneczną. Źródlana jest nieco bardziej stroma (~10%) a Słoneczna spokojniejsza, mniej domów.
comments=Dnia 2015-02-15 użytkownik xtnt dodał:
Końcówka ma pewno ok 11-12%. a może i chwilowo więcej. Przyjadę kiedyś pomierzyć VDO M4. Ogólnie bardzo fajny podjazd ze względu na rewelacyjne widoki i to w dwie strony.
author=szymek
segment=0
locations=[[1,50.35646343761793,19.636670203936205],[2,50.35768907907011,19.638667794183903],[3,50.35890362565848,19.640682016336882],[4,50.36023487042733,19.64241655845865],[5,50.36196231963518,19.641866637595058],[6,50.36367658347267,19.641188177891536],[7,50.36539591632985,19.64054471822078],[8,50.36582389569788,19.642754811150326],[9,50.36517560021422,19.645327371211124],[10,50.36504534664317,19.64808846236349],[11,50.36448139664011,19.650530577048585],[12,50.36433511178576,19.653292977011915],[13,50.36425449974406,19.65605825663488],[14,50.36431632293628,19.65882778906098],[15,50.36427134511241,19.661591042443774],[16,50.36426407264946,19.66435891565243],[17,50.36403255449919,19.666985741159692],[18,50.36385061529356,19.66972458560724],]
podstawa=[[13,50.36504534664317,19.64808846236349],['start',50.3552600,19.6346400],['meta',50.3637300,19.6724900]]
daneflot=[[0.0,337.840],[0.2,344.633],[0.4,354.202],[0.6,363.024],[0.8,363.723],[1.0,356.376],[1.2,351.267],[1.4,344.768],[1.6,348.666],[1.8,359.538],[2.0,376.954],[2.2,389.104],[2.4,393.414],[2.6,395.377],[2.8,397.379],[3.0,400.122],[3.2,403.806],[3.4,401.923],[3.6,402.557],[3.8,405.058],]