name=Hvězda  z Bukovic (Czechy)
slope=4.8km 4.4%
points=167.2
region=10
description=Nawierzchnia: szosa, stan dobry. Ruch samochodowy: mały.
Moim zdaniem najciekawszy podjazd w czeskiej części Gór Stołowych. Początkowo bardzo łagodny, wzdłuż potoku. Od wsi Hlavňov zaczyna się właściwa wspinaczka na szczyt Hvězda, na którym znajdują się m.in. barokowa kaplica MB Śnieżnej, schronisko z restauracją i... zagroda dzików. Końcowe 2 km to lekko połałdowany asfalt. Ostatni odcinek w lesie. Na zjeździe trzeba uważać na wiatr, bo najbardziej stromy odcinek jest w terenie otwartym. Ze szczytu piękny widok w kierunku północnym.
comments=
author=mrkta
segment=0
locations=[[1,50.55113015070998,16.229279026138556],[2,50.55253193729507,16.230976834771468],[3,50.55401340110147,16.23254751556169],[4,50.55531566634623,16.23449249081341],[5,50.55589772237865,16.23701299602442],[6,50.55599388761367,16.239806813874566],[7,50.55686362828781,16.24224069283298],[8,50.55824631705783,16.243963960663677],[9,50.55886946105513,16.24643043008564],[10,50.55894317866753,16.249234021883694],[11,50.55858569093844,16.251997551450245],[12,50.55761128731189,16.254111240828934],[13,50.55589866845536,16.254991018252326],[14,50.55423307609813,16.256013816886252],[15,50.55265961949085,16.25706306761913],[16,50.5539161881641,16.2583867318549],[17,50.55518018812795,16.26036657638815],[18,50.55665805539152,16.261886197511103],[19,50.55801708103179,16.26373969866711],[20,50.55962456814004,16.264974838349076],[21,50.56135709970629,16.265751614090163],[22,50.56308258980788,16.266555207346187],[23,50.56487439658811,16.266849513189754],]
podstawa=[[13,50.55589866845536,16.254991018252326],['start',50.5496500,16.2276900],['meta',50.5666600,16.2666400]]
daneflot=[[0.0,459.053],[0.2,466.961],[0.4,476.495],[0.6,486.705],[0.8,491.434],[1.0,493.976],[1.2,496.758],[1.4,491.464],[1.6,489.860],[1.8,495.050],[2.0,500.517],[2.2,503.217],[2.4,510.839],[2.6,512.735],[2.8,519.965],[3.0,519.395],[3.2,525.866],[3.4,544.452],[3.6,565.084],[3.8,583.248],[4.0,597.741],[4.2,615.990],[4.4,640.540],[4.6,664.367],[4.8,668.600],]