name=Marcinki z Mąkoszyc
slope=3.0km 1.8%
points=21.2
region=55
description=Nawierzchnia: szosa, stan dobry. Ruch samochodowy: mały.
Podjazd dość łatwy, ale ciężko o lepsze w tych rejonach. Jest trochę nierówno, brak większych dziur
comments=
author=?
segment=0
locations=[[1,51.35464879245454,17.795994465249237],[2,51.35425125420853,17.797268898598645],[3,51.35407922365759,17.79871029117021],[4,51.3539153388006,17.800157876462436],[5,51.35400168029983,17.801607397766134],[6,51.35411000139074,17.803063831992972],[7,51.35400446225731,17.804515322944553],[8,51.35390444096235,17.805971727143856],[9,51.35386495321166,17.80744154353647],[10,51.35388543624547,17.808906952443067],[11,51.3540343223147,17.81035803529153],[12,51.3542147192412,17.811800413820038],[13,51.35444647165892,17.813224030928836],[14,51.35459589923356,17.81467458417228],[15,51.3547296299294,17.816130102049215],[16,51.3548539723519,17.81758777136156],[17,51.35497829668626,17.819045448586166],[18,51.35510260293229,17.820503133721672],[19,51.3552110382437,17.821960304373192],[20,51.3550494050946,17.823408574474797],[21,51.35488939854778,17.82485730018027],[22,51.35473096187371,17.826306465573225],[23,51.35457250732214,17.8277556209423],[24,51.35443741857402,17.829210784654833],[25,51.35430431558571,17.83066645557301],[26,51.35417119455895,17.83212211803243],[27,51.35403805549394,17.83357777203173],[28,51.35390489839085,17.835033417570003],[29,51.35378774265906,17.83649173660274],]
podstawa=[[14,51.3548539723519,17.81758777136156],['start',51.3546400,17.7945300],['meta',51.3537300,17.8379600]]
daneflot=[[0.0,181.163],[0.1,183.552],[0.2,184.250],[0.3,185.200],[0.4,186.560],[0.5,187.841],[0.6,190.278],[0.7,190.598],[0.8,191.370],[0.9,192.453],[1.0,194.669],[1.1,198.737],[1.2,202.626],[1.3,207.572],[1.4,212.256],[1.5,213.729],[1.6,215.505],[1.7,217.432],[1.8,218.156],[1.9,220.615],[2.0,216.040],[2.1,210.613],[2.2,210.299],[2.3,212.551],[2.4,215.340],[2.5,217.890],[2.6,220.775],[2.7,223.298],[2.8,228.016],[2.9,233.589],[3.0,236.336],]