name=Czerna
slope=1.0km 8.2%
points=89.4
region=62
description=Nawierzchnia: szosa, stan średni. Ruch samochodowy: mały.
Podjazd pod klasztor w Czernej. Po drodze mijamy ruiny "diabelskiego mostu"
comments=
author=pon3ek
segment=0
locations=[[1,50.16194114446694,19.632499552370632],[2,50.16268835289723,19.633302605987524],[3,50.1634339376895,19.634109674753063],[4,50.16428669832401,19.634094367109924],[5,50.16518456110861,19.63408741059709],[6,50.16608237921307,19.634250000000065],[7,50.16688583158173,19.634897220571133],[8,50.16772077944412,19.635438140820725],[9,50.16861933893507,19.635423774055653],]
podstawa=[[15,50.16608237921307,19.634250000000065],['start',50.1616600,19.6315000],['meta',50.1688100,19.6340800]]
daneflot=[[0.0,307.963],[0.1,315.726],[0.2,322.403],[0.3,336.462],[0.4,343.808],[0.5,346.859],[0.6,350.840],[0.7,355.979],[0.8,365.175],[0.9,375.256],[1.0,390.288],]