name=Jarużyn
slope=1.5km 4.0%
points=34.3
region=76
description=Nawierzchnia: szosa, stan dobry. Ruch samochodowy: umiarkowany.
Jeden z ciekawszych wariantów pokonania Skarpy Wiślanej. 
Asfalt wśród lasu z umiarkowanym ruchem samochodowym.
comments=
author=M
segment=0
locations=[[1,53.17476856715891,18.16428867617742],[2,53.17517211569794,18.163231347449823],[3,53.17547879388365,18.16183501062244],[4,53.17591760734856,18.160540346500397],[5,53.17641242624842,18.159301130671338],[6,53.17690683835505,18.15806146521345],[7,53.17737468009346,18.156793386964864],[8,53.17790145959783,18.1556014709098],[9,53.17869081782505,18.154978162991597],[10,53.17953045177811,18.15460952112187],[11,53.18027218864965,18.153782770216935],[12,53.18098502903033,18.152886798435247],[13,53.18175794787171,18.152170291025072],[14,53.1826488555572,18.152129999999943],]
podstawa=[[14,53.17790145959783,18.1556014709098],['start',53.1738800,18.1641500],['meta',53.1835400,18.1520700]]
daneflot=[[0.0,45.615],[0.1,46.952],[0.2,47.995],[0.3,50.507],[0.4,54.561],[0.5,64.141],[0.6,73.302],[0.7,75.907],[0.8,77.874],[0.9,79.607],[1.0,85.997],[1.1,91.056],[1.2,96.148],[1.3,100.646],[1.4,103.692],[1.5,105.743],]