name=Mstów
slope=2.2km 3.1%
points=29.3
region=61
description=Nawierzchnia: szosa, stan dobry  . Ruch samochodowy: minimalny  .
Podjazd z Mstowa w kierunku Małus Małych
comments=
author=Parker
segment=0
locations=[[1,50.82533794778256,19.28877227924181],[2,50.82443729785689,19.28897949598513],[3,50.82354968028176,19.28932621874594],[4,50.82267231229282,19.289732449529083],[5,50.82184217373855,19.290324154726704],[6,50.82097084077911,19.289989916160607],[7,50.82007580795608,19.289709103608175],[8,50.81916608245432,19.2895668107069],[9,50.81825718814873,19.289415554555944],[10,50.81734771360924,19.289284462751766],[11,50.81643412100765,19.28926783518034],[12,50.81552204221492,19.289366092080627],[13,50.81460899106134,19.289386583682813],[14,50.81369524923285,19.289400951970492],[15,50.81279006233225,19.289579469813248],[16,50.81190042694385,19.28990911034657],[17,50.81103236314789,19.290341364307096],[18,50.81027176839221,19.291137161824736],[19,50.8097106189784,19.2922754190256],[20,50.80912765988424,19.293386541482164],[21,50.80840709784358,19.294227311627765],]
podstawa=[[13,50.81552204221492,19.289366092080627],['start',50.8262100,19.2885300],['meta',50.8075000,19.2943500]]
daneflot=[[0.0,238.016],[0.1,240.326],[0.2,243.633],[0.3,247.538],[0.4,251.252],[0.5,256.255],[0.6,263.639],[0.7,265.325],[0.8,266.120],[0.9,266.753],[1.0,267.817],[1.1,269.433],[1.2,272.064],[1.3,274.901],[1.4,277.193],[1.5,277.738],[1.6,279.552],[1.7,281.667],[1.8,283.848],[1.9,288.401],[2.0,293.233],[2.1,301.818],[2.2,304.878],]