name=Tomaszów
slope=1.7km 3.8%
points=36.9
region=65
description=Nawierzchnia: szosa, stan dobry   . Ruch samochodowy: średni  .
Niespodzianka dla jadących z Działoszyc do Pińczowa.
comments=
author=Stradovius
segment=0
locations=[[1,50.45509754343983,20.362257648476657],[2,50.45544507267189,20.363545315872898],[3,50.45587793700533,20.364739246285012],[4,50.45662853015894,20.36549025962438],[5,50.45732254175542,20.366357939248473],[6,50.45784044598636,20.36748549461504],[7,50.45824600902445,20.368730404636267],[8,50.45855977037593,20.370030105119326],[9,50.45852325323573,20.37142757548213],[10,50.45851023674034,20.37282514984804],[11,50.458533353779,20.37422333174345],[12,50.45857469063485,20.375620504026074],[13,50.45867198670057,20.377010399013784],[14,50.45877751755165,20.37839922686294],[15,50.45887561206999,20.37978935314618],[16,50.4589707205236,20.38118002664396],]
podstawa=[[15,50.45852325323573,20.37142757548213],['start',50.4547500,20.3609700],['meta',50.4590700,20.3825700]]
daneflot=[[0.0,246.912],[0.1,254.631],[0.2,265.950],[0.3,270.396],[0.4,275.165],[0.5,279.078],[0.6,278.089],[0.7,279.164],[0.8,279.818],[0.9,282.735],[1.0,287.322],[1.1,292.488],[1.2,296.025],[1.3,299.687],[1.4,305.037],[1.5,307.219],[1.6,309.294],[1.7,311.000],]