name=Słupski Młyn
slope=0.6km 7.8%
points=43.4
region=76
description=Nawierzchnia: szosa, stan dobry. Ruch samochodowy: mały.
Podjazd związany z doliną rzeki Osa na początku podjazdu jest asfalt następnie do końca podjazdu bruk.
comments=
author=Gabrych
segment=0
locations=[[1,53.48139843614135,19.03933043715938],[2,53.48127610326376,19.040920688679307],[3,53.48076629867972,19.042231906579673],[4,53.4800774788271,19.043337757270592],[5,53.48002822193129,19.04473959222173],]
podstawa=[[15,53.4800774788271,19.043337757270592],['start',53.4814500,19.0378700],['meta',53.4805300,19.0460000]]
daneflot=[[0.0,47.959],[0.1,55.554],[0.2,65.639],[0.3,72.168],[0.4,74.182],[0.5,86.429],[0.6,95.336],]