name=Chwaniów od Wojtkówki
slope=3.4km 5.8%
points=176.5
region=35
description=Nawierzchnia: szosa, stan dobry. Ruch samochodowy: mały.
Jeden z bardziej wymagających podjazdów w okolicy. Końcowa, długa prosta wiedzie w lesie i asfalt tam pozostawia dużo do życzenia(sporo dziur). Na zjeździe w kierunku Ropienki uwaga na dziury i garby na asfalcie.
comments=
author=rocks6
segment=4998456
locations=[[1,49.55807709167514,22.558560557407873],[2,49.55771780056637,22.555868976829288],[3,49.55620438200309,22.554479607369785],[4,49.55485429638216,22.55285503723212],[5,49.55447358320571,22.550167055505653],[6,49.55408101892774,22.54748195899765],[7,49.55358282617732,22.544837648429734],[8,49.55307232345884,22.542198761699865],[9,49.55229835079032,22.539767677577856],[10,49.55109839740248,22.5377277308894],[11,49.54979045961108,22.535855592866255],[12,49.54854317204967,22.53390250378584],[13,49.5474872810457,22.531681514463912],[14,49.54686078794417,22.529149369373272],[15,49.54715875444161,22.526450375020886],[16,49.54742119935747,22.523726872470775],]
podstawa=[[13,49.55229835079032,22.539767677577856],['start',49.5580200,22.5602800],['meta',49.5477100,22.5210100]]
daneflot=[[0.0,420.882],[0.2,423.784],[0.4,432.772],[0.6,439.410],[0.8,445.971],[1.0,449.412],[1.2,449.198],[1.4,454.753],[1.6,458.921],[1.8,464.403],[2.0,479.258],[2.2,500.182],[2.4,515.824],[2.6,528.205],[2.8,560.109],[3.0,586.989],[3.2,604.573],[3.4,617.017],]