name=Kobielnik z Lipnika
slope=4.0km 5.0%
points=132
region=29
description=Nawierzchnia: szosa, stan kiepski. Ruch samochodowy: minimalny.
Podjazd zaczynamy przy potoku Lipnik. Początek jest łagodny, dopiero po skręcie na Kobielnik robi się bardziej stromo. Końcówka to ścianka 10%. Stan nawierzchni raczej kiepski, choć przy podjeździe nie przeszkadza to tak bardzo.
comments=
author=Greek
segment=0
locations=[[1,49.79949875295534,20.095354436774755],[2,49.79810238288029,20.09368443122844],[3,49.79643433593647,20.09278028855863],[4,49.79472815614828,20.092006989965057],[5,49.79309490691658,20.091014840493358],[6,49.79186363075126,20.08903005435775],[7,49.79030952704428,20.087710840279442],[8,49.78928081207733,20.085512314363655],[9,49.78813426895616,20.083417090215903],[10,49.78685020310621,20.0825325502301],[11,49.78527045401326,20.083671155342813],[12,49.78353674381827,20.08427261941904],[13,49.78176143832711,20.08423227423384],[14,49.77999791158342,20.083899367015533],[15,49.77827241301674,20.084511411193603],[16,49.77660931825732,20.084459152419413],[17,49.77521762036099,20.08276564759126],[18,49.77352203426452,20.082241089580066],[19,49.77187988123917,20.081291084945974],]
podstawa=[[13,49.789,20.083671155342813],['start',49.8009900,20.0949100],['meta',49.7702600,20.0818700]]
daneflot=[[0.0,362.103],[0.2,365.889],[0.4,371.703],[0.6,378.372],[0.8,384.531],[1.0,392.988],[1.2,400.409],[1.4,407.393],[1.6,416.104],[1.8,424.890],[2.0,429.673],[2.2,433.902],[2.4,450.107],[2.6,462.773],[2.8,467.477],[3.0,478.332],[3.2,481.040],[3.4,500.800],[3.6,521.849],[3.8,543.624],[4.0,559.786],]