name=Kajetanówka z Strzyżewic
slope=1.4km 2.5%
points=10.4
region=82
description=Nawierzchnia: szosa, stan dobry. Ruch samochodowy: średni.
Podjazd ze Strzyżewic w kierunku Kajetanówki. Łagodnie pnie się pod górę. Brak pobocza, średni ruch (typowy na drogę wojewódzką).
comments=
author=Narzew
segment=0
locations=[[1,51.0518846064657,22.44617601187838],[2,51.05268606673357,22.445526006382124],[3,51.05348033637093,22.44485237821368],[4,51.05425771820625,22.44413120396507],[5,51.05508781535745,22.44357877585469],[6,51.05591555317336,22.443016260072795],[7,51.05674328828935,22.442453724179586],[8,51.05757102070519,22.441891168173697],[9,51.05840263564378,22.441343509327112],[10,51.05923786352544,22.440809712455916],[11,51.06007102578031,22.440267801578216],[12,51.0609040196988,22.43972522057777],[13,51.06173701110542,22.43918262005218],]
podstawa=[[14,51.05757102070519,22.441891168173697],['start',51.0510600,22.4467500],['meta',51.0625700,22.4386400]]
daneflot=[[0.0,195.732],[0.1,196.778],[0.2,200.922],[0.3,204.348],[0.4,206.359],[0.5,210.783],[0.6,213.121],[0.7,216.167],[0.8,219.582],[0.9,221.892],[1.0,222.284],[1.1,224.606],[1.2,226.613],[1.3,229.070],[1.4,231.104],]