name=Łagiewniki od  Bytomia
slope=1.6km 2.8%
points=15.6
region=59
description=Nawierzchnia: szosa, stan dobry. Ruch samochodowy: duży.
Na trasie widać domy mieszkalne ale również kilka zakładów pracy
comments=
author=strak
segment=0
locations=[[1,50.33459402321564,18.924817065380694],[2,50.33386803953032,18.92571410334608],[3,50.33310689229,18.926530693639506],[4,50.33223260227764,18.92698253838364],[5,50.33133379151829,18.92731901935622],[6,50.33042781364841,18.927604635695616],[7,50.32951535868668,18.92783848519298],[8,50.32859998752863,18.928042503332563],[9,50.3276831622284,18.92805924849472],[10,50.32676877159331,18.927844910064096],[11,50.32585530148362,18.9276207478448],[12,50.32493950488907,18.927422406766368],[13,50.32402838017313,18.927276882605497],[14,50.32311300251569,18.927072756003668],[15,50.32219655814131,18.92688072556882],]
podstawa=[[14,50.3295,18.92805924849472],['start',50.3353200,18.9239200],['meta',50.3212800,18.9266900]]
daneflot=[[0.0,260.917],[0.1,266.083],[0.2,269.980],[0.3,273.477],[0.4,277.852],[0.5,280.365],[0.6,282.001],[0.7,282.663],[0.8,284.951],[0.9,287.982],[1.0,291.333],[1.1,293.439],[1.2,296.928],[1.3,301.643],[1.4,304.310],[1.5,305.000],[1.6,305.669],]