name=Pont (Valsavarenche)  (Włochy)
slope=26.0km 5.0%
points=789.4
region=117
description=Nawierzchnia: szosa, stan dobry. Ruch samochodowy: mały.
Podjazd w górę doliny Valsavarenche. Nie pamiętam, żeby było jakoś stromo. Początek serpentyny, potem zakrętów już mniej, za to kilka krótkich odkrytych tuneli. Koniec podjazdu to miejscowość Pont. Niestety tutaj koniec asfaltu. Na znajdująca się po według mapy blisko Colle Nivolet  na kolarzówce z tej strony nie dojedziemy. Według opisów jest jakiś szlak ale nawet ten chyba nie do końca przejezdny. To nie jest jakiś popularny podjazd szosowy w rejonie. Większość jednak jedzie na Courmayeur, Grand Bernard, PetitBernard - co wcale nie ozmacza, że nie warto tutaj podjechać - moim zdaniem warto.
comments=
author=gavia 2621
segment=0
locations=[[1,45.69591859450351,7.195168959846228],[2,45.69594995949638,7.192791406192782],[3,45.6964908221234,7.190592877865356],[4,45.69667761124857,7.188071105792687],[5,45.69613139200459,7.185785875074089],[6,45.69560071609283,7.185581616831996],[7,45.69496071347709,7.18501312499302],[8,45.69445546062611,7.1827766717074155],[9,45.69365060099062,7.180549442864731],[10,45.69343127593139,7.178549953244556],[11,45.69317583637049,7.181029953882103],[12,45.69246784946344,7.183326286373472],[13,45.69164481813572,7.185026269065133],[14,45.69051831728837,7.186730127670444],[15,45.68935517567854,7.188619369670278],[16,45.68846541383976,7.1875072757216],[17,45.68762036591809,7.1878528271300866],[18,45.6871069429402,7.188315674919295],[19,45.68629709986513,7.187771503949648],[20,45.68528071026238,7.185826523431274],[21,45.68524601377216,7.188291975954712],[22,45.68435216319077,7.18615936276899],[23,45.68374687265796,7.183830139888414],[24,45.68367664077419,7.185738567102362],[25,45.68381872130031,7.188269130481217],[26,45.68427079240251,7.190693284574877],[27,45.68393783113738,7.191668628139496],[28,45.68328569352376,7.190779084831888],[29,45.6832334458862,7.193280866227269],[30,45.68205392671273,7.194620058313376],[31,45.68058883960071,7.195790516278635],[32,45.67899500612043,7.1967112112102996],[33,45.67743426668758,7.197587361888054],[34,45.67577599813418,7.198366531802094],[35,45.67404032039945,7.19874740208104],[36,45.67235143559942,7.199449603326684],[37,45.67067714448333,7.200284923328809],[38,45.66896309567289,7.20073546494109],[39,45.6672928547261,7.201582795991726],[40,45.66557879340964,7.202117635543118],[41,45.66381677118589,7.202281911659611],[42,45.66212166916287,7.202934985937873],[43,45.66039121941295,7.2026277224853175],[44,45.65863725388928,7.202487902551638],[45,45.65687989409563,7.202419238534162],[46,45.65512588598272,7.202370498646815],[47,45.65336673681088,7.2025387655609165],[48,45.65161067228278,7.20284742293029],[49,45.64988097018553,7.202356966119396],[50,45.64820208950836,7.201588151363467],[51,45.64661949567659,7.202111510426903],[52,45.64495635513821,7.201371632480459],[53,45.64364838417266,7.1997741410809795],[54,45.64189956885641,7.1995679033675515],[55,45.64105749466798,7.199720288615026],[56,45.64105667033317,7.2002058981852315],[57,45.63945904672326,7.1996496232196705],[58,45.63768782033593,7.199609761180909],[59,45.63597773043218,7.199178324063837],[60,45.63426253249619,7.199495407886616],[61,45.63250374813934,7.199252589723528],[62,45.6307537643704,7.199616246429741],[63,45.6289923204621,7.199864052705607],[64,45.62724167631968,7.199982606158642],[65,45.62559114575751,7.199143233889458],[66,45.62389113325439,7.199790285083623],[67,45.62214358630821,7.20021342950065],[68,45.62040826603045,7.2006715500427845],[69,45.6186804263502,7.200136424032507],[70,45.618178012425,7.200550323518655],[71,45.6179910931267,7.201729635932338],[72,45.61642753807104,7.200788829877752],[73,45.61470737865461,7.200227113622759],[74,45.61298201238117,7.20036693359134],[75,45.61122974718608,7.200162278897324],[76,45.60949812563972,7.20061596160474],[77,45.60783675195542,7.201455745538169],[78,45.60616266221182,7.2022007389247165],[79,45.60442009504766,7.202565962853669],[80,45.60272951433731,7.2032982032061454],[81,45.60140491414577,7.204826879314965],[82,45.59969042879995,7.205263652550116],[83,45.59808943482631,7.205951091031352],[84,45.59650954889135,7.2069036928445485],[85,45.59475135193909,7.206770756801006],[86,45.59336578909268,7.208296805976261],[87,45.59175080605318,7.209254975451358],[88,45.59005562889514,7.209536152955479],[89,45.58870172434058,7.20801672338132],[90,45.58700442772889,7.208054205629651],[91,45.58568097131684,7.209535848168116],[92,45.58412723632085,7.210100650536788],[93,45.58290566198286,7.211802297455961],[94,45.58122605884746,7.211261580390669],[95,45.57959995391499,7.211822819179815],[96,45.57792659002246,7.2125826821709325],[97,45.57616821847759,7.212631590529213],[98,45.57449299989933,7.211800933331006],[99,45.57285649214489,7.210835819595104],[100,45.57116675006284,7.210224492665134],[101,45.56945713389746,7.2097714487441635],[102,45.56786615762007,7.209362891232331],[103,45.56637961047981,7.2080022019739545],[104,45.56462432393669,7.207875316497962],[105,45.56290785285471,7.208300329168537],[106,45.56125848829541,7.208966619279636],[107,45.55964086343063,7.209948998426398],[108,45.55811879622752,7.211079710723197],[109,45.5565467323958,7.211811923967275],[110,45.55545293189396,7.211984366768888],[111,45.55466311588789,7.21231432066395],[112,45.55289058191579,7.21236212055112],[113,45.55115005296392,7.212315874770638],[114,45.54947482283072,7.211794187959299],[115,45.54771160777521,7.211623029352722],[116,45.54600307087739,7.212153386239947],[117,45.54432008929425,7.211849931225402],[118,45.54268297471127,7.211131158812805],[119,45.54097596955393,7.21155512060227],[120,45.5395313497723,7.210255805460406],[121,45.53789274518547,7.209331776284671],[122,45.53635104133671,7.2081466713692635],[123,45.53477379603721,7.2070573434648395],[124,45.53337992752973,7.205518274150563],[125,45.5320043182395,7.203941751677348],[126,45.53043213976754,7.203051596933506],[127,45.52874947293002,7.202424801773077],[128,45.5270756056933,7.201880036094394],[129,45.52549871316668,7.20075786240443],]
podstawa=[[10,45.62389113325439,7.199790285083623],['start',45.6975800,7.1947300],['meta',45.5238200,7.2005900]]
daneflot=[[0.0,697.261],[0.2,714.749],[0.4,731.186],[0.6,748.274],[0.8,767.022],[1.0,783.045],[1.2,804.597],[1.4,822.807],[1.6,838.586],[1.8,848.086],[2.0,858.485],[2.2,860.901],[2.4,860.409],[2.6,860.487],[2.8,866.407],[3.0,879.335],[3.2,888.837],[3.4,905.73],[3.6,914.825],[3.8,930.922],[4.0,947.5],[4.2,960.599],[4.4,974.911],[4.6,987.229],[4.8,998.349],[5.0,1003.668],[5.2,1013.050],[5.4,1028.451],[5.6,1042.104],[5.8,1050.141],[6.0,1053.786],[6.2,1059.710],[6.4,1066.472],[6.6,1064.58],[6.8,1070.529],[7.0,1077.548],[7.2,1088.890],[7.4,1097.868],[7.6,1104.399],[7.8,1108.804],[8.0,1113.101],[8.2,1113.743],[8.4,1114.312],[8.6,1118.944],[8.8,1126.103],[9.0,1130.416],[9.2,1142.763],[9.4,1147.602],[9.6,1154.419],[9.8,1165.429],[10.0,1172.041],[10.2,1183.515],[10.4,1197.056],[10.6,1216.750],[10.8,1233.389],[11.0,1251.157],[11.2,1264.151],[11.4,1275.454],[11.6,1289.648],[11.8,1300.901],[12.0,1310.753],[12.2,1320.386],[12.4,1330.546],[12.6,1343.646],[12.8,1351.938],[13.0,1361.251],[13.2,1369.134],[13.4,1380.721],[13.6,1393.406],[13.8,1409.600],[14.0,1424.976],[14.2,1440.147],[14.4,1448.601],[14.6,1459.259],[14.8,1462.321],[15.0,1469.164],[15.2,1474.657],[15.4,1475.000],[15.6,1480.768],[15.8,1488.492],[16.0,1500.411],[16.2,1507.705],[16.4,1509.353],[16.6,1511.164],[16.8,1515.404],[17.0,1517.492],[17.2,1524.883],[17.4,1533.66],[17.6,1540.404],[17.8,1543.823],[18.0,1548.364],[18.2,1554.461],[18.4,1557.621],[18.6,1563.229],[18.8,1574.518],[19.0,1579.894],[19.2,1590.600],[19.4,1604.254],[19.6,1614.113],[19.8,1628.491],[20.0,1637.782],[20.2,1647.845],[20.4,1656.097],[20.6,1666.104],[20.8,1675.923],[21.0,1689.377],[21.2,1701.873],[21.4,1717.578],[21.6,1732.371],[21.8,1739.403],[22.0,1754.567],[22.2,1767.765],[22.4,1785.648],[22.6,1801.922],[22.8,1817.329],[23.0,1828.146],[23.2,1841.757],[23.4,1851.813],[23.6,1857.444],[23.8,1869.817],[24.0,1878.37],[24.2,1886.434],[24.4,1899.061],[24.6,1913.334],[24.8,1925.187],[25.0,1938.436],[25.2,1947.436],[25.4,1955.756],[25.6,1962.178],[25.8,1968.897],[26.0,1984.741],]