name=Radojewo
slope=1.3km 3.0%
points=17.4
region=72
description=Nawierzchnia: szosa, stan dobry. Ruch samochodowy: średni.
Jeden ze słynniejszych podjazdów w okolicy Poznania
comments=
author=playzino
segment=0
locations=[[1,52.50975913145164,16.939361956720745],[2,52.50895570356528,16.938824071013983],[3,52.50815553930966,16.938274491758875],[4,52.50737457612315,16.93765922386467],[5,52.50655745091578,16.937180341152498],[6,52.50581435035146,16.936445896739542],[7,52.50507114417563,16.93571059887995],[8,52.50433348562726,16.934960402265233],[9,52.50355806893012,16.93437028966173],[10,52.50270619831086,16.934630381428974],[11,52.50193377132931,16.935202293944258],[12,52.50144237622075,16.936376816325946],]
podstawa=[[14,52.50507114417563,16.93571059887995],['start',52.5105600,16.9399100],['meta',52.5009500,16.9375500]]
daneflot=[[0.0,67.003],[0.1,69.932],[0.2,77.113],[0.3,81.430],[0.4,83.556],[0.5,82.557],[0.6,83.287],[0.7,85.260],[0.8,92.060],[0.9,93.241],[1.0,97.498],[1.1,101.403],[1.2,102.777],[1.3,104.483],]