name=Łomnica od Głuszycy
slope=5.8km 3.5%
points=141.7
region=7
description=Nawierzchnia: szosa, stan bardzo dobry, ostatnie 300 m  zniszczony. Ruch samochodowy: minimalny.
Bardzo malowniczy podjazd doliną, szczególnie w górnej części wsi ulicą Ustronie. Należy uważać, aby już w Łomnicy skręcić w lewo na rostaju z wiatą autobusową. Jeśli przegapimy, dojedziemy do końca asfaltu, też ładnie, i po zawróceniu,  znajdziemy właściwy podjazd bez trudu. Obowiązkowy podjazd będąc w tej okolicy.
comments=
author=Menchov
segment=0
locations=[[1,50.68563289654744,16.369404225377707],[2,50.68457718006905,16.367126847945087],[3,50.68443736898343,16.364367732058213],[4,50.68460162303627,16.361545796038286],[5,50.68388202616959,16.35913361227233],[6,50.68331288291792,16.356456240443663],[7,50.68271193561611,16.35378773082448],[8,50.68202598528991,16.35116906598364],[9,50.68108705503548,16.348782067561046],[10,50.6801509656995,16.34637622292712],[11,50.67921022067539,16.34396277285464],[12,50.67826701007456,16.341551775482003],[13,50.67752368583572,16.339008066598467],[14,50.67680361258297,16.33664097238352],[15,50.67535934906485,16.33500190562495],[16,50.67474516318004,16.33239518763935],[17,50.67483575220263,16.32959463332179],[18,50.67434750203257,16.327021251910082],[19,50.6733120335089,16.324799553897492],[20,50.67288864132201,16.322065922225192],[21,50.67262451569452,16.319292000774112],[22,50.67258016067562,16.316466824118493],[23,50.67148412927605,16.31442772035632],[24,50.67025385913136,16.312384228121232],[25,50.67005204896868,16.309653709824147],[26,50.66899456232502,16.307442309017347],[27,50.66761950376323,16.305648155817607],[28,50.66670341115159,16.30340975555623],]
podstawa=[[13,50.67535934906485,16.33500190562495],['start',50.6871200,16.3708900],['meta',50.6661500,16.3007400]]
daneflot=[[0.0,454.797],[0.2,455.416],[0.4,463.228],[0.6,469.910],[0.8,473.205],[1.0,473.582],[1.2,476.065],[1.4,477.267],[1.6,482.687],[1.8,489.352],[2.0,491.877],[2.2,492.720],[2.4,497.962],[2.6,501.395],[2.8,507.794],[3.0,517.769],[3.2,525.753],[3.4,533.235],[3.6,538.150],[3.8,558.884],[4.0,587.285],[4.2,606.296],[4.4,618.542],[4.6,634.742],[4.8,642.094],[5.0,633.906],[5.2,647.041],[5.4,646.205],[5.6,649.886],[5.8,657.299],]