name=Zielonka z Brzeziny
slope=1.2km 2.8%
points=11.3
region=81
description=Nawierzchnia: szosa, stan średnia. Ruch samochodowy: minimalny.
Podjazd z Brzezin w kierunku Zielonki
comments=
author=aniski
segment=0
locations=[[1,51.62550199236518,21.8216663376071],[2,51.62638263112056,21.82154522807673],[3,51.62726274025086,21.821413378052966],[4,51.62814284923351,21.821281522913523],[5,51.6290231122293,21.82115237394669],[6,51.62990344594507,21.821024466240374],[7,51.63078377952186,21.820896553569582],[8,51.63166411295968,21.82076863593386],[9,51.63254180174821,21.820776936196694],[10,51.63334176847706,21.821310844939376],[11,51.6341266359033,21.821840664705633],]
podstawa=[[14,51.63078377952186,21.820896553569582],['start',51.6246200,21.8217600],['meta',51.6350100,21.8218900]]
daneflot=[[0.0,132.000],[0.1,133.164],[0.2,135.324],[0.3,137.302],[0.4,139.865],[0.5,143.429],[0.6,146.490],[0.7,150.336],[0.8,155.956],[0.9,158.833],[1.0,162.178],[1.1,164.492],[1.2,166.327],]