name=Wólka Hyżeńska od Dylągówki
slope=1.6km 5.3%
points=51.9
region=47
description=Nawierzchnia: szosa, stan dobry. Ruch samochodowy: średni.
Wymagający dla mało doświadczonych bikerów, wprawionym nie powinien sprawiać większych oporów.
comments=
author=dlugi73
segment=0
locations=[[1,49.91106377873009,22.19983798295334],[2,49.91194837836621,22.199715921997267],[3,49.91282621250755,22.199493710126035],[4,49.91369101966983,22.199167511509586],[5,49.91455654378853,22.198845934782526],[6,49.91542225436446,22.19852555576142],[7,49.91628796405777,22.198205165236686],[8,49.9171361410337,22.198461228204337],[9,49.91786598656916,22.197762525533108],[10,49.91854468618572,22.19686848214974],[11,49.9192233789293,22.195974413596446],[12,49.92000406222041,22.195526559786458],[13,49.92086904966275,22.195851652011584],[14,49.92173403719594,22.1961767494862],[15,49.92259902586492,22.196501845503462],]
podstawa=[[14,49.91786598656916,22.197762525533108],['start',49.9102000,22.1995200],['meta',49.9234700,22.1967700]]
daneflot=[[0.0,267.794],[0.1,272.135],[0.2,279.336],[0.3,287.036],[0.4,294.567],[0.5,298.902],[0.6,303.905],[0.7,312.191],[0.8,317.182],[0.9,325.988],[1.0,333.037],[1.1,338.155],[1.2,342.540],[1.3,343.022],[1.4,346.384],[1.5,349.109],[1.6,351.389],]