name=Rzepinek
slope=1.8km 4.6%
points=41.4
region=33
description=Nawierzchnia: szosa, stan dobry. Ruch samochodowy: minimalny.
Podjazd zaczyna się po przekroczeniu mostu na rzece Świślina. Z góry ładny widok na Starachowice.
comments=
author=???
segment=0
locations=[[1,50.97481565882306,21.059605444849808],[2,50.97394190581335,21.059999047283554],[3,50.97320153001316,21.060811122750238],[4,50.97231655372794,21.06060977833056],[5,50.97146209435142,21.060069504605963],[6,50.97060838750479,21.05952623610142],[7,50.96976042775253,21.05896151729212],[8,50.96892180363344,21.05836194755784],[9,50.96808317644523,21.057762399473518],[10,50.96723900394716,21.057182958667113],[11,50.96639790322094,21.056592472745592],[12,50.96556045803918,21.055988805767356],[13,50.96472300974611,21.055385160553897],[14,50.96388318755393,21.05478992811527],[15,50.96304239316611,21.0541981474272],[16,50.96220159578825,21.05360638815864],[17,50.96136079542055,21.053014650308114],]
podstawa=[[14,50.97,21.057182958667113],['start',50.9757300,21.0596800],['meta',50.9604800,21.0527100]]
daneflot=[[0.0,228.938],[0.1,232.632],[0.2,237.957],[0.3,242.415],[0.4,247.182],[0.5,254.220],[0.6,259.527],[0.7,263.415],[0.8,266.665],[0.9,269.314],[1.0,273.921],[1.1,278.032],[1.2,281.010],[1.3,284.927],[1.4,291.997],[1.5,298.052],[1.6,304.122],[1.7,308.928],[1.8,311.960],]