name=Bajerovce  z Torysy (Słowacja)
slope=10.6km 3.2%
points=243.3
region=30
description=Nawierzchnia: szosa, stan średni. Ruch samochodowy: mały.
Podjazd pod uskok oddzielający G. Lewocki  od Spisko - Szarskiego  Medzyhoria, trasa wiedzie przez wioski zamieszkałe przez prawosławnych Rusinów na Sądecczyźnie zwanych Łemkami mijamy liczne kapliczki , krzyże przydrożne pejzaże podobne do tych z B. Niskiego,  w punkcie kulminacyjnym widok na Siminy 1287m  n.p.m., i Kopa 1230 m..n.p.m. będące na wyciągnięcie ręki .
comments=
author=sztein
segment=0
locations=[[1,49.16173669812856,20.875858811543935],[2,49.16294285350943,20.873834688147895],[3,49.16433155602027,20.872138250771172],[4,49.16582202315446,20.870618611592135],[5,49.1675124761737,20.86982089880621],[6,49.16929560960332,20.86999912084127],[7,49.17107330341811,20.870335122271854],[8,49.1728586210838,20.87043075726092],[9,49.17458449618708,20.86979943705296],[10,49.17579442487057,20.86783327545345],[11,49.17561970106443,20.86518607873768],[12,49.17526800718717,20.862522098484533],[13,49.17527143817654,20.859785357106375],[14,49.17570850571913,20.85716731995592],[15,49.17686826497833,20.855136425550654],[16,49.17849431076183,20.854137586984507],[17,49.17984472493298,20.85233703982476],[18,49.18138454165308,20.850946599916142],[19,49.18293787861514,20.849581809537085],[20,49.1844846724091,20.84819979182521],[21,49.18599897721286,20.846735625936503],[22,49.18753559546793,20.8453309334202],[23,49.18923664377711,20.844540364819522],[24,49.1905251926466,20.842886986164785],[25,49.19077629154506,20.840177195722504],[26,49.19126000023509,20.837544623866734],[27,49.19162846251612,20.834888452839436],[28,49.19209803878288,20.83226845054321],[29,49.19300153614888,20.82997184176361],[30,49.1933909702536,20.8273282225897],[31,49.19311641144485,20.824691793060424],[32,49.19399014597614,20.82231978160985],[33,49.19441595891545,20.81976755741971],[34,49.19483944008149,20.817120333099865],[35,49.19571245923721,20.8147338579937],[36,49.19653104144164,20.81231153706119],[37,49.19800695395521,20.810813124440415],[38,49.19963191532109,20.810530212767503],[39,49.20066457316344,20.80843387920902],[40,49.20147432649112,20.806023759386107],[41,49.20247270251864,20.803749959337324],[42,49.20358432303819,20.80160422810161],[43,49.20473798447372,20.79959874676831],[44,49.20569785710222,20.797302847646506],[45,49.20686143815837,20.795226405318544],[46,49.20796997760259,20.793097677297965],[47,49.20936522083537,20.791390446337118],[48,49.21051782745172,20.789307013909593],[49,49.21172888301675,20.78728650661924],[50,49.2131430924118,20.78560639260752],[51,49.21449321244584,20.783804446559998],[52,49.21563459322751,20.781699910380098],]
podstawa=[[12,49.19162846251612,20.834888452839436],['start',49.1604800,20.8777900],['meta',49.2169500,20.7799400]]
daneflot=[[0.0,428.795],[0.2,432.230],[0.4,439.727],[0.6,440.526],[0.8,438.836],[1.0,439.621],[1.2,442.954],[1.4,447.921],[1.6,451.360],[1.8,455.663],[2.0,457.333],[2.2,461.057],[2.4,468.581],[2.6,476.207],[2.8,480.344],[3.0,481.021],[3.2,490.512],[3.4,502.611],[3.6,515.988],[3.8,519.009],[4.0,516.555],[4.2,514.505],[4.4,506.444],[4.6,504.861],[4.8,511.714],[5.0,515.007],[5.2,520.954],[5.4,528.003],[5.6,532.962],[5.8,541.005],[6.0,547.406],[6.2,548.508],[6.4,554.198],[6.6,561.681],[6.8,567.605],[7.0,575.988],[7.2,585.364],[7.4,604.663],[7.6,632.314],[7.8,650.236],[8.0,662.793],[8.2,681.727],[8.4,700.348],[8.6,698.608],[8.8,701.229],[9.0,700.493],[9.2,684.442],[9.4,680.907],[9.6,687.718],[9.8,702.707],[10.0,723.313],[10.2,742.006],[10.4,754.770],[10.6,763.270],]