name=Liwocz z Brzyska
slope=2.8km 7.8%
points=289.5
region=44
description=Nawierzchnia: szosa, stan dobry. Ruch samochodowy: minimalny.
Fajny podjazd z dwoma cięższymi odcinkami. Dobra wąska droga,  mocno się rozpędzić przy zjeździe się nie da.  Droga prowadzi na parking po g. Liwocz, dalej na szczyt prowadzi szutrowa droga - kolejne kolejne 120 m. przewyższenia polecam MTB.
comments=
author=Bienia_
segment=0
locations=[[1,49.81721321260007,21.391655664460473],[2,49.8180949979435,21.389221253609207],[3,49.81810365005982,21.386842832461298],[4,49.81787052640413,21.384295787513565],[5,49.81661079863424,21.382649020001395],[6,49.81597515850987,21.38000187207558],[7,49.81466221504327,21.378037568622403],[8,49.8130338927245,21.376800419488973],[9,49.81126710760771,21.37599645499199],[10,49.80949836967091,21.375446973996304],[11,49.80829976432991,21.37345349785096],[12,49.80785165068791,21.370929054276644],[13,49.80692442095248,21.368470693384438],]
podstawa=[[14,49.8130338927245,21.376800419488973],['start',49.8164600,21.3942100],['meta',49.8054500,21.3672700]]
daneflot=[[0.0,229.644],[0.2,242.231],[0.4,249.562],[0.6,262.522],[0.8,260.814],[1.0,271.641],[1.2,281.029],[1.4,284.673],[1.6,291.533],[1.8,319.706],[2.0,356.108],[2.2,366.275],[2.4,374.519],[2.6,417.676],[2.8,449.038],]