name=Wierchomla Mała
slope=6.4km 2.9%
points=80.7
region=32
description=Nawierzchnia: szosa, stan średni. Ruch samochodowy: mały.
Spokojny podjazd.
comments=
author=przeminho
segment=0
locations=[[1,49.40494552709755,20.755174780411608],[2,49.40662433197991,20.75616948445986],[3,49.40822079083093,20.757414737827617],[4,49.4096109664618,20.75920750680018],[5,49.41091266414421,20.76114968365016],[6,49.41186119333825,20.763501415059523],[7,49.41227261699652,20.76621317665831],[8,49.4126847520164,20.768930387462888],[9,49.41338004546189,20.771469663144444],[10,49.41457046805384,20.773507910385774],[11,49.4154974454239,20.77589464022742],[12,49.41658625493853,20.778095005308614],[13,49.41789186052984,20.779849709422933],[14,49.41858411866441,20.782419478315546],[15,49.42006390629489,20.783969955747125],[16,49.42169772108583,20.785163679030234],[17,49.42346092724825,20.78569240058937],[18,49.42478023381268,20.78756617627664],[19,49.42592427892394,20.789731729341725],[20,49.4267563073222,20.79220689024703],[21,49.42789213506961,20.79435929649526],[22,49.42853062094223,20.796919840424835],[23,49.42949162636137,20.79927119386639],[24,49.43072161720376,20.80129857188365],[25,49.43198316287038,20.80320872083132],[26,49.43168851834541,20.80588371548572],[27,49.43132733075281,20.80857792865436],[28,49.43096174263036,20.811283065173143],[29,49.43061350905216,20.813998006330166],[30,49.43012399165563,20.816652370199108],[31,49.42961534879142,20.819281376503],]
podstawa=[[12,49.42346092724825,20.78569240058937],['start',49.4033100,20.7539900],['meta',49.4285700,20.8212200]]
daneflot=[[0.0,397.817],[0.2,401.463],[0.4,409.922],[0.6,413.473],[0.8,419.225],[1.0,423.032],[1.2,427.691],[1.4,437.250],[1.6,444.081],[1.8,452.552],[2.0,447.647],[2.2,453.142],[2.4,458.771],[2.6,461.982],[2.8,470.183],[3.0,472.170],[3.2,483.935],[3.4,484.226],[3.6,483.485],[3.8,490.126],[4.0,497.773],[4.2,500.566],[4.4,510.436],[4.6,513.264],[4.8,522.724],[5.0,535.566],[5.2,548.960],[5.4,560.026],[5.6,564.505],[5.8,575.654],[6.0,581.558],[6.2,584.933],[6.4,585.723],]