name=Michałowice od Piechowic
slope=3.6km 6.8%
points=212.8
region=1
description=Nawierzchnia: szosa, stan dobry. Ruch samochodowy: mały.
Krótki, ale dość stromy podjazd (szczególnie jego końcówka). Nowy asfalt. Z ciekawostek -  w połowie przejazd przez "Skalny Tunel"
comments=
author=gavia2621
segment=0
locations=[[1,50.84685551579356,15.57719392356023],[2,50.84632619726688,15.576447223696732],[3,50.84511399427007,15.578490868266385],[4,50.84371042656408,15.580211488336658],[5,50.84496889653088,15.580613571765639],[6,50.84646528771275,15.58171603003882],[7,50.84629825751001,15.582298800244871],[8,50.84472716490841,15.581784009856506],[9,50.84305275441716,15.58271470347131],[10,50.84146102253376,15.583938219082029],[11,50.8401498968608,15.585702050625173],[12,50.83871912332094,15.587268758851451],[13,50.83757387263779,15.589408672539435],[14,50.83638548728347,15.591393539717274],[15,50.8347313446842,15.592358520675361],[16,50.83316255151955,15.593340223826544],[17,50.83355935871347,15.591015708026362],]
podstawa=[[14,50.84146102253376,15.583938219082029],['start',50.8476600,15.5789500],['meta',50.8340300,15.5883100]]
daneflot=[[0.0,409.170],[0.2,419.062],[0.4,435.130],[0.6,453.539],[0.8,483.701],[1.0,478.843],[1.2,488.713],[1.4,503.996],[1.6,508.500],[1.8,526.798],[2.0,539.102],[2.2,560.156],[2.4,567.635],[2.6,577.437],[2.8,594.390],[3.0,614.866],[3.2,623.940],[3.4,643.235],[3.6,651.831],]