name=Rudniki od Włodowic
slope=1.9km 3.0%
points=26.7
region=61
description=Nawierzchnia: szosa, stan dobry. Ruch samochodowy: średni.
Droga prowadząca z Włodowic do Zawiercia
comments=
author=pon3ek
segment=0
locations=[[1,50.54212327967237,19.43372409892595],[2,50.54137599349534,19.432993137430458],[3,50.54055196539524,19.43249962232403],[4,50.53973460939118,19.431985915563928],[5,50.53895977968672,19.431323144379576],[6,50.53820101739836,19.430615232411242],[7,50.53744225081834,19.4299073432187],[8,50.53663613634239,19.429354722425956],[9,50.53581040758201,19.42886642948656],[10,50.53498467677972,19.428378153642143],[11,50.53415894393567,19.42788989489145],[12,50.53333930030397,19.427377052277166],[13,50.53253040005929,19.42682581802069],[14,50.531821826675,19.426007035367093],[15,50.53108090900731,19.425317717226108],[16,50.53021205127212,19.42507825049711],[17,50.52934177923222,19.424851574152967],[18,50.52847088982487,19.42463078300125],]
podstawa=[[14,50.53498467677972,19.428378153642143],['start',50.5427200,19.4347400],['meta',50.5276000,19.4244100]]
daneflot=[[0.0,334.413],[0.1,336.108],[0.2,339.359],[0.3,342.959],[0.4,344.452],[0.5,346.974],[0.6,349.820],[0.7,351.662],[0.8,351.558],[0.9,352.026],[1.0,353.850],[1.1,357.509],[1.2,365.100],[1.3,373.612],[1.4,379.629],[1.5,384.169],[1.6,385.045],[1.7,386.784],[1.8,389.992],[1.9,391.872],]