name=Martinské hole  z Vrutky (Słowacja)
slope=12.0km 7.1%
points=730.2
region=19
description=Nawierzchnia: szosa, stan słaby. Ruch samochodowy: minimalny.
Jeden z najbardziej wyszukanych podjazdów w Małej Fatrze. To jest droga dla koneserów górskich wspinaczek. Trasa właściwie rozpoczyna się od szlabanu w Podhradište, gdzie z prostej drogi dojazdowej skręca na leśne serpentyny, by po dziesięciu kilometrach kluczenia, i coraz bardziej wzmagającego się przy końcu nachylenia, po trochę zmordowanej nawierzchni, dotrzeć do obiektów narciarskich na Martinskich Holach.
comments=Dnia 2015-02-05 użytkownik jajacek dodał:
Podjazd ten w bazie Challenge BIG jest oznaczony jako Martinske Hole z Vrutky i właśnie Vrutky proponuje oznaczyć jako początek podjazdu. Kolonia Hviezda nie jest miejscowością tylko dzielnicą miasta Vrutky. Podjazd został prawidłowo wyznaczony do wysokości 1250m czyli do miejsca gdzie znajdują się hotele i duży parking. Istnieje możliwość wjechania do samej wieży telewizyjnej dziurawymi szczątkami asfaltu idącymi bardzo wąską drogą tak jak wyznacza to Challenge BIG ale część ta nie może być nazwana podjazdem szosowym. Obok przełęczy Karkonoskiej jest to bodaj najbardziej wymagający podjazd szosowy w tej części Europy. Posiada wielokrotne odcinki dochodzące do 20%. Latem jedzie się prawie cały czas w pełnym słońcu. Po drodze nie ma żadnego miejsca umożliwiającego uzupełnienie napojów. Dopiero na szczycie podjazdu można coś wypić i zjeść.
Dnia 2015-03-03 użytkownik mrkta dodał:
Tak jak napisał jajacek, podjazd kończy się znacznie wyżej, a dokładnie na wysokości 1457 m n.p.m. na szczycie Krížava. Odcinek między Martinskimi holami a Krížavą ma prawie dokładnie 2 km, co daje ok. 10 proc. Dywanik asfaltu - jechałem tam w 2006 r. - był bardzo wąski i dziurawy, ale dałem radę na szosówce. Na pewno stan drogi nie był gorszy niż na Karkonoskiej. Jednak jajacek w jednym się myli. Ok. 2-3 km po wjechaniu do lasu jest po prawej stronie drogi źródło zimnej wody.
author=airstreeem20
segment=0
locations=[[1,49.10860642247146,18.914869157685644],[2,49.10807031289335,18.912422581337864],[3,49.10798338730282,18.909665049418663],[4,49.10791029196009,18.906906516402273],[5,49.10783265522193,18.904148295795494],[6,49.10774510582015,18.90139075381626],[7,49.10759392597922,18.898640829267265],[8,49.10695696527154,18.896062063436602],[9,49.10623829773699,18.893528995981683],[10,49.10549635783179,18.891012066045732],[11,49.10454455405974,18.888674380037287],[12,49.10345797223884,18.88646942321543],[13,49.10427689518205,18.88545820105037],[14,49.10544087855453,18.88756940542646],[15,49.10686067140499,18.889097536856184],[16,49.10856559468665,18.888365507161325],[17,49.10917189542629,18.885935079045453],[18,49.10866357962758,18.883305147636747],[19,49.10820817392842,18.88092626092407],[20,49.10912747566942,18.878789939265516],[21,49.10878493744347,18.876705334212488],[22,49.10921793435084,18.874507903396534],[23,49.10931851344315,18.87240913066671],[24,49.10798738246388,18.870575130279803],[25,49.10659713054166,18.868841797773257],[26,49.10531545523956,18.867035908874414],[27,49.10427072131107,18.865847523430944],[28,49.10439099631586,18.863191914501613],[29,49.10400722034789,18.860552895014507],[30,49.10513212809506,18.858587869488474],[31,49.10608808787624,18.85631465720303],[32,49.10694778754404,18.85394212463757],[33,49.10720471801858,18.85139783279692],[34,49.10733570453361,18.8487899118403],[35,49.10824184670179,18.846436176689394],[36,49.10802466886778,18.84510303553543],[37,49.10634257824965,18.846095888737068],[38,49.10491026127712,18.845391509261276],[39,49.10467344289412,18.842696101160527],[40,49.10367860100493,18.840397410328478],[41,49.1026082951649,18.838180156128715],[42,49.10236587144623,18.840318375111224],[43,49.10263754140477,18.842951146516953],[44,49.10119353504867,18.844300676749867],[45,49.09999980952625,18.844794921968287],[46,49.09912532977188,18.846899269179858],[47,49.09838127529722,18.849298706898026],[48,49.0968281436248,18.850257239947496],[49,49.09536293647056,18.85171823636381],[50,49.09423878255593,18.850148907238008],[51,49.09427195604627,18.847491067786223],[52,49.09412348003647,18.844912780615005],[53,49.09467832357931,18.84241329411566],[54,49.0934465265132,18.84249003853506],[55,49.0917672536612,18.84238208939155],[56,49.09099946418271,18.84129339747585],[57,49.09269298266279,18.84159922785591],[58,49.09330711340758,18.839071054503734],[59,49.09353102091036,18.836486819375295],]
podstawa=[[13,49.10608808787624,18.87],['start',49.1084600,18.9175300],['meta',49.0935400,18.8341800]]
daneflot=[[0.0,393.258],[0.2,405.358],[0.4,410.348],[0.6,417.130],[0.8,421.540],[1.0,426.909],[1.2,434.709],[1.4,447.360],[1.6,454.539],[1.8,467.471],[2.0,486.461],[2.2,506.134],[2.4,512.312],[2.6,530.494],[2.8,551.185],[3.0,560.259],[3.2,577.909],[3.4,594.379],[3.6,616.449],[3.8,638.750],[4.0,646.707],[4.2,665.918],[4.4,678.711],[4.6,688.660],[4.8,706.600],[5.0,720.366],[5.2,743.746],[5.4,756.145],[5.6,773.288],[5.8,788.449],[6.0,812.242],[6.2,833.152],[6.4,855.575],[6.6,870.465],[6.8,886.498],[7.0,910.202],[7.2,925.240],[7.4,929.861],[7.6,945.945],[7.8,960.347],[8.0,977.671],[8.2,998.892],[8.4,1005.490],[8.6,1000.982],[8.8,1017.799],[9.0,1027.073],[9.2,1039.304],[9.4,1046.771],[9.6,1058.232],[9.8,1065.071],[10.0,1070.416],[10.2,1090.065],[10.4,1109.198],[10.6,1127.243],[10.8,1143.962],[11.0,1157.193],[11.2,1168.555],[11.4,1180.584],[11.6,1206.296],[11.8,1230.992],[12.0,1249.944],]