name=Warszawa (Książęca)
slope=0.6km 3.3%
points=7.8
region=80
description=Nawierzchnia: szosa, stan dobry. Ruch samochodowy: bardzo duży.
Bardzo duży ruch samochodowy
comments=
author=Macko
segment=0
locations=[[1,52.23004851224646,21.029307994924466],[2,52.2298902199904,21.02791483959095],[3,52.22990321205351,21.02649433730926],[4,52.22989974020625,21.025073958042753],[5,52.22987330287182,21.023653985841975],]
podstawa=[[15,52.22989974020625,21.025073958042753],['start',52.2302000,21.0307000],['meta',52.2297800,21.0223000]]
daneflot=[[0.0,86.440],[0.1,87.455],[0.2,90.661],[0.3,94.137],[0.4,98.213],[0.5,102.553],[0.6,106.903],]