name=Liszna od Sanu
slope=3.0km 5.3%
points=102
region=35
description=Nawierzchnia: szosa. Ruch samochodowy: minimalny.
Co prawda miejscowość Liszna to droga ślepa. Można dojechać do niej tylko od glównej drogi Sanok - Przemyśl.  Trzeba zjechać do samej rzeki Sanok przez Liszna, podjazd rozpoczyna się ta sama droga w powrotna stronę do głównej drogi w kierunku Sanoka. Trasa ciekawa, trudna z gorszymi i lepszymi odcinkami asfaltu.
comments=
author=Czarusblitz
segment=0
locations=[[1,49.59741336807625,22.232654228308206],[2,49.59671138673136,22.233499039001913],[3,49.5960288468945,22.234379665239885],[4,49.59537688357795,22.235306233364554],[5,49.59467232364432,22.23612001228389],[6,49.59386666632692,22.23670525363991],[7,49.59315852813324,22.237513992689628],[8,49.59246412452367,22.238352726749895],[9,49.59165150341004,22.238906531721],[10,49.59078343758694,22.239208868660967],[11,49.58994972948299,22.239691421159705],[12,49.58912917125686,22.240223112798617],[13,49.58844011738472,22.24103473175387],[14,49.58791559495332,22.242140506421038],[15,49.58715520335634,22.2428451856091],[16,49.58644200627263,22.243643313011376],[17,49.58597785165622,22.24476214842889],[18,49.58531017713597,22.245606627962843],[19,49.58457289481314,22.246363822394528],[20,49.58393257634143,22.24731835664022],[21,49.58331001423795,22.248299290343766],[22,49.58263662245133,22.249018744083514],[23,49.58180867289423,22.24923180970086],[24,49.58130583792616,22.250342486514683],[25,49.58074491175444,22.251407066014053],[26,49.58013616850894,22.252407621714383],[27,49.57950811642253,22.25337941189491],[28,49.57897829779343,22.2544822696143],[29,49.57813676931676,22.25443535384636],]
podstawa=[[13,49.58644200627263,22.243643313011376],['start',49.5981400,22.2318600],['meta',49.5772700,22.2546300]]
daneflot=[[0.0,275.439],[0.1,280.584],[0.2,288.953],[0.3,294.952],[0.4,299.584],[0.5,302.438],[0.6,305.913],[0.7,311.634],[0.8,316.965],[0.9,321.078],[1.0,324.835],[1.1,327.886],[1.2,332.111],[1.3,336.216],[1.4,341.971],[1.5,344.265],[1.6,348.712],[1.7,357.706],[1.8,364.547],[1.9,368.613],[2.0,374.709],[2.1,379.857],[2.2,379.928],[2.3,381.791],[2.4,391.037],[2.5,400.754],[2.6,409.357],[2.7,416.071],[2.8,426.452],[2.9,429.933],[3.0,434.763],]