name=Krpáčovo  z Lopej (Słowacja)
slope=10.8km 4.3%
points=368.8
region=25
description=Nawierzchnia: szosa, stan średni. Ruch samochodowy: mały, powyżej zabudowań żaden.
Lekko pofałdowana trasa. Najprzyjemniejszy jest górny, leśny odcinek, na którym prawdopodobieństwo spotkania niedźwiedzia jest chyba większe niż możliwość natknięcia się na tubylca czy turystę.
comments=
author=jeżnarowerze
segment=0
locations=[[1,48.81846344311698,19.49649218612376],[2,48.81998407940598,19.495878253942465],[3,48.82131146543848,19.494614959003684],[4,48.82308975070663,19.494739902792958],[5,48.82470754224474,19.49588200145729],[6,48.82611283723556,19.497508976350446],[7,48.82734214051557,19.499428993719334],[8,48.82858425804883,19.50138140097647],[9,48.82985239800696,19.50329471301211],[10,48.83125252864307,19.504850203052683],[11,48.83290664444606,19.505855035130025],[12,48.83466173555207,19.505607105343643],[13,48.83628523555937,19.50665514968523],[14,48.83750091081638,19.508401019439702],[15,48.83891798958186,19.510010744379542],[16,48.84046691498931,19.511303530545092],[17,48.84154594570963,19.51344417390976],[18,48.84305076388891,19.514886068208284],[19,48.84453199798617,19.51637993522479],[20,48.84615812128257,19.517507276301558],[21,48.84784611476833,19.518386600857184],[22,48.84954430448773,19.51912345221581],[23,48.85062957401498,19.521225500095852],[24,48.85183980494265,19.52317954203454],[25,48.8529801170679,19.52491005777574],[26,48.85468301496955,19.525736765333022],[27,48.85640753283932,19.52645037083198],[28,48.85814347752431,19.52709899284946],[29,48.85987796425606,19.527728237916904],[30,48.86159409596299,19.52847684553808],[31,48.86328870469876,19.5283175025844],[32,48.86496288088722,19.527640568803236],[33,48.8664912092205,19.52866447828501],[34,48.86788533014894,19.530120220089543],[35,48.86888606430335,19.532326334446225],[36,48.86966872879747,19.53476992616197],[37,48.87076873390253,19.536872725796684],[38,48.87243697488157,19.537510661721853],[39,48.87405278585646,19.537324749097934],[40,48.87482762531096,19.53977238040943],[41,48.8754107519006,19.542332402989814],[42,48.87584016346751,19.544952515095474],[43,48.87599726568584,19.547650351808898],[44,48.87609200123128,19.55034845153591],[45,48.87671975050956,19.552797956256654],[46,48.87660977806883,19.55549535609316],[47,48.87679204206361,19.558199196613145],[48,48.87712890897318,19.56086582655439],[49,48.87757417076115,19.563498401673087],[50,48.87780094239616,19.56618734414792],[51,48.87853902733294,19.56864536480498],[52,48.87938647648615,19.570973942288674],[53,48.88109959251535,19.571738306586667],]
podstawa=[[12,48.85814347752431,19.52709899284946],['start',48.8171700,19.4977600],['meta',48.8827800,19.5725400]]
daneflot=[[0.0,448.419],[0.2,452.263],[0.4,464.859],[0.6,477.303],[0.8,484.173],[1.0,490.422],[1.2,481.988],[1.4,485.111],[1.6,483.150],[1.8,486.903],[2.0,489.679],[2.2,488.996],[2.4,492.929],[2.6,498.995],[2.8,506.141],[3.0,512.245],[3.2,515.428],[3.4,525.098],[3.6,528.812],[3.8,535.284],[4.0,539.729],[4.2,544.384],[4.4,548.507],[4.6,556.049],[4.8,567.190],[5.0,581.420],[5.2,586.807],[5.4,590.191],[5.6,599.953],[5.8,614.047],[6.0,623.428],[6.2,621.619],[6.4,622.927],[6.6,632.986],[6.8,639.268],[7.0,666.389],[7.2,673.825],[7.4,679.994],[7.6,699.479],[7.8,719.345],[8.0,736.693],[8.2,746.224],[8.4,753.823],[8.6,753.451],[8.8,759.352],[9.0,769.172],[9.2,768.943],[9.4,770.474],[9.6,789.937],[9.8,797.789],[10.0,820.514],[10.2,846.505],[10.4,865.468],[10.6,893.963],[10.8,910.752],]