name=Pod Raczą
slope=14.8km 2.1%
points=156.1
region=17
description=Nawierzchnia: szosa, stan bardzo dobry. Ruch samochodowy: mały.
Spokojny podjazd z Rajczy do końca asfaltu w Rycerce Górnej pod Wielką Raczę. Piękna dolina, sielski krajobraz, podjazd bez sztywniejszych odcinków, ale regularnie w górę.
comments=
author=Dasior
segment=0
locations=[[1,49.50245409169617,19.09944350578735],[2,49.50169822132868,19.09704150803134],[3,49.5009371556017,19.094620227201972],[4,49.49974202298442,19.09261311197463],[5,49.49918011666455,19.09038613010557],[6,49.49848477461775,19.08809583655693],[7,49.49718900985551,19.08624095667301],[8,49.49564154358802,19.085456660582622],[9,49.49393138890218,19.086228765489636],[10,49.4922212290782,19.08700081644406],[11,49.49049309451884,19.086731741834],[12,49.48875870798408,19.086100701601026],[13,49.48701900227865,19.085514803065394],[14,49.48535148237924,19.08467843309529],[15,49.48377456464972,19.083400311191326],[16,49.48228258235477,19.081908213820952],[17,49.48125899062261,19.079741405131813],[18,49.48055043929225,19.077231861563973],[19,49.48015005114215,19.074563394186384],[20,49.47990949859745,19.071847115613537],[21,49.4796658054163,19.06913502555608],[22,49.47959257054971,19.06645232553126],[23,49.47937465457036,19.063809992045094],[24,49.47844941490594,19.061532968336223],[25,49.47707247875807,19.05980911600693],[26,49.47607937734676,19.05756152623951],[27,49.47584140374713,19.054849753198937],[28,49.47586636662182,19.052109259177655],[29,49.47567204923072,19.049458241783213],[30,49.47468082998908,19.04720853761978],[31,49.47346537080387,19.0452094039033],[32,49.47270694754998,19.042828752373907],[33,49.47227026953389,19.040172273127382],[34,49.47169254344374,19.037577815794407],[35,49.47111475932823,19.034983419662467],[36,49.47047754098838,19.03242418287698],[37,49.46954115819195,19.03010682571437],[38,49.46826081557413,19.028199190163605],[39,49.46709804855195,19.026123692296892],[40,49.46595712090289,19.024017048599262],[41,49.46492485503053,19.021785288873843],[42,49.46364312787899,19.020086893275334],[43,49.46204763958185,19.0190193901999],[44,49.460273331381,19.018791051319113],[45,49.45855172104698,19.019182074490573],[46,49.45696577147815,19.018088051709128],[47,49.4552679520195,19.018395506361003],[48,49.4534957140743,19.01843317903058],[49,49.45172266807936,19.01871021734405],[50,49.44994586098385,19.018851086482982],[51,49.44816392869681,19.018806398617244],[52,49.44639155794378,19.018562809719242],[53,49.44469248872324,19.017957305205073],[54,49.44348449930376,19.016006240412025],[55,49.44191405854193,19.014812844371818],[56,49.44025983308429,19.013867766237013],[57,49.43847972607104,19.01373595991322],[58,49.43669961890799,19.013604163157652],[59,49.4349195115952,19.013472375968945],[60,49.43313940413267,19.013340598345962],[61,49.43135929652041,19.013208830287226],[62,49.42977174482136,19.012003087837684],[63,49.42841358928988,19.010228881066723],[64,49.42692783504543,19.00880136926571],[65,49.42536992971387,19.007551624095072],[66,49.42417696695066,19.005520857141278],[67,49.42309242205022,19.003349674334345],[68,49.42191252299914,19.001303574211647],[69,49.42031995278148,19.000128360923554],[70,49.4187107129197,18.998974489723878],[71,49.4170599135288,18.997949954189266],[72,49.41532983785216,18.997492593199922],[73,49.41360594620121,18.99692732813469],]
podstawa=[[11,49.46826081557413,19.028199190163605],['start',49.5037800,19.1012500],['meta',49.4119200,18.9960400]]
daneflot=[[0.0,500.107],[0.2,499.826],[0.4,502.695],[0.6,503.608],[0.8,505.776],[1.0,508.062],[1.2,511.607],[1.4,511.494],[1.6,516.085],[1.8,516.824],[2.0,517.685],[2.2,519.967],[2.4,522.634],[2.6,527.714],[2.8,533.866],[3.0,534.000],[3.2,536.000],[3.4,539.615],[3.6,542.253],[3.8,544.931],[4.0,547.682],[4.2,547.980],[4.4,551.169],[4.6,552.792],[4.8,554.311],[5.0,556.230],[5.2,557.513],[5.4,567.915],[5.6,573.944],[5.8,575.484],[6.0,573.028],[6.2,574.131],[6.4,579.484],[6.6,584.184],[6.8,584.806],[7.0,585.829],[7.2,590.833],[7.4,593.951],[7.6,598.514],[7.8,602.649],[8.0,605.246],[8.2,609.965],[8.4,613.645],[8.6,617.367],[8.8,619.153],[9.0,631.385],[9.2,626.303],[9.4,633.000],[9.6,637.527],[9.8,640.039],[10.0,655.602],[10.2,658.197],[10.4,665.980],[10.6,661.926],[10.8,660.848],[11.0,660.320],[11.2,667.374],[11.4,669.233],[11.6,672.922],[11.8,681.280],[12.0,688.108],[12.2,689.378],[12.4,696.926],[12.6,716.317],[12.8,722.196],[13.0,732.654],[13.2,748.258],[13.4,768.249],[13.6,764.892],[13.8,764.240],[14.0,774.713],[14.2,782.621],[14.4,793.815],[14.6,803.683],[14.8,815.420],]