name=Budyń  z Pilzna
slope=6.6km 2.5%
points=91.1
region=44
description=Nawierzchnia: szosa, stan dobry. Ruch samochodowy: mały.
Przyjemny podjazd po dobrej nawierzchni na jedno ze wzgórz nad Pilznem. Po wypłaszczeniu stromszy odcinek. Ładne widoki.
comments=
author=przeminho
segment=0
locations=[[1,49.97392792913883,21.283156203405383],[2,49.972346125072,21.281869374967528],[3,49.97110394823193,21.279832211359007],[4,49.96941358117278,21.27888641874688],[5,49.9676918786549,21.278051130214067],[6,49.96615564538824,21.276563872528527],[7,49.96464035952523,21.27503714581792],[8,49.96328336366425,21.273177103993703],[9,49.96180781912329,21.271694574290905],[10,49.96137263798167,21.268970548996094],[11,49.9605612136892,21.266462712932935],[12,49.95953544339965,21.264194054943573],[13,49.95870393391686,21.26171735341245],[14,49.95742590923798,21.25975111213745],[15,49.95647471380003,21.257437151467002],[16,49.95586900965306,21.254847642194818],[17,49.9549449377912,21.252444687090474],[18,49.95422830132258,21.249860242684804],[19,49.9535390603865,21.24728067493743],[20,49.95312039907113,21.244611356243013],[21,49.95232332721893,21.242169470487852],[22,49.95070869861235,21.240945241332042],[23,49.94936954670753,21.239051362561213],[24,49.94779406980329,21.237687184777656],[25,49.94636895077504,21.23607499876914],[26,49.94567558572769,21.23354282388152],[27,49.94524363315021,21.23081040163413],[28,49.94450718477218,21.230606053017482],[29,49.9434020394058,21.23275100734918],[30,49.94247720717052,21.23515181399148],[31,49.94208545876859,21.237891385074477],[32,49.94181211894876,21.240665031535855],]
podstawa=[[13,49.96,21.252444687090474],['start',49.9744400,21.2858000],['meta',49.9418600,21.2434600]]
daneflot=[[0.0,208.751],[0.2,211.223],[0.4,215.000],[0.6,216.306],[0.8,224.964],[1.0,230.303],[1.2,236.004],[1.4,235.071],[1.6,230.212],[1.8,221.758],[2.0,229.334],[2.2,227.492],[2.4,228.808],[2.6,232.693],[2.8,240.298],[3.0,246.410],[3.2,248.958],[3.4,249.042],[3.6,254.570],[3.8,262.975],[4.0,264.661],[4.2,264.590],[4.4,271.297],[4.6,285.173],[4.8,300.392],[5.0,313.425],[5.2,315.152],[5.4,314.357],[5.6,325.207],[5.8,344.321],[6.0,351.996],[6.2,360.063],[6.4,370.780],[6.6,375.003],]