name=Na Kamionkę Starą   ze Słójki
slope=4.8km 1.2%
points=21.1
region=85
description=Nawierzchnia: szosa, stan średniej jakości, trochę popękana  . Ruch samochodowy: średni  .
Podjazd od strony Krynek w kierunku na Sokółkę. Wersja dłuższa niż z drugiej strony, ale łagodniejsza. Trochę wypłaszczeń, ale i tak 50 metrów przewyższenia robi swoje.
comments=
author=ptaqnabajq
segment=7651009  
locations=[[1,53.31029877092033,23.616857848050472],[2,53.31200188531984,23.61588472352628],[3,53.31370499180024,23.614911521350564],[4,53.31540809036042,23.613938241512642],[5,53.31711083634627,23.61296319600251],[6,53.31881355011372,23.611987953878725],[7,53.32051514064756,23.611007194306012],[8,53.32221672313823,23.610026356518347],[9,53.32392022182901,23.60905496238695],[10,53.32562226767924,23.608076620923157],[11,53.32732233261971,23.607088399817712],[12,53.32902537366822,23.60611452734372],[13,53.33072907713959,23.60514387887804],[14,53.33243373704165,23.60417790247311],[15,53.33413258328676,23.603183820497065],[16,53.3358282978628,23.60217458085731],[17,53.33753176856442,23.60120266973877],[18,53.33891208590269,23.59939155424877],[19,53.33995291628887,23.5969327309017],[20,53.34099444704781,23.59447467950895],[21,53.34203592729684,23.59201650804357],[22,53.3430773570316,23.589558216501473],[23,53.34413555460028,23.58712032977519],]
podstawa=[[12,53.33072907713959,23.60514387887804],['start',53.3090100,23.6165700],['meta',53.3452000,23.5846900]]
daneflot=[[0.0,163.726],[0.2,165.000],[0.4,168.690],[0.6,179.055],[0.8,188.296],[1.0,185.628],[1.2,188.301],[1.4,188.021],[1.6,192.340],[1.8,192.664],[2.0,194.329],[2.2,202.626],[2.4,206.898],[2.6,207.000],[2.8,210.047],[3.0,207.457],[3.2,204.882],[3.4,206.153],[3.6,207.377],[3.8,206.970],[4.0,210.162],[4.2,207.688],[4.4,206.779],[4.6,214.305],[4.8,218.891],]