name=Grabowica
slope=1.8km 3.1%
points=37.9
region=83
description=Nawierzchnia: szosa, stan średni. Ruch samochodowy: minimalny.
Przy podjeździe, niedawno postawiona wieża widokowa.
comments=
author=bart
segment=0
locations=[[1,50.41888578578316,23.210961007559263],[2,50.41976396151512,23.211390599494166],[3,50.42064213566528,23.211820207358755],[4,50.42152030823349,23.212249831154168],[5,50.42239847921967,23.21267947088154],[6,50.42327545381674,23.213115095963076],[7,50.42415239677075,23.213550887144493],[8,50.425029338097,23.213986694465348],[9,50.42590655417667,23.21442113753608],[10,50.42678466724067,23.214851108627954],[11,50.42764183342241,23.21536896432997],[12,50.42839421804932,23.216180953605544],[13,50.42904355596978,23.217202135299658],[14,50.42968503243098,23.218237028222234],[15,50.43024960355222,23.21937013257059],[16,50.43100518140311,23.2201446061556],[17,50.43187846736028,23.220598159113592],]
podstawa=[[14,50.42678466724067,23.214851108627954],['start',50.4180100,23.2105200],['meta',50.4327500,23.2210600]]
daneflot=[[0.0,262.972],[0.1,265.236],[0.2,270.596],[0.3,279.155],[0.4,287.512],[0.5,296.545],[0.6,304.533],[0.7,305.231],[0.8,301.820],[0.9,299.120],[1.0,299.656],[1.1,302.632],[1.2,305.700],[1.3,310.120],[1.4,313.008],[1.5,315.161],[1.6,316.475],[1.7,317.000],[1.8,317.998],]