name=Mościejewo
slope=1.7km 2.4%
points=12.7
region=72
description=Nawierzchnia: szosa, stan dobry. Ruch samochodowy: mały.
Szosa jak nowa można fajnie wjechać i też zjechać. Początek wzdłuż jeziora.
comments=
author=kecaj
segment=0
locations=[[1,52.58639255024206,16.146853163037008],[2,52.58551075983164,16.146858280680817],[3,52.58462838290141,16.146929818668468],[4,52.5837467043935,16.14702297867848],[5,52.5828852467188,16.14731781991327],[6,52.58219573532513,16.148151414430004],[7,52.58181268553017,16.14946165741526],[8,52.5814296212757,16.150771877501256],[9,52.58083390479108,16.151749999999993],[10,52.57995064614162,16.15172284275036],[11,52.57908576081901,16.151854239251065],[12,52.57846307236012,16.15287882070902],[13,52.57783247535496,16.15389711515195],[14,52.57720186961593,16.154915380301418],[15,52.57657125514345,16.155933616158563],[16,52.57594063193799,16.156951822724295],]
podstawa=[[14,52.58083390479108,16.151749999999993],['start',52.5872200,16.1473500],['meta',52.5753100,16.1579700]]
daneflot=[[0.0,65.513],[0.1,66.559],[0.2,67.712],[0.3,71.169],[0.4,74.105],[0.5,78.109],[0.6,79.714],[0.7,81.197],[0.8,83.693],[0.9,88.333],[1.0,90.199],[1.1,90.685],[1.2,93.796],[1.3,98.599],[1.4,102.131],[1.5,104.602],[1.6,105.470],[1.7,105.888],]