name=Głuszyca (ulica Gdańska)
slope=1.8km 7.6%
points=113.7
region=8
description=Nawierzchnia: szosa, stan dobry. Ruch samochodowy: minimalny.
Nipozorna boczna uliczka w pobliżu zjazdu do sztolni w Osówce. Podjazd kończy się wraz z końcem asfalty. Powrót tą samą drogą.
comments=
author=Menchov
segment=0
locations=[[1,50.67532264489969,16.38566718883135],[2,50.67535181626189,16.387102084478897],[3,50.67544039689706,16.388535181347493],[4,50.67554873931274,16.389964476670798],[5,50.67605412854169,16.391117904842986],[6,50.6766163252943,16.392221393788645],[7,50.67679969316815,16.393628873019225],[8,50.6768046589428,16.39506431117968],[9,50.67697005149638,16.396471956741493],[10,50.67717554279193,16.397850969907495],[11,50.6773869602705,16.399220965430004],[12,50.67796518737288,16.40028529045253],[13,50.67864667382184,16.401233437529868],[14,50.67939809416549,16.402049439176153],[15,50.68014811032245,16.402868109354472],[16,50.68088766328255,16.4037107981934],[17,50.68153198643296,16.404727979425843],]
podstawa=[[14,50.67717554279193,16.397850969907495],['start',50.6752300,16.3845000],['meta',50.6822300,16.4056500]]
daneflot=[[0.0,472.064],[0.1,477.141],[0.2,484.810],[0.3,492.069],[0.4,498.550],[0.5,505.119],[0.6,512.202],[0.7,514.167],[0.8,519.157],[0.9,525.967],[1.0,532.505],[1.1,541.160],[1.2,549.774],[1.3,558.720],[1.4,569.334],[1.5,577.810],[1.6,585.504],[1.7,595.102],[1.8,608.494],]