name=Żarnówka Przysłop z Makowa Podhalańskiego
slope=5.8km 4.3%
points=177.1
region=22
description=Nawierzchnia: szosa, stan .. Ruch samochodowy: średni.
Trasa przez wioskę w Beskidzie Makowskim, kończąca sie podjazdem pod Przysłop.
comments=Dnia 2014-10-19 użytkownik Koler dodał:
Nawierzchnia jest w stanie bardzo średnim (momentami wręcz kiepska) - na zjeździe niestety tak samo...
author=simon
segment=0
locations=[[1,49.72302294362948,19.69553699737253],[2,49.72271730121132,19.698171076018866],[3,49.72124980490923,19.69972459458404],[4,49.71984374527099,19.701470632641644],[5,49.71949775591136,19.703824279371247],[6,49.72001568066153,19.706493757206317],[7,49.72037812613816,19.70923515624986],[8,49.72112954056037,19.71166937685416],[9,49.72248874641028,19.71351511696389],[10,49.72379367633177,19.71545045937762],[11,49.72527791311725,19.717050520147268],[12,49.72635773637688,19.719211229780285],[13,49.72743075091664,19.721453221362594],[14,49.72869114403987,19.72334410757378],[15,49.72947399687431,19.72586270806687],[16,49.7303289770401,19.72832922871828],[17,49.73126861377675,19.73070831718678],[18,49.73228851022539,19.73298460834826],[19,49.73319769750111,19.735382021194255],[20,49.73382777458126,19.73798693631852],[21,49.73460756954147,19.740512572021316],[22,49.73528701054067,19.743090313771745],[23,49.73541599529953,19.74588061456666],[24,49.73575520969498,19.74862660297049],[25,49.73621201162862,19.751335047353678],[26,49.73674819916187,19.754000353937954],[27,49.73752739916102,19.756525992407205],[28,49.73831168215255,19.75904625896203],]
podstawa=[[13,49.72947399687431,19.72586270806687],['start',49.7230800,19.6927400],['meta',49.7385600,19.7617400]]
daneflot=[[0.0,363.032],[0.2,366.000],[0.4,366.472],[0.6,369.118],[0.8,378.460],[1.0,385.600],[1.2,387.402],[1.4,390.401],[1.6,393.742],[1.8,395.784],[2.0,400.728],[2.2,406.426],[2.4,415.413],[2.6,414.576],[2.8,427.453],[3.0,435.219],[3.2,437.948],[3.4,438.827],[3.6,444.097],[3.8,451.798],[4.0,464.336],[4.2,471.849],[4.4,482.211],[4.6,509.477],[4.8,530.835],[5.0,549.044],[5.2,567.628],[5.4,581.548],[5.6,600.247],[5.8,612.867],]