name=Bezmiechowa Górna
slope=3.3km 7.3%
points=261.2
region=35
description=Nawierzchnia: szosa, stan dobry, ale wąski. Ruch samochodowy: minimalny.
Najtrudniejszy podjazd w okolicach Sanoka, kilka bardzo solidnych ścianek. Droga asfaltowa jest ślepa i kończy się na szczycie.
comments=Dnia 2014-07-05 użytkownik Frank dodał:
Ostrzegam tych którzy jadą od strony Olszanicy - trudno jest dostrzec zjazd na podjazd - brak tablicy informacyjnej. Na szczycie widok na całe Bieszczady, plus mini podjazd po bruku, 25 % na płycie pasa startowego )
Dnia 2014-07-29 użytkownik hqvkamil dodał:
W zasadzie to jedzie się na samą górę po drodze asfaltowej.  Droga wąska na jeden samochód, także warto uważać bo niektórzy lubią sobie rajd robić. 
Zdjęcia akuratnie z dzisiaj. http://imgur.com/a/hmok6
Dnia 2014-08-08 użytkownik Czarusblitz dodał:
Faktycznie to chyba najtrudniejszy podjazd w okolicy, bardzo stromy i kilka momentow scianek, trzeba sie mocno napocic, zeby wjechac. Dobra baza na trening silowy. Na szczycie piekne widoki z Akademicka  Baza Szybowcowa Uniwersytetu Warszawskiego i Rzeszoszowskiego wraz z zapleczem hotelowym i restauracyjnym. Warto zwiedzic i zapoznac sie z historia.
author=rock6
segment=0
locations=[[1,49.50797130188679,22.398754520718285],[2,49.50885398234177,22.398982456034105],[3,49.50974956538613,22.399078649755438],[4,49.51064616334164,22.39914776475655],[5,49.51154319571548,22.399204590196405],[6,49.51244034215858,22.39925572509526],[7,49.51333464663558,22.399350419678854],[8,49.51421965839997,22.39958240336341],[9,49.51487724244984,22.40030309096744],[10,49.51555858506845,22.400949900312753],[11,49.51640964166772,22.401390241750164],[12,49.51726182532395,22.401825390458043],[13,49.51811400734819,22.40226055433118],[14,49.518901606569,22.402910609218452],[15,49.51880492294117,22.40416944658557],[16,49.51870292842757,22.405526970014762],[17,49.5184519787256,22.40674307290078],[18,49.5178360910311,22.40773494545317],[19,49.51827652081464,22.40834319984242],[20,49.5191491249356,22.40804952097301],[21,49.51988746809272,22.407273136399],[22,49.52048089697453,22.406266659060634],[23,49.52096184891359,22.405098987606834],[24,49.52151422100413,22.404013311870813],[25,49.52189602369339,22.402769932832484],[26,49.52249361434787,22.40175912240329],[27,49.52323282941862,22.40120975091361],[28,49.52364899377388,22.40230052571974],[29,49.52353028759129,22.40366306964563],[30,49.52335328921027,22.405016691718743],[31,49.5232495189987,22.40639041380939],[32,49.52296534211352,22.407691788525085],]
podstawa=[[14,49.517,22.40674307290078],['start',49.5070800,22.3986600],['meta',49.5226100,22.4089600]]
daneflot=[[0.0,381.093],[0.1,383.519],[0.2,386.260],[0.3,389.424],[0.4,393.757],[0.5,400.503],[0.6,407.307],[0.7,414.426],[0.8,418.826],[0.9,420.957],[1.0,430.573],[1.1,444.539],[1.2,459.497],[1.3,472.163],[1.4,485.647],[1.5,492.592],[1.6,499.221],[1.7,500.726],[1.8,499.476],[1.9,513.191],[2.0,531.482],[2.1,541.937],[2.2,549.431],[2.3,555.018],[2.4,558.261],[2.5,553.761],[2.6,562.262],[2.7,579.107],[2.8,589.524],[2.9,596.364],[3.0,604.479],[3.1,613.118],[3.2,621.709],[3.3,622.846],]