name=Husów od Handzlówki
slope=2.9km 5.6%
points=105.8
region=47
description=Nawierzchnia: szosa, stan nierówny stary asfalt. Ruch samochodowy: minimalny.
Podjazd dość wymagający dla początkujących rowerzystów. Podczas zjazdów należy uważać na nierówny miejscami (chyba już dość stary) asfalt, mimo to pozwalający bardziej doświadczonym cyklistom rozwijać do 60 -70km/h.
comments=
author=dlugi73
segment=0
locations=[[1,49.99458088235977,22.224590940369808],[2,49.99470616703973,22.22596533635783],[3,49.99458659106295,22.227344224897934],[4,49.99441105940537,22.22871078216997],[5,49.99439751171405,22.230103734435488],[6,49.99423224830926,22.231462729343775],[7,49.99383339237327,22.23270936718859],[8,49.99330897628166,22.23383653247288],[9,49.99276041785244,22.2349396810622],[10,49.99226764495042,22.236105383018867],[11,49.99169454634789,22.23716528064324],[12,49.99099657924033,22.238037179528874],[13,49.99046455449095,22.23915447632794],[14,49.99000438719701,22.240352265259617],[15,49.9896514022168,22.24162957547219],[16,49.98938373564074,22.242961327122657],[17,49.98917406845158,22.244317554430495],[18,49.98900320455015,22.24568692463754],[19,49.98885322220907,22.247062491481756],[20,49.98877908662455,22.24845267274668],[21,49.9886413653326,22.249820146404772],[22,49.988384333006,22.251156694114343],[23,49.98820826592929,22.25252191311415],[24,49.98811753763843,22.253909717154556],[25,49.98802194329092,22.255290261676578],[26,49.98753973646127,22.255490625807965],[27,49.98688369420873,22.25453904045662],[28,49.98626104508438,22.253536823640616],]
podstawa=[[14,49.9896514022168,22.24162957547219],['start',49.9942800,22.2232800],['meta',49.9856000,22.2526100]]
daneflot=[[0.0,251.560],[0.1,260.086],[0.2,268.603],[0.3,275.559],[0.4,280.123],[0.5,282.409],[0.6,288.323],[0.7,294.611],[0.8,299.981],[0.9,303.883],[1.0,306.206],[1.1,309.691],[1.2,316.308],[1.3,322.967],[1.4,330.341],[1.5,338.066],[1.6,346.829],[1.7,352.013],[1.8,361.733],[1.9,371.188],[2.0,378.621],[2.1,384.426],[2.2,388.193],[2.3,390.599],[2.4,392.483],[2.5,396.691],[2.6,401.417],[2.7,404.480],[2.8,410.521],[2.9,414.094],]