name=Gdańsk (Stoczniowców)
slope=0.9km 5.1%
points=32.7
region=90
description=Nawierzchnia: szosa, stan średni. Ruch samochodowy: niewielki.
Podjazd od Kanału Raduni w kierunku Alei Armii Krajowej. Dość długi, na początku bardzo stromy. Końcówka o wiele łatwiejsza.
comments=
author=Phil
segment=0
locations=[[1,54.339915192353,18.63892923069102],[2,54.34007740834515,18.637431165545763],[3,54.34058552404618,18.636193704005677],[4,54.34117709384362,18.635046690128547],[5,54.3418206419495,18.633984973137217],[6,54.34245928789039,18.63291490899985],[7,54.343123019849,18.63188956764691],[8,54.34379036341638,18.63087131766156],]
podstawa=[[15,54.3418206419495,18.633984973137217],['start',54.3391600,18.6384100],['meta',54.3445500,18.6301000]]
daneflot=[[0.0,11.761],[0.1,19.519],[0.2,30.192],[0.3,38.996],[0.4,40.513],[0.5,46.775],[0.6,49.868],[0.7,51.972],[0.8,55.470],[0.9,57.987],]