name=Bębło z Białego Kościoła
slope=3.2km 3.0%
points=39.3
region=62
description=Nawierzchnia: szosa, stan średni. Ruch samochodowy: minimalny.
Podjazd - wydaje się - na końcu świata. Boczna, wąska dróżka, między wiejską zabudową i w towarzystwie żywego inwentarza. Droga momentami jest bardzo brudna, a łącząc ten fakt ze stromymi kawałkami, zdarzają się uślizgi tylnego koła. Bardzo przydatny skrót do planowania tras w tej okolicy.
comments=
author=Greek
segment=4877479
locations=[[1,50.16749757842975,19.817218610359987],[2,50.16815001482222,19.814536231710008],[3,50.1684344046962,19.811708970216387],[4,50.16853921845167,19.80884046480071],[5,50.16915448406998,19.806286548255343],[6,50.16965797377974,19.803572489184035],[7,50.17077064712664,19.80176485235438],[8,50.17057792635366,19.799436870259115],[9,50.17126327587054,19.79676834935799],[10,50.17194856425287,19.794099751914814],[11,50.17316276864201,19.792010591405187],[12,50.17459478298059,19.790437714781774],[13,50.17610732328767,19.79207732326472],[14,50.17724130162839,19.78992741949446],[15,50.17834417718881,19.787624694443707],]
podstawa=[[13,50.17126327587054,19.79676834935799],['start',50.1664800,19.8195300],['meta',50.1794700,19.7853500]]
daneflot=[[0.0,352.738],[0.2,354.617],[0.4,360.333],[0.6,361.202],[0.8,365.462],[1.0,371.395],[1.2,380.755],[1.4,392.891],[1.6,406.757],[1.8,414.520],[2.0,420.869],[2.2,426.063],[2.4,432.358],[2.6,433.524],[2.8,441.675],[3.0,443.766],[3.2,448.945],]