name=Podgórze (Rancho Panderoza) z Dusznik
slope=3.0km 5.5%
points=147
region=11
description=Nawierzchnia: szosa, stan średni. Ruch samochodowy: znikomy.
Ciekawy podjazd z ekstremalnie trudną końcówką, który zaistniał w szosowym maratonie "Klasyk Kłodzki" w 2006 r. (była tam meta, do której prawie każdy dochodził piechotą). Asfalt coraz węższy i coraz gorszej jakości, a nachylenie rośnie z każdym metrem...
comments=
author=mrkta
segment=0
locations=[[1,50.39007074191783,16.379797856018854],[2,50.38878405318258,16.377957881915222],[3,50.38742169330838,16.376261692719254],[4,50.38583466002734,16.375151370591425],[5,50.38412445963765,16.37460498944438],[6,50.38275613593103,16.373151756603875],[7,50.38134883859725,16.371625417167706],[8,50.37970706674061,16.372168908245044],[9,50.37852181391955,16.373980939789703],[10,50.37713655280182,16.375322436341094],[11,50.37541484826247,16.37488334458908],[12,50.37382421690801,16.375662048422896],[13,50.37227709424773,16.37666755661155],[14,50.371197206768,16.3785259869303],]
podstawa=[[13,50.37970706674061,16.372168908245044],['start',50.3915400,16.3812400],['meta',50.3705900,16.3810000]]
daneflot=[[0.0,563.262],[0.2,579.233],[0.4,587.716],[0.6,583.419],[0.8,597.632],[1.0,602.058],[1.2,599.389],[1.4,610.138],[1.6,620.058],[1.8,622.448],[2.0,639.126],[2.2,654.592],[2.4,686.403],[2.6,700.777],[2.8,719.342],[3.0,728.919],]