name=Grywałd (Wymyśle)
slope=4.8km 4.8%
points=199.8
region=27
description=Nawierzchnia: szosa, stan bardzo dobry. Ruch samochodowy: minimalny.
Trasa zaczyna sie od drogi woj 969. Droga asfaltowa w stanie bardzo dobrym. Piękne widoki ok 2,5 km od startu
comments=
author=zbyszekzie
segment=0
locations=[[1,49.44164386704084,20.398177689764907],[2,49.44328796597507,20.398179161479447],[3,49.44467063282508,20.396614350477762],[4,49.4449429425479,20.393976676246666],[5,49.44549879846386,20.391421254172315],[6,49.44598774448431,20.38887635027197],[7,49.44706352510435,20.386741386994345],[8,49.44829051216472,20.384932194902376],[9,49.44994883876886,20.384052185869336],[10,49.45118024718175,20.382510080093425],[11,49.45168810004785,20.37999071924935],[12,49.45315291912687,20.378700805361518],[13,49.4519559455969,20.377442301348992],[14,49.45060680730217,20.375709389306166],[15,49.44994401545026,20.373206406003533],[16,49.44926978961248,20.370712071380012],[17,49.44850467618048,20.36835318250496],[18,49.449558079799,20.367227939387362],[19,49.45031313029735,20.369370509520877],[20,49.45203776728134,20.36972326255443],[21,49.45337951809056,20.368195654797205],[22,49.45463314370112,20.366460869457683],[23,49.45626474990744,20.36559753501092],]
podstawa=[[13,49.4519559455969,20.377442301348992],['start',49.4399200,20.3980700],['meta',49.4576300,20.3639000]]
daneflot=[[0.0,460.220],[0.2,466.840],[0.4,481.988],[0.6,484.993],[0.8,497.578],[1.0,504.661],[1.2,511.527],[1.4,521.501],[1.6,529.493],[1.8,540.748],[2.0,548.453],[2.2,563.930],[2.4,575.338],[2.6,591.171],[2.8,587.904],[3.0,574.756],[3.2,563.751],[3.4,560.063],[3.6,573.132],[3.8,588.052],[4.0,614.389],[4.2,638.606],[4.4,655.419],[4.6,668.852],[4.8,687.730],]