name=Przełęcz Wilcza od Żdanowa
slope=2.5km 5.8%
points=111.7
region=12
description=Nawierzchnia: szosa, stan dobry. Ruch samochodowy: mały.
Cały czas pod górę asfaltem. Później piękny zjazd.
comments=
author=authorman
segment=0
locations=[[1,50.56268692228051,16.665937526359016],[2,50.56190383971285,16.665185077725027],[3,50.56102896554,16.664865103505576],[4,50.56011274361491,16.66493394657016],[5,50.55921201103477,16.664750113389232],[6,50.55851383827248,16.66383940383332],[7,50.55788644466212,16.662785755617392],[8,50.55725904154566,16.661732135451302],[9,50.55663162892358,16.660678543334143],[10,50.55600420679632,16.65962497926489],[11,50.55519112879753,16.65905740601397],[12,50.55430811942142,16.65935480805797],[13,50.55346240846614,16.659914444345077],[14,50.55256640368803,16.660115265616014],[15,50.55165128826199,16.660200073294504],[16,50.55104596352673,16.66112930258805],[17,50.55054632505764,16.6623049001696],[18,50.54983582283568,16.663218336934733],[19,50.54897630100203,16.663606575176914],[20,50.54822512652217,16.66284420128909],[21,50.54742721323061,16.662283196825797],[22,50.54656081260018,16.662741253288914],[23,50.54567034626972,16.66307526402693],[24,50.54484688860536,16.663644133341904],]
podstawa=[[13,50.55346240846614,16.659914444345077],['start',50.5634700,16.6666900],['meta',50.5440900,16.6644600]]
daneflot=[[0.0,399.682],[0.1,404.459],[0.2,412.371],[0.3,419.570],[0.4,424.516],[0.5,429.993],[0.6,433.790],[0.7,437.658],[0.8,446.347],[0.9,454.964],[1.0,461.347],[1.1,475.126],[1.2,485.058],[1.3,490.920],[1.4,499.425],[1.5,507.611],[1.6,514.069],[1.7,513.744],[1.8,513.663],[1.9,517.065],[2.0,524.360],[2.1,533.230],[2.2,533.762],[2.3,539.466],[2.4,542.120],[2.5,546.122],]