name=Mierzeń  z Kwapinki
slope=2.5km 4.9%
points=91.5
region=42
description=Nawierzchnia: szosa, stan dobry. Ruch samochodowy: minimalny.
Łatwa wspinaczka o umiarkowanym i stałym nachyleniu, co jest dobre do złapania stałego tempa.
comments=
author=Greek
segment=0
locations=[[1,49.87056744582927,20.183446012726563],[2,49.86994885029662,20.184383866479493],[3,49.8694081790184,20.185498235521777],[4,49.86868122654408,20.185150811982112],[5,49.86802000007547,20.184274153319393],[6,49.86823684811145,20.182934943291116],[7,49.86769533892308,20.181958100828638],[8,49.8670149398462,20.18107358321504],[9,49.86645487165818,20.179982624701893],[10,49.86590238382104,20.178882385499378],[11,49.86539562447717,20.17773392137883],[12,49.86498125988165,20.1764988181626],[13,49.86474686935183,20.17516717286037],[14,49.86399430374892,20.17444190696574],[15,49.86317715564764,20.17386047424452],[16,49.86231294276191,20.1736419700635],[17,49.86190483889185,20.172831449543082],[18,49.861612874077,20.171516194665287],[19,49.86124214011507,20.170245724051256],[20,49.86088863369039,20.16896395876347],[21,49.860547976381,20.167678327769067],[22,49.86011949245674,20.166452563859934],[23,49.85985056753312,20.165133085757247],[24,49.85970093747822,20.163758491492672],]
podstawa=[[14,49.86474686935183,20.17516717286037],['start',49.8713300,20.1827500],['meta',49.8593800,20.1624600]]
daneflot=[[0.0,267.143],[0.1,274.252],[0.2,280.721],[0.3,282.419],[0.4,288.721],[0.5,294.489],[0.6,296.397],[0.7,302.226],[0.8,309.252],[0.9,317.177],[1.0,326.879],[1.1,335.758],[1.2,343.776],[1.3,350.142],[1.4,349.272],[1.5,358.829],[1.6,369.462],[1.7,371.725],[1.8,371.515],[1.9,369.899],[2.0,376.913],[2.1,374.541],[2.2,379.294],[2.3,383.358],[2.4,386.111],[2.5,389.580],]