name=Giżynek z Wojnowa
slope=1.2km 3.4%
points=19.3
region=76
description=Nawierzchnia: szosa, stan średni. Ruch samochodowy: średni.
Podjazd drogą wojewódzką nr 556 związany z doliną rzeki Ruziec. Szosa z nieznacznymi wybojami ale bez dziur.
comments=
author=ArturGabrych
segment=0
locations=[[1,53.02291325575121,19.181737673828366],[2,53.02366872742071,19.18271420946678],[3,53.02442973905773,19.18367898544932],[4,53.02518462816552,19.184656479123305],[5,53.02574096826996,19.18592927519103],[6,53.02619342487787,19.187331368214586],[7,53.02664720141147,19.1887323139797],[8,53.02709953766101,19.19013456229368],[9,53.0275556402881,19.191533446765675],[10,53.02819935075255,19.192691617377477],[11,53.02896695667113,19.193641921728045],]
podstawa=[[14,53.02664720141147,19.1887323139797],['start',53.0223600,19.1804500],['meta',53.0297400,19.1945800]]
daneflot=[[0.0,73.409],[0.1,75.643],[0.2,79.934],[0.3,85.800],[0.4,91.770],[0.5,95.330],[0.6,96.402],[0.7,96.652],[0.8,99.281],[0.9,103.284],[1.0,109.417],[1.1,114.023],[1.2,115.864],]