name=Koczy Zamek od Kamesznicy
slope=8.0km 4.5%
points=337.3
region=16
description=Nawierzchnia: szosa, stan dobry/zły. Ruch samochodowy: średni.
Przez całą Kamesznicę droga wznosi się spokojnie. Na końcu wsi droga gwałtownie zwiększa nachylenie i również gwałtownie pogarsza się stan jej nawierzchni. Pod koniec podjazdu były nawet jakieś płytki betonowe, jeśli dobrze zapamiętałem. Na koniec podjazdu, a tym samym na koniec etapu po trasie Pętli Beskidzkiej z 2011 chyba roku miałem już jednak tak dość, że niewiele z tego odcinka pamiętam...
comments=Dnia 2015-05-31 użytkownik mrkta dodał:
Jakość asfaltu jest znakomita prawie do Przełęczy Koniakowskiej (ok. 600 m przed końcem podjazdu). Tuż przed przełęczą jest bardzo zniszczony asfalt, a od przełęczy betonowe płyty ażurowe podlane nierówną nitką asfaltu pośrodku. Z Przeł. Koniakowskiej podobne płyty betonowe są na Tyniok (czyli w prawo). Tego podjazdu nie jechałem, ale ktoś, kto to zrobił, powinien go do bazy dopisać, bo bardzo by zamieszał w rankingu Beskidu Śląskiego. Tyniok to szczyt o kilkadziesiąt metrów wyższy niż Koczy Zamek.
author=Kokosz
segment=0
locations=[[1,49.56929000032564,19.063190856657116],[2,49.56929000375949,19.060420554317716],[3,49.56994849055889,19.05800439205609],[4,49.57142575328438,19.05647169873032],[5,49.57279483017353,19.055238227450786],[6,49.57241721852427,19.05254577055689],[7,49.57202218406673,19.049850199500156],[8,49.57092603350002,19.04766137752813],[9,49.57005977831086,19.045388543164677],[10,49.57012288587453,19.042722388977836],[11,49.56917325476022,19.04050155625748],[12,49.5690593797053,19.038350232987796],[13,49.56859630057018,19.035887109191663],[14,49.56831467093892,19.03321513613264],[15,49.56737444699845,19.031217393356087],[16,49.56627948401664,19.02926676891093],[17,49.56542803313852,19.026849865837676],[18,49.56459868842489,19.024433314751946],[19,49.56372596502189,19.022200523216952],[20,49.5636717133838,19.019448501120905],[21,49.56394203338726,19.016719355970736],[22,49.56346238439835,19.014085960962575],[23,49.5628189641481,19.01155121747115],[24,49.56172254773158,19.00937040697056],[25,49.56073504106069,19.007083720885703],[26,49.55972515477439,19.0049194164759],[27,49.5587270710046,19.00261735558172],[28,49.55768400050851,19.00036412099712],[29,49.55648226269367,18.99830831354825],[30,49.55531929651224,18.99619788110647],[31,49.55481123847947,18.99369448366781],[32,49.5543798530285,18.991069575413462],[33,49.55365783736794,18.988534714782304],[34,49.5534000000287,18.985886346478992],[35,49.55326184142552,18.983205998407925],[36,49.5528928826479,18.98050068650855],[37,49.55257936098361,18.97779990495644],[38,49.55125650265657,18.976644354967448],[39,49.54994631004493,18.97487124283066],]
podstawa=[[13,49.56394203338726,19.017],['start',49.5690000,19.0659200],['meta',49.5483300,18.9743400]]
daneflot=[[0.0,464.287],[0.2,467.000],[0.4,479.397],[0.6,477.933],[0.8,477.380],[1.0,484.755],[1.2,484.982],[1.4,483.517],[1.6,487.093],[1.8,492.930],[2.0,494.320],[2.2,497.578],[2.4,500.055],[2.6,505.951],[2.8,508.105],[3.0,510.202],[3.2,514.069],[3.4,516.758],[3.6,520.643],[3.8,522.291],[4.0,530.038],[4.2,533.392],[4.4,539.549],[4.6,552.407],[4.8,566.949],[5.0,567.235],[5.2,569.981],[5.4,579.918],[5.6,585.551],[5.8,589.207],[6.0,595.656],[6.2,612.316],[6.4,639.689],[6.6,668.512],[6.8,690.990],[7.0,701.469],[7.2,733.040],[7.4,762.003],[7.6,776.334],[7.8,796.731],[8.0,825.285],]