name=Zachełmie od Podzamcza
slope=4.4km 5.5%
points=205.4
region=1
description=Nawierzchnia: szosa, stan bardzo dobry. Ruch samochodowy: mały.
Niedługa górka. Plus taki że dobra nowa nawierzchnia w końcówce, za to dość stromo tam jest.
comments=
author=gavia2621
segment=0
locations=[[1,50.83519027028731,15.663387560033811],[2,50.83403093026805,15.664309998652243],[3,50.83432188005806,15.66164983465751],[4,50.83352255494478,15.663948064656552],[5,50.83232314062359,15.666007576838297],[6,50.83240562914905,15.664760199547686],[7,50.83247233851014,15.662216189103674],[8,50.83090358104614,15.661152582017735],[9,50.8300957148673,15.659611868137063],[10,50.82945238623497,15.657043003817535],[11,50.82931820846911,15.659296131410429],[12,50.82841891945061,15.661307094005906],[13,50.82664866598374,15.66117748388001],[14,50.8249468592466,15.660736414911753],[15,50.82364856168881,15.658868040667471],[16,50.82273536055965,15.656603673497443],[17,50.82193144736847,15.65566128182968],[18,50.8205756019976,15.65667415698681],[19,50.81885607845373,15.656699346330697],[20,50.81715585415252,15.656793020317195],[21,50.81592109977367,15.655006327380534],]
podstawa=[[13,50.82841891945061,15.661307094005906],['start',50.8366000,15.6617000],['meta',50.8143500,15.6537100]]
daneflot=[[0.0,358.501],[0.2,365.885],[0.4,386.388],[0.6,387.977],[0.8,401.736],[1.0,412.804],[1.2,430.589],[1.4,433.043],[1.6,451.063],[1.8,457.861],[2.0,479.402],[2.2,477.765],[2.4,494.566],[2.6,501.458],[2.8,499.579],[3.0,509.796],[3.2,510.662],[3.4,517.297],[3.6,529.407],[3.8,542.292],[4.0,572.623],[4.2,591.429],[4.4,600.858],]