name=Łazy z Przybysławic
slope=2.2km 4.1%
points=71
region=65
description=Nawierzchnia: szosa, stan dobry. Ruch samochodowy: minimalny.
Kolejny podjazd w okolicy, z bardzo stromym początkiem szeroką na jeden samochód asfaltową drogą.
comments=
author=Wyso
segment=0
locations=[[1,50.44523965363398,20.05701602252043],[2,50.44445917096228,20.05641882606085],[3,50.44361204775844,20.056545017710732],[4,50.44278317715044,20.056953411969744],[5,50.44193138622467,20.05713030801155],[6,50.44108924080179,20.056799077897722],[7,50.44025158296122,20.056437631575818],[8,50.43941485870177,20.05607079190463],[9,50.43857759182939,20.055707058444796],[10,50.43773939010836,20.055348654152],[11,50.43690174008402,20.05498707978211],[12,50.43606583790281,20.054615718965238],[13,50.43523918031929,20.05420212370757],[14,50.43440154558377,20.0538406942012],[15,50.43356667124701,20.05346365336368],[16,50.43272939714105,20.05310023140146],[17,50.43189148448105,20.05274051657102],[18,50.43111182507872,20.052171142205452],[19,50.43038497645095,20.05142580086499],[20,50.42964532497237,20.050710531339064],[21,50.42888361929936,20.05006417150696],]
podstawa=[[13,50.43606583790281,20.054615718965238],['start',50.4457000,20.0570000],['meta',50.4280400,20.0497400]]
daneflot=[[0.0,290.777],[0.1,294.355],[0.2,303.436],[0.3,316.870],[0.4,328.718],[0.5,336.499],[0.6,340.153],[0.7,345.279],[0.8,351.176],[0.9,356.868],[1.0,359.718],[1.1,360.938],[1.2,358.836],[1.3,357.495],[1.4,359.390],[1.5,363.536],[1.6,362.874],[1.7,361.075],[1.8,361.595],[1.9,366.141],[2.0,372.566],[2.1,377.837],[2.2,380.617],]