name=Miłoszów
slope=1.7km 8.7%
points=151.3
region=36
description=Nawierzchnia: szosa, stan dobry. Ruch samochodowy: minimalny.
Fragment międzynarodowej trasy rowerowej, boczna droga z minimalnym ruchem.
comments=
author=???
segment=0
locations=[[1,51.00694323608805,15.248869476204845],[2,51.00687587388211,15.247495387440381],[3,51.00726473232108,15.24621112692239],[4,51.00805133326471,15.245574209589563],[5,51.00828256763159,15.244375883947441],[6,51.00816018395375,15.242961354976046],[7,51.00847080804819,15.241665530404703],[8,51.00893425073561,15.240444398499108],[9,51.00898328359533,15.239037213513711],[10,51.00878938150189,15.237643002408959],[11,51.00859835820452,15.236247675228583],[12,51.00841418652842,15.234850034527426],[13,51.00799807489197,15.23359898296917],[14,51.00802986900549,15.232583398162546],[15,51.00888976295446,15.232169373846546],[16,51.00975335508826,15.23183342285347],]
podstawa=[[14,51.00898328359533,15.239037213513711],['start',51.0065200,15.2500300],['meta',51.0106500,15.2319100]]
daneflot=[[0.0,253.880],[0.1,258.404],[0.2,263.558],[0.3,272.881],[0.4,279.603],[0.5,285.415],[0.6,297.800],[0.7,312.010],[0.8,324.675],[0.9,339.027],[1.0,351.245],[1.1,363.398],[1.2,375.144],[1.3,381.635],[1.4,386.655],[1.5,392.876],[1.6,398.129],[1.7,400.980],]