name=Koniaków z Kamesznicy
slope=9.4km 3.9%
points=285.4
region=16
description=Nawierzchnia: szosa, stan asfalt+bruk. Ruch samochodowy: średni.
Długi podjazd o zróżnicowanej nawierzchni. Około 6 km kilkaset metrów bruku. Widoki na Beskid Żywiecki
comments=
author=jarras
segment=0
locations=[[1,49.56872592435728,19.067251649156674],[2,49.56703654842092,19.06684557661515],[3,49.56556567194803,19.066642099852743],[4,49.56477644974414,19.064310413239582],[5,49.56333213196539,19.062761283277837],[6,49.56248278364,19.06041493095404],[7,49.56205037874901,19.057777917534167],[8,49.56155421628363,19.055170658710267],[9,49.5609014544375,19.05267410051772],[10,49.56064129260091,19.05005809627653],[11,49.56011586116448,19.047553141964045],[12,49.55918996461718,19.045273914494373],[13,49.55837679311195,19.04286358581021],[14,49.55737979570465,19.040675468522068],[15,49.55621563389779,19.03865001534996],[16,49.55562784179342,19.036123727873473],[17,49.55458455275796,19.03393299283198],[18,49.55405699193238,19.031358240504346],[19,49.5538528755792,19.02866409097851],[20,49.55339620091403,19.02606386433422],[21,49.55234980732638,19.024019907230695],[22,49.55099151042251,19.023400550580845],[23,49.54996182151878,19.021192731766405],[24,49.54909776586299,19.01905285462942],[25,49.54869479241483,19.01640530790712],[26,49.5483553130886,19.013750924964825],[27,49.54850968944021,19.011052390894747],[28,49.54825249279434,19.008363638087644],[29,49.54805673216668,19.005672370208003],[30,49.54827421020676,19.002973248448143],[31,49.54830012820937,19.000271506386184],[32,49.54808426237737,18.99757604116803],[33,49.54865835190729,18.995147833659416],[34,49.54805454656456,18.99340954407694],[35,49.54675863183873,18.99176947720275],[36,49.54754177317943,18.98945721041207],[37,49.54746954947849,18.986773475024165],[38,49.5472286528046,18.98408502796883],[39,49.54778062139913,18.98150645394253],[40,49.5479237167819,18.978845493516587],[41,49.54756000042609,18.976196940953287],[42,49.5478514992077,18.973520311931452],[43,49.54752907257448,18.970859746900942],[44,49.54724000021948,18.96818745047608],[45,49.5474751655383,18.965521533275933],[46,49.54766000072848,18.962835158075677],]
podstawa=[[12,49.54909776586299,19.01905285462942],['start',49.5689700,19.0694400],['meta',49.5472300,18.9602100]]
daneflot=[[0.0,461.577],[0.2,462.065],[0.4,475.045],[0.6,489.254],[0.8,496.489],[1.0,495.627],[1.2,488.845],[1.4,490.257],[1.6,494.509],[1.8,499.022],[2.0,503.740],[2.2,511.271],[2.4,516.819],[2.6,522.308],[2.8,525.694],[3.0,533.948],[3.2,545.586],[3.4,550.233],[3.6,561.429],[3.8,571.287],[4.0,586.990],[4.2,604.211],[4.4,633.098],[4.6,659.016],[4.8,673.221],[5.0,682.990],[5.2,699.692],[5.4,701.129],[5.6,705.593],[5.8,714.948],[6.0,719.574],[6.2,725.729],[6.4,725.248],[6.6,730.415],[6.8,751.209],[7.0,759.966],[7.2,776.394],[7.4,786.470],[7.6,785.969],[7.8,789.960],[8.0,798.541],[8.2,817.740],[8.4,819.213],[8.6,817.150],[8.8,824.339],[9.0,821.042],[9.2,826.243],[9.4,831.843],]