name=Zielona Góra (Botaniczna)
slope=4.4km 1.8%
points=22.8
region=49
description=Nawierzchnia: szosa, stan dobry. Ruch samochodowy: mały.
Długi niezbyt stromy podjazd z Ochli do Zielonej Góry
comments=
author=Rico
segment=0
locations=[[1,51.87967729904768,15.470821338265068],[2,51.88122884913568,15.472281649193746],[3,51.88279802507058,15.47369093348334],[4,51.88436170338115,15.47511658974588],[5,51.88598898924668,15.47633434254476],[6,51.88774118833301,15.476820915874669],[7,51.88946906724218,15.477603243149474],[8,51.8911937518786,15.478405896799359],[9,51.89297385096338,15.478508131781382],[10,51.89470276013221,15.478996746228745],[11,51.89600883161289,15.480986647995906],[12,51.89737204261606,15.482847633996698],[13,51.89900299193104,15.484060249793174],[14,51.90063436450907,15.48527146321885],[15,51.90226581809872,15.486482434020104],[16,51.90381923555534,15.48791370785807],[17,51.90547250459655,15.48903500315339],[18,51.90713548324104,15.490070875424067],[19,51.90891062060792,15.4904954756596],[20,51.9104954375622,15.491691570921262],[21,51.91177184057921,15.493735764086068],]
podstawa=[[13,51.89737204261606,15.482847633996698],['start',51.8782100,15.4695700],['meta',51.9133300,15.4951500]]
daneflot=[[0.0,83.358],[0.2,88.525],[0.4,91.664],[0.6,95.997],[0.8,98.135],[1.0,98.975],[1.2,103.755],[1.4,110.248],[1.6,115.269],[1.8,119.168],[2.0,119.989],[2.2,125.045],[2.4,129.113],[2.6,132.985],[2.8,132.393],[3.0,137.153],[3.2,130.081],[3.4,134.435],[3.6,141.604],[3.8,150.007],[4.0,156.688],[4.2,160.605],[4.4,163.552],]