name=Nowa Wieś (pow. Toruński)
slope=0.8km 3.6%
points=18.4
region=76
description=Nawierzchnia: szosa, stan dobry. Ruch samochodowy: mały.
Jeden z wielu podjazdów związanych z doliną rzeki Ruziec
comments=
author=Gabrych
segment=0
locations=[[1,52.96144716992108,19.253769671601276],[2,52.9613601541438,19.255194605241513],[3,52.96146181076303,19.256617485657216],[4,52.96164742679536,19.258009495264105],[5,52.96234615364467,19.25878477092624],[6,52.96316561228844,19.25923480008487],[7,52.96399139895979,19.259651020065917],]
podstawa=[[15,52.96234615364467,19.25878477092624],['start',52.9610000,19.2527400],['meta',52.9648500,19.2597500]]
daneflot=[[0.0,85.156],[0.1,90.453],[0.2,92.711],[0.3,92.644],[0.4,90.929],[0.5,97.052],[0.6,104.909],[0.7,111.116],[0.8,114.638],]