name=Bielsko-Biała (Żeleńskiego)
slope=1.2km 7.4%
points=85.9
region=40
description=Nawierzchnia: szosa, stan bardzo dobry. Ruch samochodowy: minimalny.
Krótka trasa, momentami stromo
comments=
author=?
segment=0
locations=[[1,49.81841668062278,19.095428118771224],[2,49.8176919810594,19.09596001726129],[3,49.81700520662957,19.096587003718014],[4,49.81611094420328,19.096686645260775],[5,49.8152178263155,19.096803288110095],[6,49.81472849324952,19.097850537532167],[7,49.81425003359589,19.09902440179144],[8,49.81362542284821,19.100007657814217],[9,49.81305898448232,19.10107332836742],[10,49.8126630562911,19.102310653487052],[11,49.81212704126306,19.103414810301615],]
podstawa=[[15,49.81425003359589,19.09902440179144],['start',49.8185900,19.0940700],['meta',49.8117000,19.1045500]]
daneflot=[[0.0,382.448],[0.1,383.608],[0.2,384.122],[0.3,391.287],[0.4,396.889],[0.5,400.339],[0.6,408.118],[0.7,417.524],[0.8,427.909],[0.9,436.193],[1.0,446.206],[1.1,456.966],[1.2,471.799],]