name=Kokocz ze Zwiernika
slope=5.4km 2.7%
points=146.3
region=44
description=Nawierzchnia: szosa, stan zmienny. Ruch samochodowy: mały.
Drugi wariant wyjazdu na Kokocz, z podkarpackiego Zwiernika. W początkowej części asfalt zniszczony, przy wjeździe do lasu już dobra nawierzchnia. Za Krasówką interwałowe, szarpane, męczące stromizny.
comments=
author=przeminho
segment=0
locations=[[1,49.93952509268445,21.20486477473969],[2,49.93950579161283,21.202034516123604],[3,49.93875896065715,21.199484767716967],[4,49.9384268662422,21.196717461721846],[5,49.93825156101296,21.19389902898729],[6,49.93801688696049,21.191091775617224],[7,49.93783574737331,21.18828314183861],[8,49.93755602476602,21.18550589433721],[9,49.93678804976264,21.18294849392828],[10,49.93542164088834,21.18125809455728],[11,49.93397528735071,21.17953629039505],[12,49.93314784015084,21.177214520864595],[13,49.93178480435102,21.177205755137493],[14,49.93014956978763,21.178337810181915],[15,49.92916540393592,21.180441109320327],[16,49.92947706230882,21.18317986615989],[17,49.93015318539005,21.185757095517374],[18,49.93038052471157,21.188273490594042],[19,49.92997578756937,21.19102592324873],[20,49.92968264233281,21.19380988446619],[21,49.92921188639063,21.19652924996433],[22,49.92862695289505,21.19919165379497],[23,49.92792326856674,21.201729718654178],[24,49.92716528058333,21.204257397838205],[25,49.92698743125554,21.2069937614599],[26,49.9262663926914,21.209559682697545],]
podstawa=[[13,49.94,21.18],['start',49.9397800,21.2076400],['meta',49.9260200,21.2123300]]
daneflot=[[0.0,275.115],[0.2,279.150],[0.4,279.317],[0.6,281.456],[0.8,296.998],[1.0,302.671],[1.2,309.993],[1.4,315.317],[1.6,309.687],[1.8,329.962],[2.0,357.956],[2.2,383.394],[2.4,386.423],[2.6,381.362],[2.8,373.087],[3.0,368.975],[3.2,376.426],[3.4,393.901],[3.6,402.595],[3.8,396.916],[4.0,392.648],[4.2,399.222],[4.4,404.933],[4.6,418.451],[4.8,420.822],[5.0,418.950],[5.2,420.226],[5.4,420.728],]