name=Bogucin z Pociechy
slope=2.7km 1.3%
points=11.5
region=82
description=Nawierzchnia: szosa, stan dobry. Ruch samochodowy: duży.
Długi ale łatwy i niezbyt stromy podjazd główną Warszawską. Od czasów wybudowania drogi ekspresowej ruch tutaj znacznie zmalał, jednak nadal jest dość duży. Podjazd dwuczęściowy - trochę pod górę, lekki zjazd i znowu pod górę. Rozpoczynamy zaraz za wyjazdem z Jastkowa w stronę Warszawy, końcówka tuż przed rondem w Bogucinie.
comments=
author=Narzew
segment=6951499
locations=[[1,51.31155060076431,22.421009896645273],[2,51.31214807716975,22.419944313275778],[3,51.31274554390567,22.418878702154416],[4,51.31332808767691,22.417797628239555],[5,51.31392917479221,22.416737213610418],[6,51.31453025233169,22.415676771195308],[7,51.3151313202949,22.41461630099343],[8,51.31573300282542,22.41355699717826],[9,51.31634536257511,22.41251740449775],[10,51.31694804615521,22.41145924210798],[11,51.31752290572173,22.410369306621874],[12,51.31811871953281,22.40930120434564],[13,51.31871668107174,22.408236168628378],[14,51.31931536717693,22.407172158187677],[15,51.31991404364167,22.40610811997294],[16,51.3205127104655,22.40504405398326],[17,51.32113463475336,22.404027106968215],[18,51.32174124539649,22.40297459460419],[19,51.32231087606527,22.401875533570774],[20,51.32291193599641,22.40081487182556],[21,51.32351298634793,22.39975418228039],[22,51.32412800868011,22.39872198536193],[23,51.3247298078366,22.397662368121928],[24,51.32533094996612,22.396601769725066],[25,51.32592253742253,22.39552761544394],[26,51.32651060856904,22.394448514274245],]
podstawa=[[13,51.31931536717693,22.407172158187677],['start',51.3109400,22.4220300],['meta',51.3271200,22.3934000]]
daneflot=[[0.0,190.973],[0.1,192.756],[0.2,195.163],[0.3,196.806],[0.4,199.674],[0.5,204.388],[0.6,208.805],[0.7,211.558],[0.8,212.962],[0.9,212.284],[1.0,212.761],[1.1,210.491],[1.2,209.530],[1.3,209.720],[1.4,207.834],[1.5,209.720],[1.6,209.752],[1.7,211.910],[1.8,214.697],[1.9,218.763],[2.0,219.591],[2.1,221.995],[2.2,222.179],[2.3,222.015],[2.4,221.931],[2.5,223.554],[2.6,224.577],[2.7,224.940],]