name=Wola Rafałowska od Albigowej
slope=4.0km 4.0%
points=85.9
region=47
description=Nawierzchnia: szosa, stan dostateczny. Ruch samochodowy: średni.
Podjazd znajduje się na DW877,jego większość przebiega przez wieś Albigowa. Końcówka po nieco popękanym,miejscami połatanym asfalcie(stan na kwiecień 2014).
comments=
author=dlugi73
segment=0
locations=[[1,50.01395740453769,22.223790454834443],[2,50.01231768147327,22.222882530492598],[3,50.01107343350674,22.220985834518842],[4,50.01010599060663,22.218741186030684],[5,50.00928646531728,22.216342550535956],[6,50.00785153902984,22.21485452770537],[7,50.00624507310316,22.213772449451312],[8,50.00491297186311,22.212084675029473],[9,50.00384537748536,22.20996146646644],[10,50.00339147856851,22.207363574130227],[11,50.00310965816762,22.204721879680847],[12,50.00227401897649,22.202315688087083],[13,50.00136609372532,22.199975233648274],[14,49.99983069494024,22.19872325367828],[15,49.99814687356132,22.197987960334103],[16,49.99679395349473,22.196277906487012],[17,49.99562910490015,22.194264559532485],[18,49.99418017954524,22.192750178442452],[19,49.99261062162623,22.19154062148914],]
podstawa=[[13,50.00310965816762,22.204721879680847],['start',50.0155700,22.2247700],['meta',49.9912900,22.1897400]]
daneflot=[[0.0,228.210],[0.2,233.713],[0.4,242.148],[0.6,251.878],[0.8,261.025],[1.0,262.765],[1.2,267.669],[1.4,268.703],[1.6,272.676],[1.8,284.837],[2.0,300.065],[2.2,313.122],[2.4,322.525],[2.6,333.092],[2.8,341.063],[3.0,359.279],[3.2,371.711],[3.4,373.260],[3.6,381.771],[3.8,385.482],[4.0,386.726],]