name=Falkowa z Siekierczyny
slope=4.0km 5.1%
points=152.1
region=43
description=Nawierzchnia: szosa, stan średni. Ruch samochodowy: minimalny.
Wjazd na wierzchowinę pod przymiarki nad Falkową, skąd prowadzi piękna widokowa trasa do Bukowca po gładkim asfalcie.
comments=
author=airstreeem20
segment=0
locations=[[1,49.76032668372411,20.891785480241765],[2,49.75881028195995,20.89038397622005],[3,49.75714105311486,20.89075833975653],[4,49.75539244346496,20.890693095570782],[5,49.75363914449996,20.890235005343925],[6,49.75193153075011,20.890148152287225],[7,49.7503196423184,20.889152719627873],[8,49.74897465150122,20.887612788704246],[9,49.74743262991404,20.88644848601814],[10,49.74576696528717,20.88561525397131],[11,49.74408191312017,20.88522999999998],[12,49.74254070447943,20.88608914640872],[13,49.74118174115622,20.886467307771795],[14,49.73971442764444,20.885170834954124],[15,49.73803182586837,20.885888176201433],[16,49.73678252383311,20.887778501140474],[17,49.73574320065325,20.889996111563732],[18,49.73521361726345,20.89068189364059],[19,49.73464578407835,20.888121060286267],]
podstawa=[[13,49.751,20.88522999999998],['start',49.7617600,20.8934200],['meta',49.7341300,20.8857700]]
daneflot=[[0.0,290.826],[0.2,305.370],[0.4,311.310],[0.6,307.000],[0.8,309.909],[1.0,325.613],[1.2,340.347],[1.4,338.512],[1.6,344.777],[1.8,350.109],[2.0,354.459],[2.2,360.048],[2.4,367.271],[2.6,380.880],[2.8,401.781],[3.0,419.292],[3.2,439.133],[3.4,458.764],[3.6,472.165],[3.8,486.209],[4.0,493.801],]