name=Dosłońce z Racławic
slope=1.2km 7.3%
points=74.4
region=65
description=Nawierzchnia: szosa, stan bardzo dobry  . Ruch samochodowy: incydentalny  .
Jeden z wielu ciekawych podjazdów Wyżyny Miechowskiej. Trasa przecina obszar rezerwatu "Wały". Nie jest długi, ale całkiem stromy w dolnym odcinku. Piękne krajobrazy.
comments=
author=Stradovius
segment=0
locations=[[1,50.33730475489053,20.22858031602516],[2,50.33820692874377,20.228344614624802],[3,50.33911083439984,20.228127155681022],[4,50.3399744769861,20.227689886107328],[5,50.34071645515883,20.226857414960705],[6,50.34144104285112,20.22598391408235],[7,50.34228661290406,20.22550619818753],[8,50.34320086123001,20.225529649646887],[9,50.34411531114748,20.225500151451115],[10,50.34502758195659,20.22541810453299],[11,50.34592923607816,20.2252854195973],]
podstawa=[[14,50.34228661290406,20.22550619818753],['start',50.3364000,20.2287900],['meta',50.3468100,20.2256700]]
daneflot=[[0.0,273.122],[0.1,275.059],[0.2,280.177],[0.3,287.764],[0.4,297.488],[0.5,305.248],[0.6,315.568],[0.7,326.786],[0.8,337.989],[0.9,345.180],[1.0,351.859],[1.1,358.295],[1.2,360.856],]