name=Maga od Gołęczyny
slope=4.4km 2.6%
points=88
region=46
description=Nawierzchnia: szosa, stan dobry. Ruch samochodowy: minimalny.
Bardzo fajny malowniczy podjazd z początkowym niewielkim nachyleniem (1-4%),gdy jedzie się przez las.Dalej trasa zróżnicowana z max. nach. 15%.Droga jest dobra , ale trzeba uważać na zjazdach (zalegający piasek i żwir + zakręty).Na szczycie piękne widoki na Dolinę Dolnej Wisłoki ,Pogórze Strzyżowskie i Pogórze Ciężkowickie.
comments=
author=thedk63
segment=0
locations=[[1,49.97806027174682,21.35450739985913],[2,49.97878821191419,21.35700357237579],[3,49.97886279315897,21.35974315507542],[4,49.97960652800725,21.362206140798207],[5,49.9807420956629,21.364313865614122],[6,49.98196960763079,21.366268359756646],[7,49.98307271801313,21.36841722241934],[8,49.98446987592902,21.369945118414876],[9,49.98589863755113,21.371355438939645],[10,49.98574554121853,21.36912698390347],[11,49.98555856232323,21.366441619098282],[12,49.98565672411441,21.363919056508394],[13,49.98623142801591,21.361363574121583],[14,49.98715231826817,21.359152284035304],[15,49.98744874662452,21.35657767747648],[16,49.98879441542732,21.356212370200865],[17,49.99032358356065,21.35513627573846],[18,49.99121855607036,21.35280528571377],[19,49.99059417829057,21.350456079243486],[20,49.98998900379617,21.347889440375866],[21,49.99033933644219,21.34527155025853],]
podstawa=[[14,49.98565672411441,21.35],['start',49.9767500,21.3526900],['meta',49.9914000,21.3431000]]
daneflot=[[0.0,232.465],[0.2,236.266],[0.4,248.505],[0.6,254.381],[0.8,259.793],[1.0,263.360],[1.2,270.943],[1.4,280.929],[1.6,292.991],[1.8,301.294],[2.0,290.072],[2.2,286.764],[2.4,282.684],[2.6,284.580],[2.8,288.397],[3.0,302.986],[3.2,325.263],[3.4,345.131],[3.6,350.188],[3.8,353.003],[4.0,347.718],[4.2,347.343],[4.4,348.189],]