name=Brzeziny w stronę Jaszczurowej
slope=0.9km 7.0%
points=57.2
region=46
description=Nawierzchnia: szosa, stan dobry. Ruch samochodowy: mały.
Na początku jedzie się małymi serpentynkami w wąwozie , więc ewentualny wiatr nie przeszkadza.Meta już odkryta , z jednej i drugiej strony pola uprawne.
comments=
author=thedk63
segment=0
locations=[[1,49.93098349529665,21.55940077609023],[2,49.93034559798638,21.56032908145562],[3,49.93029000006037,21.561614554410085],[4,49.93018625769511,21.563021275749406],[5,49.92978909137754,21.564137021906276],[6,49.92894430235378,21.564665131002812],[7,49.92808788709913,21.565139354543135],[8,49.92720223920998,21.56547542411863],]
podstawa=[[15,49.92978909137754,21.564137021906276],['start',49.9313500,21.5581500],['meta',49.9263000,21.5656700]]
daneflot=[[0.0,260.938],[0.1,261.888],[0.2,265.501],[0.3,273.488],[0.4,281.965],[0.5,290.073],[0.6,299.507],[0.7,312.123],[0.8,322.483],[0.9,323.602],]