name=Sławniów
slope=1.2km 7.2%
points=79.4
region=61
description=Nawierzchnia: szosa, stan dobry. Ruch samochodowy: minimalny.
Całkiem solidny podjazd jak na tą okolicę, na końcu bardzo ładne widoki na Jurę.
comments=Dnia 2015-06-06 użytkownik xtnt dodał:
Proponuję wydłużyć ten podjazd do 432m n.p.m. to chyba najwyższy punkt kawałek dalej.
author=???
segment=5762535
locations=[[1,50.46540558594782,19.699335585808285],[2,50.46468326709584,19.698589571634784],[3,50.46390917651433,19.69804756705082],[4,50.46305066484486,19.697902749138052],[5,50.46229145899076,19.697282625302933],[6,50.46153185010663,19.696639722780446],[7,50.46073298464881,19.696107330744326],[8,50.45991347108284,19.695661239127503],[9,50.45910910642867,19.69515038213376],[10,50.4583197451375,19.69458365910475],[11,50.45750919817863,19.694100630550906],]
podstawa=[[14,50.46073298464881,19.696107330744326],['start',50.4661000,19.7001500],['meta',50.4567100,19.6935700]]
daneflot=[[0.0,331.840],[0.1,336.984],[0.2,341.726],[0.3,349.811],[0.4,362.436],[0.5,373.557],[0.6,386.388],[0.7,397.726],[0.8,405.747],[0.9,410.562],[1.0,414.175],[1.1,415.717],[1.2,417.849],]