name=Obidowa od Chabówki
slope=8.8km 3.6%
points=221.7
region=27
description=Nawierzchnia: szosa, stan dobry. Ruch samochodowy: duży.
Piękne widoki. Droga praktycznie cały czas w górę, wypłaszacza się dosłownie na kilkanaście metrów.
comments=
author=wazik
segment=0
locations=[[1,49.59500602889046,19.93061808632899],[2,49.59372199750089,19.928973203517216],[3,49.59349655982246,19.931240000000003],[4,49.59186001552987,19.932346725596176],[5,49.59012470944513,19.93281635894141],[6,49.58834591337612,19.932435304264004],[7,49.58659316317988,19.93182610996132],[8,49.58532175410458,19.93341895149024],[9,49.5855347992876,19.936132998103403],[10,49.585469631275,19.938108706339108],[11,49.58415816521932,19.93628964192453],[12,49.58255003497977,19.93579075958678],[13,49.58081837909997,19.93652139314247],[14,49.5790901914711,19.937280031130626],[15,49.5773675895582,19.938060687569987],[16,49.57625126144069,19.940096711035494],[17,49.57560891883354,19.942680200308814],[18,49.5746232518317,19.944996215046217],[19,49.57357486478912,19.947227859181908],[20,49.57183376777313,19.947390627956793],[21,49.5700769014967,19.946933243693593],[22,49.56848319805257,19.945666184539164],[23,49.56678070382635,19.944780700897354],[24,49.56508285491326,19.943874088859616],[25,49.5633881736557,19.942953162896856],[26,49.56169107939612,19.942042888194237],[27,49.55999255244209,19.941138993663344],[28,49.55829534011907,19.940229302272087],[29,49.55659948429961,19.93931362829653],[30,49.5548825198132,19.93853268927296],[31,49.55351018686474,19.940069535922703],[32,49.55258647326317,19.942445273804537],[33,49.55166982845925,19.94482748088285],[34,49.55075710505061,19.9472132308897],[35,49.54985397492648,19.949607580707152],[36,49.54898502500242,19.952029228481706],[37,49.54916422832311,19.954732140836995],[38,49.54919326258039,19.957430567130018],[39,49.54803894710992,19.959541164114057],[40,49.54722446713239,19.962008785266562],[41,49.54648805816407,19.964533786710263],[42,49.54557673108292,19.966910653742616],[43,49.5445522175482,19.96918537319175],]
podstawa=[[12,49.574,19.944780700897354],['start',49.5963600,19.9298000],['meta',49.5435000,19.9714300]]
daneflot=[[0.0,487.815],[0.2,495.198],[0.4,500.128],[0.6,512.087],[0.8,535.523],[1.0,545.568],[1.2,552.264],[1.4,561.121],[1.6,579.720],[1.8,592.280],[2.0,598.652],[2.2,605.685],[2.4,615.852],[2.6,636.922],[2.8,645.893],[3.0,653.387],[3.2,663.138],[3.4,668.578],[3.6,681.704],[3.8,682.344],[4.0,673.926],[4.2,661.054],[4.4,654.014],[4.6,652.431],[4.8,667.317],[5.0,681.485],[5.2,687.946],[5.4,701.174],[5.6,704.925],[5.8,720.341],[6.0,714.372],[6.2,716.291],[6.4,720.868],[6.6,726.173],[6.8,729.357],[7.0,736.296],[7.2,748.308],[7.4,762.879],[7.6,769.439],[7.8,778.875],[8.0,787.828],[8.2,782.223],[8.4,789.804],[8.6,805.290],[8.8,805.975],]