name=Głobikowa od Małej
slope=4.0km 4.6%
points=101.2
region=46
description=Nawierzchnia: szosa, stan bardzo dobry. Ruch samochodowy: średni.
Łatwy, ale dość długi podjazd na szczyt Głobikowej, gdzie znajduje się wieża obserwacyjna i mały Park Jurajski. Zaczyna się w Małej, koło starego kościoła, trudny jest tylko początek, potem co najwyżej średnie nachylenie, ale dobry trening ze względu na swoją długość (ja np. lubię trenować na jednostajnych, średnich a dłuższych podjazdach). Ogólnie bardzo ciekawa okolica, można wstąpić na podjazd do pomnika Chrystusa w Małej (świeżutki asfalt, przynajmniej na początku).
comments=
author=TomekJac
segment=0
locations=[[1,49.96438924784911,21.509973674727007],[2,49.96396863251621,21.50729423664427],[3,49.96387422640327,21.50457239087814],[4,49.96435653010882,21.502005575402563],[5,49.96517563291514,21.499566603807807],[6,49.96562454550133,21.496929095818018],[7,49.96622151686138,21.494353428801787],[8,49.96696437457346,21.491847536520027],[9,49.96746977170738,21.489223437723695],[10,49.96774006517101,21.48649727242605],[11,49.96808714625065,21.48379323073459],[12,49.96852191375263,21.481125785784457],[13,49.96870184765417,21.47838174380297],[14,49.96873420395343,21.475651114373022],[15,49.96758465333354,21.473585773562718],[16,49.96639027829575,21.471545206718815],[17,49.96590015267559,21.46933543055377],[18,49.96566522529361,21.466956065392424],[19,49.96465186411012,21.464696467440376],]
podstawa=[[13,49.96808714625065,21.48379323073459],['start',49.9651400,21.5124500],['meta',49.9637600,21.4623200]]
daneflot=[[0.0,270.523],[0.2,281.307],[0.4,292.582],[0.6,305.090],[0.8,315.134],[1.0,329.540],[1.2,340.658],[1.4,348.251],[1.6,360.476],[1.8,375.247],[2.0,376.554],[2.2,380.411],[2.4,387.086],[2.6,393.143],[2.8,397.006],[3.0,400.685],[3.2,406.610],[3.4,417.492],[3.6,434.261],[3.8,445.379],[4.0,454.310],]