name=Valun (wyspa Cres)  (Chorwacja)
slope=4.0km 7.5%
points=256.8
region=125
description=Nawierzchnia: szosa, stan dobra. Ruch samochodowy: mały.
To według mnie najtrudniejszy podjazd na Wyspach Cres-Losinj. Zaczynamy w małej miejscowości Valun, nad brzegiem morza. Początek w miejscowości mocno stromy, ale dalej idzie już lżej. Trasa bardzo widokowa, praktycznie cały czas widzimy morze i zatokę na wyspie Cres. Aby dojechać do początku podjazdu należy zjechać z głównej drogi na wyspie do miejscowości Valun (zjazd Lubenice-Valun).
comments=
author=Bystry
segment=0
locations=[[1,44.90599695088316,14.359028983617577],[2,44.90438884960601,14.358582159172329],[3,44.90326227763961,14.360192678698809],[4,44.90192365703412,14.361899185802258],[5,44.90105455416407,14.363711806542597],[6,44.89947296930564,14.3649023234085],[7,44.89771632250535,14.365150587763765],[8,44.89631940830594,14.366138317464902],[9,44.89510402325471,14.368038819205935],[10,44.89466498316422,14.370135016847144],[11,44.89627065102439,14.369722343687158],[12,44.89765000000679,14.371170302272162],[13,44.89635202490019,14.372705428537529],[14,44.89629822051651,14.375175759276772],[15,44.89559086924854,14.377521921563812],[16,44.89462657794856,14.37948724946034],[17,44.89416834222604,14.381555353757562],[18,44.89428199881029,14.382501833231117],[19,44.89431593023635,14.384214883411346],]
podstawa=[[14,44.898,14.369722343687158],['start',44.9073500,14.3598000],['meta',44.8950100,14.3865500]]
daneflot=[[0.0,2.818],[0.2,25.2993],[0.4,51.167],[0.6,57.111],[0.8,64.708],[1.0,77.812],[1.2,99.320],[1.4,122.65],[1.6,137.816],[1.8,152.322],[2.0,167.88],[2.2,181.982],[2.4,198.465],[2.6,221.179],[2.8,234.153],[3.0,242.864],[3.2,251.011],[3.4,264.921],[3.6,274.801],[3.8,287.217],[4.0,302.941],]