name=Dobromierz
slope=1.7km 4.7%
points=55.1
region=38
description=Nawierzchnia: szosa, stan dobry. Ruch samochodowy: średni.
Podjazd główna ulicą Dobromierza wzdłuż zalewu.
comments=
author=???
segment=0
locations=[[1,50.91371675115818,16.24975499457105],[2,50.91335316298153,16.24848743401344],[3,50.91325389705521,16.24708260788441],[4,50.9129728994867,16.245747250408954],[5,50.91262540231107,16.244445487753637],[6,50.91227506527656,16.24314566736348],[7,50.91192609093231,16.24184500834599],[8,50.91165901169058,16.24050281269001],[9,50.91128937136983,16.239216626145435],[10,50.91095427249754,16.23790708852505],[11,50.9106129552336,16.236601283310165],[12,50.9103942677753,16.235242060408723],[13,50.91026762066095,16.233842859141305],[14,50.91024069999226,16.232437967157466],[15,50.90972832246543,16.23155510085212],[16,50.90908346140481,16.23059694231449],]
podstawa=[[14,50.91128937136983,16.239216626145435],['start',50.9141600,16.2509800],['meta',50.9086700,16.2293500]]
daneflot=[[0.0,268.675],[0.1,270.631],[0.2,272.370],[0.3,273.094],[0.4,273.218],[0.5,273.115],[0.6,274.455],[0.7,277.818],[0.8,285.231],[0.9,292.894],[1.0,299.969],[1.1,305.219],[1.2,312.600],[1.3,321.424],[1.4,331.170],[1.5,338.564],[1.6,346.006],[1.7,347.275],]