name=Zamek Kamieniec od Korczyny
slope=5.0km 3.5%
points=157
region=47
description=Nawierzchnia: szosa, stan dobry. Ruch samochodowy: minimalny.
Ciekawy podjazd pod Zamek Kamieniec w Odrzykoniu. Dwie bardzo wymagające "ścianki".
W 2013 roku przebiegał tędy jeden z etapów Wyścigu Solidarności i Olimpijczyków.
Trudność tego podjazdu można zobaczyć oglądając poniższy filmik:
http://www.youtube.com/watch?v=W5LBJHjFIP8
comments=
author=Beymont
segment=0
locations=[[1,49.71936861018239,21.809017239976583],[2,49.72074761487819,21.80734079506442],[3,49.72210925499556,21.80645568361001],[4,49.72288996107904,21.804005087991072],[5,49.72382414960985,21.801685601653276],[6,49.72448717224965,21.79915845726316],[7,49.72534060318203,21.79683502032185],[8,49.72656528516655,21.794991207221074],[9,49.72762232034935,21.7928041779428],[10,49.72898051350613,21.791086963990892],[11,49.73018469437559,21.78908855941063],[12,49.731452290711,21.78719210392876],[13,49.73264593694964,21.78521135436347],[14,49.73407615689334,21.78586951869306],[15,49.73573002060177,21.785903966448586],[16,49.73737949225541,21.786036406360267],[17,49.73889611210832,21.78493312406465],[18,49.74061758431668,21.785077469412954],[19,49.74183081923467,21.786753344801582],[20,49.7424931084057,21.788964486693203],[21,49.74407085850233,21.79000888517396],[22,49.74561079786855,21.791183395220287],[23,49.7467793249997,21.793214546345325],[24,49.74714148158931,21.79587493807753],]
podstawa=[[13,49.73264593694964,21.78521135436347],['start',49.7184600,21.8112800],['meta',49.7477300,21.7984100]]
daneflot=[[0.0,290.798],[0.2,295.313],[0.4,290.505],[0.6,291.264],[0.8,299.784],[1.0,302.145],[1.2,307.982],[1.4,326.381],[1.6,342.165],[1.8,355.927],[2.0,380.535],[2.2,391.010],[2.4,381.910],[2.6,384.850],[2.8,374.522],[3.0,390.298],[3.2,410.869],[3.4,414.491],[3.6,419.612],[3.8,425.168],[4.0,417.550],[4.2,409.944],[4.4,418.835],[4.6,438.653],[4.8,449.586],[5.0,462.649],]