name=Borzęta ze wschodu
slope=3.0km 3.4%
points=49.2
region=41
description=Nawierzchnia: szosa, stan dobry. Ruch samochodowy: duży.
Łatwy podjazd drogą wojewódzką 967. Nachylenie jest nieduże, może nieco większe w drugiej części trasy. Nie ma jakichś większych wypłaszczeń ani  stromizn. Droga niestety jest ruchliwa.
comments=
author=Greek
segment=4575092
locations=[[1,49.87089596912089,20.013420302718487],[2,49.87052636301516,20.010756360094433],[3,49.86956915587333,20.008483535905953],[4,49.8688857138122,20.005975070433237],[5,49.86825222644287,20.003429519813835],[6,49.86701511654359,20.001619249811256],[7,49.86578792260487,19.999792371932585],[8,49.86545287737431,19.99711661367337],[9,49.86463733960338,19.9947554934065],[10,49.86346403486024,19.992724312985047],[11,49.8628389114475,19.9902158452594],[12,49.86295570344013,19.987499677535425],[13,49.86309000003193,19.984781299166116],[14,49.86268344427187,19.982142218441822],]
podstawa=[[14,49.86545287737431,19.99711661367337],['start',49.8714100,20.0160300],['meta',49.8620000,19.9796300]]
daneflot=[[0.0,278.548],[0.2,285.436],[0.4,289.506],[0.6,290.383],[0.8,296.061],[1.0,297.425],[1.2,303.878],[1.4,311.170],[1.6,320.960],[1.8,335.120],[2.0,335.987],[2.2,351.389],[2.4,355.822],[2.6,363.394],[2.8,375.650],[3.0,381.378],]