name=Strzelce Górne
slope=0.9km 6.4%
points=47.3
region=76
description=Nawierzchnia: szosa, stan Średni. Ruch samochodowy: umiarkowany.
Podjazd we wsi słynącej ze Święta Śliwki
comments=
author=M
segment=0
locations=[[1,53.20773429306644,18.175951391973854],[2,53.20800646532518,18.174454453359544],[3,53.20830223430109,18.172970185318377],[4,53.20861465974441,18.171497481195956],[5,53.20891971247816,18.17003853536835],[6,53.20967604431107,18.16914003602983],[7,53.2103225796177,18.168051847485913],[8,53.21056353392706,18.166543204714344],]
podstawa=[[15,53.20891971247816,18.17003853536835],['start',53.2074900,18.1770900],['meta',53.2107500,18.1650100]]
daneflot=[[0.0,31.718],[0.1,36.218],[0.2,42.253],[0.3,50.745],[0.4,62.702],[0.5,72.843],[0.6,80.179],[0.7,86.176],[0.8,89.027],[0.9,89.771],]