name=Jasień
slope=3.0km 2.1%
points=29.9
region=78
description=Nawierzchnia: szosa, stan średni. Ruch samochodowy: minimalny.
Ładna trasa prowadząca od dużego jeziora.
comments=
author=Teigenes
segment=0
locations=[[1,54.28804744919487,17.622897944715533],[2,54.2869891112557,17.625289513212124],[3,54.2858373492064,17.62751543687216],[4,54.28595603376215,17.630321060476945],[5,54.28613939657301,17.633287657742926],[6,54.28658448682488,17.636191837821457],[7,54.28703244076154,17.639094758523925],[8,54.28773170833134,17.641785717730045],[9,54.28894797284808,17.643947348313873],[10,54.2900841914723,17.646224947048267],[11,54.29114245028335,17.648618729430154],[12,54.29220953109688,17.651000963920637],[13,54.29341834634337,17.653172846576012],[14,54.29464598076139,17.655315602064547],]
podstawa=[[13,54.28773170833134,17.641785717730045],['start',54.2891000,17.6205000],['meta',54.2958300,17.6575300]]
daneflot=[[0.0,113.012],[0.2,121.125],[0.4,137.644],[0.6,138.625],[0.8,138.016],[1.0,144.646],[1.2,149.566],[1.4,152.000],[1.6,151.760],[1.8,150.022],[2.0,158.234],[2.2,164.000],[2.4,164.948],[2.6,167.041],[2.8,175.726],[3.0,175.750],]