name=Kamienne ze Stryszawy dolnej przez Steczki
slope=3.4km 5.5%
points=127.5
region=22
description=Nawierzchnia: szosa, stan idealny. Ruch samochodowy: minimalny.
Podjazd na Kamienne od łatwiejszej strony. Jadąc od Suchej na DW skręcamy w lewo na Steczki pod koniec przysiółka, za przystankiem autobusowym znowu w lewo do szczytu. Polecam raczej jako zjazd (góra ciekawsza od strony Zasypnicy)
comments=
author=grun
segment=0
locations=[[1,49.73460217541624,19.54392270563858],[2,49.73341798529209,19.542032223307388],[3,49.73186649576355,19.54083441814089],[4,49.73038871011995,19.540140494756088],[5,49.72869917971984,19.54082193842521],[6,49.72706996531166,19.54179364650929],[7,49.72552022298749,19.54294670789284],[8,49.72393454820803,19.543798484814715],[9,49.72220294642919,19.544109263409837],[10,49.72046791038314,19.54440912107816],[11,49.71879600320713,19.544990914672667],[12,49.71828804427212,19.546851956824185],[13,49.71931433398866,19.548974515865666],[14,49.7199929343382,19.55133870429586],[15,49.72118343107927,19.553175291907905],[16,49.72236730130068,19.55501000000004],]
podstawa=[[13,49.726,19.544109263409837],['start',49.7363400,19.5439100],['meta',49.7236500,19.5564500]]
daneflot=[[0.0,365.560],[0.2,372.770],[0.4,383.584],[0.6,392.207],[0.8,399.427],[1.0,412.436],[1.2,420.318],[1.4,428.024],[1.6,433.244],[1.8,444.250],[2.0,452.716],[2.2,460.543],[2.4,475.019],[2.6,497.287],[2.8,521.161],[3.0,533.291],[3.2,549.528],[3.4,552.302],]