name=Bielanka od Gorlic
slope=6.6km 4.2%
points=191.7
region=34
description=Nawierzchnia: szosa, stan słaby. Ruch samochodowy: mały.
Jadąc w stronę Nowego Sącza krajową 28 skręcamy w lewo i wspinamy się w górę w dolinie na początku  między domami, a później lasami. Cały czas towarzyszy nam potok górski. Po łagodnym początku następuje skręt w prawo i dużo większe nachylenie utrzymujące się aż do samego szczytu. Oczywiście można jechać dalej, ale ta część nie jest pokryta asfaltem. Asfalt w drugiej części podjazdu nie jest w dobrym stanie
comments=
author=Kuba
segment=0
locations=[[1,49.62399958162214,21.115145740537514],[2,49.62223606037765,21.11561589517271],[3,49.62046268447755,21.11590875922832],[4,49.61868958287853,21.11553450702786],[5,49.61692030679742,21.115118101773987],[6,49.61517413453154,21.1153427915649],[7,49.61358144485798,21.114737617255514],[8,49.61183165037622,21.1142483641122],[9,49.6100452348296,21.114368795958853],[10,49.60833072460491,21.11514648145362],[11,49.60671597990751,21.116321961687845],[12,49.60505258022536,21.117339659343884],[13,49.60350373969011,21.118712896246734],[14,49.60187874277761,21.119758046418383],[15,49.6001181360882,21.11927299045783],[16,49.59836596249281,21.11871067650884],[17,49.59664150854433,21.117979480774693],[18,49.59488306412415,21.117581676211557],[19,49.59311587718135,21.118015072627145],[20,49.59150102954142,21.117822574146885],[21,49.59013412264459,21.11604225565702],[22,49.58899601943105,21.113961220433794],[23,49.58837431845979,21.111380795816103],[24,49.58683337124069,21.110114147885042],[25,49.5851156605649,21.110508247190637],[26,49.58339949490059,21.11128961169163],[27,49.58173581506451,21.112305710788974],[28,49.5802048116922,21.11371074495264],[29,49.57929940083331,21.116077525703076],[30,49.57881565729755,21.118725422407465],[31,49.57843442091488,21.121422293211253],[32,49.57800645799466,21.12409657550529],]
podstawa=[[12,49.602,21.117979480774693],['start',49.6257400,21.1145100],['meta',49.5767400,21.1259500]]
daneflot=[[0.0,310.024],[0.2,318.614],[0.4,323.925],[0.6,330.292],[0.8,332.541],[1.0,336.828],[1.2,343.585],[1.4,357.021],[1.6,368.475],[1.8,388.371],[2.0,384.949],[2.2,394.252],[2.4,402.533],[2.6,400.480],[2.8,397.596],[3.0,400.838],[3.2,394.610],[3.4,397.942],[3.6,405.310],[3.8,407.749],[4.0,411.193],[4.2,432.347],[4.4,447.799],[4.6,461.225],[4.8,473.175],[5.0,479.359],[5.2,493.694],[5.4,517.277],[5.6,535.578],[5.8,544.954],[6.0,552.795],[6.2,565.782],[6.4,575.474],[6.6,585.910],]