name=Baryczka
slope=2.3km 7.5%
points=141.2
region=47
description=Nawierzchnia: szosa. Ruch samochodowy: minimalny.
Ciekawy podjazd. Polecam później zjazd do Sołonki, można rozwinąć duże prędkości
comments=
author=Beymont
segment=2279285
locations=[[1,49.88353361326505,21.905328449915828],[2,49.88403198334967,21.906493954992357],[3,49.88453034175161,21.907659484133205],[4,49.88503262443453,21.908820331340394],[5,49.88535304462411,21.910118764201115],[6,49.88560417788376,21.91146195077374],[7,49.88591597431024,21.912772139712843],[8,49.88634969981709,21.913996427166694],[9,49.88695452625291,21.91503021862502],[10,49.88757507124176,21.916044754535733],[11,49.8881956073786,21.917059316532345],[12,49.88856301405087,21.9183196278899],[13,49.88908002920153,21.91946241975984],[14,49.88966861284288,21.920514891298694],[15,49.89030650813574,21.921502566300887],[16,49.89090913662086,21.922542788173132],[17,49.89150308872308,21.92359505551792],[18,49.89206564847241,21.924681493657886],[19,49.89250031032053,21.92590709728529],[20,49.89297374925135,21.927097060116125],[21,49.89347363756882,21.92823871100893],[22,49.89376182634063,21.92956434758821],]
podstawa=[[13,49.88856301405087,21.9183196278899],['start',49.8831000,21.9042500],['meta',49.8940500,21.9308900]]
daneflot=[[0.0,242.410],[0.1,251.101],[0.2,258.851],[0.3,264.887],[0.4,271.442],[0.5,280.686],[0.6,290.729],[0.7,298.467],[0.8,302.920],[0.9,309.674],[1.0,316.747],[1.1,322.703],[1.2,325.745],[1.3,335.810],[1.4,347.685],[1.5,356.665],[1.6,365.143],[1.7,372.985],[1.8,381.047],[1.9,389.326],[2.0,398.769],[2.1,406.537],[2.2,411.729],[2.3,416.394],]