name=Kańczuga
slope=0.7km 6.6%
points=35
region=47
description=Nawierzchnia: szosa, stan dobry. Ruch samochodowy: średni.
Krótki ale wymagający(wg. znaku 10%) podjazd na wzniesienie zwane "Wygoda" lub Górka Kańczudzka. W 2012r. podjazd był na trasie przejazdu "Wyścigu Solidarności"
comments=
author=dlugi73
segment=0
locations=[[1,49.97706632061976,22.422291636979594],[2,49.97663428296239,22.42353943382875],[3,49.97622181224599,22.42480317282184],[4,49.97595247795676,22.42615230245167],[5,49.97574310580129,22.427531563189177],[6,49.97553410939338,22.42891095589073],]
podstawa=[[15,49.97595247795676,22.42615230245167],['start',49.9778200,22.4216000],['meta',49.9752100,22.4301000]]
daneflot=[[0.0,200.346],[0.1,206.394],[0.2,212.370],[0.3,222.544],[0.4,232.440],[0.5,239.872],[0.6,244.098],[0.7,245.935],]