name=Kokoszków z Nowego Targu
slope=2.0km 7.6%
points=142.4
region=27
description=Nawierzchnia: szosa, stan bardzo dobry. Ruch samochodowy: minimalny.
Nawierzchnia nowa. Idealny podjazd na kolarkę. Wjeżdżam tam na rozgrzewkę przed Oleksówkami. Ładne widoki na tatry i Nowy Targ
comments=
author=krzaczor
segment=0
locations=[[1,49.48651359595809,20.039557071201102],[2,49.48701407268408,20.040750300723516],[3,49.48781475102825,20.041460957501954],[4,49.48850794675995,20.042406803286895],[5,49.48919807159945,20.04333836477963],[6,49.49008161293963,20.04373241937492],[7,49.49061979364614,20.044890144954024],[8,49.49121466189381,20.0460009102012],[9,49.49188859419174,20.046991896834356],[10,49.4926058061041,20.047907902915313],[11,49.49349564332344,20.048350567304624],[12,49.49438273366596,20.04880295846101],[13,49.49516735558122,20.04958445473278],[14,49.49590285811228,20.050472159037668],[15,49.49666915662489,20.051284473751593],[16,49.49747480148128,20.052006878161365],[17,49.49811839789716,20.053045564305876],[18,49.49887660823399,20.0538542217123],[19,49.49968566889136,20.054556707803954],]
podstawa=[[14,49.49349564332344,20.048350567304624],['start',49.4862000,20.0383000],['meta',49.5003500,20.0555700]]
daneflot=[[0.0,582.618],[0.1,584.216],[0.2,587.464],[0.3,594.943],[0.4,604.961],[0.5,605.839],[0.6,608.621],[0.7,614.729],[0.8,618.800],[0.9,626.742],[1.0,633.820],[1.1,641.686],[1.2,654.270],[1.3,665.916],[1.4,678.571],[1.5,691.592],[1.6,697.340],[1.7,703.911],[1.8,713.205],[1.9,726.052],[2.0,734.207],]