name=Jawor od Ośrodka Wypoczynkowego
slope=3.4km 6.6%
points=220.7
region=35
description=Nawierzchnia: szosa. Ruch samochodowy: mały.
Łatwiejszy wariant podjazdu na górę Jawor. Wspinaczkę zaczynamy przy bramie ośrodka wypoczynkowego "Jawor". Nachylenie podjazdu bardzo zróżnicowane, z wypłaszczeniami po drodze.
comments=Dnia 2014-08-22 użytkownik hqvkamil dodał:
Jak narazie asfalt nie jest zły są pęknięcia ale dużych dziur nie ma.  Trzeba uważać na sypkie kamyczki.
author=rocks6
segment=0
locations=[[1,49.37836721644651,22.474379456681504],[2,49.37921496588449,22.476727070281754],[3,49.38005064514363,22.478734774389977],[4,49.38017795289304,22.476081030233104],[5,49.38064014526551,22.476570853873454],[6,49.38087977220746,22.479206485020086],[7,49.38026286152378,22.48170990088363],[8,49.38086087941887,22.480554713522224],[9,49.38149805312818,22.478067214085286],[10,49.38143224097104,22.475411036281002],[11,49.38197382246723,22.47755832923542],[12,49.38218924215998,22.48022317428729],[13,49.38315604328633,22.482307076377197],[14,49.38401426306865,22.484512600477842],[15,49.38427969037973,22.487166890308686],[16,49.38459097239336,22.489804898394482],]
podstawa=[[14,49.38149805312818,22.478067214085286],['start',49.3770800,22.4725900],['meta',49.3855100,22.4920200]]
daneflot=[[0.0,495.197],[0.2,504.733],[0.4,520.659],[0.6,549.281],[0.8,546.424],[1.0,563.224],[1.2,577.348],[1.4,594.429],[1.6,592.673],[1.8,597.424],[2.0,590.659],[2.2,601.294],[2.4,625.871],[2.6,642.992],[2.8,661.067],[3.0,683.982],[3.2,700.599],[3.4,718.164],]