name=Dolina Białej Wisełki
slope=4.2km 5.0%
points=125.2
region=16
description=Nawierzchnia: szosa, stan dobry. Ruch samochodowy: minimalny.
Formalnie prawie na całej długości zakaz ruchu, niedotyczący mieszkańców kilku przysiółków. Faktycznie nie dotyczy on także rowerzystów, ale trzeba uważać na bardzo duży ruch pieszych turystów idących na Baranią Górę. Jedna z najpiękniejszych tras w Polsce. Wznios bardzo łagodny. Dopiero na sam koniec niespodziewana zniszczona nitka asfaltu pnie się ostro w las i... kończy za pierwszym zakrętem. Dalej tylko szuter.
comments=
author=mrkta
segment=0
locations=[[1,49.61983184645616,18.938697167869236],[2,49.6199222520845,18.94143238184222],[3,49.62083389651649,18.943823119773924],[4,49.62071148684403,18.94661139035543],[5,49.62013321926286,18.949270431498917],[6,49.61918093884717,18.951661209320037],[7,49.61907964400306,18.95426843360542],[8,49.61916225721717,18.956980076399987],[9,49.61934006125733,18.959579205631826],[10,49.61990981471529,18.962135169209887],[11,49.62008282960735,18.964914147016543],[12,49.62032815935188,18.967704225806642],[13,49.62058670274706,18.970479586254555],[14,49.62089546921754,18.97325490217588],[15,49.62127228843894,18.975966504564667],[16,49.62254289608673,18.97796952482554],[17,49.62291825524529,18.98068411179952],[18,49.62293767248809,18.983383541602393],[19,49.62390135793466,18.985765521286453],[20,49.62543330035422,18.987123765514866],]
podstawa=[[13,49.62008282960735,18.964914147016543],['start',49.6188100,18.9364900],['meta',49.6265500,18.9880600]]
daneflot=[[0.0,560.543],[0.2,568.245],[0.4,571.921],[0.6,582.869],[0.8,595.219],[1.0,607.198],[1.2,614.955],[1.4,623.121],[1.6,634.439],[1.8,652.221],[2.0,664.562],[2.2,664.472],[2.4,672.789],[2.6,680.313],[2.8,689.537],[3.0,701.843],[3.2,709.284],[3.4,724.234],[3.6,727.325],[3.8,745.652],[4.0,757.943],[4.2,769.743],]