name=Pogorzyce z Chrzanowa
slope=2.5km 4.0%
points=59.2
region=64
description=Nawierzchnia: szosa, stan dobry. Ruch samochodowy: minimalny.
Krótki, lecz najtrudniejszy podjazd w kierunku Płazy
comments=
author=?
segment=0
locations=[[1,50.11221184656711,19.413790865040028],[2,50.11135682563228,19.41411288804784],[3,50.11050080600256,19.414428286431757],[4,50.10964340156654,19.414734501148132],[5,50.10878166982098,19.41500907784939],[6,50.10791940131709,19.41527965146952],[7,50.1070633010232,19.415594596088226],[8,50.10620719987746,19.415909529448072],[9,50.10533801666043,19.41585508525702],[10,50.10446829664409,19.415714877476034],[11,50.10361540906017,19.41599310523884],[12,50.10296798443434,19.41691286857349],[13,50.1025055924358,19.418074215587126],[14,50.10219096026732,19.419354789870113],[15,50.10193596632453,19.42066609544895],[16,50.10182668269324,19.420719765361127],[17,50.10140573398267,19.419659030205594],[18,50.1011297898643,19.418363045194383],[19,50.10084934842342,19.417069662291283],[20,50.10037884142506,19.415927468900463],[21,50.10039188291275,19.41456589152142],[22,50.10053025672109,19.413212024525137],[23,50.10083734809695,19.411937956712563],[24,50.10104551739945,19.4106174926319],]
podstawa=[[14,50.108,19.414],['start',50.1130700,19.4134900],['meta',50.1011700,19.4092600]]
daneflot=[[0.0,282.392],[0.1,282.802],[0.2,286.087],[0.3,288.824],[0.4,291.926],[0.5,296.392],[0.6,299.686],[0.7,303.930],[0.8,309.802],[0.9,318.613],[1.0,327.552],[1.1,335.396],[1.2,340.616],[1.3,345.265],[1.4,352.936],[1.5,357.487],[1.6,357.508],[1.7,356.941],[1.8,355.693],[1.9,355.595],[2.0,359.309],[2.1,365.845],[2.2,372.378],[2.3,377.564],[2.4,380.473],[2.5,381.117],]