name=Super-Besse  (Francja)
slope=2.8km 5.8%
points=146
region=131
description=Nawierzchnia: szosa, stan dobry. Ruch samochodowy: średni.
Droga D149 odbija w prawo od ruchliwej D978 i pnie się w bardzo ładnej scenerii Masywu centralnego, do stacji narciarskiej Super-Bess. W lecie umiarkowany ruch.
comments=
author=Aglarond
segment=0
locations=[[1,45.50322370614667,2.889417677065353],[2,45.50329317311414,2.888128449170722],[3,45.50340157449057,2.8868438971202295],[4,45.50351489719757,2.8855602233309128],[5,45.50361453204417,2.8842752866621595],[6,45.50354374635383,2.882988206569621],[7,45.50339338596449,2.8817122943465847],[8,45.50323664708633,2.8804379391085604],[9,45.5030599542408,2.8791690138708645],[10,45.50285874896982,2.8779074603389745],[11,45.50256168421444,2.8767189958628023],[12,45.50224484359077,2.8755932029932865],[13,45.50229353865359,2.874301705459061],[14,45.50210665209877,2.87309215107382],[15,45.50183675116018,2.8718808441274177],[16,45.50134557561944,2.87079638138448],[17,45.50084705543809,2.869722113954708],[18,45.50083745137605,2.868469966812654],[19,45.50125596803576,2.867325132481028],[20,45.50184029152354,2.866336908336052],[21,45.50244504599057,2.8653888667943193],[22,45.5030332293821,2.864415327602728],[23,45.50362449818091,2.8634343619006586],[24,45.50423602167766,2.8624809335683494],[25,45.50503981601736,2.861924639953372],[26,45.50592176054229,2.8616242062239508],[27,45.5068033334953,2.8613228986832837],]
podstawa=[[13,45.50183675116018,2.8718808441274177],['start',45.5031800,2.8907100],['meta',45.5075700,2.8608000]]
daneflot=[[0.0,1155.650],[0.1,1156.260],[0.2,1157.049],[0.3,1157.825],[0.4,1160.533],[0.5,1164.655],[0.6,1173.585],[0.7,1181.918],[0.8,1194.506],[0.9,1203.061],[1.0,1215.153],[1.1,1228.906],[1.2,1238.193],[1.3,1250.857],[1.4,1257.210],[1.5,1261.927],[1.6,1259.120],[1.7,1257.664],[1.8,1264.035],[1.9,1274.067],[2.0,1280.522],[2.1,1284.712],[2.2,1287.381],[2.3,1290.004],[2.4,1290.283],[2.5,1297.049],[2.6,1304.760],[2.7,1313.334],[2.8,1316.753],]