name=Pasmo Jazowej
slope=5.0km 3.4%
points=114.2
region=46
description=Nawierzchnia: szosa, stan zmienny. Ruch samochodowy: minimalny.
Startujemy w Łękach Strzyżowskich koło kapliczki. Kończymy w lesie na grzbiecie Jazowej w okolicach rezerwatu "Herby". Stan trasy jest zróżnicowany. Na większości trasy nowy asfalt. Jedynie po minięciu ostatnich zabudowań przy wjeździe do lasu, bardzo zniszczony asfalt z mnóstwem dziur.
comments=
author=???
segment=0
locations=[[1,49.80894643050028,21.661764228439438],[2,49.81051976428976,21.663110616756057],[3,49.81212731222094,21.664326385658796],[4,49.81375471703635,21.66551947588573],[5,49.81549979694607,21.664823194843052],[6,49.81726612112472,21.664415103198962],[7,49.81880287444326,21.66296253466544],[8,49.82033200963644,21.661538026426797],[9,49.821903138894,21.660239476851643],[10,49.82350944397381,21.661454783700492],[11,49.82526524849604,21.661061964787336],[12,49.82699286326697,21.6602542097163],[13,49.82877674101793,21.660123176816114],[14,49.83030657226776,21.661423399195655],[15,49.83198795022555,21.6622809937071],[16,49.83376386562047,21.661898389295516],[17,49.83549919367449,21.66115156886974],[18,49.83693601466941,21.661055749747902],[19,49.83840848455025,21.662569242212612],[20,49.83982263744149,21.664192553971702],[21,49.84159766476854,21.664414974340616],[22,49.84147146080871,21.666862846407412],[23,49.83967965122955,21.667045219811143],[24,49.83805535772053,21.668191150006578],]
podstawa=[[13,49.82877674101793,21.660123176816114],['start',49.8079400,21.6601600],['meta',49.8379000,21.6708800]]
daneflot=[[0.0,252.097],[0.2,263.280],[0.4,275.309],[0.6,289.284],[0.8,311.505],[1.0,325.847],[1.2,325.849],[1.4,328.355],[1.6,333.492],[1.8,339.772],[2.0,336.255],[2.2,341.925],[2.4,353.095],[2.6,355.868],[2.8,365.607],[3.0,370.367],[3.2,378.194],[3.4,388.406],[3.6,388.068],[3.8,388.754],[4.0,407.021],[4.2,414.998],[4.4,422.623],[4.6,417.004],[4.8,408.870],[5.0,420.821],]