name=Występa
slope=0.5km 9.2%
points=52
region=33
description=Nawierzchnia: szosa, stan dobry. Ruch samochodowy: mały.
Krótki i stromy, jeden z najbardziej znanych podjazdów wokół Kielc
comments=Dnia 2015-01-17 użytkownik nemo dodał:
Obok występy jest droga biegnąca wzdłuż drogi krajowej wszyscy nazywają ją po prostu przełęcz składa się ona z 3 szczytów i łączy się z Występą. Nikt tej trasy będącej dłuższą od Występy i tylko minimalnie mniej stromą ( szczególnie jadąc od str Suchedniowa w stronę Występy) nie opisał.
Dnia 2015-02-06 użytkownik fredii dodał:
tak zwane bajpasy!!
świetne góreczki dodałem ta trasę ale jakoś jej jeszcze niema
author=Opis dodany przez Agnieszkę (autorkę strony  aleszprycha.pl)
segment=0
locations=[[1,50.97778000566471,20.745404046146177],[2,50.97871000849727,20.74482806922083],[3,50.97964000849748,20.74425206922251],[4,50.98057000566512,20.743676046149403],]
podstawa=[[15,50.97964000849748,20.74425206922251],['start',50.9768500,20.7459800],['meta',50.9815000,20.7431000]]
daneflot=[[0.0,389.791],[0.1,396.253],[0.2,407.846],[0.3,423.321],[0.4,433.010],[0.5,436.000],]