name=Będzieszyna
slope=4.0km 3.9%
points=190
region=43
description=Nawierzchnia: szosa, stan dobry. Ruch samochodowy: minimalny.
Droga wiedzie przez Będzieszynę. Na trasie moment o solidnym nachyleniu, podjazd bardzo przyjemny, ruch samochodowy nie przeszkadza nam w pokonywaniu kolejnych metrów.
comments=
author=?
segment=0
locations=[[1,49.81080928025631,20.658984990049362],[2,49.81169325359073,20.656880858484897],[3,49.81041738395675,20.655905557814776],[4,49.81007741007947,20.653298855285584],[5,49.81010263945246,20.65075805286392],[6,49.81038881715475,20.648084927550258],[7,49.81034382311375,20.645426530219765],[8,49.81077161031565,20.642979512885404],[9,49.8100564903993,20.64182323379498],[10,49.81167780847169,20.641507808367464],[11,49.81328862676268,20.642483021962562],[12,49.81473780532782,20.641366935878636],[13,49.81612165490164,20.639825962086434],[14,49.81739557039061,20.63803510081982],[15,49.81879394023633,20.637856702565045],[16,49.82005292408016,20.638889377955934],[17,49.82176950746739,20.638452883215336],[18,49.82319000000752,20.639464805420175],[19,49.82306303092955,20.642145089776818],]
podstawa=[[14,49.818,20.649],['start',49.8095300,20.6606900],['meta',49.8233200,20.6448300]]
daneflot=[[0.0,238.947],[0.2,254.332],[0.4,271.874],[0.6,295.651],[0.8,313.428],[1.0,326.248],[1.2,356.740],[1.4,373.293],[1.6,385.770],[1.8,386.480],[2.0,375.528],[2.2,355.882],[2.4,340.791],[2.6,334.057],[2.8,326.885],[3.0,340.240],[3.2,351.883],[3.4,356.824],[3.6,374.888],[3.8,384.628],[4.0,394.182],]