name=Sierockie ze Skrzypnego
slope=5.0km 5.8%
points=239.1
region=23
description=Nawierzchnia: szosa, stan dobry. Ruch samochodowy: mały.
Krótki, ciekawy podjazd na Sierockie.
comments=
author=hincza
segment=0
locations=[[1,49.39516742728704,19.946950459064283],[2,49.39382131843208,19.94758319053517],[3,49.39304618776702,19.95012029553436],[4,49.3934062568698,19.952112705427453],[5,49.39306970920402,19.954871488024992],[6,49.39254432706503,19.957559719821575],[7,49.3909468996123,19.958455468602665],[8,49.38934462645109,19.959801634229507],[9,49.38766164502324,19.96088242291421],[10,49.38586224210832,19.961275345102422],[11,49.3840486141474,19.961482555684825],[12,49.38226742089878,19.96210419376621],[13,49.38056361453359,19.96195473851037],[14,49.37878082320472,19.961412768593505],[15,49.37712014446851,19.9603335129284],[16,49.37542244123743,19.959354572037228],[17,49.37368541909445,19.958509530106312],[18,49.37187706426956,19.95825964365804],[19,49.37006838649206,19.95805230091912],[20,49.36826210109076,19.958319792297516],[21,49.36654071039075,19.957847815433297],[22,49.36480227176251,19.957053298041615],[23,49.36303292087219,19.95643095718333],[24,49.36139690234786,19.955182721674873],]
podstawa=[[13,49.38056361453359,19.96195473851037],['start',49.3964700,19.9488700],['meta',49.3597200,19.9540800]]
daneflot=[[0.0,719.354],[0.2,722.569],[0.4,727.615],[0.6,747.256],[0.8,761.342],[1.0,784.177],[1.2,809.198],[1.4,818.330],[1.6,827.249],[1.8,841.328],[2.0,862.198],[2.2,886.186],[2.4,908.877],[2.6,917.962],[2.8,920.308],[3.0,926.263],[3.2,942.250],[3.4,958.606],[3.6,956.759],[3.8,958.811],[4.0,967.772],[4.2,983.385],[4.4,993.656],[4.6,998.933],[4.8,1003.066],[5.0,1007.130],]