name=Gliczarów Górny przez Łosie
slope=2.3km 6.4%
points=129.4
region=23
description=Nawierzchnia: szosa, stan dobry. Ruch samochodowy: mały.
Najtrudniejszy początkowy fragment, dosyć wąska droga, o bardzo dobrej nawierzchni. Stan nawierzchni jest bardzo dobry, od wjazdu na drogę z Gliczarowa Dolnego trochę gorszy.
comments=
author=?
segment=0
locations=[[1,49.3581611954516,20.06833720654879],[2,49.3573936557986,20.06759473079387],[3,49.35684556332847,20.066560915409582],[4,49.35648419643498,20.06536482935121],[5,49.35619740986206,20.06404817523719],[6,49.35581343883308,20.062780412604525],[7,49.35561267439814,20.06141487430409],[8,49.35534600024142,20.06008971480992],[9,49.35502747547729,20.05877810373488],[10,49.35464816416633,20.057502630434442],[11,49.35453302348735,20.05622383800869],[12,49.35487022945982,20.05492069477259],[13,49.35499815101534,20.053873889493616],[14,49.35415094283192,20.053360496223263],[15,49.35324596726791,20.053172604885503],[16,49.3523376044705,20.05302364723525],[17,49.35145537173573,20.053219435754613],[18,49.3508210653638,20.05421732098273],[19,49.35016442962005,20.05519572444564],[20,49.34950073270257,20.056162460818996],[21,49.34895475921383,20.056969207262],[22,49.34840576909291,20.058092488991974],]
podstawa=[[14,49.35487022945982,20.05492069477259],['start',49.3587000,20.0694000],['meta',49.3478600,20.0592200]]
daneflot=[[0.0,844.122],[0.1,852.840],[0.2,860.815],[0.3,874.321],[0.4,880.777],[0.5,885.543],[0.6,893.688],[0.7,900.197],[0.8,912.638],[0.9,925.480],[1.0,927.954],[1.1,934.542],[1.2,946.399],[1.3,953.420],[1.4,955.479],[1.5,953.892],[1.6,956.384],[1.7,958.451],[1.8,960.090],[1.9,969.753],[2.0,977.137],[2.1,982.231],[2.2,986.525],[2.3,992.057],]