name=Topólno
slope=2.0km 3.5%
points=41.3
region=76
description=Nawierzchnia: szosa, stan dobry. Ruch samochodowy: umiarkowany.
Jeden z dłuższych podjazdów na krawędzi doliny Wisły w okolicy. Początkowo w lesie.
comments=
author=mrkta
segment=0
locations=[[1,53.29255323359185,18.300132719426074],[2,53.29249074477046,18.298602842743207],[3,53.29245604478312,18.297066669241758],[4,53.29224769915149,18.29560184352067],[5,53.29176083450767,18.29430356371688],[6,53.29174317721292,18.292877393357458],[7,53.29237133535127,18.291767993489543],[8,53.29263646166578,18.29030364793823],[9,53.29319432355467,18.289084867343263],[10,53.29353368512785,18.28765985872019],[11,53.29385507697717,18.28621953100162],[12,53.29426202006756,18.28484394806742],[13,53.29483174553923,18.283639455981415],[14,53.2954086547342,18.28244269081813],[15,53.29597187949499,18.28122871791618],[16,53.29628175708109,18.279804782722294],[17,53.29653800529484,18.27837127872931],[18,53.29721707877361,18.27733588929766],[19,53.29792039813856,18.276346314189936],]
podstawa=[[14,53.29385507697717,18.28621953100162],['start',53.2924800,18.3013700],['meta',53.2986400,18.2753900]]
daneflot=[[0.0,27.838],[0.1,29.594],[0.2,30.950],[0.3,37.197],[0.4,46.337],[0.5,51.227],[0.6,57.606],[0.7,64.332],[0.8,72.237],[0.9,76.835],[1.0,81.442],[1.1,84.525],[1.2,88.161],[1.3,90.000],[1.4,90.182],[1.5,92.146],[1.6,90.860],[1.7,88.042],[1.8,89.581],[1.9,95.413],[2.0,97.893],]