name=Siemień Nadrzeczny
slope=1.4km 2.8%
points=17.5
region=84
description=Nawierzchnia: szosa, stan dobry  . Ruch samochodowy: średni  .
Podjazd od doliny Narwi.
comments=
author=Amator
segment=0
locations=[[1,53.1334942454551,22.155068874918243],[2,53.13285289489806,22.15604295851108],[3,53.13233770318536,22.157238321775367],[4,53.13180692483499,22.15806846842156],[5,53.13161996512353,22.15662888376073],[6,53.13157226406182,22.155157328559426],[7,53.13151321467723,22.15368690074331],[8,53.13141036733678,22.152225564274772],[9,53.13120433957454,22.150793318876367],[10,53.13088636767342,22.149422036134638],[11,53.13064560224399,22.148025779650425],[12,53.13059186802921,22.146554817314154],[13,53.13051431552237,22.145086965634277],]
podstawa=[[15,53.13141036733678,22.152225564274772],['start',53.1340800,22.1541900],['meta',53.1304300,22.1436200]]
daneflot=[[0.0,104.537],[0.1,107.532],[0.2,113.270],[0.3,114.705],[0.4,113.718],[0.5,118.530],[0.6,121.786],[0.7,120.493],[0.8,121.925],[0.9,125.838],[1.0,130.825],[1.1,136.289],[1.2,140.570],[1.3,142.960],[1.4,143.794],]