name=Gdańsk (Słowackiego)
slope=2.8km 4.1%
points=55.8
region=90
description=Nawierzchnia: szosa. Ruch samochodowy: duży.
Dwu pasmowa ulica. Nowy asfalt, duży ruch.
comments=
author=?
segment=0
locations=[[1,54.37315335078502,18.566210876873697],[2,54.37249776564255,18.565166491746027],[3,54.3718190426516,18.56416414871319],[4,54.37131810791314,18.56289251907856],[5,54.37087364120805,18.561555387685985],[6,54.37042915972803,18.560218285239216],[7,54.37016000019152,18.558769212221932],[8,54.37036976452813,18.557290864192055],[9,54.37078100512615,18.5561866705566],[10,54.37122322052073,18.554848402965035],[11,54.37184211693347,18.553751589842477],[12,54.37227225125152,18.55250282856946],[13,54.3723112923135,18.550990752268717],[14,54.37213513133267,18.549481487021467],[15,54.37228839893935,18.54798688625806],[16,54.37243709122547,18.54648903017892],[17,54.37227042331877,18.54497856858586],[18,54.3722835708185,18.54345102766399],[19,54.372645914602,18.54205773371541],[20,54.37327889877213,18.5409822356703],[21,54.37399465709175,18.540054616849375],[22,54.37463510622797,18.53899723470124],[23,54.37509216573304,18.53767319414851],[24,54.37553338633402,18.536332760753794],[25,54.37590945004563,18.534940209139336],[26,54.37617735461293,18.533470832720468],[27,54.37635015323777,18.53196818152219],]
podstawa=[[14,54.37228839893935,18.54798688625806],['start',54.3737300,18.5673900],['meta',54.3763900,18.5304300]]
daneflot=[[0.0,46.929],[0.1,52.058],[0.2,55.817],[0.3,58.558],[0.4,63.605],[0.5,71.809],[0.6,74.703],[0.7,76.537],[0.8,83.392],[0.9,86.265],[1.0,90.480],[1.1,94.087],[1.2,98.466],[1.3,105.135],[1.4,105.946],[1.5,108.965],[1.6,112.835],[1.7,120.723],[1.8,123.054],[1.9,125.060],[2.0,130.479],[2.1,134.500],[2.2,137.232],[2.3,140.581],[2.4,145.074],[2.5,149.573],[2.6,155.321],[2.7,159.431],[2.8,161.932],]