name=Błotnica z Czarneckiej Góry
slope=1.9km 3.0%
points=19.2
region=66
description=Nawierzchnia: szosa, stan średni. Ruch samochodowy: minimalny.
Krótki, ale dość stromy podjazd w zalesionym terenie
comments=
author=arturc
segment=0
locations=[[1,51.1369584958935,20.516665758249133],[2,51.13677723532535,20.515300852821724],[3,51.13592908057407,20.51491434926959],[4,51.13504489982786,20.514678199625564],[5,51.13415704821995,20.51449049601365],[6,51.13326301111822,20.514384423331308],[7,51.13237055578744,20.514252559719125],[8,51.13148054728238,20.514080798967143],[9,51.13059053852575,20.5139090448356],[10,51.12970091214869,20.513732604859342],[11,51.12881275184126,20.513539460991524],[12,51.12791736280593,20.513580329717],[13,51.12705661126299,20.513949176053757],[14,51.12621518893377,20.514442197312178],[15,51.12536997417401,20.5149183250021],[16,51.12452328703661,20.515387888476653],[17,51.12367659801895,20.515857434737427],[18,51.12282990712116,20.516326963785332],]
podstawa=[[14,51.131,20.513732604859342],['start',51.1370300,20.5180900],['meta',51.1219500,20.5165500]]
daneflot=[[0.0,259.000],[0.1,259.806],[0.2,262.714],[0.3,266.698],[0.4,268.451],[0.5,270.757],[0.6,272.865],[0.7,275.310],[0.8,278.643],[0.9,281.361],[1.0,283.258],[1.1,286.818],[1.2,291.427],[1.3,297.017],[1.4,300.322],[1.5,301.288],[1.6,304.093],[1.7,308.361],[1.8,312.166],[1.9,315.071],]