name=Warszawa (Myśliwiecka)
slope=0.7km 3.4%
points=9.3
region=80
description=Nawierzchnia: szosa, stan bardzo dobry. Ruch samochodowy: duży.
Kolejny wariant pokonania Skarpy Wiślanej
comments=
author=???
segment=0
locations=[[1,52.22196195616671,21.034263078812387],[2,52.22215171639925,21.032867940326696],[3,52.22298864758886,21.032366651717098],[4,52.22383749422525,21.031902006190876],[5,52.22437253545912,21.030758637886265],[6,52.22432152626016,21.029320896303716],]
podstawa=[[15,52.22383749422525,21.031902006190876],['start',52.2221000,21.0356600],['meta',52.2242000,21.0278700]]
daneflot=[[0.0,85.073],[0.1,86.095],[0.2,88.849],[0.3,92.585],[0.4,97.479],[0.5,102.915],[0.6,106.601],[0.7,108.750],]