name=Krynki od Sokółki
slope=1.4km 1.6%
points=4.3
region=85
description=Nawierzchnia: szosa, stan bardzo dobry. Ruch samochodowy: minimalny.
Dojazd do Krynek od strony Sokółki.
comments=
author=ptaqnabajq
segment=8964667
locations=[[1,53.29281557542671,23.76090078980974],[2,53.29194985347989,23.761157545528363],[3,53.29108413098174,23.761414290840776],[4,53.29021811780639,23.76166826918916],[5,53.28935204125147,23.761921640181527],[6,53.28848531671571,23.762168682880542],[7,53.28761824496998,23.762412332321446],[8,53.28675117272773,23.762655971873528],[9,53.28588409998902,23.762899601537356],[10,53.2850174554212,23.763147410390502],[11,53.28415442276949,23.7634260433357],[12,53.28329782077467,23.76375739997468],[13,53.28244495633168,23.764113466536855],]
podstawa=[[14,53.29,23.762655971873528],['start',53.2936200,23.7605000],['meta',53.2816000,23.7645200]]
daneflot=[[0.0,161.000],[0.1,161.320],[0.2,162.667],[0.3,164.301],[0.4,165.932],[0.5,166.807],[0.6,167.185],[0.7,168.802],[0.8,170.964],[0.9,173.658],[1.0,176.729],[1.1,179.323],[1.2,181.053],[1.3,181.999],[1.4,182.591],]