name=Lanckorona od Izdebnika
slope=3.4km 4.3%
points=101.4
region=22
description=Nawierzchnia: szosa, stan kiepski. Ruch samochodowy: mały.
Podjazd  w paśmie pogórze wielickie. Warto zaliczyć tę górkę i zobaczyć urokliwą wioskę jaką jest Lanckorona. Z Lanckorony można jeszcze podjechać na szczyt góry Lankorońskiej na wysokość 550 m.n.p.m. ale to już niestety na rowerze górskim.
comments=
author=Daniel
segment=0
locations=[[1,49.86265119687388,19.740038699035722],[2,49.86156889408399,19.73787150185933],[3,49.86072658157551,19.73538114701114],[4,49.85988427049414,19.732890834416594],[5,49.85856947776833,19.732081567542537],[6,49.85689745828358,19.733168364037624],[7,49.85539691942972,19.734643080660817],[8,49.85513000003142,19.733790523194102],[9,49.85472105483242,19.731051850954827],[10,49.8534440534105,19.729218174737753],[11,49.85228413582033,19.72705715410507],[12,49.85141016635528,19.724615295788],[13,49.85000738170474,19.724306194011433],[14,49.84950363091111,19.721663428015177],[15,49.8484581236428,19.719417658266025],[16,49.84712299141984,19.717536503210567],]
podstawa=[[13,49.85472105483242,19.731051850954827],['start',49.8641800,19.7415500],['meta',49.8459300,19.7154200]]
daneflot=[[0.0,331.592],[0.2,343.740],[0.4,350.566],[0.6,356.723],[0.8,362.311],[1.0,356.699],[1.2,352.181],[1.4,362.503],[1.6,371.044],[1.8,381.767],[2.0,394.542],[2.2,404.786],[2.4,412.272],[2.6,416.938],[2.8,424.723],[3.0,452.323],[3.2,466.619],[3.4,476.333],]