name=Staniszów od Sosnówki
slope=1.6km 4.9%
points=49.6
region=1
description=Nawierzchnia: szosa, stan dobry. Ruch samochodowy: mały.
Krótka hopka ale jak chce się jechać szybko to trochę "boli". W miarę dobry asfalt.
comments=
author=gavia2621
segment=0
locations=[[1,50.82605611973143,15.725905303640957],[2,50.82667776593142,15.726901135902722],[3,50.82746367341026,15.727592325174669],[4,50.82831447420993,15.728070129851403],[5,50.82905449042354,15.728841503112335],[6,50.82977873235397,15.7296940424593],[7,50.83051209591132,15.730528551755128],[8,50.83124545351664,15.731363087273053],[9,50.83202014909033,15.73208640942596],[10,50.83288096123546,15.732485502053805],[11,50.83376611642844,15.732276120685697],[12,50.83462167144273,15.732287531745214],[13,50.83529599475919,15.733238802950382],[14,50.83602951204826,15.734057397322431],[15,50.83678816325237,15.734817010413622],]
podstawa=[[14,50.83202014909033,15.73208640942596],['start',50.8256600,15.7246400],['meta',50.8372100,15.7360800]]
daneflot=[[0.0,375.310],[0.1,378.128],[0.2,380.703],[0.3,381.136],[0.4,386.491],[0.5,392.093],[0.6,397.636],[0.7,405.730],[0.8,414.178],[0.9,423.010],[1.0,430.972],[1.1,436.409],[1.2,443.377],[1.3,447.392],[1.4,451.223],[1.5,452.927],[1.6,454.089],]