name=Wallberg  od Rottach-Egern (Niemcy)
slope=7.8km 10.5%
points=981.1
region=101
description=Nawierzchnia: szosa+szuter, średni
Stroma góra, ale niestety dłuższa końcówka to szuter. O ile pamiętam asfalt kończy się kawałek przez "Walberghaus" na wysokości niecałe 1500.
Początek w Rottach-Egern niezbyt stromo. Dopiero po odbiciu w prawo na wąski asfalt robi się naprawdę stromo i to przez kilka ładnych kilometrów. Na szczęście liczne serpentyny. Dla szosowców koniec podjazdu to Wallberghaus- końcowy kilometr to raczej tylko MTB. Na samą górę można wjechać również Gondolą. Turystów sporo, widoki niezłe.
comments=
author=gavia 2621
segment=0
locations=[[1,47.673299713326,11.814904529489013],[2,47.67171287773601,11.81571523293485],[3,47.67014313662816,11.816313460107267],[4,47.66850709422427,11.816994270081523],[5,47.66706318218255,11.818134138626647],[6,47.66581180369725,11.819896392640885],[7,47.66422276383165,11.820935772644589],[8,47.66278618642403,11.820308393469872],[9,47.661890872627,11.822471854198739],[10,47.66146330208526,11.824997361411306],[11,47.66036539514349,11.82656767488595],[12,47.65896566331372,11.82809598850622],[13,47.65767711458237,11.828467616897342],[14,47.6562402300347,11.82849918941406],[15,47.65674788028152,11.826005839141772],[16,47.65637506725714,11.823704733962359],[17,47.65642338756231,11.82124716942485],[18,47.65496796586589,11.819861015057086],[19,47.65481193003826,11.817378727917912],[20,47.6552249459094,11.815196641994135],[21,47.65519935033133,11.81264561867431],[22,47.65479401102807,11.810275823986558],[23,47.65485084163448,11.807830474986304],[24,47.65441020840608,11.805300900722045],[25,47.65381712192261,11.802970439723481],[26,47.65409783722178,11.800439308077557],[27,47.6537141595808,11.797899688347798],[28,47.65380542628236,11.796300672019584],[29,47.65540973985902,11.79702383754261],[30,47.65669564162598,11.798317988437702],[31,47.6574536811837,11.796998897373896],[32,47.65814297029887,11.794713795638017],[33,47.65709419915063,11.793575729601685],[34,47.65641233126979,11.792955304507359],[35,47.65658438497093,11.79051327147954],[36,47.65812796988192,11.789704235624527],[37,47.65984540032699,11.789901174985516],[38,47.66098441155004,11.790813821089046],]
podstawa=[[13,47.67,11.815196641994135],['start',47.6750600,11.8149600],['meta',47.6614900,11.7932800]]
daneflot=[[0.0,792.743],[0.2,816.084],[0.4,835.651],[0.6,854.488],[0.8,866.466],[1.0,880.923],[1.2,894.423],[1.4,899.940],[1.6,907.635],[1.8,917.003],[2.0,928.764],[2.2,944.098],[2.4,960.168],[2.6,982.562],[2.8,1011.103],[3.0,1032.188],[3.2,1049.707],[3.4,1061.608],[3.6,1080.127],[3.8,1097.754],[4.0,1123.623],[4.2,1154.069],[4.4,1176.574],[4.6,1196.565],[4.8,1205.345],[5.0,1222.851],[5.2,1245.153],[5.4,1273.953],[5.6,1297.388],[5.8,1325.045],[6.0,1358.872],[6.2,1395.226],[6.4,1424.497],[6.6,1448.734],[6.8,1471.806],[7.0,1491.726],[7.2,1520.484],[7.4,1558.659],[7.6,1590.413],[7.8,1611.784],]