name=Krzyżówka na Lubince z Janowic Górnych
slope=3.6km 4.3%
points=176.3
region=43
description=Nawierzchnia: szosa, stan dobry. Ruch samochodowy: minimalny.
Wspinaczka pod leśny parking na Lubince wariantem z ostrą rampką. Zaczynamy w Janowicach naprzeciw podjazdu do górnej stacji wyciągu narciarskiego, by po mozolnym początku dotrzeć do poprzecznej alejki, którą wzdłuż granicy lasu łagodniej osiągamy kulminację nad krzyżówką. Początkowy fragment do poprzecznej alejki jest dość wąziutki, dalej też nie za szeroko, ale na całości nawierzchnia jest spójna i gładka. Ewentualne, brawurowe zjazdy, na panoramicznej alejce - raczej kontynuujemy na wprost.
comments=
author=airstreeem20
segment=0
locations=[[1,49.89493095809401,20.869715675133534],[2,49.89661585032903,20.870312619751303],[3,49.89840867805382,20.869441322266425],[4,49.89975421788472,20.86743390784659],[5,49.90120578451674,20.865581764614717],[6,49.90120562907544,20.868035991639772],[7,49.90194910752827,20.870710940137656],[8,49.90294308842782,20.873206189635994],[9,49.9041637755822,20.875299358682696],[10,49.90469844853556,20.878045484346558],[11,49.90597971872491,20.880175749781756],[12,49.90670106356441,20.882892326076103],[13,49.90762046672184,20.88539494783015],[14,49.90919887065304,20.886983780337573],[15,49.90887711750645,20.889730795257265],[16,49.90897844573605,20.89257398465088],[17,49.90964660153766,20.8953026168125],]
podstawa=[[13,49.90469844853556,20.878045484346558],['start',49.8941100,20.8705800],['meta',49.9093500,20.8981500]]
daneflot=[[0.0,253.952],[0.2,270.224],[0.4,303.841],[0.6,337.836],[0.8,362.311],[1.0,369.604],[1.2,374.019],[1.4,377.322],[1.6,383.757],[1.8,386.044],[2.0,379.054],[2.2,386.879],[2.4,380.978],[2.6,382.362],[2.8,391.997],[3.0,393.356],[3.2,399.135],[3.4,402.090],[3.6,409.487],]