name=Nad Wykrotami od Lipnicy Wielkiej
slope=7.4km 3.4%
points=194.4
region=17
description=Nawierzchnia: szosa. Ruch samochodowy: minimalny.
Podjazd rozpoczynamy w Lipnicy Wielkiej. Tak naprawdę już od początku tej wsi (zresztą niezwykle długiej) droga wznosi się lekko do góry, ale zbyt małe nachylenie nie pozwala uznać jej za podjazd, który zaczynamy w ok. 2/3 miejscowości. Wspinaczka jest łatwa, dopiero końcówka miejscowości ma bardziej słuszne nachylenie. Tutaj dojeżdżamy do drogi zwanej Rajsztagiem. Szosówkę trzeba przeprowadzić ok. 20-30m, gdyż jest tu teren wysypany tłuczniem. Rajsztag to poniemiecka droga, której część należąca do gminy Lipnica Wielka jest teraz pięknie wyasfaltowana. Pokrywa się również ze szlakiem rowerowym. Z początku jedziemy tu po hopkach, a dopiero końcówka to ostrzejsza wspinaczka. Niestety szosówką nie pojedziemy tędy dalej, np. do Zubrzycy, gdyż asfalt się kończy.
comments=
author=Greek
segment=0
locations=[[1,49.51480243895353,19.567679759714565],[2,49.51588137211198,19.565517663309038],[3,49.51700260473689,19.563488924844023],[4,49.51831149272819,19.561735910244806],[5,49.51905090440837,19.559688809241834],[6,49.51989750688305,19.557499194787738],[7,49.52149457108528,19.556405589653536],[8,49.52295759259948,19.55488451574888],[9,49.5244637943423,19.55348758557591],[10,49.52596468098273,19.552141050140335],[11,49.52740881605886,19.55062904087947],[12,49.52898096342887,19.549390706760278],[13,49.53009306917501,19.54756659438476],[14,49.53179549406649,19.54834044453014],[15,49.53345599773929,19.54748899589208],[16,49.53473049437663,19.545757302168454],[17,49.53612189681174,19.544160077754896],[18,49.53767541252122,19.542851911242565],[19,49.53940169411886,19.5422066509567],[20,49.54091256133753,19.540924270912683],[21,49.54259937726538,19.54142329614342],[22,49.54424561032508,19.541427773716464],[23,49.54530177947547,19.541884041850153],[24,49.5447993083683,19.544505037344038],[25,49.54480786101432,19.547180568021417],[26,49.5457973063671,19.549357580932224],[27,49.54657386558468,19.551600399002837],[28,49.54813589142994,19.552738366669928],[29,49.54961178719866,19.55421506844266],[30,49.55052106744049,19.556560380696737],[31,49.55184852059034,19.558316613532043],[32,49.55254077316224,19.56080651323407],[33,49.55288655429622,19.563404674629624],[34,49.55459788493495,19.56413080011896],[35,49.55612603031226,19.565315300450266],[36,49.55735133587221,19.567015466555404],]
podstawa=[[12,49.53940169411886,19.5422066509567],['start',49.5140000,19.5701200],['meta',49.5589400,19.5681000]]
daneflot=[[0.0,701.022],[0.2,707.972],[0.4,712.698],[0.6,716.515],[0.8,720.030],[1.0,721.781],[1.2,727.655],[1.4,730.897],[1.6,735.365],[1.8,744.742],[2.0,748.375],[2.2,753.896],[2.4,759.420],[2.6,766.071],[2.8,770.811],[3.0,782.201],[3.2,793.148],[3.4,803.495],[3.6,817.454],[3.8,832.111],[4.0,841.350],[4.2,860.193],[4.4,872.464],[4.6,885.193],[4.8,876.778],[5.0,873.281],[5.2,872.803],[5.4,890.276],[5.6,890.043],[5.8,894.204],[6.0,891.431],[6.2,883.904],[6.4,869.961],[6.6,886.740],[6.8,909.335],[7.0,914.846],[7.2,942.802],[7.4,949.458],]