name=Skłudzewo
slope=0.9km 5.2%
points=34.3
region=76
description=Nawierzchnia: szosa, stan średni. Ruch samochodowy: minimalny.
Przyzwoita ścianka, uwaga na skrzyżowaniu
comments=
author=olo
segment=0
locations=[[1,53.12660739135117,18.328491185755638],[2,53.12754268868122,18.32852784333261],[3,53.1284196039714,18.328425973797493],[4,53.12851182663198,18.326876242414073],[5,53.12857878525823,18.32532059777384],[6,53.12893490691336,18.323938768883067],[7,53.12960774746283,18.322854760484006],[8,53.13026784958639,18.321750065226183],]
podstawa=[[15,53.12857878525823,18.32532059777384],['start',53.1258100,18.3291800],['meta',53.1309000,18.3206000]]
daneflot=[[0.0,41.860],[0.1,51.055],[0.2,61.089],[0.3,70.417],[0.4,73.560],[0.5,75.836],[0.6,78.526],[0.7,79.654],[0.8,82.519],[0.9,88.833],]