name=Krzysztówka z Wisły
slope=4.2km 7.7%
points=316.1
region=16
description=Nawierzchnia: szosa. Ruch samochodowy: minimalny.
Asfaltem na grzbiet, dalej płytami w dobrym stanie do Os. Krzysztówka, tam końcówka łątwo przejezdnym żwirem.
comments=Dnia 2014-07-30 użytkownik JerzyM dodał:
Trasa z Wisły Jawornika ul. Cieślarów na Soszów, 
tutaj jest link do trasy an Stravie: http://app.strava.com/activities/172467024/segments/4024585545 
segment: Soszów climb from Jwornik-Cieślarów
długość: 2,8 km, różnica odjazdów: 364 m. nachylenie 13 %, miejscami ponad 30% 
Do Osiedla Zawiść płyty, potem droga żwirowa, łatwo przejezdna
author=turdus23
segment=0
locations=[[1,49.67702390515497,18.84568709747691],[2,49.67640694946043,18.843120848361195],[3,49.6763686015105,18.840397162743557],[4,49.67693399142929,18.83779431907783],[5,49.67729012926304,18.835123602823614],[6,49.6766785040807,18.832801762949657],[7,49.67530929080316,18.83108899101478],[8,49.67401543625648,18.829346639975142],[9,49.67333726479752,18.826857254701963],[10,49.67231556917094,18.824730724757842],[11,49.67100203789498,18.822922002233327],[12,49.66962981674475,18.821519270697195],[13,49.66880619584517,18.820357528014824],[14,49.66912498463594,18.817726437135207],[15,49.66858149461248,18.815114226569108],[16,49.66752989427994,18.813131079691402],[17,49.66621591568962,18.814295795194994],[18,49.66486011338266,18.815499101126193],[19,49.66417710600741,18.813623880361547],[20,49.66539670708322,18.81165656881558],]
podstawa=[[13,49.67100203789498,18.822922002233327],['start',49.6766800,18.8482000],['meta',49.6655300,18.8092700]]
daneflot=[[0.0,410.811],[0.2,428.859],[0.4,439.301],[0.6,453.662],[0.8,459.457],[1.0,468.936],[1.2,478.891],[1.4,498.468],[1.6,523.639],[1.8,526.084],[2.0,543.503],[2.2,565.294],[2.4,588.356],[2.6,591.646],[2.8,618.165],[3.0,644.931],[3.2,664.159],[3.4,683.886],[3.6,685.117],[3.8,694.965],[4.0,717.538],[4.2,735.490],]