name=Parysz z Woli Piskulinej
slope=1.6km 6.8%
points=94.2
region=29
description=Nawierzchnia: szosa, stan średni. Ruch samochodowy: mały.
Droga do przysiółka Parysz spod Kościoła w Woli Piskulinej.
Trasa wiedzie na początku płaską drogą, dalej rozpoczyna się dość stromy podjazd.
Asfalt jest średni - dość wyjeżdżone koleiny - u góry połatany.
Czasem może po nim spływać woda.
comments=
author=mx2047
segment=0
locations=[[1,49.58184814599567,20.388724270037756],[2,49.58217488120688,20.387556056786025],[3,49.58197524134984,20.386210352903618],[4,49.58205358786269,20.384826032655383],[5,49.58215646599093,20.38344403436986],[6,49.582174224608,20.38205704848383],[7,49.58215596008533,20.380685240460593],[8,49.58234576406545,20.3793294200093],[9,49.58253789240564,20.377970485624246],[10,49.58285738821505,20.376733264948825],[11,49.58358649887983,20.37593062779581],[12,49.58424274053602,20.37497714452718],[13,49.5848144462808,20.373906755146663],[14,49.58481031982298,20.37256926431087],[15,49.58481222517786,20.37118327509836],]
podstawa=[[14,49.58253789240564,20.377970485624246],['start',49.5813200,20.3898400],['meta',49.5849000,20.3698000]]
daneflot=[[0.0,457.344],[0.1,462.719],[0.2,468.555],[0.3,473.428],[0.4,478.406],[0.5,480.192],[0.6,484.753],[0.7,489.207],[0.8,491.876],[0.9,495.304],[1.0,503.289],[1.1,512.452],[1.2,525.937],[1.3,541.577],[1.4,549.242],[1.5,556.891],[1.6,565.588],]