name=Strzyżowice
slope=2.0km 3.3%
points=27.6
region=59
description=Nawierzchnia: szosa, stan dobry. Ruch samochodowy: duży.
Droga wojewódzka z Będzina do lotniska w Pyrzowicach. W połowie podjazdu ciekawostka ,bo jeden z nie licznych krzyży pokutnych w tym rejonie.
comments=
author=?
segment=0
locations=[[1,50.3826307254139,19.088023413212568],[2,50.38328144231292,19.087026799078217],[3,50.38393215069664,19.086030157596042],[4,50.38458285056462,19.08503348876502],[5,50.38523242883547,19.084035008869932],[6,50.38588182642457,19.083036225779324],[7,50.38652926111567,19.0820343305503],[8,50.38717024863807,19.081022245326153],[9,50.38781632517861,19.080018158804478],[10,50.38846408538579,19.079016709288567],[11,50.38911183699514,19.07801523241187],[12,50.38975958000621,19.077013728173597],[13,50.3904073144186,19.076012196572492],[14,50.39105504023183,19.075010637607647],[15,50.39170029921245,19.07405403147459],[16,50.39215744663411,19.072980619978125],[17,50.39235851764847,19.071599956922682],[18,50.3923112928697,19.070175332021336],[19,50.39227188752427,19.068750399236706],]
podstawa=[[14,50.38911183699514,19.07801523241187],['start',50.3819800,19.0890200],['meta',50.3923900,19.0673400]]
daneflot=[[0.0,293.076],[0.1,294.025],[0.2,295.944],[0.3,298.682],[0.4,301.250],[0.5,303.554],[0.6,305.038],[0.7,304.929],[0.8,307.180],[0.9,307.877],[1.0,310.120],[1.1,312.552],[1.2,316.304],[1.3,321.296],[1.4,326.173],[1.5,330.488],[1.6,337.109],[1.7,343.074],[1.8,347.230],[1.9,352.733],[2.0,357.607],]