name=Pánův Kříž  z Polic nad Metují (Czechy)
slope=8.2km 3.6%
points=167.6
region=10
description=Nawierzchnia: szosa, stan dobry. Ruch samochodowy: zmienny - pod koniec żaden.
Bardzo długi i przez to łatwy podjazd do najwyżej położonej drogi asfaltowej w czeskiej części Gór Stołowych. Za wioską Slavný zakaz wjazdu dla pojazdów silnikowych. Z przełęczy brukowaną drogą można szybko dotrzeć do Pasterki, a leśnymi ścieżkami na najwyższy szczyt czeskiej części Gór Stołowych, Božanovský Špičák, z którego roztacza się piękny widok. Na sam wierzchołek trzeba wejść pieszo.
comments=
author=mrkta
segment=0
locations=[[1,50.5357987406563,16.236433782302925],[2,50.53528162310445,16.238984122736042],[3,50.53604878920137,16.241382164519223],[4,50.53687332237295,16.24386275762788],[5,50.53741172729276,16.24647384775733],[6,50.53825148184885,16.248797812202383],[7,50.53961110507752,16.250638580959958],[8,50.5400973342942,16.253303779180555],[9,50.5396992067849,16.255949572880354],[10,50.5389417322908,16.258471709493847],[11,50.53844168040581,16.26101174402379],[12,50.53930202674226,16.26347956670429],[13,50.5404591316942,16.265588726397937],[14,50.54168174869652,16.267616700167537],[15,50.54303304614074,16.269452577495713],[16,50.5446629307779,16.27024344413985],[17,50.54552000002787,16.272568352760686],[18,50.54458128284132,16.274946473158593],[19,50.54351536490157,16.277220879696415],[20,50.54216289581788,16.27899745220202],[21,50.54053099856576,16.280146365321798],[22,50.5389992306371,16.281623827476892],[23,50.53747957377517,16.282936438886054],[24,50.53679287962063,16.285532651957737],[25,50.53709737704313,16.287876032055692],[26,50.53826349882953,16.28991671037693],[27,50.53923006021785,16.292295330948377],[28,50.53797135775213,16.294033003055233],[29,50.53632405233949,16.294940975823806],[30,50.53455919871481,16.295360000000073],[31,50.53276270946825,16.295387796834802],[32,50.53099623832971,16.295797378431303],[33,50.52952492165194,16.29741508302743],[34,50.52808411605928,16.29909513380892],[35,50.52644478937927,16.30024134456903],[36,50.52470068215189,16.300885421940848],[37,50.52329835220258,16.30263797044597],[38,50.5218367924621,16.30420220212625],[39,50.52088545777315,16.30655630580486],[40,50.51960070557286,16.308523604828906],]
podstawa=[[13,50.536,16.280146365321798],['start',50.5362500,16.2337400],['meta',50.5183300,16.3104400]]
daneflot=[[0.0,439.146],[0.2,444.130],[0.4,449.484],[0.6,461.157],[0.8,470.939],[1.0,477.362],[1.2,482.707],[1.4,493.645],[1.6,506.386],[1.8,502.668],[2.0,499.779],[2.2,504.362],[2.4,494.446],[2.6,497.198],[2.8,506.312],[3.0,517.976],[3.2,516.817],[3.4,523.040],[3.6,532.624],[3.8,550.164],[4.0,562.020],[4.2,570.420],[4.4,578.861],[4.6,591.158],[4.8,601.989],[5.0,616.677],[5.2,627.352],[5.4,630.363],[5.6,637.485],[5.8,638.881],[6.0,635.240],[6.2,636.742],[6.4,644.133],[6.6,654.708],[6.8,663.121],[7.0,671.985],[7.2,680.976],[7.4,690.146],[7.6,694.765],[7.8,702.650],[8.0,721.975],[8.2,734.190],]