name=Lipowiec od Górzanki
slope=5.6km 3.4%
points=94
region=35
description=Nawierzchnia: szosa, stan .. Ruch samochodowy: żaden.
Inna możliwość podjazdu na Lipowiec. Wersja bardziej "dzika" - bez zabudowań. Miejscami okoliczne strumyki wdzierają się na asfalt - przy obfitych opadach deszczu może się okazać, że przejazd brodem będzie niemożliwy.
comments=
author=frank
segment=0
locations=[[1,49.32454891061504,22.37285222358014],[2,49.3229439990189,22.371888422306938],[3,49.32115002488572,22.371896597578825],[4,49.31936146206017,22.372319617222843],[5,49.31756107370465,22.372420581917595],[6,49.31575394223906,22.372279409553926],[7,49.3141579555037,22.37117801038562],[8,49.31279479231538,22.369459722709053],[9,49.31137201837205,22.367783813728806],[10,49.30984908423927,22.36628481146022],[11,49.30849977061079,22.36450372444108],[12,49.3073149637904,22.362428870597],[13,49.30583180883337,22.36085453542512],[14,49.30422708627017,22.359675416441746],[15,49.30242852826608,22.359370725848066],[16,49.30064190962351,22.35899776881604],[17,49.29905665178791,22.357888076248628],[18,49.29795615638457,22.355900774358133],[19,49.29719378276233,22.35339603746752],[20,49.29657201054798,22.3508022522351],[21,49.2965722801257,22.34827031751081],[22,49.29756638934903,22.345951411277156],[23,49.29842021968894,22.343535937007914],[24,49.29865465070229,22.340789602822383],[25,49.29918446326015,22.338136043069653],[26,49.29977558352044,22.335521356697996],[27,49.30110160012283,22.333638051737353],]
podstawa=[[13,49.309,22.359370725848066],['start',49.3257600,22.3748000],['meta',49.3024400,22.3317700]]
daneflot=[[0.0,471.523],[0.2,475.612],[0.4,479.985],[0.6,482.692],[0.8,491.244],[1.0,499.696],[1.2,504.621],[1.4,510.601],[1.6,512.767],[1.8,511.096],[2.0,515.568],[2.2,526.064],[2.4,530.120],[2.6,535.497],[2.8,541.074],[3.0,553.864],[3.2,556.390],[3.4,560.843],[3.6,568.302],[3.8,576.236],[4.0,581.452],[4.2,592.225],[4.4,598.781],[4.6,593.068],[4.8,607.300],[5.0,619.465],[5.2,635.023],[5.4,651.259],[5.6,659.640],]