name=Jelenia Struga od Kowar
slope=5.0km 7.4%
points=378.3
region=1
description=Nawierzchnia: szosa, stan dobry. Ruch samochodowy: żaden.
Droga którą dojedziemy do Przełęczy Okraj. Niestety asfalt kończy się na ostrym zakręcie w lewo kawałek  za Hotelem Jelenia Struga. Dalej szuter, potem kamienisty szuter którym dojedziemy do drogi asfaltowej na Okraj.  Początek lekko, ale od skrzyżowania z drogą Głodu robi się coraz stromiej a w końcówce miejscami komputerek 20% pokazuje. Plus taki, że dobry gładki asfalt i wjechać nie jest specjalnym problemem.
comments=
author=gavia2621
segment=0
locations=[[1,50.78940847074065,15.84474729464921],[2,50.78800423702824,15.846528695030543],[3,50.78633165781058,15.847250671089],[4,50.78459835138942,15.84767299318787],[5,50.78287012263523,15.848400849747918],[6,50.78128705848588,15.849761471201646],[7,50.77953902689603,15.850418374267406],[8,50.77776393855945,15.850877822895882],[9,50.77596308599919,15.850918548068648],[10,50.77420140410822,15.851345049406063],[11,50.77297318541578,15.851017817906268],[12,50.77123062868227,15.851707666025959],[13,50.76946271061926,15.851831177503641],[14,50.76772984820792,15.85108500687295],[15,50.76613400232231,15.849710820627706],[16,50.76485915671724,15.847665816921904],[17,50.76371962101532,15.845469936907193],[18,50.76204072623104,15.845043095929782],[19,50.76034349786456,15.845984876776583],[20,50.75881309468843,15.846960143984461],[21,50.75705629973844,15.847538555624624],[22,50.75532328852857,15.848355479681459],[23,50.75356970490337,15.847889328612837],[24,50.75194519559113,15.846695888059003],]
podstawa=[[12,50.76946271061926,15.851831177503641],['start',50.7908100,15.8429900],['meta',50.7508400,15.8444500]]
daneflot=[[0.0,474.548],[0.2,480.149],[0.4,487.286],[0.6,497.668],[0.8,501.858],[1.0,509.721],[1.2,517.327],[1.4,525.745],[1.6,536.381],[1.8,546.496],[2.0,555.994],[2.2,571.172],[2.4,585.064],[2.6,594.120],[2.8,599.984],[3.0,625.414],[3.2,645.303],[3.4,655.408],[3.6,683.855],[3.8,718.659],[4.0,726.007],[4.2,744.582],[4.4,760.036],[4.6,781.859],[4.8,809.721],[5.0,845.547],]