name=Gwoździanka od Żarnowej
slope=2.8km 7.7%
points=191.3
region=47
description=Nawierzchnia: szosa, stan dobry, miejscami łatany. Ruch samochodowy: mały.
Jeden z ciekawszych podjazdów w okolicy. Ciekawie wygląda też od strony Gwoździanki oraz od strony Niebylca.
comments=
author=Beymont
segment=1711608
locations=[[1,49.87382797930331,21.82025968456378],[2,49.8737633497997,21.821621793928443],[3,49.87362691205678,21.822977662262474],[4,49.87350621831534,21.824336309920795],[5,49.87370369009262,21.82566622264119],[6,49.87364816369045,21.82701580673279],[7,49.87345857998542,21.828356199287555],[8,49.87326898082809,21.829696581317876],[9,49.87307936621868,21.831036952823183],[10,49.87290109991272,21.832380899261352],[11,49.87282381861682,21.833742871181244],[12,49.87274602401462,21.835107715246522],[13,49.87257878624589,21.83645507595179],[14,49.87244173796314,21.83781023156223],[15,49.87239860658856,21.83918070174559],[16,49.87233638770048,21.84054956041109],[17,49.87229261898877,21.841919463001545],[18,49.87248412122714,21.843257075304564],[19,49.87270726468036,21.844584943691416],[20,49.87293039296836,21.845912824348716],[21,49.87299051359881,21.847273327099515],[22,49.87283369832443,21.84862325663528],[23,49.87263878657232,21.849961502879296],[24,49.87244542929151,21.851298840309255],[25,49.8725747752622,21.852652957115197],[26,49.87274001863916,21.854000969396793],[27,49.87291170504446,21.855347136032492],]
podstawa=[[13,49.87239860658856,21.83918070174559],['start',49.8737500,21.8189000],['meta',49.8730100,21.8566800]]
daneflot=[[0.0,222.804],[0.1,229.221],[0.2,237.958],[0.3,246.289],[0.4,256.201],[0.5,262.874],[0.6,265.828],[0.7,272.050],[0.8,282.395],[0.9,295.091],[1.0,309.502],[1.1,320.066],[1.2,326.184],[1.3,332.228],[1.4,339.518],[1.5,348.976],[1.6,358.010],[1.7,362.106],[1.8,364.899],[1.9,365.402],[2.0,368.552],[2.1,372.807],[2.2,378.035],[2.3,385.275],[2.4,394.250],[2.5,406.234],[2.6,415.575],[2.7,424.145],[2.8,435.760],]