name=Promno
slope=1.0km 3.3%
points=13.1
region=72
description=Nawierzchnia: szosa, stan bardzo dobry. Ruch samochodowy: mały.
Szosowy podjazd po delikatnym łuku w lesie
comments=
author=WitoldD1
segment=0
locations=[[1,52.44878881613453,17.24645759652583],[2,52.44946289835735,17.24729156861804],[3,52.45024293083328,17.247813036732282],[4,52.4510681850573,17.24808763676174],[5,52.45184353646258,17.24858409171884],[6,52.45243354295365,17.24957829216578],[7,52.45305269230897,17.250521643171624],[8,52.453693983585,17.251426328875823],[9,52.4543319903462,17.25233665001622],]
podstawa=[[15,52.45243354295365,17.24957829216578],['start',52.4481100,17.2456300],['meta',52.4548300,17.2534500]]
daneflot=[[0.0,77.074],[0.1,80.289],[0.2,86.456],[0.3,91.151],[0.4,92.085],[0.5,94.101],[0.6,96.368],[0.7,98.916],[0.8,100.896],[0.9,106.207],[1.0,109.625],]