name=Nowe Miasto Nad Pilicą
slope=1.0km 3.4%
points=19.8
region=13
description=Nawierzchnia: szosa, stan bardzo dobry. Ruch samochodowy: duży.
Podjazd pod pilicką skarpę. Uwaga na duży ruch samochodowy.
comments=
author=M
segment=0
locations=[[1,51.61249687452921,20.576476330232936],[2,51.61300626310125,20.577649853520143],[3,51.61351698549385,20.578821642421644],[4,51.61432573703679,20.57907040390046],[5,51.61500385864854,20.578288419876458],[6,51.6154835205877,20.577082781497666],[7,51.61607977605493,20.576090305499633],[8,51.61693641081218,20.57588409419145],[9,51.61733130797013,20.574736243894904],]
podstawa=[[15,51.6154835205877,20.577082781497666],['start',51.6119900,20.5753000],['meta',51.6172000,20.5733200]]
daneflot=[[0.0,126.000],[0.1,126.617],[0.2,127.291],[0.3,129.897],[0.4,133.430],[0.5,139.933],[0.6,150.028],[0.7,155.130],[0.8,156.765],[0.9,157.706],[1.0,159.935],]