name=Kaleń ze Żbikowic
slope=7.2km 5.9%
points=372.8
region=29
description=Nawierzchnia: szosa, stan średni. Ruch samochodowy: mały/minimalny.
Wspinaczka z doliny Łososiny do odosobnionej górskiej osady Kaleń na stokach Jaworza. Do dej zakamuflowanej części przysiółka Kobylnicy Górnej prowadzi początkowo połatana droga przez Stańkową, gdzie odbijamy na wąski lecz gładki trawers w prawo, kierując się w stronę bacówki Hubertówka. Po łagodnym odcinku droga zawija przy mostku, gdzie rozpoczynamy zasadnicze natarcie, by klucząc na leśnej rampce, wdrapać się na przesilenie przed osadą, skąd dociągamy jeszcze do rozwidlenia nieopodal bacówki. Na najbardziej stromym odcinku przez las asfalt przechodzi w jednorodną betonową jezdnię - dalej znów dłuższy, niwelowany fragment asfaltu w osadzie oraz krótka betonowa końcóweczka - niestety miejscami jest sporo żwirku.
comments=Dnia 2015-02-07 użytkownik airstreeem20 dodał:
sprostowanie: Kaleń należy do Kobyłczyny Górnej
author=airstreeem20
segment=0
locations=[[1,49.74315061170272,20.58040337329021],[2,49.74182891967744,20.58116939077263],[3,49.74014071378989,20.581029178459403],[4,49.73857503320585,20.579869064442732],[5,49.73765991403128,20.577574919839662],[6,49.7359670574952,20.576805527915667],[7,49.73530816272719,20.5743289753716],[8,49.7338310253372,20.57294612533758],[9,49.73293763527842,20.570676056662478],[10,49.73292020790385,20.567926040926864],[11,49.73281365959242,20.565185724102662],[12,49.732559610928,20.562464080282666],[13,49.73184384133962,20.560040635936048],[14,49.73183560194985,20.557830497507666],[15,49.73169437394047,20.555236860136347],[16,49.73179000027452,20.552534774776632],[17,49.7319088066799,20.5497943707702],[18,49.73190613358538,20.54705273051536],[19,49.73216534980913,20.544359508632397],[20,49.7333013866251,20.542349999999942],[21,49.73346537581522,20.545008350502258],[22,49.73397291634065,20.54391039509801],[23,49.73470722096977,20.541416761635674],[24,49.73579941287299,20.539282465945234],[25,49.73557959918382,20.536600421881076],[26,49.73410904189509,20.535148649486928],[27,49.73292978083449,20.533149395898022],[28,49.73286601296919,20.530463225532912],[29,49.73402219553692,20.532035753212313],[30,49.73528376293731,20.531309717883687],[31,49.7359927842468,20.529060626263572],[32,49.73506938483004,20.52672396778712],[33,49.73392208139985,20.52466915714956],[34,49.73230945434762,20.52422512668386],[35,49.73093435971867,20.522728377171802],]
podstawa=[[13,49.73216534980913,20.544359508632397],['start',49.7433500,20.5776700],['meta',49.7292000,20.5222800]]
daneflot=[[0.0,276.394],[0.2,284.012],[0.4,289.028],[0.6,294.713],[0.8,302.263],[1.0,310.390],[1.2,313.991],[1.4,325.745],[1.6,335.020],[1.8,342.765],[2.0,347.270],[2.2,354.452],[2.4,365.359],[2.6,376.840],[2.8,381.381],[3.0,390.798],[3.2,406.559],[3.4,432.690],[3.6,440.163],[3.8,453.210],[4.0,464.689],[4.2,476.835],[4.4,490.216],[4.6,491.339],[4.8,514.265],[5.0,528.087],[5.2,535.856],[5.4,556.807],[5.6,577.502],[5.8,589.217],[6.0,623.737],[6.2,658.646],[6.4,665.918],[6.6,668.106],[6.8,666.966],[7.0,681.260],[7.2,701.228],]