name=Białośliwie
slope=1.4km 3.4%
points=22.4
region=75
description=Nawierzchnia: szosa, stan dobry. Ruch samochodowy: średni.
Podjazd do centrum wsi i dalej.
comments=
author=rdk
segment=0
locations=[[1,53.09616463850275,17.12068721634523],[2,53.09691212595525,17.119813618986427],[3,53.09778232083515,17.119686850947232],[4,53.09854593299364,17.120520546576472],[5,53.09929385811043,17.121397881091298],[6,53.09999747849673,17.122362959368616],[7,53.10054563751046,17.123581003436584],[8,53.10116158097603,17.124681877959915],[9,53.10204715890793,17.125],[10,53.10295774741629,17.12508548456276],[11,53.10384675124558,17.125433115375586],[12,53.10474066336828,17.125735533131206],[13,53.10565537181884,17.12575000000004],]
podstawa=[[14,53.10116158097603,17.124681877959915],['start',53.0954200,17.1215600],['meta',53.1065700,17.1257800]]
daneflot=[[0.0,53.366],[0.1,58.895],[0.2,60.464],[0.3,61.649],[0.4,61.725],[0.5,65.269],[0.6,68.657],[0.7,70.363],[0.8,76.827],[0.9,84.887],[1.0,89.576],[1.1,93.884],[1.2,97.027],[1.3,98.181],[1.4,99.963],]