name=Unimie
slope=1.3km 3.6%
points=27.6
region=89
description=Nawierzchnia: szosa, stan  jest dość kiepski, są muldy i nierówności, ale da. Ruch samochodowy: mały.
Podjazd jak podjazd, stopniem trudności podobny do góry "Dalnowskiej", może trochę trudniejszy, jak się na niego wjeżdża na maxa, można się zmęczyć, atutem tego podjazdu są piękne widoki na pola, i w oddali lasy.
comments=
author=freak78
segment=0
locations=[[1,53.62951827658875,15.580422867312109],[2,53.63031473751394,15.581240622650853],[3,53.63114263196368,15.581923947612722],[4,53.63181647963085,15.582995444181165],[5,53.63196838116435,15.584487330624029],[6,53.63195827314034,15.586057909344504],[7,53.63203164691004,15.5876254962335],[8,53.63226166083173,15.58912401864643],[9,53.63279485469477,15.590414199170596],[10,53.63331792174066,15.59171595878854],[11,53.63382169353314,15.593038706338575],[12,53.63423541189674,15.59444544665007],]
podstawa=[[14,53.63203164691004,15.5876254962335],['start',53.6287000,15.5796700],['meta',53.6345900,15.5959000]]
daneflot=[[0.0,51.000],[0.1,51.635],[0.2,53.653],[0.3,55.450],[0.4,62.916],[0.5,68.274],[0.6,68.019],[0.7,67.808],[0.8,73.354],[0.9,81.745],[1.0,88.916],[1.1,92.845],[1.2,96.574],[1.3,97.594],]