name=Gdynia (Powstania Styczniowego/Wielkopolskiego)
slope=1.8km 3.7%
points=32.7
region=90
description=Nawierzchnia: szosa, stan dobry. Ruch samochodowy: średni.
Podjazd na szczyt Płyty Redłowskiej od Alei Zwycięstwa koło Instytutu, Szpitala. Ruch wieczorami mniejszy.
comments=
author=???
segment=8356038
locations=[[1,54.48611009913547,18.546697561914243],[2,54.48699246621226,18.54687485232955],[3,54.48773974978381,18.547662364027588],[4,54.48837074327146,18.54874766350372],[5,54.48899698066924,18.54984116660637],[6,54.48960891649095,18.55095674919096],[7,54.48985004566465,18.552377116426555],[8,54.48975904091178,18.553904748939885],[9,54.48966753318276,18.55543228881197],[10,54.48978866418422,18.55596566795282],[11,54.49026032436824,18.554738864714636],[12,54.49042756225963,18.55324218907947],[13,54.49092192694567,18.551974776184124],[14,54.49113961596226,18.550519122751894],[15,54.49170807965798,18.54983811268835],[16,54.49173749600686,18.55126635921124],[17,54.49197857695446,18.55267714984052],]
podstawa=[[15,54.48978866418422,18.55596566795282],['start',54.4853600,18.5458900],['meta',54.4927700,18.5526800]]
daneflot=[[0.0,21.647],[0.1,23.121],[0.2,28.792],[0.3,36.496],[0.4,42.665],[0.5,46.894],[0.6,51.959],[0.7,57.071],[0.8,59.862],[0.9,60.983],[1.0,61.476],[1.1,66.445],[1.2,68.234],[1.3,70.155],[1.4,73.161],[1.5,80.162],[1.6,82.076],[1.7,86.558],[1.8,88.045],]