name=Skocznia Harrachov  (Czechy)
slope=1.0km 11.1%
points=234.4
region=2
description=Nawierzchnia: szosa. Ruch samochodowy: żaden.
Pamiętny  z Wyścigu Pokoju 1987 r. podjazd  pod skocznię narciarską w Harrachovie - końcówka  czasówki.
Podjechać ten najstromszy kawałek (100-200m) na kolarce nie lada wyczyn. Potrzebne niezłe przełożenie albo moc Amplera.
comments=
author=gavia2621
segment=0
locations=[[1,50.77182095911538,15.426409473828699],[2,50.77112207055647,15.426097545268249],[3,50.77052433332929,15.427236475599898],[4,50.76985644630231,15.426687164546706],[5,50.7694378185811,15.427086691101977],[6,50.76951026051833,15.428090389240765],[7,50.76869621007761,15.428692753135124],[8,50.76788576113058,15.42939962081391],[9,50.76723603140528,15.430393229471974],]
podstawa=[[15,50.76951026051833,15.428090389240765],['start',50.7725900,15.4272500],['meta',50.7670600,15.4318300]]
daneflot=[[0.0,671.699],[0.1,677.089],[0.2,690.252],[0.3,694.188],[0.4,708.760],[0.5,714.767],[0.6,710.472],[0.7,724.421],[0.8,753.548],[0.9,782.052],[1.0,786.949],]