name=Komarno
slope=1.8km 8.0%
points=149.6
region=4
description=Nawierzchnia: szosa, stan dobry. Ruch samochodowy: minimalny.
Podjazd w okolicach Przełęczy Komarnickiej. W Komarnie na skrzyżowaniu,  zamiast na przełęcz, kierujemy się na Radomierz i po chwili zjazd w lewo. Po wyjeździe ze wsi podjazd widać jak na dłoni.
comments=
author=Menchov
segment=0
locations=[[1,50.92427212613458,15.870530772485381],[2,50.9239319255713,15.871840347506918],[3,50.92365423786762,15.873186880748108],[4,50.92353470312257,15.874590046141975],[5,50.92342828014294,15.87599803612079],[6,50.92353938364612,15.877273419412404],[7,50.92438877013219,15.877711675309456],[8,50.92491143389568,15.878677149833948],[9,50.92512242541871,15.880055208945919],[10,50.92543019009272,15.881292267180243],[11,50.92626023251284,15.881815212887773],[12,50.92698444482131,15.882612666688829],[13,50.92774572775475,15.8830596076873],[14,50.92785055941441,15.884462026993447],[15,50.92832491281766,15.885594850704138],[16,50.9289329770418,15.886634350790018],[17,50.92967879372272,15.887014372265071],]
podstawa=[[14,50.92543019009272,15.881292267180243],['start',50.9241500,15.8691900],['meta',50.9303100,15.8860200]]
daneflot=[[0.0,445.465],[0.1,449.929],[0.2,455.251],[0.3,458.639],[0.4,463.276],[0.5,465.137],[0.6,468.657],[0.7,476.512],[0.8,480.666],[0.9,488.615],[1.0,498.498],[1.1,511.957],[1.2,524.716],[1.3,534.307],[1.4,547.045],[1.5,562.977],[1.6,577.439],[1.7,586.690],[1.8,589.781],]