name=Blizianka wersja II
slope=2.3km 6.5%
points=132
region=47
description=Nawierzchnia: szosa, stan bardzo dobry. Ruch samochodowy: minimalny.
Ciekawsza, o wiele cięższa alternatywa podjazdu na Bliziankę. Podjazd rozpoczyna się niewinnie, do momentu kiedy mijamy drugi zakręt. Naszym oczom ukazuje się piękny stromy odcinek, który nie odpuszcza przez długi czas. Wytrenowani zawodnicy przejadą bez większych problemów, a Ci słabsi muszą jechać na najniższych przełożeniach. Następna faza już mniej stroma, a sama końcówka już dość płaska.
comments=
author=Beymont
segment=3820853
locations=[[1,49.85736110092839,21.93277119264826],[2,49.85748362872567,21.934161771859976],[3,49.85796582998984,21.935340668795902],[4,49.85839386364875,21.936563861729383],[5,49.85840699484412,21.93796041374469],[6,49.85841750966372,21.9393594962296],[7,49.85857865641859,21.940744255164645],[8,49.85865066230069,21.942141591757263],[9,49.85853113577987,21.943537610686235],[10,49.85845273468729,21.944938535767278],[11,49.85852136537622,21.9463406149182],[12,49.85881346100529,21.947673896714377],[13,49.85906381026577,21.949024899533924],[14,49.85955102825231,21.950184211616033],[15,49.8601198648482,21.951239297205802],[16,49.85983530884696,21.95255564135755],[17,49.85955827135773,21.953892408910747],[18,49.85932634877192,21.95525178910202],[19,49.8588914926995,21.9564809306911],[20,49.85849707813146,21.95774522088459],[21,49.85915493275719,21.958528199127272],[22,49.85993354450378,21.959231258437057],]
podstawa=[[14,49.85881346100529,21.947673896714377],['start',49.8578300,21.9317100],['meta',49.8608300,21.9594500]]
daneflot=[[0.0,301.931],[0.1,307.694],[0.2,317.409],[0.3,328.930],[0.4,342.026],[0.5,352.694],[0.6,363.503],[0.7,375.279],[0.8,384.468],[0.9,391.955],[1.0,401.608],[1.1,410.816],[1.2,418.417],[1.3,419.870],[1.4,424.848],[1.5,430.352],[1.6,435.169],[1.7,438.730],[1.8,440.687],[1.9,440.888],[2.0,446.296],[2.1,449.169],[2.2,449.988],[2.3,452.233],]