name=Cieszów od Świebodzic
slope=2.3km 3.8%
points=43.2
region=38
description=Nawierzchnia: szosa, stan dobry. Ruch samochodowy: umiarkowany.
Altrenatywna droga dojazdu do Wałbrzycha. Podjazd ciekawy, momentami trudny,  nachylenie do w niektórych fragmentach 10%. Krajobrazowo przypomina trochę podjazd do Poręby z Bolkowa.
comments=
author=marcinos
segment=5528584
locations=[[1,50.86343441519332,16.30485924770676],[2,50.8630919668044,16.303543886933994],[3,50.86272681631038,16.302244255754886],[4,50.86253996688079,16.300855230014008],[5,50.86244090805135,16.29944011552766],[6,50.86252773441563,16.298030877613996],[7,50.862680226869,16.29663592877887],[8,50.86266785931348,16.295212608239353],[9,50.86260095577012,16.29379325040145],[10,50.86242733423812,16.29239577860153],[11,50.86217672393608,16.29102829948738],[12,50.86222324713942,16.28961780066743],[13,50.8622661210968,16.288196675083782],[14,50.86226000551156,16.28677224900548],[15,50.8622600072157,16.285347768094425],[16,50.86224649433922,16.283923684344927],[17,50.86218867773238,16.28250267087708],[18,50.86210694624236,16.281084090992863],[19,50.86204024569945,16.279663593563328],[20,50.86197717899439,16.278242630610976],[21,50.86190733652668,16.27682246358654],[22,50.86184070481675,16.27540191452192],]
podstawa=[[14,50.86222324713942,16.28961780066743],['start',50.8637200,16.3062100],['meta',50.8616600,16.2740100]]
daneflot=[[0.0,302.298],[0.1,306.901],[0.2,309.980],[0.3,313.243],[0.4,316.009],[0.5,317.448],[0.6,318.539],[0.7,320.422],[0.8,322.969],[0.9,323.780],[1.0,325.116],[1.1,328.089],[1.2,332.574],[1.3,338.327],[1.4,344.076],[1.5,352.095],[1.6,359.934],[1.7,365.816],[1.8,371.418],[1.9,378.139],[2.0,382.909],[2.1,385.262],[2.2,387.018],[2.3,389.003],]