name=Sanka  z Mnikowa
slope=3.6km 3.1%
points=51.6
region=64
description=Nawierzchnia: szosa, stan bardzo dobry. Ruch samochodowy: mały.
Świetny podjazd, wykorzystywany w wyścigach, 3 strome fragmenty przeplatane są łagodniejszymi, prawie wypłaszczeniami, więc do podjechania dla każdego. W miarę wspinania zaczyna rozciągać się piękny widok po lewej stronie. Na trasie można spotkać mnóstwo kolarzy z Krakowa i okolic.
comments=
author=Amator88
segment=0
locations=[[1,50.05970504499503,19.71958432619192],[2,50.05989252198605,19.718205440074826],[3,50.05985848288585,19.716828162840102],[4,50.05956155006336,19.715495081744052],[5,50.05936000012862,19.71413154164361],[6,50.05944509838677,19.712727643148924],[7,50.05943980761866,19.711317903799227],[8,50.05940488791157,19.709908702545476],[9,50.05942776121397,19.70849812118388],[10,50.05946912038874,19.70708859246406],[11,50.05959247867411,19.70569112552016],[12,50.059678982431,19.704288918448356],[13,50.05965547466209,19.70287835501813],[14,50.0595036977286,19.701494918399476],[15,50.05952125919102,19.70008930039171],[16,50.05961819427517,19.698691819626788],[17,50.05975274875328,19.697387690212963],[18,50.06035451247146,19.69635391414647],[19,50.06070072926448,19.695054665336556],[20,50.0610820685178,19.6937751010272],[21,50.06124558946244,19.69240111040517],[22,50.06157255712115,19.69108798773641],[23,50.0619515814773,19.689806623505547],[24,50.0623589079072,19.68854621246942],[25,50.06271414806164,19.687249384789993],[26,50.06319069061307,19.68604935433177],[27,50.06362321538731,19.684809449707018],[28,50.06396868902487,19.683505245805236],[29,50.06417103885934,19.682137845643865],[30,50.06422130063445,19.680729130734562],[31,50.06422960037534,19.67931801725922],[32,50.06423153839454,19.6779089215579],[33,50.06401200780922,19.676541386951953],[34,50.0638404278914,19.675155937083332],[35,50.06363505711049,19.67378152222807],]
podstawa=[[13,50.06070072926448,19.695054665336556],['start',50.0597400,19.7209600],['meta',50.0633300,19.6724600]]
daneflot=[[0.0,231.220],[0.1,233.092],[0.2,237.857],[0.3,245.232],[0.4,252.697],[0.5,256.994],[0.6,260.274],[0.7,261.372],[0.8,262.569],[0.9,263.374],[1.0,265.884],[1.1,269.032],[1.2,272.252],[1.3,275.412],[1.4,279.997],[1.5,285.130],[1.6,286.778],[1.7,286.309],[1.8,287.498],[1.9,289.624],[2.0,291.362],[2.1,294.567],[2.2,298.448],[2.3,304.280],[2.4,308.925],[2.5,314.729],[2.6,317.771],[2.7,322.673],[2.8,323.878],[2.9,327.684],[3.0,332.329],[3.1,336.846],[3.2,339.255],[3.3,340.966],[3.4,340.755],[3.5,341.977],[3.6,343.958],]