name=Huta z Mroczkowa
slope=7.0km 1.6%
points=44.1
region=66
description=Nawierzchnia: szosa, stan dobry. Ruch samochodowy: minimalny.
Dość trudny podjazd jak na tę okolicę, niezła nawierzchnia, znikomy ruch samochodowy.
comments=
author=arturc
segment=0
locations=[[1,51.1338634197172,20.701043706056225],[2,51.13550421947203,20.70181357269007],[3,51.13690912525177,20.70356347258928],[4,51.13830029724369,20.705341050879838],[5,51.13990049563157,20.706349049555115],[6,51.14165723956772,20.70683533223405],[7,51.14341708143253,20.707290688475496],[8,51.14517526982441,20.707752430091205],[9,51.14693734519631,20.708187600435963],[10,51.14870044912276,20.708612046021017],[11,51.15046297329198,20.709042469290125],[12,51.15222405405506,20.70948780354638],[13,51.15399311531404,20.709841853495618],[14,51.15575568828768,20.710271086494004],[15,51.15751846442404,20.710698813615068],[16,51.15914921322944,20.711735235046717],[17,51.16067437414406,20.713208177522688],[18,51.16219951656059,20.714681217395082],[19,51.16372464047678,20.71615435467436],[20,51.16524930777535,20.717628741955195],[21,51.16677805427538,20.719092313188185],[22,51.16831269346548,20.720540246499354],[23,51.16984308244707,20.721999626705497],[24,51.1713722519669,20.72344612593338],[25,51.17307882022958,20.72274841206172],[26,51.17476950702432,20.721846138603723],[27,51.17645996228885,20.720941939120394],[28,51.17815112839271,20.720040556352842],[29,51.17983861400962,20.719121681811203],[30,51.18152533308762,20.718199176618555],[31,51.18317908153283,20.718395226544544],[32,51.18480610417911,20.71955804523634],[33,51.18643059914376,20.72073082864881],[34,51.18805369070854,20.721908677599004],]
podstawa=[[12,51.165,20.714681217395082],['start',51.1323200,20.7002600],['meta',51.1896700,20.7231100]]
daneflot=[[0.0,271.010],[0.2,274.087],[0.4,277.000],[0.6,277.652],[0.8,277.000],[1.0,279.048],[1.2,279.922],[1.4,281.822],[1.6,284.186],[1.8,288.960],[2.0,295.846],[2.2,296.803],[2.4,297.381],[2.6,297.107],[2.8,303.425],[3.0,309.957],[3.2,319.384],[3.4,322.832],[3.6,322.296],[3.8,321.514],[4.0,321.766],[4.2,325.699],[4.4,332.282],[4.6,341.941],[4.8,353.261],[5.0,367.162],[5.2,373.249],[5.4,377.643],[5.6,378.190],[5.8,375.049],[6.0,368.968],[6.2,370.814],[6.4,376.553],[6.6,380.623],[6.8,381.013],[7.0,383.940],]