name=Gubałówka od Chochołowa
slope=10.4km 3.4%
points=195
region=23
description=Nawierzchnia: szosa, stan średni. Ruch samochodowy: mały.
Trasa przyjemna ze swojskim zapachem.
comments=
author=Nemiras
segment=0
locations=[[1,49.35728830537447,19.82060639940073],[2,49.35613648278774,19.82269108831383],[3,49.35469835547669,19.824275105317383],[4,49.35309578725746,19.825452538864965],[5,49.35166268780618,19.827047578771953],[6,49.35048588680679,19.82909234025192],[7,49.34949332382074,19.831215747627994],[8,49.34819290933252,19.833072980301267],[9,49.34658370309744,19.83341657433948],[10,49.3449984441726,19.834594553384363],[11,49.343252225691,19.835076368751743],[12,49.34168880280185,19.836208977000297],[13,49.34015097322098,19.837500325080327],[14,49.33866298848481,19.83900121223064],[15,49.33752000576114,19.84099085848152],[16,49.33671063983633,19.8433872344292],[17,49.3360396537862,19.845908202798455],[18,49.33501197180504,19.84813226636186],[19,49.3346389456493,19.850751293431813],[20,49.33437966635704,19.853404350052415],[21,49.33408998245952,19.8560573076453],[22,49.33420614561742,19.858739316328638],[23,49.33367436532017,19.8613470352052],[24,49.33314347674696,19.86395514556989],[25,49.33230300077528,19.866266830641734],[26,49.33085236034315,19.867848487554056],[27,49.3293972491777,19.86940896055421],[28,49.32778586514974,19.87055815726137],[29,49.32631291591919,19.87188178146232],[30,49.32516835652603,19.87397117798946],[31,49.32385649942367,19.875807971886843],[32,49.32351544812281,19.878484099154548],[33,49.32329308865025,19.881194303330062],[34,49.3231941043848,19.88390314645312],[35,49.32321544004949,19.88661638169026],[36,49.32390714686304,19.88906640485675],[37,49.32416057201632,19.891598343749365],[38,49.32397032762825,19.89284229902205],[39,49.32313976848613,19.89522486878218],[40,49.32193375787127,19.89723311712669],[41,49.3205581395255,19.898956254040513],[42,49.3189976689226,19.9002710881457],[43,49.31738472330512,19.901421539947137],[44,49.31572122511007,19.902395310539305],[45,49.31406794186247,19.90340950570703],[46,49.31234330878848,19.90364982991423],[47,49.31073965852428,19.90483662364784],[48,49.30924231724268,19.906310658571783],[49,49.30776980701377,19.90782029007198],[50,49.30624002594805,19.90907290672112],[51,49.3048578107187,19.91070915455373],]
podstawa=[[12,49.3293972491777,19.86940896055421],['start',49.3578800,19.8189000],['meta',49.3032700,19.9114000]]
daneflot=[[0.0,779.059],[0.2,783.756],[0.4,788.847],[0.6,789.764],[0.8,795.224],[1.0,798.366],[1.2,804.428],[1.4,808.359],[1.6,815.557],[1.8,816.251],[2.0,819.947],[2.2,821.965],[2.4,831.342],[2.6,832.892],[2.8,837.508],[3.0,842.383],[3.2,840.276],[3.4,844.222],[3.6,837.488],[3.8,843.245],[4.0,846.017],[4.2,847.503],[4.4,854.385],[4.6,858.439],[4.8,866.715],[5.0,874.026],[5.2,879.294],[5.4,885.696],[5.6,891.424],[5.8,896.867],[6.0,907.261],[6.2,914.073],[6.4,926.111],[6.6,934.320],[6.8,946.581],[7.0,956.205],[7.2,968.488],[7.4,974.934],[7.6,979.647],[7.8,985.228],[8.0,992.187],[8.2,1004.240],[8.4,1021.099],[8.6,1037.881],[8.8,1055.951],[9.0,1075.174],[9.2,1086.488],[9.4,1078.549],[9.6,1081.083],[9.8,1097.624],[10.0,1117.063],[10.2,1126.141],[10.4,1129.442],]