name=Barycz od Gwoźnicy
slope=2.8km 3.8%
points=63.8
region=47
description=Nawierzchnia: szosa. Ruch samochodowy: mały.
Początkowo lekkie nachylenie, końcówka ciężka. 
W końcowej części występują dziury w nawierzchni, ale przy podjeździe bardzo nie przeszkadzają.
comments=
author=Beymont
segment=1711609
locations=[[1,49.82633434065986,21.99809291186648],[2,49.82541462224806,21.997932510764258],[3,49.82449607143042,21.99775603967248],[4,49.82357687374724,21.997588453648632],[5,49.82265877788113,21.997699094632594],[6,49.82175071396475,21.99797675378511],[7,49.82093148344354,21.998576348233883],[8,49.82020839879051,21.999471895895226],[9,49.81947287871905,22.000342763546996],[10,49.81874461890099,22.001227729531138],[11,49.81807453791838,22.002215943800365],[12,49.81741875712718,22.003228078211578],[13,49.81681338064882,22.00431320241637],[14,49.8162162984046,22.005408974479224],[15,49.81564012915543,22.00653161629043],[16,49.81502785958898,22.007605674109982],[17,49.81439158010772,22.008647413045765],[18,49.81377793355992,22.009718782177174],[19,49.81334295651901,22.010980020176703],[20,49.81294199123544,22.0122728186534],[21,49.81254101157237,22.013565595708087],[22,49.81214001753024,22.014858351340877],[23,49.81173888202826,22.016150990790152],[24,49.81120981862476,22.01730422710716],[25,49.81048852373016,22.01820299823794],[26,49.80977966902518,22.01912527357888],[27,49.80909848321369,22.02009574058468],]
podstawa=[[13,49.81564012915543,22.00653161629043],['start',49.8271900,21.9981900],['meta',49.8084100,22.0210500]]
daneflot=[[0.0,347.126],[0.1,349.923],[0.2,349.899],[0.3,348.243],[0.4,349.576],[0.5,352.017],[0.6,354.085],[0.7,355.555],[0.8,357.340],[0.9,359.462],[1.0,364.599],[1.1,366.518],[1.2,365.556],[1.3,369.358],[1.4,375.061],[1.5,376.858],[1.6,379.320],[1.7,382.775],[1.8,388.316],[1.9,396.073],[2.0,404.044],[2.1,410.012],[2.2,414.052],[2.3,421.102],[2.4,426.277],[2.5,431.735],[2.6,437.709],[2.7,447.304],[2.8,455.557],]