name=Jodłówka od  Nienadowe
slope=8.4km 2.2%
points=93.9
region=47
description=Nawierzchnia: szosa, stan dobry. Ruch samochodowy: minimalny.
Na początku drobne pagórki, ale droga jednak cały czas pnie się w górę, Na samym końcu podjazd robi się bardzo sztywny, ale w nagrodę możemy podziwiać widoki na Pogórze Dynowskie
comments=
author=parurex
segment=0
locations=[[1,49.82090346504006,22.421420093436154],[2,49.8226642100882,22.421561590491592],[3,49.82435099754248,22.421985201387542],[4,49.8259164105157,22.423194145531625],[5,49.82688542296178,22.425519566060075],[6,49.82805259486071,22.427626957243433],[7,49.82918375028975,22.42973249916008],[8,49.83086018437915,22.430560000000014],[9,49.8324073682866,22.431857368146666],[10,49.83409254792622,22.432501273951175],[11,49.83557006349942,22.433262474370167],[12,49.83733375038745,22.433465000035994],[13,49.83911023173328,22.433435419706484],[14,49.84088176072975,22.433133360199463],[15,49.84240914996844,22.432826275143498],[16,49.84394432839574,22.431476119748822],[17,49.84562370409357,22.43052972210012],[18,49.84729534976041,22.429595188163944],[19,49.84897753880809,22.428659969103137],[20,49.85014764234184,22.426608586308816],[21,49.85137986664196,22.424616270351294],[22,49.85273213340596,22.42282153659005],[23,49.85445325194627,22.423081843252476],[24,49.85586534908752,22.424717732449835],[25,49.85741860621903,22.425925174235317],[26,49.85918571451568,22.425476134392966],[27,49.86080454303536,22.424290161256067],[28,49.86234780666361,22.42288530977396],[29,49.86389217148533,22.421488780836626],[30,49.86551159478528,22.420312793676544],[31,49.86721856970274,22.419575194448612],[32,49.86891503307336,22.41912559404284],[33,49.87068286488238,22.419250218778984],[34,49.87220534701002,22.420662447429663],[35,49.87382461650007,22.421790308386335],[36,49.87538688949963,22.423141819084776],[37,49.8767267605137,22.42498057416219],[38,49.87782148348639,22.427127852314015],[39,49.87875608249924,22.429365581498587],[40,49.8796000000672,22.431775074546408],[41,49.87924000012952,22.43449244441581],]
podstawa=[[12,49.85273213340596,22.42282153659005],['start',49.8201400,22.4203800],['meta',49.8799200,22.4366400]]
daneflot=[[0.0,234.845],[0.2,233.881],[0.4,234.868],[0.6,237.175],[0.8,240.571],[1.0,240.805],[1.2,244.485],[1.4,245.706],[1.6,250.055],[1.8,253.474],[2.0,252.511],[2.2,251.886],[2.4,253.418],[2.6,255.869],[2.8,259.671],[3.0,264.908],[3.2,263.309],[3.4,268.286],[3.6,268.726],[3.8,273.335],[4.0,278.540],[4.2,279.021],[4.4,281.812],[4.6,281.754],[4.8,282.706],[5.0,285.774],[5.2,293.228],[5.4,295.643],[5.6,299.974],[5.8,301.489],[6.0,306.400],[6.2,309.126],[6.4,314.258],[6.6,318.487],[6.8,328.503],[7.0,350.192],[7.2,368.551],[7.4,378.051],[7.6,388.759],[7.8,403.628],[8.0,414.893],[8.2,415.737],[8.4,423.132],]