name=Oborniki Śląskie ul Dunikowskiego
slope=0.9km 4.0%
points=19.2
region=52
description=Nawierzchnia: szosa, stan dobry. Ruch samochodowy: mały.
Końcówka podjazdu bardzo stroma.
comments=
author=pawel250101
segment=0
locations=[[1,51.30249315982412,16.902769809521487],[2,51.30312631179627,16.901809592551444],[3,51.30375945591605,16.900849349088958],[4,51.30439259218309,16.899889079133004],[5,51.30504044478313,16.898954499797014],[6,51.3057580513633,16.898190368107635],[7,51.30658741693647,16.897758175907825],[8,51.30741557043004,16.897319316167454],]
podstawa=[[15,51.30504044478313,16.898954499797014],['start',51.3018600,16.9037300],['meta',51.3082200,16.8967900]]
daneflot=[[0.0,164.903],[0.1,171.392],[0.2,174.212],[0.3,179.910],[0.4,183.929],[0.5,186.129],[0.6,187.248],[0.7,190.952],[0.8,197.851],[0.9,202.986],]