name=Warszawa (Spacerowa)
slope=0.9km 2.3%
points=5.8
region=80
description=Nawierzchnia: szosa, stan dobry. Ruch samochodowy: duży.
Jedna z warszawskich "hopek" z wytyczoną dobrą ścieżką rowerową. Świetna na interwały/powtórzenia. Dobra alternatywa dla "Agrykoli".
comments=
author=lk313
segment=0
locations=[[1,52.20711766972146,21.02929443435471],[2,52.20770094931637,21.028170302967624],[3,52.2083889421999,21.027199624248738],[4,52.20910081596227,21.0262754413734],[5,52.20988049863831,21.025537845775034],[6,52.21074017386474,21.025052687590687],[7,52.21138875888677,21.024109309859114],[8,52.21128077454622,21.02266656232098],]
podstawa=[[15,52.20988049863831,21.025537845775034],['start',52.2069300,21.0307300],['meta',52.2109900,21.0212600]]
daneflot=[[0.0,87.611],[0.1,88.549],[0.2,90.455],[0.3,92.277],[0.4,94.072],[0.5,96.658],[0.6,100.431],[0.7,104.250],[0.8,107.339],[0.9,108.500],]