name=Świniuszka
slope=1.9km 4.2%
points=42.8
region=61
description=Nawierzchnia: szosa, stan średni. Ruch samochodowy: średni.
Podjazd pokonujemy w otoczeniu lasu. Niedawno poprawiono tam asfalt, co nie wyszło na dobre, ale da się jechać. Ruch samochodowy jest
średni lub duży w zależności od dnia tygodnia.
comments=Dnia 2014-10-03 użytkownik xtnt dodał:
Właśnie kładą nowy asfalt i spory odcinek (najbardziej stromy) puszczają lewym pasem. Ale droga jest fajna i Świniuszka jest bardzo fajna.
author=Dzatek
segment=0
locations=[[1,50.40039117701532,19.53839799555317],[2,50.4012923539231,19.5382859868472],[3,50.40219353072334,19.53817397388184],[4,50.40309464015139,19.53806072036275],[5,50.40399487992654,19.53793148073123],[6,50.4048951195585,19.53780223618969],[7,50.4057969873314,19.53770604126953],[8,50.40669791781833,19.53759046862706],[9,50.40759910221785,19.537519905496197],[10,50.40844528837783,19.53801385817951],[11,50.40928390293418,19.538543517080825],[12,50.41008092763236,19.53921230888841],[13,50.4108766127281,19.539885591431357],[14,50.41176380704525,19.53998405620291],[15,50.41266779657889,19.539977021285495],[16,50.41357174877907,19.539969429757207],[17,50.41445684290156,19.53968081230414],[18,50.41535810682137,19.53976318482978],]
podstawa=[[14,50.40844528837783,19.53801385817951],['start',50.3994900,19.5385100],['meta',50.4162600,19.5398600]]
daneflot=[[0.0,381.190],[0.1,382.874],[0.2,385.096],[0.3,387.557],[0.4,392.197],[0.5,400.064],[0.6,406.675],[0.7,414.151],[0.8,420.309],[0.9,423.186],[1.0,424.210],[1.1,426.416],[1.2,432.850],[1.3,434.341],[1.4,437.825],[1.5,442.921],[1.6,448.210],[1.7,454.399],[1.8,458.954],[1.9,462.000],]