name=Zdziłowice z Otroczy
slope=1.3km 5.0%
points=50.1
region=83
description=Nawierzchnia: szosa, stan średni. Ruch samochodowy: mały.
Podjazd zaczyna się w Zdziłowicach, a kończy się w lesie pomiędzy Zdziwiłowicami a Otroczą. Droga miejscami dziurawa, przy zjeździe trzeba uważać. Ruch samochodowy mały, również jest to droga lokalna.
comments=
author=Narzew
segment=0
locations=[[1,50.81412481278056,22.532828812950015],[2,50.81472686932113,22.53394759677724],[3,50.81514070559934,22.535241872740244],[4,50.81502085136871,22.536694021711696],[5,50.81487886257391,22.53814696867812],[6,50.81496265671618,22.539589650825747],[7,50.81542921181265,22.540858040758735],[8,50.81596100296055,22.542063719954058],[9,50.81644114362485,22.543319151337528],[10,50.8167615510237,22.544694585755337],[11,50.81690873620739,22.54614463441021],[12,50.8170040075474,22.54760733380283],]
podstawa=[[14,50.81542921181265,22.540858040758735],['start',50.8134600,22.5320100],['meta',50.8170000,22.5490700]]
daneflot=[[0.0,251.796],[0.1,253.676],[0.2,256.929],[0.3,259.470],[0.4,258.545],[0.5,263.731],[0.6,265.087],[0.7,267.350],[0.8,275.183],[0.9,287.274],[1.0,298.046],[1.1,305.363],[1.2,312.759],[1.3,316.518],]