name=Koszęcin
slope=0.9km 3.4%
points=12
region=60
description=Nawierzchnia: szosa, stan dobry. Ruch samochodowy: średni.
Podjazd pod Koszęcin. Zaczynamy koło kościoła św. Trójcy, kończymy na przeciwko Domu Kultury
comments=
author=???
segment=0
locations=[[1,50.62376267609042,18.84348773469344],[2,50.62464535195548,18.843325463294946],[3,50.62552802759515,18.8431631858042],[4,50.62641070300942,18.84300090222075],[5,50.62729378153634,18.842844167029625],[6,50.62817688890059,18.842687825973826],[7,50.62905956108732,18.842525573077182],[8,50.62994189975728,18.842358788685374],]
podstawa=[[15,50.62729378153634,18.842844167029625],['start',50.6228800,18.8436500],['meta',50.6308100,18.8420700]]
daneflot=[[0.0,275.059],[0.1,276.234],[0.2,277.700],[0.3,280.810],[0.4,284.163],[0.5,288.062],[0.6,292.854],[0.7,298.232],[0.8,302.244],[0.9,305.594],]