name=Kocierz z Targanic
slope=4.8km 6.8%
points=266.3
region=21
description=Nawierzchnia: szosa, stan bardzo dobry. Ruch samochodowy: mały.
Ładny widokowo i urozmaicony podjazd na Przełęcz Kocierską wraz z podjazdem pod zajazd.
comments=
author=turdus23
segment=0
locations=[[1,49.80260316755403,19.323069382071026],[2,49.80082010238182,19.322681754330233],[3,49.79903444662858,19.322324985139176],[4,49.79726638653396,19.322750904801524],[5,49.79554266452836,19.323553340688704],[6,49.79384723667176,19.324486525090265],[7,49.79244535260905,19.32446235890575],[8,49.79099840880861,19.325185634049944],[9,49.78937296491837,19.3261875125022],[10,49.78760526054548,19.32583073600847],[11,49.78594232689542,19.32508314387337],[12,49.78712952687736,19.324162080830433],[13,49.78711199751641,19.322135940772682],[14,49.78536342423978,19.321474922681887],[15,49.78383559585154,19.320046553257043],[16,49.78209473600292,19.319812496615214],[17,49.7804367153803,19.319944092683386],[18,49.77962302714873,19.322117893063705],[19,49.77835721091299,19.323451035912512],[20,49.77687145812568,19.324931429820708],[21,49.77607877269957,19.32418280081754],[22,49.77694129063821,19.321739031789207],[23,49.77770459320417,19.319446253325623],]
podstawa=[[13,49.793,19.322135940772682],['start',49.8043800,19.3235200],['meta',49.7779300,19.3166900]]
daneflot=[[0.0,421.239],[0.2,427.404],[0.4,432.501],[0.6,442.173],[0.8,453.547],[1.0,467.184],[1.2,478.568],[1.4,486.986],[1.6,498.938],[1.8,509.895],[2.0,529.760],[2.2,542.865],[2.4,557.976],[2.6,575.102],[2.8,599.105],[3.0,622.281],[3.2,639.310],[3.4,664.532],[3.6,670.066],[3.8,691.614],[4.0,701.681],[4.2,711.272],[4.4,721.081],[4.6,730.830],[4.8,750.211],]