name=Zalesie  z Matiasovce (Słowacja)
slope=5.2km 3.6%
points=88.1
region=28
description=Nawierzchnia: szosa, stan dobry. Ruch samochodowy: minimalny.
Przyjemna jazda po pustkowiu. Najmilej pokonuje się zalesiony odcinek szosy.
Ostatnie kilkaset metrów trasy to droga gruntowa, która dalej doprowadza do Relova.
comments=
author=jeżnarowerze
segment=0
locations=[[1,49.34705621471967,20.360219334575504],[2,49.34559939611306,20.358629237839068],[3,49.34404287725074,20.357293452113026],[4,49.34233478214814,20.35649968202995],[5,49.34062560476458,20.357114114035767],[6,49.33899389261038,20.358255935693023],[7,49.3376357271076,20.35997915788164],[8,49.33692897045194,20.362493254938272],[9,49.33667325348729,20.365213705618203],[10,49.33645000015021,20.367944235925734],[11,49.33631824724129,20.370680078764508],[12,49.33590290837159,20.373341866327564],[13,49.33517956310286,20.375857653315734],[14,49.33404638942336,20.377852358728546],[15,49.33256828239519,20.379404931979025],[16,49.33105060399776,20.380854116651562],[17,49.32958346213525,20.382431517358782],[18,49.32830038233462,20.38425827180299],[19,49.32679369664596,20.385738209252168],[20,49.32555989147274,20.387731342447523],[21,49.32426258187413,20.389561319377663],[22,49.32276620914772,20.391070417990477],[23,49.32101390082624,20.391562299970133],[24,49.31923161496341,20.391838908511545],[25,49.31757245603062,20.392745943197042],]
podstawa=[[13,49.33404638942336,20.377852358728546],['start',49.3488100,20.3602600],['meta',49.3161200,20.3943000]]
daneflot=[[0.0,560.176],[0.2,563.461],[0.4,570.049],[0.6,571.215],[0.8,578.598],[1.0,581.695],[1.2,588.584],[1.4,595.892],[1.6,598.764],[1.8,611.496],[2.0,621.832],[2.2,623.890],[2.4,634.283],[2.6,645.051],[2.8,651.869],[3.0,650.491],[3.2,653.418],[3.4,659.527],[3.6,668.467],[3.8,680.971],[4.0,688.854],[4.2,700.038],[4.4,708.714],[4.6,719.984],[4.8,727.509],[5.0,733.186],[5.2,748.179],]