name=Myślachowice z Trzebini
slope=3.0km 3.3%
points=43.4
region=62
description=Nawierzchnia: szosa, stan dobry. Ruch samochodowy: duży.
Podjazd rozpoczynamy na skrzyżowaniu ulic Krakowskiej (DK 79) i Piłsudskiego (DW 791). Kierujemy się w stronę Myślachowic. Początkowo nachylenie jest małe, ale wzrasta wraz z pokonywaną odległością. Podjazd kończymy na zakręcie przy szkole podstawowej w Myślachowicach.
comments=
author=Pablo
segment=0
locations=[[1,50.15969842819577,19.47054060286348],[2,50.16131027847218,19.471626976735024],[3,50.16307415739062,19.471732242311873],[4,50.16477713165569,19.472051470809447],[5,50.16639279119448,19.473106047142664],[6,50.16811723400946,19.472672310413827],[7,50.16988287077174,19.47270110034242],[8,50.1716523459751,19.47297173434265],[9,50.17342317250625,19.473221148498055],[10,50.17519473959588,19.473457312091455],[11,50.17690045076365,19.474006756945187],[12,50.17855682470389,19.474928697108],[13,50.1803019556512,19.47540506037012],[14,50.18198832478749,19.47622804119078],]
podstawa=[[13,50.1716523459751,19.47297173434265],['start',50.1582000,19.4690800],['meta',50.1837100,19.4769100]]
daneflot=[[0.0,309.979],[0.2,317.411],[0.4,322.794],[0.6,325.183],[0.8,330.834],[1.0,330.444],[1.2,336.098],[1.4,340.552],[1.6,346.100],[1.8,355.308],[2.0,365.506],[2.2,381.939],[2.4,392.628],[2.6,395.705],[2.8,403.510],[3.0,408.470],]