name=Łapsze Wyżne
slope=3.0km 3.7%
points=52.3
region=27
description=Nawierzchnia: szosa. Ruch samochodowy: średni.
Średni ruch , dobry asfalt.
comments=
author=kubens
segment=0
locations=[[1,49.39445375731437,20.20629801931136],[2,49.39454200719626,20.203569943999128],[3,49.39467506814777,20.20083575178853],[4,49.39449057818635,20.19812453811062],[5,49.39492308791181,20.195486329962478],[6,49.39478505938579,20.192791064349763],[7,49.39448655046488,20.190088545294884],[8,49.39420292483251,20.187386331707444],[9,49.39369131772521,20.184790657029225],[10,49.39410848707961,20.182150470729084],[11,49.39467964463901,20.179557365917162],[12,49.39456641890768,20.176875331859264],[13,49.39489171242439,20.175611676937024],[14,49.39665419455633,20.17573455672209],]
podstawa=[[14,49.39420292483251,20.187386331707444],['start',49.3950700,20.2088600],['meta',49.3982900,20.1746400]]
daneflot=[[0.0,633.119],[0.2,638.835],[0.4,640.125],[0.6,644.291],[0.8,648.062],[1.0,654.050],[1.2,658.312],[1.4,663.049],[1.6,669.094],[1.8,677.750],[2.0,692.601],[2.2,704.683],[2.4,718.055],[2.6,729.834],[2.8,739.371],[3.0,743.637],]