name=Malbun  z Vaduz (Liechtenstein)
slope=13.8km 8.3%
points=1076.9
region=107
description=Nawierzchnia: szosa, stan dobry. Ruch samochodowy: średni.
Szeroka droga prowadząca do stacji narciarskiej Malbun.
Dosyć ciężki podjazd na którym po raz pierwszy zabłysła gwiazda Andego Schlecka w Tour de Swiss 2007. Najstromszy odcinek znajduje się  już po wyjeździe z tunelu, niedaleko przed końcem.
comments=
author=gavia 2621
segment=0
locations=[[1,47.12754848302525,9.524876362904479],[2,47.12603435133452,9.526251737699113],[3,47.12440372944365,9.52730594133368],[4,47.12276594870351,9.528337668119434],[5,47.12115823528915,9.529465107638089],[6,47.11945307429636,9.530198145475424],[7,47.11776446385019,9.530952670648276],[8,47.11600443487973,9.531183739150379],[9,47.1143537014291,9.530341150772756],[10,47.11271283099863,9.530904151323512],[11,47.11130572517661,9.532499488641406],[12,47.10979155638353,9.533849679460218],[13,47.10947587906055,9.534890472939537],[14,47.11104519862245,9.53519274364794],[15,47.11088975523828,9.536618789028125],[16,47.11245158667309,9.536606171728408],[17,47.11161370599871,9.538344580776311],[18,47.11240533671464,9.538332303897278],[19,47.11199340980817,9.539840168014052],[20,47.1135827046432,9.539580693748007],[21,47.11268576151236,9.541516150050256],[22,47.11223486868328,9.543900942807227],[23,47.11240913700837,9.544377621731428],[24,47.11398882116979,9.545092893292122],[25,47.11551824559815,9.544518655163643],[26,47.11719898206947,9.543708203831557],[27,47.11861167987042,9.544246946642716],[28,47.11769377707778,9.544972167356264],[29,47.11630855369302,9.546332045289432],[30,47.11681729694664,9.546975226988138],[31,47.11532914722932,9.548106313788367],[32,47.11375535231858,9.549255837093142],[33,47.11495489682743,9.550180068815735],[34,47.11662046059849,9.549443658854216],[35,47.11839665764737,9.54923626740242],[36,47.12017098114029,9.549408270968343],[37,47.12183034830505,9.548698201161642],[38,47.12329563742908,9.547470671399196],[39,47.12281615006486,9.548713227184976],[40,47.12209570201728,9.550972192874497],[41,47.12047966245719,9.551711012640226],[42,47.11974533626168,9.554049913290328],[43,47.12022000000638,9.555682777818447],[44,47.11897620799832,9.557471470533756],[45,47.1173593495072,9.558490217022836],[46,47.11598155925744,9.559914318391748],[47,47.1157491996534,9.562510395487266],[48,47.11550462542046,9.565104019342698],[49,47.11525968474458,9.567697358410442],[50,47.11495715947879,9.570273105221759],[51,47.11359906964004,9.571830105850154],[52,47.11219953306108,9.573249903380997],[53,47.11257952666243,9.575776685237201],[54,47.11220888334657,9.578224689988701],[55,47.11185093439924,9.580772513185707],[56,47.11184758652616,9.58334097084662],[57,47.11188145588064,9.585916590146098],[58,47.11173110641322,9.588510935113618],[59,47.11130626440242,9.591034789250443],[60,47.11066611561159,9.593471221585446],[61,47.11045100427134,9.596018261783001],[62,47.10936258521572,9.59808986526457],[63,47.10830747421413,9.600199555062659],[64,47.10709758576616,9.602097133928964],[65,47.10606464958374,9.60397392094842],[66,47.10534411303441,9.606204532748961],[67,47.10374342766367,9.607099999999946],[68,47.10239026361075,9.608435904759972],]
podstawa=[[12,47.11839665764737,9.54923626740242],['start',47.1287100,9.5230700],['meta',47.1010500,9.6101600]]
daneflot=[[0.0,456.389],[0.2,456.162],[0.4,459.646],[0.6,466.939],[0.8,487.014],[1.0,502.431],[1.2,523.924],[1.4,543.733],[1.6,564.634],[1.8,581.156],[2.0,601.136],[2.2,615.323],[2.4,633.364],[2.6,649.406],[2.8,669.084],[3.0,688.597],[3.2,707.382],[3.4,724.573],[3.6,741.716],[3.8,761.419],[4.0,778.364],[4.2,796.838],[4.4,817.439],[4.6,831.385],[4.8,848.584],[5.0,866.509],[5.2,880.675],[5.4,895.411],[5.6,910.139],[5.8,929.163],[6.0,946.815],[6.2,964.744],[6.4,981.576],[6.6,999.375],[6.8,1017.788],[7.0,1037.145],[7.2,1054.308],[7.4,1075.438],[7.6,1094.526],[7.8,1115.567],[8.0,1136.172],[8.2,1157.531],[8.4,1176.748],[8.6,1196.830],[8.8,1220.641],[9.0,1244.339],[9.2,1257.164],[9.4,1263.303],[9.6,1264.581],[9.8,1267.337],[10.0,1272.805],[10.2,1275.357],[10.4,1287.851],[10.6,1302.820],[10.8,1317.928],[11.0,1343.661],[11.2,1364.920],[11.4,1380.318],[11.6,1396.659],[11.8,1407.928],[12.0,1427.046],[12.2,1447.273],[12.4,1470.020],[12.6,1492.088],[12.8,1513.791],[13.0,1538.774],[13.2,1564.257],[13.4,1584.92],[13.6,1601.957],[13.8,1603.594],]