name=Kraków (Obserwatorium) od Chełmskiej
slope=2.4km 2.4%
points=36.8
region=64
description=Nawierzchnia: szosa, stan bardzo dobry. Ruch samochodowy: mały.
Krótki podjazd składający się z dwóch części, podjazd, lekki zjazd i podjazd. Dobry na dogrzanie nogi przed treningiem. Ładny widok na górze, sympatyczny zjazd. Uwaga, w końcówce zjazdu progi zwalniające i znak stop
comments=
author=Amator88
segment=0
locations=[[1,50.06742945795347,19.846548423200602],[2,50.06672176886036,19.845640628189926],[3,50.06601339357043,19.84473601202933],[4,50.06545639652482,19.843605471470255],[5,50.06491465132133,19.842459112268557],[6,50.06423605711454,19.841498020284575],[7,50.06346024847164,19.840741146795835],[8,50.06293539654207,19.839653924666663],[9,50.0627351626501,19.83826045135254],[10,50.06239893577107,19.836934041187078],[11,50.06152345996536,19.836716760381478],[12,50.06063149626057,19.836396185821854],[13,50.06007454744834,19.836991815702277],[14,50.05948582045074,19.83595839236534],[15,50.05892990553319,19.8348337043858],[16,50.05847644354148,19.833591825925055],[17,50.0580307825162,19.83234773692277],[18,50.05764434039122,19.831054222952275],[19,50.057063953666,19.829949511872428],[20,50.05666143884965,19.828716142681174],[21,50.05600779782219,19.828208833319195],[22,50.05512843767471,19.82823869777644],[23,50.05434730677761,19.827495521757555],]
podstawa=[[14,50.06007454744834,19.836991815702277],['start',50.0680100,19.8472800],['meta',50.0535000,19.8269500]]
daneflot=[[0.0,230.298],[0.1,231.424],[0.2,234.965],[0.3,240.605],[0.4,243.756],[0.5,246.445],[0.6,248.585],[0.7,252.673],[0.8,255.051],[0.9,259.745],[1.0,266.089],[1.1,268.814],[1.2,271.842],[1.3,274.700],[1.4,273.454],[1.5,271.365],[1.6,271.047],[1.7,270.790],[1.8,267.881],[1.9,266.009],[2.0,264.837],[2.1,268.696],[2.2,278.414],[2.3,287.185],[2.4,289.491],]