name=Różanka od Niemojowa
slope=2.1km 4.2%
points=45.9
region=11
description=Nawierzchnia: szosa, stan zły. Ruch samochodowy: minimalny.
Jedna z wielu możliwości przejechania z Drogi Śródsudeckiej do Autostrady Sudeckiej. Zaczynamy przy mostku w Niemojowie. Tu kończy się piękny asfalt Drogi Śródsudeckiej. Na skrzyżowaniu odbijamy na Domaszków. Na początku asfalt jeszcze znośny, ale im wyżej tym gorzej. A zjazd do Różanki kolarką trzeba pokonywać slalomem między dziurami.
comments=
author=mjz122
segment=0
locations=[[1,50.15607991665286,16.58136991024128],[2,50.15688683210364,16.582043662045407],[3,50.15769716397277,16.582707325637557],[4,50.15850881608114,16.583367095802714],[5,50.15926439364824,16.58413489712018],[6,50.15939525692712,16.585545299636124],[7,50.1594928272396,16.58696557969722],[8,50.15964340456811,16.588365368698533],[9,50.16029832324781,16.589362852634622],[10,50.16068814048867,16.590538015993047],[11,50.1606249534175,16.59196272275358],[12,50.16048385410293,16.59336211284426],[13,50.16129293986825,16.593529999999987],[14,50.16142479523733,16.59467932700204],[15,50.16145020843859,16.59610725791788],[16,50.16147641722436,16.597535152570345],[17,50.1615054790265,16.59896291549171],[18,50.16153452332725,16.60039068014862],[19,50.16177151546692,16.60174933382916],[20,50.16239871357372,16.60278647697851],]
podstawa=[[14,50.1606249534175,16.59196272275358],['start',50.1557100,16.5801200],['meta',50.1630500,16.6037900]]
daneflot=[[0.0,547.236],[0.1,549.229],[0.2,555.340],[0.3,559.293],[0.4,564.981],[0.5,571.606],[0.6,570.303],[0.7,572.022],[0.8,576.185],[0.9,581.162],[1.0,585.113],[1.1,588.801],[1.2,595.921],[1.3,600.895],[1.4,606.525],[1.5,611.293],[1.6,615.660],[1.7,618.992],[1.8,625.273],[1.9,632.050],[2.0,633.848],[2.1,634.736],]