name=Wójtowo
slope=5.8km 1.7%
points=43.1
region=93
description=Nawierzchnia: szosa, stan średni. Ruch samochodowy: mały.
Długi podjazd pod górę z nadajnikiem. Przyjemnie ocieniony przez las i szpaler drzew
comments=
author=Topek
segment=0
locations=[[1,54.02047823220109,21.00945832879279],[2,54.01990319575508,21.00665382104694],[3,54.01949551335315,21.00369743400438],[4,54.01904881992965,21.000754928779088],[5,54.01858581471293,20.997819851503095],[6,54.01822919589289,20.994844743591898],[7,54.0179560884665,20.9918414401875],[8,54.0177396587156,20.988825005304534],[9,54.01731136944038,20.98589423822318],[10,54.01612755546503,20.983639345936126],[11,54.01540623499925,20.980910443003495],[12,54.01535699652203,20.977873345198304],[13,54.01534628737696,20.974835588998076],[14,54.01566299946799,20.971858792895205],[15,54.01572079247337,20.968872806799254],[16,54.01508170490899,20.96604077319978],[17,54.01413940145545,20.963491265377],[18,54.01368599965156,20.96055914137696],[19,54.01245072322567,20.958373958029938],[20,54.01119008392825,20.956222042544482],[21,54.00996836940862,20.954015106769134],[22,54.00943390897725,20.951128147933332],[23,54.00898106990454,20.94818906309888],[24,54.00844695800875,20.945296397095262],[25,54.00833215812317,20.942264961881165],[26,54.00849445324356,20.939253645672125],[27,54.00841567276161,20.93622353339663],[28,54.00791082976536,20.93331099819204],]
podstawa=[[13,54.01572079247337,20.968872806799254],['start',54.0221000,21.0106800],['meta',54.0078200,20.9302900]]
daneflot=[[0.0,97.566],[0.2,99.541],[0.4,101.186],[0.6,104.333],[0.8,110.561],[1.0,120.261],[1.2,123.424],[1.4,120.380],[1.6,120.773],[1.8,120.837],[2.0,122.913],[2.2,126.694],[2.4,128.236],[2.6,140.457],[2.8,136.033],[3.0,147.912],[3.2,150.174],[3.4,152.775],[3.6,151.767],[3.8,157.698],[4.0,168.656],[4.2,171.931],[4.4,165.317],[4.6,166.878],[4.8,164.695],[5.0,164.232],[5.2,169.859],[5.4,178.018],[5.6,186.022],[5.8,193.235],]