name=Gorcowe
slope=4.2km 6.6%
points=206.5
region=27
description=Nawierzchnia: szosa, stan średni. Ruch samochodowy: minimalny.
Podjazd do końca asfaltu przysiółka Gorcowe.
comments=
author=coman
segment=0
locations=[[1,49.52604719345562,20.307385168157566],[2,49.52766407998222,20.306177306789778],[3,49.52887495627169,20.304167876071233],[4,49.53064144667007,20.303455132249837],[5,49.53226474098714,20.302202794973937],[6,49.53372144232053,20.30050760685731],[7,49.53538830788947,20.299464477787524],[8,49.53696804044856,20.29813293962718],[9,49.537946973162,20.295786054297764],[10,49.53886159242958,20.293464426692708],[11,49.53968044148638,20.29095801447022],[12,49.54018938576418,20.288270214104045],[13,49.54138931356834,20.2863173142581],[14,49.54260580589163,20.28435595864289],[15,49.54363036303169,20.282070388210514],[16,49.54402511307349,20.279390657592444],[17,49.54507592362407,20.277154458343603],[18,49.54521691822215,20.274501882224513],[19,49.54557697940881,20.271845934900966],[20,49.54628993461522,20.26932047256946],]
podstawa=[[13,49.53968044148638,20.29095801447022],['start',49.5242300,20.3076800],['meta',49.5474100,20.2672600]]
daneflot=[[0.0,508.497],[0.2,511.295],[0.4,524.433],[0.6,528.763],[0.8,544.010],[1.0,555.292],[1.2,564.715],[1.4,573.711],[1.6,584.797],[1.8,592.809],[2.0,607.296],[2.2,617.309],[2.4,631.639],[2.6,643.980],[2.8,661.177],[3.0,679.843],[3.2,693.424],[3.4,704.907],[3.6,721.930],[3.8,742.190],[4.0,765.702],[4.2,784.016],]