name=Złożeniec od Pilicy
slope=4.0km 2.8%
points=71.9
region=61
description=Nawierzchnia: szosa, stan średni. Ruch samochodowy: mały.
Super podjazd, odwrotna wersja Złożeńca, ale ta właściwa, w tę stronę jest o wiele lepiej, początek zaczyna się powolutku 2-3% aż do 7%, potem jest 11m w dół lekkiego zjazdu i krótki, ale jeden z najbardziej stromych momentów w okolicy, licznik wskazuje nawet 13%, ciekawe ile będzie na 100m. W sumie jest tu ponad 120m przewyższenia. Widoki są bardzo ładne i ogólnie wg mnie jeden z lepszych podjazdów w okolicy.
comments=
author=xtnt
segment=0
locations=[[1,50.46177024206355,19.657078897848578],[2,50.45998782019923,19.65737099291016],[3,50.45820544315418,19.657703550480278],[4,50.4564597202176,19.658344113504086],[5,50.45469363656276,19.658167752927284],[6,50.4529146079716,19.657798322153212],[7,50.45121585734512,19.657086777907807],[8,50.44958760685742,19.655901564938176],[9,50.44809732181692,19.65434894520081],[10,50.4466222346256,19.652744661286306],[11,50.44488107740649,19.652089268123518],[12,50.44313387730989,19.65144363567697],[13,50.44146706851104,19.651729042180136],[14,50.4399770144823,19.65330020331271],[15,50.438333717209,19.654394786890407],[16,50.43661629203991,19.65385303157018],[17,50.43501180968339,19.6526018091987],[18,50.43360269850161,19.650903618876214],[19,50.43199856352943,19.649663370390954],]
podstawa=[[12,50.44488107740649,19.652089268123518],['start',50.4634800,19.6578600],['meta',50.4304700,19.6481900]]
daneflot=[[0.0,346.295],[0.2,348.918],[0.4,353.326],[0.6,353.212],[0.8,355.664],[1.0,361.350],[1.2,366.694],[1.4,369.000],[1.6,373.371],[1.8,382.460],[2.0,391.507],[2.2,407.336],[2.4,414.772],[2.6,418.511],[2.8,429.868],[3.0,426.445],[3.2,415.818],[3.4,413.711],[3.6,430.528],[3.8,449.547],[4.0,457.737],]