name=Warszawa (Belwederska)
slope=0.6km 3.5%
points=9.6
region=80
description=Nawierzchnia: szosa, stan dobry. Ruch samochodowy: żaden.
Podjazd ścieżką rowerową.
comments=
author=Maćko
segment=0
locations=[[1,52.20955995490414,21.028582149705016],[2,52.21031990615051,21.02792427690406],[3,52.21107767006471,21.027259784036687],[4,52.21185770811739,21.026697520890593],[5,52.2127157852893,21.026601531599795],]
podstawa=[[15,52.21185770811739,21.026697520890593],['start',52.2088000,21.0292400],['meta',52.2135700,21.0265300]]
daneflot=[[0.0,87.301],[0.1,87.730],[0.2,90.167],[0.3,94.439],[0.4,99.795],[0.5,105.691],[0.6,108.444],]