name=Konary przez Olszowice
slope=3.8km 3.2%
points=91.7
region=41
description=Nawierzchnia: szosa, stan dobry. Ruch samochodowy: zmienny.
Pierwsze około 2 kilometry to taka przystawka, właściwy podjazd zaczyna się później i ma około kilometra długości, końcówka daje odetchnąć. Stan nawierzchni dobry. Co do ruchu samochodowego ciężko mi się wypowiedzieć, bo podjeżdżałem tam tylko 2 razy. Mogę powiedzieć, że nie odczułem jakiegoś nadmiernego dyskomfortu spowodowanego natężeniem ruchu pojazdów... niewątpliwie na końcówce prowadzącej po ul. Granicznej jest ono już większe.
comments=
author=matx
segment=0
locations=[[1,49.90420223813291,19.927581498944733],[2,49.90597613077493,19.927985547958542],[3,49.90751021435702,19.929170214132455],[4,49.90921564865156,19.93015639001146],[5,49.91094729498903,19.931006534618405],[6,49.9126712926928,19.9308366080395],[7,49.91447457765324,19.930771525709474],[8,49.916180161757,19.93172850076178],[9,49.91793163735411,19.931573060484993],[10,49.91960033370752,19.93096325465308],[11,49.92136618964128,19.93132380913198],[12,49.92290349375963,19.93282591596153],[13,49.92451318349229,19.932003786955647],[14,49.92631052344552,19.93235708684108],[15,49.92806513413446,19.93303175307483],[16,49.92983352547488,19.93338003114991],[17,49.93163526772594,19.933134452733384],[18,49.93341611910886,19.933760171540712],]
podstawa=[[13,49.923,19.93096325465308],['start',49.9023800,19.9277500],['meta',49.9347600,19.9327400]]
daneflot=[[0.0,253.218],[0.2,256.974],[0.4,256.649],[0.6,258.213],[0.8,263.817],[1.0,271.516],[1.2,270.306],[1.4,269.535],[1.6,274.659],[1.8,277.261],[2.0,280.671],[2.2,278.836],[2.4,288.903],[2.6,310.424],[2.8,336.089],[3.0,351.083],[3.2,358.346],[3.4,358.742],[3.6,371.504],[3.8,375.917],]