name=Niżna Paproć   z Zabrzeży
slope=1.3km 15.2%
points=326.9
region=29
description=Nawierzchnia: szosa, stan średni. Ruch samochodowy: minimalny.
Początek bardzo stromy. Trasa asfaltowa prowadzi po lesie.
Podjazd niebezpieczny gdy jest mokro ze względu na luźne kamyki wokół drogi i stromiznę.
Drogi u góry są mniej strome.
comments=
author=mx2047
segment=0
locations=[[1,49.54451646616427,20.39279192614481],[2,49.54521375045867,20.393612292171156],[3,49.54601426863132,20.394164904418062],[4,49.5468559671006,20.394000000000005],[5,49.54739475045469,20.394997932384626],[6,49.54813388607506,20.395405151979276],[7,49.54891439759758,20.39580364944959],[8,49.54978731818075,20.395905853551994],[9,49.55064112960974,20.39617811087453],[10,49.55133601747074,20.396816623322138],[11,49.5521003224823,20.39652243527121],[12,49.55283433261199,20.395975492781872],]
podstawa=[[14,49.54891439759758,20.39580364944959],['start',49.5438100,20.3919900],['meta',49.5536600,20.3957500]]
daneflot=[[0.0,391.813],[0.1,411.667],[0.2,433.619],[0.3,447.627],[0.4,465.489],[0.5,482.342],[0.6,492.300],[0.7,499.093],[0.8,514.463],[0.9,526.491],[1.0,535.293],[1.1,552.159],[1.2,572.256],[1.3,589.351],]