name=Sietesz
slope=1.8km 3.9%
points=67
region=47
description=Nawierzchnia: szosa, stan dobry. Ruch samochodowy: mały.
Podjazd z Sieteszy w kierunku Siedleczki. Krótszy niż wersja z Siedleczki, ale z bardziej wymagającym odcinkiem.
comments=
author=Barnaba
segment=0
locations=[[1,49.98419995762926,22.345639102695145],[2,49.98337658877642,22.34524469379278],[3,49.98256193288345,22.34481024011893],[4,49.98174297501615,22.3443943052373],[5,49.98093663073134,22.343929174028062],[6,49.98011619865063,22.34354448226486],[7,49.97927025586939,22.343600601566095],[8,49.97852652410211,22.342935093190135],[9,49.97789093934489,22.342031379649598],[10,49.97723064169745,22.341170829501834],[11,49.97643936341694,22.340702735845753],[12,49.97560672318675,22.340774180549715],[13,49.97484965286778,22.34025468070979],[14,49.97412279529219,22.339693367156087],[15,49.97326560222687,22.339625418071137],[16,49.97269702612476,22.338869932357284],[17,49.97238896840568,22.337649127109785],]
podstawa=[[14,49.979,22.341170829501834],['start',49.9850000,22.3461300],['meta',49.9715600,22.3376200]]
daneflot=[[0.0,256.382],[0.1,261.494],[0.2,265.542],[0.3,265.164],[0.4,262.301],[0.5,260.218],[0.6,260.780],[0.7,263.197],[0.8,268.840],[0.9,277.280],[1.0,286.732],[1.1,299.330],[1.2,310.589],[1.3,319.801],[1.4,326.536],[1.5,325.372],[1.6,323.385],[1.7,327.079],[1.8,327.263],]