name=Jodłówka od północy
slope=2.2km 5.1%
points=82.1
region=47
description=Nawierzchnia: szosa, stan dobry. Ruch samochodowy: minimalny.
Większa część podjazdu w zadrzewieniach. Na mecie widoki na Pogórze Przemyskie i Dynowskie.
comments=
author=Renata
segment=0
locations=[[1,49.8883520147056,22.456710265000083],[2,49.8882961290976,22.455338409566252],[3,49.88824588020536,22.453965964874442],[4,49.8881490277936,22.452602706167],[5,49.88795167266239,22.45126265116778],[6,49.88758000000534,22.45003321492436],[7,49.88799847615577,22.448866606517754],[8,49.8880178122487,22.447554270972887],[9,49.88797205345928,22.44618145463926],[10,49.88789425883015,22.444820431357243],[11,49.88738266858291,22.44372874691794],[12,49.88708025178637,22.442437560386452],[13,49.88670351286116,22.44119949895662],[14,49.88606031528563,22.440675365117045],[15,49.88519870679283,22.440992904246855],[16,49.88433401639676,22.441056166400585],[17,49.88388325377312,22.439968660448017],[18,49.88310744339064,22.439307040871313],[19,49.8823353065787,22.438633955762498],[20,49.88156662852411,22.437951220293826],[21,49.88078340762628,22.437310791305322],]
podstawa=[[14,49.88708025178637,22.442437560386452],['start',49.8885000,22.4580500],['meta',49.8799900,22.4367000]]
daneflot=[[0.0,311.994],[0.1,316.199],[0.2,318.728],[0.3,321.217],[0.4,322.630],[0.5,325.975],[0.6,326.974],[0.7,332.720],[0.8,336.724],[0.9,338.272],[1.0,343.341],[1.1,346.950],[1.2,348.546],[1.3,349.410],[1.4,353.034],[1.5,361.503],[1.6,369.632],[1.7,376.458],[1.8,384.239],[1.9,395.686],[2.0,409.481],[2.1,418.636],[2.2,423.247],]