name=Banica
slope=1.8km 5.1%
points=87.4
region=34
description=Nawierzchnia: szosa, stan dobry. Ruch samochodowy: minimalny.
Urokliwa trasa, Lackowa wygląda jak lotniskowiec na falach traw B. Niskiego.
comments=
author=Sztein
segment=0
locations=[[1,49.47406827217863,21.053039246642925],[2,49.4732053074442,21.052894816794947],[3,49.47234234252996,21.052750392035932],[4,49.47151857987966,21.052331220890437],[5,49.47070887636323,21.051849834226687],[6,49.46996984705277,21.05117082793754],[7,49.46934528610378,21.05024921821598],[8,49.46853543003989,21.049791850320617],[9,49.46768939482099,21.04949291584228],[10,49.46724958923397,21.04876260748415],[11,49.46716200949123,21.04744284919684],[12,49.46691943026146,21.046163732640025],[13,49.46676041875999,21.044852559047058],[14,49.46647247446682,21.04361639050967],[15,49.46691741433552,21.042485173850537],[16,49.46737852866132,21.04135934707449],[17,49.46765007892868,21.040091029882888],]
podstawa=[[15,49.471,21.04876260748415],['start',49.4747100,21.0534600],['meta',49.4679800,21.0388600]]
daneflot=[[0.0,500.572],[0.1,500.444],[0.2,504.769],[0.3,508.105],[0.4,512.429],[0.5,514.166],[0.6,513.536],[0.7,515.705],[0.8,517.179],[0.9,520.923],[1.0,527.013],[1.1,538.612],[1.2,552.787],[1.3,569.291],[1.4,579.482],[1.5,583.454],[1.6,588.809],[1.7,591.210],[1.8,592.740],]