name=Javorový Vrch  (Czechy)
slope=4.6km 8.3%
points=382.3
region=15
description=Nawierzchnia: szosa, stan dobry. Ruch samochodowy: minimalny.
Elegancki, asfaltowy podjazd na praktycznie na szczyt. Oznakowana trasa rowerowa. Na szczycie stacja narciarska i schronisko. Polecam głównie ze względu na niewielką odległość od Polski oraz bardzo ładne widoki ze szczytu.
comments=Dnia 2014-09-03 użytkownik xtnt dodał:
Javorovy Vrch ma 1032 m n.p.m. spisane z tabliczki.
author=kamil3ds
segment=0
locations=[[1,49.60331132961127,18.62656576371785],[2,49.60361853967731,18.623830598192058],[3,49.60411004021843,18.6212318889676],[4,49.60507289885165,18.61959538484416],[5,49.60672792194293,18.61843033522848],[6,49.60805264797093,18.616519070995878],[7,49.60970821293392,18.61539764784675],[8,49.61023844448903,18.615959111265056],[9,49.6090770972496,18.617912254886846],[10,49.60870152609159,18.620616947995586],[11,49.60834655708096,18.62319639215616],[12,49.60953469696436,18.623438635246885],[13,49.61068448685706,18.621878692083897],[14,49.61209704269318,18.62351872963484],[15,49.6139062742645,18.623803329715884],[16,49.61572465073623,18.623710801092443],[17,49.61753627899441,18.62359055960428],[18,49.61927500851876,18.62425364011517],[19,49.62088028671328,18.625487003144713],[20,49.62252133947747,18.626581863165484],[21,49.62426210507415,18.626909210202257],[22,49.62608177174934,18.626850062051517],]
podstawa=[[13,49.62,18.623438635246885],['start',49.6043200,18.6287300],['meta',49.6277200,18.6274600]]
daneflot=[[0.0,553.220],[0.2,570.884],[0.4,592.419],[0.6,611.267],[0.8,631.232],[1.0,660.690],[1.2,685.183],[1.4,700.330],[1.6,698.361],[1.8,699.857],[2.0,722.018],[2.2,738.477],[2.4,757.966],[2.6,779.520],[2.8,796.560],[3.0,809.978],[3.2,817.637],[3.4,829.793],[3.6,838.437],[3.8,856.564],[4.0,879.680],[4.2,907.600],[4.4,923.711],[4.6,936.121],]