name=Matysówka z Chmielnika
slope=2.2km 5.3%
points=90.4
region=47
description=Nawierzchnia: szosa, stan dobry. Ruch samochodowy: niewielki.
Niewielki podjazd, ale z góry piękna panorama Rzeszowa i okolic
comments=
author=Bart
segment=0
locations=[[1,49.98249603717736,22.105225610979346],[2,49.98342888629897,22.10279905002551],[3,49.98452725390587,22.100554581182678],[4,49.98554208209899,22.09824848751157],[5,49.9857266482701,22.095465419739526],[6,49.98563543755002,22.09266468948772],[7,49.98620301578097,22.089979130313623],[8,49.98717840623454,22.087604140850317],[9,49.98802584748706,22.085110910712046],[10,49.98871408303113,22.082492237389488],]
podstawa=[[14,49.98563543755002,22.09266468948772],['start',49.9813200,22.1073800],['meta',49.9892700,22.0798000]]
daneflot=[[0.0,231.719],[0.2,240.357],[0.4,253.532],[0.6,271.093],[0.8,293.710],[1.0,317.311],[1.2,323.528],[1.4,326.555],[1.6,328.425],[1.8,334.759],[2.0,338.444],[2.2,347.302],]