name=Krzyszkowice  z Sieprawia
slope=1.8km 4.7%
points=62.7
region=41
description=Nawierzchnia: szosa, stan dobry. Ruch samochodowy: mały.
Niezwykle przyjemny podjazd z wieloma łagodnymi łukami. Ma przyjemne, stałe nachylenie, idealny do treningu podjazdów.
comments=
author=Greek
segment=1237834
locations=[[1,49.90230941066753,19.94781829267538],[2,49.90192880807674,19.946576604942265],[3,49.90142738838367,19.94544972483061],[4,49.90088034987194,19.944370559287336],[5,49.90014166413111,19.943701309708217],[6,49.89965854643354,19.944490524538196],[7,49.90000502908496,19.945755765892386],[8,49.89972196825128,19.94682247131368],[9,49.89893686841944,19.946321258461808],[10,49.89811157256439,19.946200683300276],[11,49.89724124581868,19.94625861953523],[12,49.89708142927968,19.944982382868716],[13,49.89717609350748,19.943615947549233],[14,49.89658204038717,19.942800313796624],[15,49.89569849109459,19.94271734709241],[16,49.89506236917214,19.941824736936383],[17,49.89437580872771,19.941062543195017],]
podstawa=[[14,49.89811157256439,19.946200683300276],['start',49.9026900,19.9490600],['meta',49.8937400,19.9401500]]
daneflot=[[0.0,261.936],[0.1,263.911],[0.2,267.780],[0.3,274.123],[0.4,276.752],[0.5,282.542],[0.6,289.697],[0.7,298.073],[0.8,298.879],[0.9,305.881],[1.0,311.999],[1.1,319.011],[1.2,320.988],[1.3,324.717],[1.4,326.756],[1.5,334.475],[1.6,338.691],[1.7,345.008],[1.8,347.052],]