name=Kolędówka z Zawoi
slope=4.4km 5.9%
points=221.4
region=22
description=Nawierzchnia: szosa, stan dobry/ zły. Ruch samochodowy: mały.
Klasyczny, przepiękny, ale niestety jedostronny podjazd w Zawoi. W Zawoi nieco powyżej centrum odbijamy w prawo na Wełczę. Po jakimś 1,5 kilometra odbijamy w prawo za znakiem do przysiółka Kolędówka. Przez jakiś czas jeszcze będzie dość łagodnie i idealna nawierzchnia. Po minięciu domów i wjeździe do lasu zrobi się stromo i kiepska nawierzchnia. W końcówce fantastyczne widoki ) Polecam
comments=
author=grun
segment=0
locations=[[1,49.65222488495488,19.547465272994486],[2,49.65152701482457,19.545174110252788],[3,49.6521942414077,19.5426294552924],[4,49.65288092237437,19.540169334435745],[5,49.65387924382835,19.53792132330568],[6,49.65481718616465,19.53561387628031],[7,49.6550000003319,19.53290504656968],[8,49.65535296213218,19.530198240909954],[9,49.65537344003269,19.527576868539768],[10,49.65696960489294,19.526646686940808],[11,49.65822649933548,19.525291342676383],[12,49.65968654104754,19.52381253732824],[13,49.66103652910402,19.522236013027964],[14,49.66261563191557,19.52148104120704],[15,49.6638111077566,19.519535191032105],[16,49.66368416571312,19.517914165700518],[17,49.66336689084714,19.517316033385555],[18,49.66500810880694,19.516232323869644],[19,49.66536207531161,19.514946604296256],[20,49.66690992388911,19.513714504737436],[21,49.66853463438291,19.51345731713866],]
podstawa=[[13,49.65968654104754,19.52381253732824],['start',49.6514100,19.5497300],['meta',49.6698200,19.5125100]]
daneflot=[[0.0,553.434],[0.2,558.943],[0.4,569.264],[0.6,572.000],[0.8,573.780],[1.0,576.412],[1.2,581.180],[1.4,585.941],[1.6,585.828],[1.8,589.011],[2.0,602.992],[2.2,616.075],[2.4,626.649],[2.6,647.666],[2.8,665.036],[3.0,675.346],[3.2,688.885],[3.4,708.588],[3.6,729.470],[3.8,753.080],[4.0,775.589],[4.2,790.110],[4.4,814.585],]