name=Falsztyn od Zamku
slope=2.5km 5.0%
points=93.8
region=27
description=Nawierzchnia: szosa, stan dobry. Ruch samochodowy: średni.
Spokojny podjazd pod malowniczy Falsztyn. Z góry ładne widoki na Jezioro Czorsztyńskie.
comments=
author=???
segment=0
locations=[[1,49.42693427046732,20.28533370731145],[2,49.42676891207829,20.283962133302452],[3,49.42656333964111,20.282601537007963],[4,49.42647601336963,20.281208094318572],[5,49.42605568187392,20.27997836472457],[6,49.42559212859466,20.27877193713357],[7,49.42525774927019,20.277484318019447],[8,49.42507268690076,20.276112317872958],[9,49.42513830857455,20.274748769345138],[10,49.42553452810124,20.27348691522934],[11,49.42593073389795,20.272225040733474],[12,49.42632692596426,20.270963145857422],[13,49.42672310429977,20.26970123060164],[14,49.42735747161463,20.26977420152582],[15,49.42782986810279,20.27097109340025],[16,49.4284480997831,20.271995241197374],[17,49.42911291798627,20.27295237057001],[18,49.4296254736529,20.274085263116035],[19,49.42963289187263,20.273006434253148],[20,49.42946554007344,20.271669140431527],[21,49.42958000018032,20.270280996517613],[22,49.4294089170604,20.26890862247228],[23,49.42919727164784,20.267545621620684],[24,49.42911761260002,20.266151913889075],]
podstawa=[[14,49.42672310429977,20.26970123060164],['start',49.4268900,20.2867300],['meta',49.4291200,20.2647600]]
daneflot=[[0.0,544.218],[0.1,548.500],[0.2,551.882],[0.3,557.959],[0.4,563.400],[0.5,566.850],[0.6,568.477],[0.7,572.945],[0.8,578.867],[0.9,583.583],[1.0,590.809],[1.1,600.270],[1.2,609.315],[1.3,620.402],[1.4,630.688],[1.5,633.846],[1.6,634.391],[1.7,639.148],[1.8,639.104],[1.9,647.528],[2.0,653.273],[2.1,662.272],[2.2,669.650],[2.3,664.859],[2.4,668.960],[2.5,671.891],]