name=Kowala
slope=0.6km 4.7%
points=16.4
region=66
description=Nawierzchnia: szosa, stan dobry. Ruch samochodowy: mały.
Około 600 m stromego podjazdu do kościoła w Kowali.
comments=
author=?
segment=0
locations=[[1,51.31752442059742,21.065409820886543],[2,51.31840883915174,21.065899660660307],[3,51.31929533065635,21.06637979277707],[4,51.32017496465252,21.066889504743017],[5,51.32106601274605,21.06734756035962],]
podstawa=[[15,51.32017496465252,21.066889504743017],['start',51.3166400,21.0649200],['meta',51.3219700,21.0677300]]
daneflot=[[0.0,183.994],[0.1,185.697],[0.2,190.496],[0.3,195.983],[0.4,204.345],[0.5,210.159],[0.6,211.960],]