name=Kamienna Góra
slope=1.2km 3.0%
points=21.6
region=90
description=Nawierzchnia: szosa, stan dobry. Ruch samochodowy: minimalny.
Wjazd na górę, z której rozciąga się widok na port jachtowy, zatokę gdańską i mierzeję helską.
comments=
author=m@roni
segment=0
locations=[[1,54.51602061373769,18.545849693156015],[2,54.51518643654236,18.54627475703046],[3,54.51437805082283,18.546813983060815],[4,54.51360733947611,18.547373690113545],[5,54.51313765683275,18.548625643523792],[6,54.51231128379614,18.549046714018914],[7,54.51145522847158,18.549313041921437],[8,54.51140861442964,18.5488258060941],[9,54.51200484928355,18.547735888788225],[10,54.51269030453511,18.546814906606755],[11,54.51339542051538,18.54593763781952],]
podstawa=[[15,54.514,18.549313041921437],['start',54.5162600,18.5468700],['meta',54.5141200,18.5451100]]
daneflot=[[0.0,9.247],[0.1,17.654],[0.2,23.251],[0.3,27.533],[0.4,34.434],[0.5,33.053],[0.6,36.044],[0.7,36.162],[0.8,37.624],[0.9,40.722],[1.0,42.928],[1.1,44.037],[1.2,44.952],]