name=Skomielna Biała od 3M
slope=1.5km 11.0%
points=206.6
region=29
description=Nawierzchnia: szosa, stan dobry. Ruch samochodowy: minimalny.
Fajny podjazd do treningów i to tuż koło domu :-)
comments=
author=marqsz
segment=0
locations=[[1,49.64456006490129,19.91791099410341],[2,49.64438538891309,19.91926772235138],[3,49.64503419293349,19.920059150882594],[4,49.64592010799918,19.920176877966696],[5,49.64681467524986,19.9201101646903],[6,49.6476896894454,19.91980394394693],[7,49.64855653559454,19.91977305119326],[8,49.64942772948981,19.919551103624826],[9,49.65017213505045,19.918775357609547],[10,49.65103336000578,19.918604939245597],[11,49.65179757287968,19.918002361735034],[12,49.65265806643371,19.918311147714803],[13,49.65319694080425,19.919326586076977],[14,49.65392930141039,19.920066637129594],]
podstawa=[[14,49.64942772948981,19.919551103624826],['start',49.6448700,19.9166400],['meta',49.6548100,19.9203300]]
daneflot=[[0.0,561.694],[0.1,563.718],[0.2,571.497],[0.3,579.371],[0.4,587.877],[0.5,598.274],[0.6,608.067],[0.7,616.065],[0.8,626.796],[0.9,635.931],[1.0,647.491],[1.1,661.907],[1.2,676.526],[1.3,691.459],[1.4,707.315],[1.5,726.592],]