name=Sanktuarium w Kalwarii Zebrzydowskiej
slope=4.0km 4.1%
points=91.8
region=22
description=Nawierzchnia: szosa, stan dobry. Ruch samochodowy: średni.
Nazwałem podjazd ze względu na klasztor, choć profil prowadzi jeszcze dalej. Ale, że jest to charakterystyczne miejsce to myślę, że nazwa jest zasadna. Zaczynamy się wspinać właściwie jeszcze przed Kalwarią - już w Zebrzydowicach. Przecinamy krajową 52 i wspinamy się wspaniałymi, szerokimi i łagodnymi agrafkami pod sanktuarium. Mijając go, mamy jeszcze 30 metrów do szczytu. Po chwili odbijamy w prawo i pniemy się w górę po zboczu Góry Żar. Podjazd kończy się w najwyższym punkcie drogi, która po chwili zaczyna prowadzić już w dół.
comments=
author=Greek
segment=7743997
locations=[[1,49.87827863554322,19.68030620194463],[2,49.87651143838662,19.68092320208916],[3,49.87474424032614,19.681539975511328],[4,49.87323921975607,19.68003557353245],[5,49.87144407808698,19.67932752435513],[6,49.86966064416977,19.678593662557205],[7,49.86796326807379,19.67749427461149],[8,49.86689649933915,19.675615470496496],[9,49.86505407343729,19.675749999999994],[10,49.86360202049516,19.676584550247185],[11,49.86251991143787,19.67883022188164],[12,49.86208900123135,19.677950556223095],[13,49.86052052798428,19.679059999999936],[14,49.86014950237317,19.676468411974838],[15,49.85977416539049,19.673711890243112],[16,49.85872353919797,19.671543539093705],[17,49.85696188209042,19.670764169700078],[18,49.85540122329367,19.669268612827864],[19,49.85448008664721,19.666781675310745],]
podstawa=[[13,49.873,19.67883022188164],['start',49.8798200,19.6787900],['meta',49.8540000,19.6640800]]
daneflot=[[0.0,274.953],[0.2,276.733],[0.4,291.300],[0.6,299.958],[0.8,304.871],[1.0,308.629],[1.2,314.244],[1.4,323.768],[1.6,323.692],[1.8,327.894],[2.0,336.826],[2.2,347.207],[2.4,356.273],[2.6,365.081],[2.8,377.193],[3.0,389.323],[3.2,412.080],[3.4,415.327],[3.6,419.155],[3.8,426.616],[4.0,437.711],]