name=Święta Katarzyna od Krajna
slope=2.7km 4.3%
points=58.6
region=33
description=Nawierzchnia: szosa. Ruch samochodowy: średni.
To najdłuższy podjazd w okolicy Kielc. Niestety tylko taki krótki opis tej trasy dostałem.
comments=Dnia 2014-03-12 użytkownik aleszprycha.pl dodał:
W opisie podane jest, że ruch na tym podjeździe jest średni,  dodam, że jeździ tam dużo ciężarówek i autokarów. Zaletą podjazdu jest wyznaczony pas dla rowerów.
author=W opisie podane jest, że ruch na tym podjeździe jest średni,  dodam, że jeździ tam dużo ciężarówek i autokarów. Zaletą podjazdu jest wyznaczony pas dla rowerów.
segment=0
locations=[[1,50.87504277588867,20.84233707535759],[2,50.87545553784287,20.84361417333696],[3,50.87587236605091,20.844887855246952],[4,50.8763162468418,20.846137908217884],[5,50.87692627506142,20.847180881900613],[6,50.87763588569169,20.84807116071977],[7,50.8783640553107,20.848923728634873],[8,50.8791031225618,20.849752676819435],[9,50.87985235442538,20.85055730577119],[10,50.8806610526849,20.85119633502393],[11,50.88149783260197,20.85174157764584],[12,50.8823789279898,20.85204449722255],[13,50.88326595217481,20.85231845698536],[14,50.88411359679265,20.85282151447268],[15,50.88499862925912,20.853048473385115],[16,50.88590119798122,20.852959838906486],[17,50.8867993417451,20.852943201355174],[18,50.88756156561314,20.85367490837166],[19,50.88807754300797,20.854852343647735],[20,50.88856314132207,20.856063735131215],[21,50.88905674393742,20.85726693271863],[22,50.88956232834899,20.85845730844335],[23,50.89015217526008,20.859543754449874],[24,50.89064077268098,20.860738476029383],[25,50.89087638322081,20.86212312184057],[26,50.89109248177012,20.863516998808905],]
podstawa=[[14,50.88411359679265,20.85282151447268],['start',50.8746300,20.8410600],['meta',50.8913700,20.8648800]]
daneflot=[[0.0,296.550],[0.1,297.307],[0.2,300.257],[0.3,303.287],[0.4,307.176],[0.5,311.614],[0.6,315.321],[0.7,319.321],[0.8,326.131],[0.9,331.934],[1.0,337.608],[1.1,341.405],[1.2,346.323],[1.3,349.914],[1.4,353.006],[1.5,357.246],[1.6,361.531],[1.7,364.718],[1.8,371.420],[1.9,377.887],[2.0,383.760],[2.1,390.484],[2.2,396.904],[2.3,403.935],[2.4,408.158],[2.5,409.808],[2.6,411.980],[2.7,413.580],]