name=Rettenbachferner  z Soelden (Austria)
slope=13.6km 10.5%
points=1587.6
region=105
description=Nawierzchnia: szosa, stan dobry. Ruch samochodowy: średni.
Podjazd zaczyna się w Soelden obok stacji kolejki gondolowej Gaislahkoglbahn. Kawałek jedziemy główną szosą w kierunku dalszych miejscowości. Szybko dojeżdżamy do skrzyżowania z drogą prowadzącą już do lodowca. Na sam początek właściwego podjazdu pokonać trzeba 20% ściankę. Dalej jest podjazd prowadzi przez las po zboczach góry, a jednostajne nachylenie nie spada poniżej 10%. Co jakiś czas mija się serpentyny z tablicami odliczającymi kilometry do celu. Mniej więcej w połowie trasy droga wyjeżdża ponad poziom lasu i można złapać oddech na bardzo krótkim płaskim odcinku obok bramek płatniczych dla samochodów. Widoczny odtąd cel(lodowiec) wydaje się już nie tak wysoko jednak to tylko złudzenie gdyż do pokonania jest jeszcze ponad 700 m w pionie. W końcu droga doprowadza do parkingu pod lodowcem ale asfalt kończy się jeszcze 2 serpentyny wyżej na wyasfaltowanym placu. Przed parkingiem można też odbić w lewo i dojechać do Tiefenbachgletscher. Jest to o 100 m mniej przewyższenia ale za to droga prowadzi 2 km tunelem lekko pod górę.
comments=
author=cymek
segment=1536920
locations=[[1,46.9576167628921,11.010235887479553],[2,46.95595941633159,11.010666728029719],[3,46.95474921294548,11.012189623948757],[4,46.95370807726993,11.011184233553195],[5,46.9545737253295,11.009670337797388],[6,46.95612308520064,11.008540702272285],[7,46.95617008256213,11.007777929113672],[8,46.95562709001002,11.007421390730883],[9,46.95713086802353,11.00607796308259],[10,46.95812000000797,11.004197908516403],[11,46.95843146521291,11.001704192145553],[12,46.95933009690179,10.999511479528906],[13,46.96065422606253,10.99785008372237],[14,46.96222837337918,10.996839039646943],[15,46.96384929056217,10.995881537930927],[16,46.96553755397656,10.99534283902085],[17,46.96413193325009,10.994589198088079],[18,46.96247424831473,10.994265247136468],[19,46.96088831891459,10.993941405717464],[20,46.95941656845538,10.993857681335498],[21,46.95772199189647,10.994499552217121],[22,46.95616038466742,10.995533681332859],[23,46.95452409360348,10.99533472169037],[24,46.95492217491336,10.994158694949988],[25,46.95650958195703,10.993033873868626],[26,46.95797000832241,10.991673949740516],[27,46.9590339130657,10.98962650192584],[28,46.96036635686981,10.988020914887557],[29,46.96196970549166,10.987102391687358],[30,46.96340432652782,10.985612862234802],[31,46.96360334723238,10.98311604579078],[32,46.9634082902866,10.98054860212801],[33,46.96322066985486,10.97799091161528],[34,46.96266667449514,10.975569656586686],[35,46.96139894166863,10.973793078459948],[36,46.96084912179619,10.971367353292294],[37,46.9603194020983,10.968934061444543],[38,46.95942947649383,10.966789526365915],[39,46.9586761986151,10.964489383225668],[40,46.95790164582851,10.962180783927465],[41,46.95703934799505,10.959940832975349],[42,46.9561405074496,10.957723162845923],[43,46.95512505931072,10.955629728187205],[44,46.9537964554027,10.953932420066508],[45,46.95270324240572,10.95191590069453],[46,46.95170338269963,10.949791482365981],[47,46.95220531507854,10.950040036310611],[48,46.95359949108887,10.95161965963041],[49,46.95498944018451,10.952433216243662],[50,46.95386890879728,10.95052843428789],[51,46.95287989896995,10.948419772031002],[52,46.95317243711819,10.948166106209328],[53,46.95375756676679,10.948466646825636],[54,46.95304606344098,10.946115066419338],[55,46.95232862165465,10.943796650985519],[56,46.95124365880129,10.941797139965956],[57,46.95017408653569,10.939935162168581],[58,46.94863375687721,10.938813888823802],[59,46.94742405934279,10.936972695314807],[60,46.94589431410155,10.93578100035188],[61,46.94426124638984,10.934861245837396],[62,46.94363033632277,10.93262163628549],[63,46.9421496944619,10.93125067535152],[64,46.94053724661331,10.930208459531741],[65,46.94142637193357,10.929396114202746],[66,46.94311196895174,10.929549478363242],[67,46.9432641361799,10.927773436166376],]
podstawa=[[12,46.96139894166863,10.973793078459948],['start',46.9591800,11.0090400],['meta',46.9433900,10.9268000]]
daneflot=[[0.0,1367.62],[0.2,1377.002],[0.4,1387.913],[0.6,1397.687],[0.8,1416.977],[1.0,1443.63],[1.2,1465.054],[1.4,1491.294],[1.6,1514.149],[1.8,1529.78],[2.0,1552.235],[2.2,1574.525],[2.4,1601.824],[2.6,1626.042],[2.8,1651.169],[3.0,1678.178],[3.2,1697.984],[3.4,1723.406],[3.6,1747.404],[3.8,1768.028],[4.0,1790.180],[4.2,1808.484],[4.4,1829.498],[4.6,1858.540],[4.8,1882.896],[5.0,1907.203],[5.2,1926.106],[5.4,1953.455],[5.6,1974.125],[5.8,1995.114],[6.0,2011.11],[6.2,2022.868],[6.4,2029.087],[6.6,2043.045],[6.8,2070.975],[7.0,2094.737],[7.2,2115.178],[7.4,2136.847],[7.6,2151.637],[7.8,2171.371],[8.0,2197.605],[8.2,2230.042],[8.4,2256.244],[8.6,2277.980],[8.8,2305.070],[9.0,2325.815],[9.2,2345.227],[9.4,2363.029],[9.6,2383.136],[9.8,2404.467],[10.0,2432.880],[10.2,2455.161],[10.4,2474.296],[10.6,2493.529],[10.8,2516.811],[11.0,2537.302],[11.2,2554.811],[11.4,2575.058],[11.6,2590.842],[11.8,2607.366],[12.0,2618.897],[12.2,2639.998],[12.4,2662.673],[12.6,2687.507],[12.8,2711.075],[13.0,2732.308],[13.2,2750.615],[13.4,2779.550],[13.6,2794.959],]