name=Kulerzów przez Buków
slope=5.6km 3.1%
points=114.3
region=41
description=Nawierzchnia: szosa. Ruch samochodowy: mały.
Z początku podjazd jest łagodny, ale druga część ma fragmenty na których trzeba się nieco napocić. Spękany asfalt i duża ilość kraterów potęguje trudności, na szczęście szosa nie jest w takim stanie na całej długości. Układ dróg w okolicy pozwala tworzyć dość krótkie pętle i powtarzać podjazd wielokrotnie.
comments=
author=Greek
segment=6932841
locations=[[1,49.97293330570201,19.829827665935227],[2,49.97121606346932,19.829283306712114],[3,49.96959107754427,19.828283596340725],[4,49.96806805342451,19.828411946580786],[5,49.96641130422605,19.829238849217063],[6,49.96533541513973,19.8313604938794],[7,49.96408332327882,19.833088376254523],[8,49.96264778326417,19.834616001377753],[9,49.96156266095423,19.83641063056939],[10,49.95982757977702,19.836081198599686],[11,49.95808969115579,19.836321397476922],[12,49.95634439280854,19.836085103806226],[13,49.95462542357418,19.83555061913944],[14,49.95294261109206,19.834809626987408],[15,49.95161474056248,19.83656304729925],[16,49.94998452392664,19.837464503863657],[17,49.94878426361505,19.839444674120614],[18,49.94722286378632,19.84068507321399],[19,49.94646500628205,19.843009901731875],[20,49.94642294660671,19.845732121746778],[21,49.94617266670616,19.848394425720812],[22,49.94562426153469,19.850735457750147],[23,49.94531821739685,19.85342020744156],[24,49.94520101335739,19.85613913622649],[25,49.94529898541366,19.85886078309545],[26,49.94519570885038,19.86157701764887],[27,49.944676467143,19.86417222161117],]
podstawa=[[13,49.963,19.83656304729925],['start',49.9745200,19.8308900],['meta',49.9440200,19.8667000]]
daneflot=[[0.0,223.157],[0.2,223.583],[0.4,225.116],[0.6,225.952],[0.8,227.548],[1.0,233.620],[1.2,239.968],[1.4,243.002],[1.6,240.570],[1.8,247.399],[2.0,235.131],[2.2,236.970],[2.4,258.010],[2.6,277.374],[2.8,289.370],[3.0,299.108],[3.2,312.990],[3.4,330.387],[3.6,343.614],[3.8,355.438],[4.0,362.054],[4.2,367.497],[4.4,375.472],[4.6,385.214],[4.8,386.256],[5.0,384.077],[5.2,387.261],[5.4,389.093],[5.6,394.958],]