name=Zachełmie od Podgórzyna
slope=5.6km 4.4%
points=151.5
region=1
description=Nawierzchnia: szosa. Ruch samochodowy: minimalny.
Trochę dłuższa i łagodniejsza wersja ,, Zachełmia' Wąski asfalt od odbicia z drogi na Przesiekę.
comments=
author=gavia2621
segment=0
locations=[[1,50.83216669097031,15.684518513196053],[2,50.83043242795087,15.685398330652447],[3,50.82869099362031,15.686241829826827],[4,50.82694872559921,15.68708100295521],[5,50.82522648221247,15.687377707380392],[6,50.82381581800523,15.685865311864632],[7,50.82215585610844,15.684833461061658],[8,50.82066923945098,15.683186147564584],[9,50.81931263593243,15.681294381987186],[10,50.81804340986496,15.679313637175255],[11,50.81672000001434,15.677475483643207],[12,50.81671250165891,15.674951443236068],[13,50.81519731177919,15.6736374549846],[14,50.81354979455838,15.672529326414747],[15,50.81316982441098,15.669823018754414],[16,50.81299753542037,15.667092953649444],[17,50.8123204474313,15.664721182350263],[18,50.81170853561027,15.66219610511871],[19,50.81162029992455,15.65979191122301],[20,50.8112073398726,15.657042871543013],[21,50.81060353859453,15.654343348133125],[22,50.80942947516867,15.652290551291685],[23,50.80907430390093,15.650345479131715],[24,50.81073684312818,15.650587485792585],[25,50.81186401037919,15.648887396457553],[26,50.81284745286527,15.649281973401003],[27,50.81340851086081,15.651783560892113],]
podstawa=[[13,50.81804340986496,15.679313637175255],['start',50.8338900,15.6835900],['meta',50.8143700,15.6537200]]
daneflot=[[0.0,355.564],[0.2,360.125],[0.4,365.729],[0.6,370.542],[0.8,378.425],[1.0,387.916],[1.2,397.048],[1.4,402.264],[1.6,419.518],[1.8,422.245],[2.0,433.228],[2.2,441.950],[2.4,455.059],[2.6,463.670],[2.8,479.116],[3.0,487.344],[3.2,502.385],[3.4,503.960],[3.6,506.954],[3.8,514.111],[4.0,529.005],[4.2,533.096],[4.4,541.575],[4.6,549.487],[4.8,562.062],[5.0,586.611],[5.2,590.389],[5.4,586.936],[5.6,601.075],]