name=Lubomierz od Mszany
slope=13.0km 2.5%
points=169
region=27
description=Nawierzchnia: szosa, stan średni. Ruch samochodowy: duży.
Długi podjazd DW 968 z Mszany w stronę Łącka. Po wjeździe na szczyt czeka nas jeszcze dłuższy - 15 km zjazd do miejscowości Kamienica. Nawierzchnia odcinkami pozostawia niestety sporo do życzenia...
comments=
author=Koler
segment=0
locations=[[1,49.66044970859924,20.098704232622822],[2,49.65941937382819,20.100948370207107],[3,49.65838899569025,20.103192412756243],[4,49.65750288531066,20.105571350948367],[5,49.65648207922866,20.107767425746033],[6,49.65506733565614,20.109434131487774],[7,49.65345887619984,20.1106151182737],[8,49.65187638247153,20.111874062707102],[9,49.65021127073283,20.112846197343742],[10,49.64852259784732,20.11371968903609],[11,49.64683248315846,20.114586939905962],[12,49.64515163018955,20.115487954865216],[13,49.64380977828289,20.117269629088128],[14,49.64257597329731,20.119252304247766],[15,49.64137614208661,20.121274952323233],[16,49.64032205860313,20.12349161801626],[17,49.63926874351956,20.125709223009153],[18,49.63821297069601,20.127924000203507],[19,49.63720924491152,20.13019546632279],[20,49.63622588515352,20.132486460021482],[21,49.63577677498743,20.135143028284574],[22,49.63465600060799,20.137174000194364],[23,49.63316014153516,20.13866637439469],[24,49.63156218965236,20.13986605213313],[25,49.62999416788753,20.141139790525017],[26,49.62876182572127,20.143122385551465],[27,49.62754299114098,20.145127044803758],[28,49.62624670836004,20.1470032877844],[29,49.6248599069952,20.14872768985208],[30,49.62347935794446,20.150464564794902],[31,49.62190401787596,20.151676281261075],[32,49.62057121458477,20.15349224924455],[33,49.61951343265368,20.15561221287078],[34,49.61901378205438,20.158250337201707],[35,49.61855183425499,20.16090522498564],[36,49.61827973671441,20.163605272773566],[37,49.61823984448787,20.166352833057317],[38,49.61823856664594,20.169101616562102],[39,49.61775742767114,20.171719564484533],[40,49.61734976092309,20.174383052765393],[41,49.616881589732,20.177034658879734],[42,49.61667473795907,20.179762752738952],[43,49.6164391619731,20.182474246784295],[44,49.61543878407031,20.184743797840383],[45,49.61413935203642,20.186602997013324],[46,49.61288131031501,20.18852393946179],[47,49.61166152927382,20.190519126083245],[48,49.61047363666233,20.19256231985912],[49,49.60900064295175,20.194089067725372],[50,49.60837514362805,20.19664085950774],[51,49.60816000040967,20.19935767786251],[52,49.60822002499877,20.20210441231052],[53,49.60820724627796,20.20484500449129],[54,49.60705566306139,20.206806428927393],[55,49.60559966586511,20.20838891591029],[56,49.60459774031352,20.210585652687996],[57,49.6036824283669,20.212925153283095],[58,49.60259140103569,20.21509721668724],[59,49.60094432379964,20.21589752545276],[60,49.59920103037569,20.21563402020331],[61,49.59749696097057,20.215310431384182],[62,49.59641060854409,20.21742502648806],[63,49.59593361180413,20.220032471593413],[64,49.59485476659577,20.222098496329863],]
podstawa=[[12,49.63,20.15561221287078],['start',49.6614800,20.0964600],['meta',49.5938000,20.2242900]]
daneflot=[[0.0,414.225],[0.2,417.548],[0.4,424.915],[0.6,431.295],[0.8,434.338],[1.0,433.922],[1.2,441.990],[1.4,449.024],[1.6,449.913],[1.8,452.371],[2.0,445.405],[2.2,445.478],[2.4,446.162],[2.6,453.010],[2.8,458.637],[3.0,464.587],[3.2,465.496],[3.4,467.994],[3.6,473.058],[3.8,474.501],[4.0,478.929],[4.2,469.417],[4.4,471.707],[4.6,475.618],[4.8,479.209],[5.0,482.918],[5.2,481.727],[5.4,486.772],[5.6,491.667],[5.8,496.315],[6.0,498.680],[6.2,507.727],[6.4,510.853],[6.6,509.677],[6.8,526.968],[7.0,532.248],[7.2,522.059],[7.4,525.385],[7.6,526.336],[7.8,536.526],[8.0,545.169],[8.2,542.330],[8.4,542.397],[8.6,547.505],[8.8,553.677],[9.0,555.377],[9.2,564.364],[9.4,571.150],[9.6,571.759],[9.8,573.188],[10.0,581.278],[10.2,589.305],[10.4,595.953],[10.6,602.962],[10.8,606.778],[11.0,617.588],[11.2,630.863],[11.4,643.859],[11.6,653.787],[11.8,666.058],[12.0,677.616],[12.2,688.945],[12.4,700.621],[12.6,716.361],[12.8,734.893],[13.0,744.696],]