name=Poznachowice Górne
slope=2.5km 7.0%
points=144.9
region=29
description=Nawierzchnia: szosa, stan dobry. Ruch samochodowy: minimalny.
Po pierwszym kilometrze nachylenie nieco spada. Kiedy ten fragment się kończy, mamy zwężenie i już do końca wspinamy się wąską szosą do samego końca asfaltu. Po drodze jest kilka bardziej stromych kawałków, ale bez szaleństw. Wspinaczka kończy się przy podjeździe do domu. Asfalt jest dobry, ale wiadomo, że na takich wąskich szosach należy uważać, fragmentami może być brudno.
comments=
author=Greek
segment=5151253
locations=[[1,49.83275892630658,20.121590371331422],[2,49.83234651739141,20.122859937278463],[3,49.83199108255049,20.124170191442545],[4,49.83122295304144,20.124211015101196],[5,49.83038416247605,20.124701313221067],[6,49.82961588267942,20.12547629227106],[7,49.82881818099415,20.126175957480882],[8,49.82809448081775,20.127048514643775],[9,49.82737833138226,20.12793562735351],[10,49.82665544777693,20.12879164180174],[11,49.82577381706717,20.12916426334141],[12,49.82487573360643,20.12944973325739],[13,49.8245137520498,20.130679986054247],[14,49.82432490635554,20.132070374787418],[15,49.82373702387628,20.1330878319784],[16,49.82340590407002,20.13439807917291],[17,49.82328577776114,20.135806869346652],[18,49.82290239385664,20.137057720711482],[19,49.82224778335912,20.13805009205953],[20,49.8220242186055,20.139187675215226],[21,49.82192032291712,20.140597134192603],[22,49.82177678052168,20.141971926834913],[23,49.82171193819283,20.142811355030062],[24,49.82245428422678,20.143207180025684],]
podstawa=[[14,49.8245137520498,20.130679986054247],['start',49.8328900,20.1202100],['meta',49.8218200,20.1441000]]
daneflot=[[0.0,286.740],[0.1,289.595],[0.2,293.108],[0.3,299.555],[0.4,304.099],[0.5,310.112],[0.6,318.925],[0.7,328.334],[0.8,338.846],[0.9,350.448],[1.0,357.698],[1.1,363.998],[1.2,368.546],[1.3,373.056],[1.4,375.717],[1.5,381.553],[1.6,383.838],[1.7,387.106],[1.8,396.089],[1.9,403.543],[2.0,411.971],[2.1,423.423],[2.2,435.393],[2.3,442.830],[2.4,449.571],[2.5,461.677],]