name=Polana Mniszowska z Janowic
slope=4.6km 7.1%
points=270.1
region=5
description=Nawierzchnia: szosa, stan średni. Ruch samochodowy: minimalny.
Jedna z wersji podjazdu na Wołek. Od Janowic wąski  asfalt, miejscami  bardzo stromo. Ze względu na nawierzchnię podjazd od drugiej strony obecnie możliwy jedynie na rowerze górskim. Ruch samochodowy do tylko Mniszkowa, ale minimalny.
comments=
author=gavia2621
segment=0
locations=[[1,50.87835298512215,15.926342089285185],[2,50.87736767374128,15.928681568456113],[3,50.8760856977234,15.930568042835489],[4,50.87501101089759,15.932806152977491],[5,50.87387684879653,15.93487998476985],[6,50.87312935190619,15.937395959859032],[7,50.87241273899967,15.939963549044933],[8,50.87079920953748,15.940900000000056],[9,50.86951860755252,15.942751772284055],[10,50.86779691096448,15.942877509664982],[11,50.86602736872553,15.94261329947767],[12,50.86436913991292,15.943359676946898],[13,50.86269002522135,15.944040601506913],[14,50.86101245240121,15.943114252797614],[15,50.85928473354222,15.942467345146724],[16,50.85753683543161,15.942285862462995],[17,50.85583176198244,15.942941057620033],[18,50.8541096565509,15.942318336544872],[19,50.85238928547969,15.941591633528787],[20,50.8508459630869,15.940371879269378],[21,50.84973906145847,15.938157987733462],[22,50.84863211794858,15.935944201266352],]
podstawa=[[13,50.86436913991292,15.943359676946898],['start',50.8795300,15.9242200],['meta',50.8477300,15.9335600]]
daneflot=[[0.0,393.389],[0.2,403.148],[0.4,417.322],[0.6,419.608],[0.8,438.782],[1.0,442.281],[1.2,454.673],[1.4,465.112],[1.6,478.966],[1.8,488.467],[2.0,499.212],[2.2,517.509],[2.4,533.677],[2.6,553.934],[2.8,576.275],[3.0,590.911],[3.2,610.128],[3.4,632.458],[3.6,646.653],[3.8,650.955],[4.0,658.806],[4.2,674.300],[4.4,695.417],[4.6,717.720],]