name=Przełęcz Tąpadła od Sady
slope=2.9km 4.8%
points=101.5
region=9
description=Nawierzchnia: szosa, stan sredni. Ruch samochodowy: mały.
Najtrudniejsza szosowa wersja podjazdu na przełęcz Tąpadła. Trasa właściwie to składa się z dwóch podjazdów. Na początku jest najtrudniejszy fragment, później jazda po płaskim i znowu dość mocno pod górę. Trasa cały czas w lesie, bez walorów widokowych.
comments=
author=???
segment=2282533
locations=[[1,50.85346295285159,16.667975099399882],[2,50.8532166518216,16.6693246240402],[3,50.85310880056294,16.670756820236875],[4,50.85304334313864,16.672194467002782],[5,50.85279237806651,16.673554997746123],[6,50.85240255394867,16.67485844423709],[7,50.85199297784406,16.676145597187656],[8,50.85153135441775,16.67738729149687],[9,50.85105543143867,16.678609008038165],[10,50.85093494605294,16.680023260536473],[11,50.851132522574,16.68141198571186],[12,50.85114396784632,16.682760364376236],[13,50.85200435224117,16.68300685169936],[14,50.85278057298241,16.683224587528116],[15,50.85229701782335,16.684443291051593],[16,50.85173570016929,16.68557738224581],[17,50.85108885442875,16.68656141160409],[18,50.85029316441122,16.687262879027912],[19,50.84951186686017,16.688001895904335],[20,50.84875168483294,16.68879600931382],[21,50.84803466829717,16.689676484360803],[22,50.84755095518479,16.6908720322715],[23,50.84705519352129,16.692077697498235],[24,50.84651703969805,16.693238609626633],[25,50.84600892650138,16.69443173130844],[26,50.8456932258854,16.6957710801571],[27,50.84554564223708,16.69719423135041],[28,50.84563148251639,16.698561042765732],]
podstawa=[[14,50.84827744777398,16.682610511779785],['start',50.8542100,16.6672800],['meta',50.8460400,16.6998500]]
daneflot=[[0.0,247.108],[0.1,246.221],[0.2,248.927],[0.3,251.549],[0.4,254.603],[0.5,259.380],[0.6,268.256],[0.7,278.217],[0.8,283.643],[0.9,288.603],[1.0,295.386],[1.1,304.630],[1.2,313.846],[1.3,320.675],[1.4,332.661],[1.5,333.256],[1.6,333.980],[1.7,331.808],[1.8,330.714],[1.9,331.872],[2.0,334.535],[2.1,337.604],[2.2,343.632],[2.3,351.166],[2.4,359.744],[2.5,365.870],[2.6,371.967],[2.7,375.813],[2.8,379.473],[2.9,385.838],]