name=Przełęcz Trzech Dolin z Wałbrzycha
slope=9.0km 3.7%
points=237.7
region=7
description=Nawierzchnia: szosa, stan średni. Ruch samochodowy: duży.
Podjazd polecany głównie na weekendy i święta, chyba ze ktoś lubi jazdę w dużym ruchu. Jeden z wielu ciekawych podjazdów na terenie Wałbrzycha. Można zaczynać różnie, tu początek jest tam gdzie zaczyna się wyraźny podjazd (okolice dworca Wałbrzych Gł.). Orientacja bezproblemowa. Jedziemy główną ulicą (Niepodleglosci, potem Walbrzyska) az do zjazdu do Rybnicy.
comments=
author=Menchov
segment=0
locations=[[1,50.74691295017544,16.29314443197677],[2,50.74544531108315,16.291471179275845],[3,50.74412093805479,16.289512786014598],[4,50.74259809759819,16.28794583597687],[5,50.74108493396015,16.286386651725593],[6,50.73974949853881,16.284459267855482],[7,50.73848068134738,16.28240704287566],[8,50.73712791603153,16.280507814367525],[9,50.73579792914274,16.27861681001764],[10,50.73479834482327,16.276218351812304],[11,50.73324098261912,16.274766785561383],[12,50.73148903768533,16.27413115303591],[13,50.72972390504741,16.273546681222456],[14,50.72801483697901,16.27261609297807],[15,50.72625110188843,16.271964915158605],[16,50.72469054749443,16.271755238472906],[17,50.72294924494771,16.272189213291767],[18,50.72150150901677,16.273907161507623],[19,50.72046128632498,16.274135458983437],[20,50.72036063268052,16.271383035001463],[21,50.7195626870289,16.268874628161598],[22,50.71884844280464,16.27031645148952],[23,50.71794496357063,16.272798703737976],[24,50.71643119499684,16.274280245494197],[25,50.71496227715785,16.27594633090473],[26,50.71372526047531,16.278051722418695],[27,50.71251331392937,16.280193006021477],[28,50.71089999546928,16.28099207255741],[29,50.70909713954249,16.28061875391313],[30,50.70728976663366,16.28070366381121],[31,50.70554587187733,16.28125880767982],[32,50.70392137831033,16.280023631894892],[33,50.70225856934258,16.27893377524208],[34,50.70047973373117,16.278484474470474],[35,50.69909340211313,16.276672948476516],[36,50.69780575029741,16.27473722840523],[37,50.69681780390178,16.272387972819274],[38,50.69512921463648,16.271435403617716],[39,50.69333577009112,16.271352072349487],[40,50.69152785213245,16.27142897684689],[41,50.69023293916307,16.2733451035665],[42,50.68944148459313,16.2759062750539],[43,50.68773412843113,16.27653420801653],[44,50.68608365708479,16.27772337201668],]
podstawa=[[12,50.71794496357063,16.272798703737976],['start',50.7483100,16.2945000],['meta',50.6843900,16.2781200]]
daneflot=[[0.0,466.070],[0.2,471.608],[0.4,478.978],[0.6,483.656],[0.8,485.173],[1.0,491.996],[1.2,498.353],[1.4,507.158],[1.6,516.820],[1.8,527.800],[2.0,539.850],[2.2,545.056],[2.4,553.379],[2.6,564.306],[2.8,575.658],[3.0,589.986],[3.2,602.153],[3.4,611.300],[3.6,622.809],[3.8,632.817],[4.0,642.473],[4.2,658.353],[4.4,657.484],[4.6,661.988],[4.8,655.604],[5.0,644.665],[5.2,635.140],[5.4,625.315],[5.6,621.731],[5.8,625.486],[6.0,630.248],[6.2,632.486],[6.4,642.591],[6.6,649.770],[6.8,656.933],[7.0,662.906],[7.2,670.336],[7.4,684.075],[7.6,697.500],[7.8,723.956],[8.0,741.724],[8.2,765.683],[8.4,784.619],[8.6,790.701],[8.8,791.883],[9.0,797.943],]