name=Przełęcz Wilcza od Wojborza
slope=4.8km 3.6%
points=178.1
region=12
description=Nawierzchnia: szosa, stan dobry. Ruch samochodowy: mały.
Fajna trasa treningowa. Dobrej jakości, w miarę szeroki asfalt. Dla górali kontynuacja trasy dość łatwym terenem do Srebrnej Góry
comments=
author=Voytas
segment=0
locations=[[1,50.51281513067212,16.644932256526204],[2,50.51455742228469,16.645045839160844],[3,50.51549513825903,16.64713432708038],[4,50.51689589535459,16.648832117628217],[5,50.51827847459387,16.650565783031425],[6,50.5190420481882,16.65301843264797],[7,50.52020291686542,16.655097172628643],[8,50.52052425489441,16.65770061219689],[9,50.52150387245295,16.65955736638648],[10,50.52302083792188,16.658993920522107],[11,50.5245543473204,16.65770939056324],[12,50.52610987140525,16.658102210900324],[13,50.52778163917572,16.658904786695302],[14,50.52919497256669,16.660451052591498],[15,50.53033303933176,16.662555887762096],[16,50.53202890246371,16.662924130891497],[17,50.53359421026706,16.66387661647684],[18,50.53470794849375,16.662024669755056],[19,50.53635222839218,16.661930007558794],[20,50.53778436708823,16.663462254489787],[21,50.5391187976134,16.665243164290587],[22,50.5407503011266,16.666256788695136],[23,50.54239618881716,16.66546756049172],]
podstawa=[[13,50.53,16.65],['start',50.5112300,16.6437800],['meta',50.5440400,16.6644900]]
daneflot=[[0.0,375.584],[0.2,387.453],[0.4,397.873],[0.6,409.974],[0.8,415.920],[1.0,424.323],[1.2,425.576],[1.4,421.830],[1.6,403.324],[1.8,389.348],[2.0,401.007],[2.2,419.183],[2.4,422.622],[2.6,405.628],[2.8,406.734],[3.0,409.265],[3.2,430.030],[3.4,446.404],[3.6,445.352],[3.8,456.913],[4.0,482.040],[4.2,503.582],[4.4,522.820],[4.6,540.169],[4.8,546.226]]