name=Przełęcz Sokola od Jugowic
slope=10.0km 3.8%
points=241.2
region=8
description=Nawierzchnia: szosa, stan dobry. Ruch samochodowy: Średni.
Wjazd na przełecz Sokolą od strony Jugowic jest chyba nieco trudniejszy niż od strony Ludwikowic. Głównie ze względu  na dość ostrą końcówkę. Niestety od Jugowic jest też chyba nieco większy ruch. Podjazd jest dość nierówny z wieloma wypłaszczeniami.
comments=Dnia 2015-04-03 użytkownik IP dodał:
Spokojny podjazd. Tylko ostatni km. mocno nachylony. Nachylenie jest niewielkie wiec zjazd wymaga dokręcania. Tak więc jak komuś zależy na ciągłym kręceniu to spokojnie można na przełęcz wjeżdżać na zjeździe nie odpocznie :)
Obecnie(2015r.) droga przez Rzeczkę jest w remoncie i na szosówce dzieżko się jedzie
author=Spokojny podjazd. Tylko ostatni km. mocno nachylony. Nachylenie jest niewielkie wiec zjazd wymaga dokręcania. Tak więc jak komuś zależy na ciągłym kręceniu to spokojnie można na przełęcz wjeżdżać na zjeździe nie odpocznie :)
Obecnie(2015r.) droga przez Rzeczkę jest w remoncie i na szosówce dzieżko się jedzie
segment=0
locations=[[1,50.72984240223342,16.405294398406227],[2,50.72865072585058,16.407394764575542],[3,50.72735087518847,16.409336922744615],[4,50.72600107292907,16.411201549610155],[5,50.72467176663254,16.41309498508656],[6,50.72307960008301,16.414326412134187],[7,50.72150908891727,16.415480274686047],[8,50.720029726129,16.417103668216555],[9,50.71878933086896,16.419115689010482],[10,50.71770220347261,16.42134200976693],[11,50.71695818284862,16.42391545298733],[12,50.71598950514679,16.42631303187727],[13,50.71533354604376,16.428928444058783],[14,50.71502895493866,16.43172891987365],[15,50.71391278129013,16.433874783681517],[16,50.71215288163287,16.434317089739693],[17,50.71039184750784,16.434866279675475],[18,50.70869883218509,16.4357795296321],[19,50.70706880270583,16.43695343542231],[20,50.70532066415517,16.437558155304373],[21,50.70356799363096,16.438145598659048],[22,50.7018011449441,16.43865088465236],[23,50.70028842395661,16.440079741323984],[24,50.69873642937232,16.441386815027954],[25,50.69719105309758,16.442262237143495],[26,50.69580335054005,16.443816422797568],[27,50.6942260538243,16.4451156577137],[28,50.69249209883343,16.445289192899054],[29,50.69074838600044,16.445753417582637],[30,50.68898910150088,16.445203132108873],[31,50.68735250238372,16.444218360334503],[32,50.68640113789004,16.441860504294482],[33,50.68512950543025,16.439923108750122],[34,50.68359248044312,16.438643120095435],[35,50.6818561008161,16.43907389951312],[36,50.68031811506059,16.440436957512702],[37,50.67911815652071,16.442551450014662],[38,50.67789929466944,16.44458416223938],[39,50.67638799515716,16.446121006908243],[40,50.67508843766385,16.448051562472074],[41,50.67346113898771,16.44925022365885],[42,50.67198308367657,16.450808776608596],[43,50.670844534171,16.45299639849611],[44,50.66999162265324,16.45545709250905],[45,50.66911433804111,16.457868650700675],[46,50.66797632460884,16.460065552456285],[47,50.66656324216765,16.461685727792542],[48,50.66485092782143,16.46254613614235],[49,50.66335163835591,16.46411794017888],]
podstawa=[[12,50.69580335054005,16.443816422797568],['start',50.7310200,16.4033600],['meta',50.6620200,16.4660000]]
daneflot=[[0.0,376.197],[0.2,390.180],[0.4,400.798],[0.6,405.705],[0.8,413.246],[1.0,421.301],[1.2,416.810],[1.4,419.692],[1.6,422.235],[1.8,429.151],[2.0,435.627],[2.2,440.076],[2.4,451.971],[2.6,454.001],[2.8,458.393],[3.0,473.050],[3.2,481.154],[3.4,478.097],[3.6,489.616],[3.8,481.462],[4.0,486.964],[4.2,488.352],[4.4,492.829],[4.6,498.881],[4.8,508.204],[5.0,514.524],[5.2,522.054],[5.4,531.452],[5.6,545.176],[5.8,572.502],[6.0,576.707],[6.2,584.496],[6.4,579.478],[6.6,582.485],[6.8,588.984],[7.0,601.098],[7.2,606.379],[7.4,610.152],[7.6,610.986],[7.8,620.391],[8.0,627.224],[8.2,641.589],[8.4,645.085],[8.6,661.773],[8.8,668.681],[9.0,675.635],[9.2,686.827],[9.4,702.558],[9.6,725.010],[9.8,744.123],[10.0,754.379],]