name=Przełęcz Huta z Polan
slope=10.6km 3.2%
points=189.4
region=34
description=Nawierzchnia: szosa, stan dobry. Ruch samochodowy: średni.
Solidny,wymagający podjazd
comments=
author=Lolo
segment=0
locations=[[1,49.53170561740325,20.986041367229404],[2,49.53000239370963,20.986865819657623],[3,49.52821960381151,20.987031584700617],[4,49.52647413001571,20.987630334260302],[5,49.52494399766778,20.988909775209322],[6,49.5234721543578,20.990361084745928],[7,49.52182844326234,20.989516989916183],[8,49.52019701925481,20.988391518738467],[9,49.51853953307336,20.987358207287343],[10,49.51688388552089,20.98631739430016],[11,49.51522970197382,20.98527110396185],[12,49.51357550899256,20.9842248843961],[13,49.51200033517607,20.982968113052834],[14,49.51047120179866,20.981591867378484],[15,49.50882829346792,20.980506479553355],[16,49.50715309354715,20.979618983888145],[17,49.50567293268983,20.978074271753258],[18,49.50454880479557,20.976047268278307],[19,49.50380984668783,20.973539833773202],[20,49.50307141350061,20.971031926148044],[21,49.50233976462084,20.9685193570956],[22,49.50182911374947,20.965932996712354],[23,49.50199041139263,20.96319095494846],[24,49.5021197936821,20.96044711033869],[25,49.50063003945386,20.95956364248491],[26,49.49914488986395,20.958032722311145],[27,49.49757799067343,20.95671176314886],[28,49.49596351697721,20.95552914741529],[29,49.49477629895816,20.953518030795294],[30,49.49444304528532,20.95085400910898],[31,49.49469305149562,20.94815915438744],[32,49.49303542373117,20.94727117420223],[33,49.49146879101435,20.947702418020867],[34,49.49252549804781,20.949298645109593],[35,49.49168995415906,20.951504056274757],[36,49.48999668011696,20.95195867130792],[37,49.48826767591509,20.951256154341536],[38,49.48655492314952,20.950493197732158],[39,49.48652000013612,20.952298356507754],[40,49.48762002096437,20.954182325144984],[41,49.48868388584614,20.956361388726805],[42,49.4881945350059,20.95809914022277],[43,49.48647186815978,20.957515027627323],[44,49.48493746860225,20.95650126652663],[45,49.48317352484616,20.956693465626245],[46,49.48142459874758,20.95618625656357],[47,49.47991660692956,20.956663114774074],[48,49.4782698325898,20.956782179230913],[49,49.47650298563352,20.95635990456526],[50,49.47471913941629,20.956270000000018],[51,49.47293096812158,20.956284241421486],[52,49.47116328499493,20.956661340554206],]
podstawa=[[12,49.49757799067343,20.95671176314886],['start',49.5334100,20.9852100],['meta',49.4694100,20.9570500]]
daneflot=[[0.0,427.408],[0.2,441.179],[0.4,445.884],[0.6,444.665],[0.8,449.536],[1.0,448.546],[1.2,448.578],[1.4,454.512],[1.6,452.909],[1.8,463.400],[2.0,467.320],[2.2,468.266],[2.4,470.726],[2.6,472.283],[2.8,486.951],[3.0,493.373],[3.2,493.724],[3.4,498.486],[3.6,498.784],[3.8,506.659],[4.0,515.743],[4.2,517.332],[4.4,527.880],[4.6,524.837],[4.8,529.649],[5.0,535.573],[5.2,547.987],[5.4,559.266],[5.6,566.310],[5.8,583.307],[6.0,591.313],[6.2,601.249],[6.4,620.107],[6.6,627.852],[6.8,627.422],[7.0,632.919],[7.2,643.366],[7.4,658.757],[7.6,677.508],[7.8,676.455],[8.0,684.367],[8.2,690.097],[8.4,694.174],[8.6,708.040],[8.8,719.833],[9.0,726.142],[9.2,736.852],[9.4,742.209],[9.6,744.871],[9.8,746.058],[10.0,742.625],[10.2,754.978],[10.4,757.885],[10.6,765.962],]