name=Przełęcz Słopnicka ze Słopnicy
slope=6.2km 4.6%
points=197
region=29
description=Nawierzchnia: szosa, stan baedzo dobry. Ruch samochodowy: mały.
Alternatywny podjazd z Limanowej przez Słopnice do Kamienicy przez Zalesie. Właściwe natarcie na przełęcz rozpoczyna się w Słopnicy Górnej od malowniczego kościółka. Stan nawierzchni jest świetny i nie utrudnia wspinaczki.
comments=
author=airstreeem20
segment=0
locations=[[1,49.68185316647826,20.342203155358334],[2,49.68017128467461,20.34298725291933],[3,49.67846322519345,20.34346732730819],[4,49.67673311079447,20.343969833352162],[5,49.6752479988259,20.34542490130673],[6,49.67364072479008,20.34656826105754],[7,49.67188950988793,20.346355174575933],[8,49.67019334673033,20.345545330900904],[9,49.66850654854091,20.344690331743777],[10,49.66683017147506,20.343796518557383],[11,49.66513153650339,20.343819879443117],[12,49.66336011916916,20.343773278258368],[13,49.66160604590592,20.343439011401642],[14,49.6598918976923,20.343380734850598],[15,49.65825717316154,20.344438093842882],[16,49.65658611751782,20.343769699805534],[17,49.65502319336488,20.34257381909481],[18,49.65334246499897,20.342111760708008],[19,49.65165044737712,20.342806368807715],[20,49.65000396758906,20.343795430453724],[21,49.64830698954388,20.344377993015883],[22,49.64678094590128,20.34298002421008],[23,49.64518955490615,20.341848798240335],[24,49.64360068577923,20.341177808411317],[25,49.6418492686508,20.341017042738486],[26,49.64019132558068,20.341824270103416],[27,49.63875358356945,20.34334756102089],[28,49.63756135938039,20.345339701296098],[29,49.63627901741511,20.345216300621814],[30,49.63515871744281,20.34478747524099],]
podstawa=[[12,49.662,20.343769699805534],['start',49.6836200,20.3423700],['meta',49.6343900,20.3435000]]
daneflot=[[0.0,468.537],[0.2,474.771],[0.4,476.919],[0.6,487.825],[0.8,490.949],[1.0,497.215],[1.2,500.246],[1.4,504.100],[1.6,507.976],[1.8,512.481],[2.0,519.693],[2.2,518.645],[2.4,522.649],[2.6,527.610],[2.8,529.929],[3.0,537.019],[3.2,543.638],[3.4,550.196],[3.6,560.651],[3.8,570.218],[4.0,583.185],[4.2,601.449],[4.4,608.518],[4.6,632.596],[4.8,647.553],[5.0,657.453],[5.2,680.841],[5.4,699.062],[5.6,705.864],[5.8,725.424],[6.0,737.243],[6.2,755.859],]