name=Przełecz Snożka od Krościenka
slope=8.6km 2.6%
points=99.9
region=27
description=Nawierzchnia: szosa, stan średni. Ruch samochodowy: średni.
Niewielkie nachylenie, ale podjazd się "ciągnie"
comments=
author=Narzew
segment=0
locations=[[1,49.44073752530625,20.425818093380485],[2,49.44038016800896,20.423175631893173],[3,49.44056143648525,20.42045532388852],[4,49.44068401053588,20.417725900143523],[5,49.44042194780657,20.41504812237872],[6,49.4399424689009,20.41241346025538],[7,49.4395659993297,20.409748975453454],[8,49.43879963088889,20.407325701893797],[9,49.43866540252852,20.40465726251091],[10,49.43899325601432,20.40197886459009],[11,49.43980823086444,20.39954966922278],[12,49.43968033194157,20.39689595814002],[13,49.43893024829149,20.394422826707114],[14,49.43857137481539,20.391768652661995],[15,49.43876719247191,20.389053086892204],[16,49.43922758549083,20.38643662709967],[17,49.43852948654846,20.38397674419707],[18,49.43758014094833,20.38166380257269],[19,49.43705937390013,20.379059281368427],[20,49.43687651986383,20.37633821751558],[21,49.43690273119147,20.373607398570243],[22,49.43662624439606,20.37091527171208],[23,49.43679321858126,20.368191754915188],[24,49.4369848335452,20.365472012243117],[25,49.43754280801087,20.362891617530067],[26,49.43829809129526,20.36041592729009],[27,49.43930268093818,20.358203315872288],[28,49.44065566839549,20.35643133102576],[29,49.44172470403828,20.354277022469773],[30,49.44234573603072,20.35172783544624],[31,49.4433593940371,20.349485741678905],[32,49.4443704116532,20.34723570924075],[33,49.44524107363515,20.34485001756798],[34,49.44610029040057,20.342454079780055],[35,49.44698942147379,20.34009009699878],[36,49.44804776774162,20.337897136447964],[37,49.44881970219411,20.335502329995506],[38,49.44984954669392,20.333271001221874],[39,49.45089397039717,20.33107767965862],[40,49.45119981515281,20.32839480658913],[41,49.45105000043971,20.32567014901815],[42,49.45128296538277,20.322960561115224],]
podstawa=[[12,49.43662624439606,20.37091527171208],['start',49.4406900,20.4285100],['meta',49.4510900,20.3202700]]
daneflot=[[0.0,423.514],[0.2,422.707],[0.4,427.549],[0.6,428.464],[0.8,434.478],[1.0,439.888],[1.2,439.689],[1.4,444.695],[1.6,445.526],[1.8,453.785],[2.0,459.798],[2.2,464.688],[2.4,464.627],[2.6,474.785],[2.8,475.841],[3.0,476.667],[3.2,477.525],[3.4,483.898],[3.6,492.736],[3.8,497.529],[4.0,510.458],[4.2,516.097],[4.4,520.440],[4.6,522.323],[4.8,523.005],[5.0,525.794],[5.2,527.743],[5.4,532.636],[5.6,545.967],[5.8,548.202],[6.0,558.841],[6.2,556.545],[6.4,560.124],[6.6,565.246],[6.8,569.356],[7.0,578.873],[7.2,583.909],[7.4,600.842],[7.6,605.030],[7.8,609.453],[8.0,621.788],[8.2,631.330],[8.4,644.134],[8.6,650.681],]