name=Przełęcz Sanguszki od Harbutowic
slope=3.0km 4.2%
points=66
region=22
description=Nawierzchnia: szosa. Ruch samochodowy: średni.
Brak jakichkolwiek trudności na trasie. Na górze czeka nas ładny widok na okolicę, mimo niedużej wysokości bezwzględnej.
comments=
author=Greek
segment=1332088
locations=[[1,49.81595545004548,19.78338297273808],[2,49.81416787589472,19.7827250756593],[3,49.81268689235963,19.78109734922532],[4,49.81140374027059,19.77919211843414],[5,49.80983562786223,19.777769034449193],[6,49.80892513763774,19.775384952747117],[7,49.80763360118581,19.77333865873618],[8,49.80644977736168,19.771128084638917],[9,49.8052426425382,19.768950857368168],[10,49.80480467593767,19.766794196020555],[11,49.80656112982212,19.76612],[12,49.80788693975196,19.764758597936975],[13,49.8081876182473,19.76194310093956],[14,49.80784167230873,19.75931243237551],]
podstawa=[[14,49.80944977736168,19.771128084638917],['start',49.8176300,19.7824600],['meta',49.8065300,19.7574100]]
daneflot=[[0.0,349.507],[0.2,354.000],[0.4,356.006],[0.6,362.044],[0.8,368.129],[1.0,372.256],[1.2,380.094],[1.4,389.051],[1.6,399.014],[1.8,407.088],[2.0,421.235],[2.2,430.266],[2.4,440.928],[2.6,456.131],[2.8,470.627],[3.0,478.890],]