name=Przełęcz Krowiarki od Zawoja
slope=9.4km 4.4%
points=271.4
region=17
description=Nawierzchnia: szosa. Ruch samochodowy: średni.
Przyjemny, łatwy i stosunkowo długi podjazd o łagodnym nachyleniu. Większość trasy prowadzi przez las.
comments=
author=Greek
segment=1336664
locations=[[1,49.63419633395084,19.528044464064806],[2,49.63246553845827,19.52773527689328],[3,49.63076186567067,19.526936328318016],[4,49.62898669939445,19.527186784571313],[5,49.62719574096207,19.527293806655962],[6,49.62575201691711,19.52886781574125],[7,49.6245620070661,19.530894547835487],[8,49.62411422756394,19.53357202832649],[9,49.62341058097577,19.536113561160505],[10,49.62261526898216,19.53857891032135],[11,49.62181605118631,19.541056565692315],[12,49.62083674704996,19.543365542783476],[13,49.61976182748748,19.54555255587593],[14,49.61894402617219,19.548005954813448],[15,49.61795203438753,19.55030530743909],[16,49.61627129148999,19.55099902515815],[17,49.61449404273802,19.5513628664811],[18,49.6130412644366,19.552822580549446],[19,49.61200154884154,19.555060988191144],[20,49.61165342838473,19.55774750098317],[21,49.6102667097223,19.559457056752763],[22,49.60850170446835,19.559759147771274],[23,49.60702819944682,19.56133350674179],[24,49.60591990109215,19.5634550846745],[25,49.60435250916985,19.56474873370462],[26,49.60312992428157,19.566760108427502],[27,49.60196040395427,19.568840139266058],[28,49.6005668643125,19.570556490314175],[29,49.59936564483736,19.572525682762034],[30,49.59804510479728,19.574216525645397],[31,49.59632312502855,19.57494074135525],[32,49.59588979128108,19.575727062532223],[33,49.5975770923972,19.57495675102996],[34,49.59934894783829,19.574537454781762],[35,49.60105585882745,19.5737435073421],[36,49.60048596924072,19.574578225082632],[37,49.59890143003706,19.575834592431647],[38,49.59726008344502,19.576821186168445],[39,49.59678000040149,19.57932708679016],[40,49.596374493598,19.582000589659174],[41,49.59675083302787,19.584578142231976],[42,49.59646883319229,19.58585562854421],[43,49.59473582021502,19.585447272477722],[44,49.59294956884793,19.58554644157175],[45,49.59142077327789,19.58425889050909],[46,49.58984507030149,19.58308196700068],]
podstawa=[[12,49.60591990109215,19.5634550846745],['start',49.6359700,19.5283500],['meta',49.5881000,19.5829200]]
daneflot=[[0.0,597.335],[0.2,599.402],[0.4,610.292],[0.6,621.244],[0.8,627.496],[1.0,633.848],[1.2,640.217],[1.4,644.933],[1.6,657.240],[1.8,662.243],[2.0,662.893],[2.2,677.303],[2.4,679.981],[2.6,686.339],[2.8,694.600],[3.0,702.887],[3.2,704.176],[3.4,706.786],[3.6,712.629],[3.8,726.479],[4.0,735.020],[4.2,743.356],[4.4,741.822],[4.6,752.226],[4.8,765.420],[5.0,774.858],[5.2,784.195],[5.4,798.730],[5.6,815.786],[5.8,831.642],[6.0,842.683],[6.2,846.277],[6.4,857.106],[6.6,857.443],[6.8,871.808],[7.0,869.448],[7.2,884.514],[7.4,904.625],[7.6,913.679],[7.8,935.961],[8.0,949.710],[8.2,970.349],[8.4,963.973],[8.6,980.984],[8.8,991.422],[9.0,999.938],[9.2,1011.375],[9.4,1013.708],]