name=Przełęcz Strażnicze Naroże z Chęłmska
slope=3.5km 4.1%
points=92.5
region=10
description=Nawierzchnia: szosa. Ruch samochodowy: minimalny.
Podjazd rozpoczynamy od "Domków Tkaczy" w Chełmsku Śląskim. Początek spokojny, łagodny i tak do końca Chełmska Śląskiego. Prawdziwy podjazd rozpoczynamy po wyjechaniu ze wsi, a że potrafi wycisnąć trochę powera z naszych nóg to nie ma co go lekceważyć przedwcześnie bo można się zdziwić :)  Asfalt nie jest pierwszej młodości, ale podczas podjazdu nie stanowi to większego problemu.
comments=
author=krzywy
segment=0
locations=[[1,50.6657095749197,16.074140863486832],[2,50.66507688466123,16.07511453143161],[3,50.66446227700829,16.076139939807263],[4,50.66373673827997,16.07698249929217],[5,50.66311860061825,16.078007201264427],[6,50.66255071326283,16.07908497078961],[7,50.66218427245877,16.080381231910906],[8,50.6622310296821,16.08178772034114],[9,50.66231408825472,16.08318750554008],[10,50.66195823146622,16.08445982206024],[11,50.6611670377866,16.08508866385705],[12,50.66051792767249,16.0860003536327],[13,50.66000531506431,16.08715102263534],[14,50.65927552120197,16.08798430639365],[15,50.65857878240394,16.088873898955626],[16,50.65841659230115,16.090263334445353],[17,50.65827846125099,16.0916638468982],[18,50.65768728786971,16.09272679758658],[19,50.65704272274316,16.093719587152464],[20,50.65640745549345,16.094726614253545],[21,50.65694093623559,16.094789981548047],[22,50.65771433424989,16.09532719701747],[23,50.65844158683383,16.096165904109284],[24,50.65929470644587,16.096517316888367],[25,50.66012432824772,16.09695190509524],[26,50.66099435707188,16.09729311803767],[27,50.66184925428809,16.097703984252348],[28,50.66252839426615,16.098635295644385],[29,50.66311709113948,16.09970040287385],[30,50.66329541616802,16.101062697707903],[31,50.66330618913278,16.102483729165215],[32,50.66344685266129,16.10388063489313],[33,50.66367049528775,16.10525063245393],[34,50.663691139157,16.106670519983822],]
podstawa=[[13,50.65768728786971,16.09272679758658],['start',50.6659500,16.0727800],['meta',50.6636600,16.1080900]]
daneflot=[[0.0,515.884],[0.1,517.430],[0.2,516.694],[0.3,517.482],[0.4,520.386],[0.5,525.189],[0.6,531.806],[0.7,535.928],[0.8,541.267],[0.9,542.028],[1.0,540.986],[1.1,540.376],[1.2,542.000],[1.3,544.251],[1.4,548.049],[1.5,554.596],[1.6,558.193],[1.7,562.385],[1.8,569.417],[1.9,575.026],[2.0,581.951],[2.1,586.862],[2.2,599.244],[2.3,610.920],[2.4,613.859],[2.5,618.665],[2.6,624.994],[2.7,630.414],[2.8,637.564],[2.9,639.995],[3.0,646.740],[3.1,652.713],[3.2,652.055],[3.3,653.834],[3.4,656.547],[3.5,660.370],]