name=Przełęcz Łaszczowa z Kłodzka
slope=8.4km 3.7%
points=191.8
region=12
description=Nawierzchnia: szosa, stan bardzo dobry. Ruch samochodowy: sredni.
Ta strona podjazdu na Przełęcz Łaszczową jest bardzo podobna do wariantu od Dzbanowa, z tym, że tutaj jedziemy praktycznie 90% po idealnym asfalcie z fajnymi zakrętami pod koniec.
comments=
author=Bartek Zając
segment=0
locations=[[1,50.44011230267582,16.662613431641148],[2,50.44087861678494,16.665160978315498],[3,50.44146954613464,16.66780276565794],[4,50.44221781424401,16.670359918171357],[5,50.44329867181207,16.67259028002934],[6,50.44460741148401,16.674509894545622],[7,50.44596469625387,16.67634347756382],[8,50.44734280986597,16.678108445314365],[9,50.44902242066545,16.6790650195569],[10,50.4504061572321,16.68080788430916],[11,50.45163465216952,16.682847792177768],[12,50.45265734286631,16.685140559420006],[13,50.45346225107305,16.68755515921896],[14,50.45427913143484,16.68990936634941],[15,50.45463100925736,16.692526690382692],[16,50.45517866696625,16.695162356582387],[17,50.45537406627719,16.69794260710296],[18,50.45497190471759,16.700685805623834],[19,50.45432585863551,16.703315821685123],[20,50.45375817762919,16.70598359481812],[21,50.45335302134487,16.708729738564216],[22,50.4530439088208,16.71149783400051],[23,50.45324720202483,16.71427383984087],[24,50.45400978049246,16.716816999997377],[25,50.4547354776607,16.719390741729626],[26,50.45584333667587,16.72151212870301],[27,50.45703256297048,16.723526521302688],[28,50.45800653232479,16.725826532277097],[29,50.45955612295946,16.727169005454243],[30,50.46125658464716,16.72709321221032],[31,50.46268802901407,16.72874956140265],[32,50.46419495658834,16.729904657579254],[33,50.46595962037004,16.729750631851857],[34,50.46730369295581,16.731034149892025],[35,50.46865331015438,16.730414067236325],[36,50.47044642379499,16.730291610151312],[37,50.46922783578978,16.731535149569027],[38,50.47074263534805,16.73169159795077],[39,50.47250997793984,16.731430592498782],[40,50.47412452076674,16.732637779374954],[41,50.47577335668955,16.733716323139106],]
podstawa=[[12,50.4530439088208,16.71149783400051],['start',50.4392300,16.6604000],['meta',50.4762800,16.7362100]]
daneflot=[[0.0,291.161],[0.2,298.559],[0.4,305.879],[0.6,309.979],[0.8,305.288],[1.0,305.884],[1.2,313.962],[1.4,316.384],[1.6,323.215],[1.8,329.639],[2.0,328.846],[2.2,332.070],[2.4,335.002],[2.6,339.881],[2.8,347.460],[3.0,350.490],[3.2,354.063],[3.4,357.242],[3.6,363.837],[3.8,373.971],[4.0,386.351],[4.2,385.958],[4.4,393.052],[4.6,392.790],[4.8,396.632],[5.0,398.918],[5.2,410.136],[5.4,419.639],[5.6,429.986],[5.8,441.204],[6.0,442.012],[6.2,455.359],[6.4,465.134],[6.6,467.520],[6.8,479.725],[7.0,505.819],[7.2,516.791],[7.4,517.729],[7.6,535.127],[7.8,555.811],[8.0,573.774],[8.2,588.789],[8.4,598.622],]