name=Przełęcz Karpnicka od Janowic
slope=1.8km 5.7%
points=111.8
region=5
description=Nawierzchnia: szosa. Ruch samochodowy: mały.
Na górze parking i ciekawe możliwości tras pieszych i rowerowych w lewo w stronę Wołka, w prawo do Schroniska Szwajcarka.
comments=
author=gavia2621
segment=0
locations=[[1,50.87139775395244,15.8858943210721],[2,50.87078932591452,15.884821719855836],[3,50.87015355374183,15.883819358775781],[4,50.86928320414637,15.883697503638132],[5,50.86837692270701,15.88387558740385],[6,50.86749636804244,15.884218759704936],[7,50.86661216858369,15.884537360905483],[8,50.86579270969942,15.883997167926736],[9,50.8650529753963,15.883187298086227],[10,50.86414603146636,15.88326644693575],[11,50.86341848857146,15.882622123726492],[12,50.86258169402804,15.882896162068391],[13,50.86263234617346,15.881924919188236],[14,50.86331920931003,15.88098383292413],[15,50.86364489135972,15.879910003657074],[16,50.86277769334782,15.8794505965393],[17,50.86190669728317,15.879371090148652],]
podstawa=[[14,50.86414603146636,15.88326644693575],['start',50.8720900,15.8868300],['meta',50.8610500,15.8796200]]
daneflot=[[0.0,375.218],[0.1,381.988],[0.2,389.981],[0.3,401.038],[0.4,414.784],[0.5,425.937],[0.6,430.755],[0.7,421.526],[0.8,416.172],[0.9,418.626],[1.0,425.260],[1.1,437.998],[1.2,449.386],[1.3,454.622],[1.4,455.198],[1.5,460.884],[1.6,471.735],[1.7,473.959],[1.8,478.814],]