name=Przełęcz Jaworowa od Lądka Zdrój
slope=7.4km 4.1%
points=195.4
region=13
description=Nawierzchnia: szosa, stan kiepski. Ruch samochodowy: średni.
Ten wariant podjazdu na Przełęcz Jaworową jest bardzo podobny do wariantu od Złotego Stoku. Jakość asfaltu również nie powala, jednak w przypadku tego podjazdu nachylenie wydaje się być bardziej równomiernie rozłożone na całym odcinku. Początkowy odcinek od miasta także jest wyłożony nowym asfaltem, do miejscowości Orłowiec.
comments=
author=Bartek Zając
segment=0
locations=[[1,50.35901658223823,16.849114472754195],[2,50.36080902009289,16.848844446510498],[3,50.36260453422819,16.848793508821586],[4,50.36437011197773,16.8493537770928],[5,50.3660985904674,16.850097042110974],[6,50.36789542601542,16.8499160431993],[7,50.36969023199657,16.8496728201402],[8,50.37145543625017,16.85018766774874],[9,50.37321078258557,16.850825120195168],[10,50.3749756279781,16.8513919770744],[11,50.37616519818311,16.849634801877528],[12,50.37787188867252,16.84876157674273],[13,50.37941367356333,16.84730815960836],[14,50.38074346994939,16.845423062691907],[15,50.3823352767134,16.844392612229512],[16,50.38405042736589,16.843532837318207],[17,50.38471262801757,16.842380656904197],[18,50.383019749365,16.841497466238707],[19,50.38126803741712,16.84103766370515],[20,50.38226442877714,16.84032456136265],[21,50.38402858521358,16.84031240004606],[22,50.38577936762955,16.839646379105716],[23,50.38755137792122,16.839505996765524],[24,50.38931256056276,16.840085616975898],[25,50.39109950753111,16.840442225662173],[26,50.39249413406668,16.841262401870154],[27,50.39355313984972,16.842866860166055],[28,50.3918200102999,16.84357873012891],[29,50.3902152605387,16.84470710949222],[30,50.39055110511229,16.84491565382416],[31,50.39231142679945,16.844763570060195],[32,50.39405888744321,16.845447578516087],[33,50.39577604832617,16.84492271277145],[34,50.39694910542256,16.842892184121865],[35,50.39860443072202,16.841879999999946],[36,50.39983090296162,16.843678138428913],]
podstawa=[[12,50.38126803741712,16.84103766370515],['start',50.3577800,16.8509400],['meta',50.4009100,16.8459100]]
daneflot=[[0.0,416.956],[0.2,425.882],[0.4,434.478],[0.6,439.058],[0.8,448.450],[1.0,457.880],[1.2,455.986],[1.4,454.177],[1.6,459.132],[1.8,463.278],[2.0,457.876],[2.2,456.157],[2.4,461.992],[2.6,478.743],[2.8,494.185],[3.0,508.474],[3.2,527.128],[3.4,534.786],[3.6,538.615],[3.8,546.573],[4.0,566.732],[4.2,573.378],[4.4,587.487],[4.6,596.534],[4.8,612.993],[5.0,625.882],[5.2,633.888],[5.4,647.251],[5.6,643.502],[5.8,650.550],[6.0,657.441],[6.2,667.549],[6.4,678.012],[6.6,691.731],[6.8,698.789],[7.0,715.681],[7.2,717.844],[7.4,723.539],]