name=Przełęcz Radimierska drogą główną
slope=3.2km 4.2%
points=69.2
region=4
description=Nawierzchnia: szosa. Ruch samochodowy: duży.
Szeroka droga o stabilnym na nachyleniu, nawierzchnia idealna dla roweru szosowego. Problem w tym że spory ruch bo to droga na Wrocław.
comments=
author=gavia2621
segment=0
locations=[[1,50.8998306921877,15.889987931736869],[2,50.90038857846812,15.892677050897646],[3,50.90094640297529,15.895366234494986],[4,50.90151321847714,15.898050717628507],[5,50.90207908826017,15.900735735809462],[6,50.9026387994443,15.903423985107679],[7,50.90327972945187,15.906058104792123],[8,50.90454736108331,15.907997360976765],[9,50.90595667298408,15.909720934678944],[10,50.90728318163557,15.911615905253711],[11,50.908576581342,15.913563378048366],[12,50.90945428087224,15.916011661417997],[13,50.91012511029437,15.91863560714296],[14,50.91075478656855,15.921283187580912],[15,50.91077572503364,15.924095433783805],]
podstawa=[[13,50.90595667298408,15.909720934678944],['start',50.8992500,15.8875600],['meta',50.9103900,15.9268600]]
daneflot=[[0.0,395.531],[0.2,397.472],[0.4,399.516],[0.6,403.267],[0.8,407.768],[1.0,415.176],[1.2,422.761],[1.4,434.902],[1.6,445.426],[1.8,456.150],[2.0,472.201],[2.2,485.760],[2.4,491.494],[2.6,498.898],[2.8,510.215],[3.0,523.108],[3.2,528.239],]