name=Przełęcz  Rząśnicka
slope=1.9km 5.2%
points=62.8
region=4
description=Nawierzchnia: szosa. Ruch samochodowy: niewielki.
Krótki kawałek  bez wypłaszczenia. Nowy asfalt.
comments=
author=Dodane przez użytkownika: gavia2621
segment=0
locations=[[1,51.01239779947423,15.775595488218869],[2,51.01194762179747,15.77428436409707],[3,51.01135764792382,15.773142753415641],[4,51.01050970034223,15.772509764652341],[5,51.00984033349751,15.771527611062766],[6,51.00975752770153,15.770045740677347],[7,51.00967788808032,15.7685588793139],[8,51.00901027352113,15.767632240408034],[9,51.00812201367835,15.767948656239469],[10,51.00734539122476,15.768790003654885],[11,51.00655506317741,15.769597297053906],[12,51.00599425711535,15.770642492036814],[13,51.00558360028512,15.771459800277626],[14,51.00529216766095,15.770061845370606],[15,51.00514276179559,15.76860346990452],[16,51.00523762257458,15.767117428322535],[17,51.00531995344615,15.76563461807848],[18,51.00490722948125,15.76429372181542],]
podstawa=[[14,51.00734539122476,15.768790003654885],['start',51.0131800,15.7763000],['meta',51.0044600,15.7629800]]
daneflot=[[0.0,362.196],[0.1,365.020],[0.2,366.867],[0.3,370.629],[0.4,376.590],[0.5,382.749],[0.6,386.108],[0.7,392.262],[0.8,400.165],[0.9,407.642],[1.0,416.254],[1.1,421.550],[1.2,427.043],[1.3,430.643],[1.4,439.119],[1.5,446.253],[1.6,452.862],[1.7,455.864],[1.8,461.923],[1.9,463.256],]