name=Przełęcz Walimska od Pieszyc
slope=9.4km 4.9%
points=313.6
region=8
description=Nawierzchnia: szosa. Ruch samochodowy: średni.
To najcięższa wersja podjazdu pod Przełęcz walimską. Dość malownicza krajobrazowo, po drodze bardzo efektowna skała przy szosie. Nawierzchnia średnia. Samochodów po drodze kilka się trafi, ale nie jest to bardzo duży ruch.
comments=
author=rafar
segment=0
locations=[[1,50.71258800213202,16.578430914944192],[2,50.71238137214604,16.575765311454234],[3,50.712583165415,16.572968888666765],[4,50.71212242916356,16.570235317263155],[5,50.71162239587341,16.567524656563023],[6,50.71126386658906,16.56475729755425],[7,50.71068098888163,16.562098505671656],[8,50.71064112352542,16.55926758696114],[9,50.71091504608908,16.556551230814534],[10,50.71022448507949,16.553932582658263],[11,50.70950271730486,16.551335650547003],[12,50.70890724044105,16.54872817359967],[13,50.70830676012261,16.546061347861496],[14,50.70783434158232,16.543335851488905],[15,50.70718163654185,16.54072458988651],[16,50.70630034752219,16.538308278535283],[17,50.70514832743823,16.536137633753242],[18,50.70394582546637,16.53403565061126],[19,50.70366813518525,16.531416070121395],[20,50.70420663768265,16.528798218860175],[21,50.70528997656723,16.526595031710485],[22,50.70510385387211,16.524498975575852],[23,50.70362510281807,16.525754375150086],[24,50.70336000158948,16.524118378341996],[25,50.70445263266891,16.522498442484107],[26,50.70506241585164,16.51984613276113],[27,50.70518248180188,16.517022737876914],[28,50.70526922213026,16.51422217319407],[29,50.70452890906468,16.512276727182552],[30,50.70351725722846,16.5105447618854],[31,50.70360651976338,16.508010984085786],[32,50.70298663294918,16.506428725970522],[33,50.70172814055573,16.5045998292602],[34,50.70089415735007,16.5021005574564],[35,50.69993329658712,16.499715179849204],[36,50.69849605161323,16.49807210201709],[37,50.69769865279513,16.496012840193544],[38,50.69923854267804,16.497226988410603],[39,50.70046125710586,16.49778314207697],[40,50.69921347185135,16.495746701230473],[41,50.69806880698505,16.493579064077494],[42,50.69704099887674,16.491269770977624],[43,50.69640672624666,16.488659145879183],[44,50.6965401572182,16.485882562284928],[45,50.6972640736271,16.483345478434785],[46,50.69668116557141,16.480692081602],]
podstawa=[[12,50.70336000158948,16.524118378341996],['start',50.7119600,16.5807700],['meta',50.6964100,16.4779600]]
daneflot=[[0.0,299.534],[0.2,302.910],[0.4,307.309],[0.6,312.999],[0.8,317.809],[1.0,321.618],[1.2,328.017],[1.4,334.370],[1.6,337.968],[1.8,341.474],[2.0,353.060],[2.2,363.062],[2.4,365.696],[2.6,373.458],[2.8,381.354],[3.0,390.498],[3.2,392.002],[3.4,396.885],[3.6,404.773],[3.8,416.364],[4.0,435.615],[4.2,445.543],[4.4,450.487],[4.6,464.599],[4.8,479.213],[5.0,478.168],[5.2,500.210],[5.4,520.562],[5.6,531.407],[5.8,560.120],[6.0,573.588],[6.2,584.029],[6.4,589.493],[6.6,606.141],[6.8,617.367],[7.0,624.467],[7.2,635.801],[7.4,647.863],[7.6,646.522],[7.8,655.204],[8.0,663.480],[8.2,676.374],[8.4,687.258],[8.6,706.664],[8.8,725.411],[9.0,731.386],[9.2,747.708],[9.4,759.722],]