name=Sedlo Priehyba  (Słowacja)
slope=15.0km 3.0%
points=267.4
region=25
description=Nawierzchnia: szosa, stan dobry. Ruch samochodowy: minimalny.
Trasa zamknięta dla samochodów. Po drodze można tylko spotkać służbę leśną. Wspaniały asfalt na całej długości i przejazd na drugą stronę również asfaltem. Dobra alternatywa dla Certovicy.
comments=
author=m83mariusz
segment=0
locations=[[1,49.00862714845893,19.947059350481936],[2,49.00703453752134,19.948155538144647],[3,49.00574880823777,19.949901248519268],[4,49.00445237604971,19.95165049121715],[5,49.00287785410752,19.952885616201797],[6,49.00156953687632,19.954636365026772],[7,49.0001300840091,19.955980850009723],[8,48.99864916863731,19.95736976461933],[9,48.99706747013016,19.95858473107694],[10,48.99558527963979,19.960089380875388],[11,48.99417820357311,19.96175446498455],[12,48.99279777282045,19.9634703907592],[13,48.99133314178889,19.964973095255914],[14,48.98983840581842,19.96644707790415],[15,48.98851099813161,19.96821730751651],[16,48.98752755298798,19.970260135114017],[17,48.98625269635291,19.972094738241935],[18,48.98458751799752,19.97302886195098],[19,48.98294916924576,19.974013601495244],[20,48.98129571357178,19.97480065955699],[21,48.97953070093571,19.975019797165487],[22,48.97788931263243,19.976068550380887],[23,48.97628730908834,19.977221741184508],[24,48.97487639953854,19.978694401232133],[25,48.97346030953988,19.980322342556292],[26,48.97191176191923,19.981231727535032],[27,48.97015649439243,19.980833831488326],[28,48.9684034419861,19.98075914976812],[29,48.96677589286174,19.97981452370732],[30,48.96529089320054,19.97843316142348],[31,48.96360366565119,19.9776774329589],[32,48.96230302292568,19.97583008955121],[33,48.96118784948548,19.973770075421385],[34,48.96030243544449,19.9714244514729],[35,48.95935717737041,19.96912477074852],[36,48.95843822158522,19.966800561090622],[37,48.95757654675582,19.96442935150253],[38,48.95657073368188,19.962213242926055],[39,48.95606650553337,19.95961430183354],[40,48.95532603170357,19.95722253944291],[41,48.95391121171583,19.955609892717575],[42,48.95246522765925,19.95404161002989],[43,48.95136614829246,19.95192744375754],[44,48.94982786896671,19.95118580903454],[45,48.94806847026314,19.95123136628831],[46,48.94741603090422,19.948958824650617],[47,48.94619080465621,19.94704959500416],[48,48.94472571019734,19.945559500169793],[49,48.94316401308343,19.944325862434084],[50,48.94157213580181,19.94312013453441],[51,48.94001547855407,19.94180572901496],[52,48.93858947766619,19.940183934848278],[53,48.9372273836581,19.938437254963105],[54,48.93582164762245,19.93678979263109],[55,48.93421253083534,19.93563751024044],[56,48.932470336866,19.935898854811967],[57,48.9307882506511,19.93663300694743],[58,48.92901278909951,19.936755664507928],[59,48.92726724918845,19.93716992578345],[60,48.92575690188876,19.938592328722052],[61,48.924209614661,19.93991502657218],[62,48.92262343776794,19.941086827955132],[63,48.9209608673702,19.942051160753635],[64,48.91922223357386,19.942568171323842],[65,48.91781770116908,19.94412370922703],[66,48.9168382190013,19.94636570039188],[67,48.91547333594376,19.948096619970784],[68,48.91472616803396,19.950231603811176],[69,48.91594169585897,19.952041186631277],[70,48.91496737696905,19.9522973767979],[71,48.91360340907089,19.95123710067878],[72,48.91206673433389,19.952593727453518],[73,48.91038592141356,19.953470176838323],[74,48.90872875124685,19.954441903991437],]
podstawa=[[11,48.961,19.962213242926055],['start',49.0099000,19.9451600],['meta',48.9072600,19.9553200]]
daneflot=[[0.0,745.063],[0.2,747.145],[0.4,758.198],[0.6,769.625],[0.8,779.690],[1.0,785.175],[1.2,789.267],[1.4,790.579],[1.6,794.807],[1.8,805.720],[2.0,804.278],[2.2,802.689],[2.4,804.338],[2.6,808.124],[2.8,811.033],[3.0,812.505],[3.2,802.516],[3.4,796.772],[3.6,802.656],[3.8,810.887],[4.0,815.089],[4.2,824.92],[4.4,836.176],[4.6,837.958],[4.8,838.165],[5.0,845.18],[5.2,848.293],[5.4,847.931],[5.6,844.804],[5.8,854.262],[6.0,857.253],[6.2,853.887],[6.4,856.669],[6.6,864.841],[6.8,869.871],[7.0,867.341],[7.2,864.937],[7.4,869.055],[7.6,867.043],[7.8,871.848],[8.0,878.778],[8.2,892.918],[8.4,896.355],[8.6,898.519],[8.8,895.652],[9.0,899.739],[9.2,907.494],[9.4,919.919],[9.6,925.097],[9.8,924.320],[10.0,923.641],[10.2,926.940],[10.4,930.965],[10.6,936.402],[10.8,937.515],[11.0,944.206],[11.2,949.597],[11.4,954.988],[11.6,961.960],[11.8,974.134],[12.0,986.637],[12.2,992.497],[12.4,1002.640],[12.6,1016.770],[12.8,1030.012],[13.0,1041.562],[13.2,1057.310],[13.4,1072.043],[13.6,1093.098],[13.8,1108.75],[14.0,1118.952],[14.2,1128.232],[14.4,1142.157],[14.6,1162.531],[14.8,1184.195],[15.0,1189.535],]