name=Przełęcz Przy Słopce od Żubracze
slope=2.5km 5.0%
points=98
region=35
description=Nawierzchnia: szosa, stan dobry. Ruch samochodowy: minimalny.
Fajny podjazd z dwoma serpentynami.
comments=
author=Lionheart33
segment=0
locations=[[1,49.20805487178824,22.2640750149867],[2,49.20730796560937,22.26333504507852],[3,49.20664975875676,22.262437324154916],[4,49.20641517071673,22.261121698733405],[5,49.20628875084437,22.259763548343585],[6,49.2063544213725,22.258401092606846],[7,49.20652286427904,22.257053612401705],[8,49.20668084911829,22.255703126891717],[9,49.20684083130344,22.25435319614428],[10,49.20702646837006,22.253011591149402],[11,49.20732588848018,22.251723510380316],[12,49.2078628240207,22.250637651266743],[13,49.20856055208138,22.249779304386834],[14,49.20921802882634,22.248854555553862],[15,49.20960015443188,22.247628764570663],[16,49.20970206829455,22.246268353498863],[17,49.20972025767551,22.2448977760489],[18,49.20945489456705,22.243608954798447],[19,49.20879587300607,22.242707977940654],[20,49.20826088631197,22.24173202388465],[21,49.20893884246325,22.24124230437326],[22,49.20950048331068,22.242300485330134],[23,49.21016742257255,22.24306781220605],[24,49.21052765474922,22.241929731922028],]
podstawa=[[14,49.20856055208138,22.249779304386834],['start',49.2085900,22.2651700],['meta',49.2105800,22.2405600]]
daneflot=[[0.0,625.408],[0.1,626.593],[0.2,628.891],[0.3,630.127],[0.4,633.253],[0.5,636.147],[0.6,640.742],[0.7,645.835],[0.8,655.545],[0.9,664.294],[1.0,669.509],[1.1,674.470],[1.2,675.958],[1.3,681.276],[1.4,684.819],[1.5,692.333],[1.6,702.532],[1.7,712.353],[1.8,718.150],[1.9,721.185],[2.0,731.399],[2.1,740.366],[2.2,732.131],[2.3,731.667],[2.4,742.267],[2.5,751.066],]