name=Młada Hora
slope=6.4km 4.3%
points=181.5
region=17
description=Nawierzchnia: szosa, stan bardzo dobry, poza gorszym fragmentem ok. 1 km. Ruch samochodowy: minimalny.
Miły i łagodny podjazd pod przełęcz Mlada Hora doliną Danielki, od wschodniej strony. Asfalt do sioła pod przełęczą. Na samą przełęcz możliwy wjazd rowerem MTB lub podejście po kamienisto-błotnej, stromej drodze, ok. 150 m.
comments=
author=Dasior
segment=0
locations=[[1,49.48046304137539,19.133426081879634],[2,49.47915033123624,19.131594780055593],[3,49.47764107589784,19.130201283714086],[4,49.47644025734305,19.12827336401574],[5,49.47486225365209,19.127053025865962],[6,49.47348262027896,19.12527721985441],[7,49.47247484848833,19.12299421364878],[8,49.47162628123182,19.12056236419437],[9,49.47108104344276,19.117938734510517],[10,49.47070206505315,19.11523184158932],[11,49.47008856313949,19.11267255755297],[12,49.46984869847831,19.109928317815843],[13,49.46989283532815,19.107299768897064],[14,49.47009106974784,19.104816979739553],[15,49.46947886302983,19.102239883873608],[16,49.46935944746585,19.099491243122884],[17,49.46878198036412,19.09686880250979],[18,49.46812373543269,19.094314821267744],[19,49.46692833670934,19.092254518860045],[20,49.46530976374825,19.091285698834668],[21,49.46363062950522,19.090503032664174],[22,49.46188801865966,19.089843389187536],[23,49.46014321435945,19.089411945180245],[24,49.45836208393413,19.08980536509182],[25,49.45666540052349,19.09066605684893],[26,49.45495761189861,19.091353499636966],[27,49.45316685234602,19.09154295142605],[28,49.45138563959596,19.091778873972203],[29,49.44983084421483,19.09054348325219],[30,49.44815417188875,19.091381366620226],[31,49.44644572676054,19.092119581174984],]
podstawa=[[12,49.46878198036412,19.09686880250979],['start',49.4815000,19.1356200],['meta',49.4448800,19.0934700]]
daneflot=[[0.0,547.020],[0.2,555.968],[0.4,565.281],[0.6,573.216],[0.8,593.460],[1.0,594.472],[1.2,598.792],[1.4,613.136],[1.6,617.739],[1.8,619.305],[2.0,626.687],[2.2,638.517],[2.4,641.109],[2.6,638.627],[2.8,653.627],[3.0,670.098],[3.2,666.669],[3.4,670.056],[3.6,676.587],[3.8,688.835],[4.0,687.247],[4.2,698.739],[4.4,709.591],[4.6,722.510],[4.8,730.614],[5.0,748.194],[5.2,764.394],[5.4,781.758],[5.6,800.336],[5.8,802.900],[6.0,806.975],[6.2,815.508],[6.4,821.735],]