name=Mangartsko Sedlo   (Słowenia)
slope=16.8km 8.7%
points=1375.9
region=109
description=Nawierzchnia: szosa, stan dobry. Ruch samochodowy: mały.
Podjazd właściwy zaczyna sie w wiosce Log pod Mangartem. Trasa bardzo widokowa. Po kilku kilometrach można nabrać wody ze źródła. Wjazd dla samochodów płatny . Rowerzyści wjeżdżają za free. Droga prowadzi przez kilka tuneli i warto mieć oświetlenie. W końcowym odcinku kozice zrzucaja kamienie na jezdnie wiec trzeba uważać. Widoki z przełęczy są obłędne i warto tam pobyć conajmniej godzinke a jak zapakujemy buty górskie to mozemy zaatakować szczyt Mangart na który prowadzi 2-godzinny szlak.
Opis dodany przez użytkownika: m83mariusz
comments=
author=???
segment=0
locations=[[1,46.4031729269199,13.599109365075606],[2,46.40450218094524,13.60079066007279],[3,46.40568046039368,13.602686107184127],[4,46.40732154434625,13.603441314115003],[5,46.40822284046092,13.605324322780916],[6,46.40985444226911,13.606263331810624],[7,46.41069613178343,13.608546577836478],[8,46.41155249334209,13.610810457331581],[9,46.41225336682771,13.613190098763994],[10,46.41293938298622,13.615604640185893],[11,46.41344382313737,13.618097737822382],[12,46.41445973115338,13.620233145568818],[13,46.41570645024895,13.622097521747264],[14,46.41672439807262,13.624066714767082],[15,46.41738702505567,13.62435446268637],[16,46.41688593118621,13.622307339946246],[17,46.41635000022907,13.61985169419654],[18,46.41559029628339,13.617678678493576],[19,46.41500955407088,13.615205835907204],[20,46.41570155645835,13.612913790997823],[21,46.4155329657899,13.61074461153055],[22,46.4165968096934,13.609671440792113],[23,46.41784577261019,13.608062932336338],[24,46.41897734240345,13.606054176181942],[25,46.41983479972634,13.60376160785927],[26,46.4206028350104,13.601399387773426],[27,46.42072897729297,13.598977119983033],[28,46.42158273722896,13.596681516351623],[29,46.42279938297099,13.594789104064034],[30,46.42403150671053,13.59415068008036],[31,46.424672232042,13.596289568079555],[32,46.4256704660134,13.598397176777894],[33,46.42449269114383,13.598004484164449],[34,46.42494917202965,13.599004713387785],[35,46.42552748123447,13.601461655463709],[36,46.42599814294632,13.603976823989228],[37,46.42690034233564,13.606174478409343],[38,46.42797425971438,13.608176297292857],[39,46.4290256307439,13.610232296219351],[40,46.42946836504279,13.612741162785142],[41,46.43025830332771,13.615085877785532],[42,46.42976785425378,13.615333287430303],[43,46.42851407851056,13.613458153341412],[44,46.42803656491837,13.61310047618781],[45,46.42889145621436,13.615400358213492],[46,46.42967015549747,13.617558824761204],[47,46.43020839777297,13.619725627615594],[48,46.43142395682394,13.62164364653836],[49,46.43155712264377,13.623508710980786],[50,46.4329207403869,13.624497988791518],[51,46.43459879909284,13.624810662464824],[52,46.43539311719112,13.624617620305116],[53,46.43406680132752,13.626325793044884],[54,46.43298184936956,13.628117710924585],[55,46.43328124047968,13.627823542170177],[56,46.43255850841709,13.626021050084091],[57,46.43383313464271,13.62769298495607],[58,46.43464164247794,13.628320272589463],[59,46.43524249834923,13.626046142478799],[60,46.43695989169876,13.626087631635755],[61,46.43540747002717,13.626751405545406],[62,46.43655793228043,13.627183266753264],[63,46.43806922187287,13.626382062215953],[64,46.43710464078556,13.628067586803127],[65,46.43726438128927,13.628656483087525],[66,46.43866652493872,13.627623688788162],[67,46.43813799687545,13.629254094561588],[68,46.43825977547164,13.631251736813965],[69,46.43827919707628,13.633731501429224],[70,46.43868572042029,13.636270100163074],[71,46.43825991793841,13.638451660366627],[72,46.43676205364157,13.639554331546151],[73,46.43555897364796,13.639129902764921],[74,46.43440655960887,13.639856928937093],[75,46.43539527326567,13.64192834165624],[76,46.4367236658498,13.643601140981218],[77,46.43836590715586,13.64331768977263],[78,46.44002131405276,13.643002828365752],[79,46.44168681103448,13.64256689791091],[80,46.44337320140525,13.643458044419958],[81,46.44434868474857,13.645552006580488],[82,46.44456684743369,13.646107741299375],[83,46.44417280755339,13.64358765830275],]
podstawa=[[12,46.42851407851056,13.613458153341412],['start',46.4016800,13.5976500],['meta',46.4439300,13.6413000]]
daneflot=[[0.0,606.085],[0.2,611.637],[0.4,625.285],[0.6,641.463],[0.8,659.906],[1.0,678.334],[1.2,692.067],[1.4,710.648],[1.6,724.243],[1.8,734.506],[2.0,752.299],[2.2,773.639],[2.4,788.139],[2.6,804.783],[2.8,821.261],[3.0,842.256],[3.2,859.566],[3.4,881.147],[3.6,899.928],[3.8,923.589],[4.0,943.387],[4.2,955.897],[4.4,967.620],[4.6,984.697],[4.8,1000.453],[5.0,1019.909],[5.2,1034.683],[5.4,1056.375],[5.6,1075.379],[5.8,1084.840],[6.0,1101.318],[6.2,1126.316],[6.4,1147.419],[6.6,1173.109],[6.8,1196.374],[7.0,1221.878],[7.2,1254.094],[7.4,1275.391],[7.6,1288.620],[7.8,1299.779],[8.0,1313.611],[8.2,1335.344],[8.4,1351.315],[8.6,1365.683],[8.8,1381.989],[9.0,1401.167],[9.2,1407.432],[9.4,1428.327],[9.6,1452.409],[9.8,1471.019],[10.0,1488.715],[10.2,1513.408],[10.4,1535.665],[10.6,1545.644],[10.8,1551.624],[11.0,1559.332],[11.2,1566.459],[11.4,1584.778],[11.6,1603.944],[11.8,1614.985],[12.0,1631.384],[12.2,1640.740],[12.4,1657.611],[12.6,1679.748],[12.8,1694.932],[13.0,1718.053],[13.2,1736.047],[13.4,1754.849],[13.6,1778.923],[13.8,1798.810],[14.0,1819.294],[14.2,1836.598],[14.4,1850.121],[14.6,1869.334],[14.8,1891.310],[15.0,1911.314],[15.2,1933.799],[15.4,1953.600],[15.6,1962.800],[15.8,1986.281],[16.0,2006.839],[16.2,2030.403],[16.4,2044.386],[16.6,2052.784],[16.8,2059.336],]