name=Przełęcz pod Tułem z Cisownicy
slope=5.2km 4.8%
points=192.8
region=16
description=Nawierzchnia: szosa, stan dobry. Ruch samochodowy: znikomy.
Na szczycie bardzo ładne widoki na północ.
comments=
author=?
segment=0
locations=[[1,49.72737440488008,18.761733401103584],[2,49.72558346379389,18.761772842507753],[3,49.72379256369441,18.761816523759194],[4,49.72201205924733,18.76202953782797],[5,49.72027923241022,18.76248456809958],[6,49.71854608245743,18.762525408432907],[7,49.71698674471845,18.76120006674614],[8,49.71608047280274,18.75888560009014],[9,49.7145930290979,18.7573951197337],[10,49.71312591774872,18.755964535888552],[11,49.71173221712056,18.7543951366373],[12,49.71006369535229,18.7535468476392],[13,49.70838429281728,18.75267650693172],[14,49.70688605895311,18.751301593658354],[15,49.70526215472456,18.75024637893648],[16,49.70349938637172,18.750579962098527],[17,49.70194896872208,18.751489551500413],[18,49.70213320373956,18.753875226065702],[19,49.70249000031757,18.756511817161936],[20,49.70168778568676,18.758805782099103],[21,49.69993873383692,18.759236972407393],[22,49.69820977700252,18.758847168781813],[23,49.69657071987962,18.759758120119045],[24,49.69485518954916,18.760089347363987],[25,49.69327242054576,18.75903362894269],]
podstawa=[[12,49.70688605895311,18.751301593658354],['start',49.7290200,18.7622800],['meta',49.6919800,18.7595200]]
daneflot=[[0.0,354.416],[0.2,358.017],[0.4,363.611],[0.6,372.392],[0.8,381.516],[1.0,383.745],[1.2,382.454],[1.4,388.315],[1.6,391.648],[1.8,398.768],[2.0,404.418],[2.2,410.301],[2.4,421.755],[2.6,426.521],[2.8,434.752],[3.0,441.990],[3.2,449.598],[3.4,455.032],[3.6,491.111],[3.8,502.578],[4.0,507.205],[4.2,529.892],[4.4,551.221],[4.6,562.309],[4.8,573.115],[5.0,581.966],[5.2,601.855],]