name=Przełęcz Sulistrowicka  Od Księgnic
slope=3.0km 3.7%
points=49.4
region=9
description=Nawierzchnia: szosa, stan średni, trochę dziur w końcówce. Ruch samochodowy: prawie żaden.
Bardzo przyjemny, spokojny podjazd  na mało znaną przełęcz Sulistrowicką. W Przemiłowie można sobie skrócić podjazd, ulicą wiosenną, ale trzeba się przygotować na chwilę walki z podjazdem terenowym. Ogólnie szosą łatwiej, terenem trudniej.
comments=
author=???
segment=0
locations=[[1,50.86258571569872,16.774566306017732],[2,50.8608113903358,16.774483788677117],[3,50.85906228679756,16.77487109618994],[4,50.85731029234254,16.77532386688904],[5,50.85554841676543,16.775720198889985],[6,50.85380682474484,16.77624792002655],[7,50.85337316851644,16.778897822886393],[8,50.85289858797554,16.78161445766773],[9,50.85159635880203,16.78230972160179],[10,50.8501604262885,16.78066054742942],[11,50.84917796598383,16.77840636555584],[12,50.84795810509403,16.776570223667818],[13,50.84629904958456,16.77554908700324],[14,50.84455499927577,16.77504102530702],]
podstawa=[[13,50.85289858797554,16.78161445766773],['start',50.8637500,16.7734400],['meta',50.8427800,16.7748600]]
daneflot=[[0.0,180.732],[0.2,185.438],[0.4,189.635],[0.6,196.543],[0.8,204.857],[1.0,212.033],[1.2,220.469],[1.4,226.695],[1.6,238.190],[1.8,249.006],[2.0,263.402],[2.2,263.956],[2.4,272.201],[2.6,277.357],[2.8,283.711],[3.0,292.518],]