name=Przełęcz Tąpadła od Wiry
slope=4.0km 4.2%
points=93.2
region=9
description=Nawierzchnia: szosa. Ruch samochodowy: niewielki.
Przełęcz Tąpadła to droga między Ślężą i Radunią. Można na nią wjechać od trzech stron drogą asfaltową. Na przełęczy jest parking, w niedzielę często zatłoczony turystami z Wrocławia idącymi na Ślężę. Od Wiry prawie cały czas pod górę. W miejscowości Tąpadła ładne widoki, póżniej już las i 2 kilometry z ponad 5% nachyleniem na przełęcz.
comments=
author=???
segment=0
locations=[[1,50.83684613389551,16.65438239939226],[2,50.83662363827348,16.65722186392577],[3,50.83650804143312,16.660070891651344],[4,50.83652719740625,16.662930645113875],[5,50.83665934228735,16.66577591952114],[6,50.83624461136088,16.668560252375414],[7,50.83612850043283,16.67139577889884],[8,50.83655483263748,16.67414917514725],[9,50.83676953961774,16.676979257001904],[10,50.83792166749439,16.67834039741865],[11,50.83969610675872,16.678882746609816],[12,50.84112013127283,16.68051036342274],[13,50.84066265233035,16.6830453130666],[14,50.84114909787343,16.68575183881262],[15,50.84252487883944,16.687570331705842],[16,50.84395151869586,16.689312530473217],[17,50.84455403254623,16.691991517992278],[18,50.84452948481914,16.69479968929113],[19,50.84524841373477,16.69741077653464],]
podstawa=[[13,50.8418282199281,16.679563522338867],['start',50.8370500,16.6515600],['meta',50.8460700,16.6999600]]
daneflot=[[0.0,217.665],[0.2,224.405],[0.4,236.911],[0.6,248.930],[0.8,252.941],[1.0,253.690],[1.2,262.234],[1.4,264.641],[1.6,268.396],[1.8,273.611],[2.0,278.403],[2.2,286.115],[2.4,291.950],[2.6,302.647],[2.8,319.309],[3.0,335.639],[3.2,351.619],[3.4,363.952],[3.6,372.559],[3.8,375.783],[4.0,386.133],]