name=Zimna Przełęcz od Kromnowa
slope=2.2km 4.5%
points=54.7
region=3
description=Nawierzchnia: szosa, stan bardzo dobry. Ruch samochodowy: niewielki.
Krótki kawałek. Odnowiona szeroka nawierzchnia.
Uwaga na psy.
comments=
author=gavia2621
segment=0
locations=[[1,50.89460669843382,15.581331947719832],[2,50.89393554706171,15.5823186076625],[3,50.89325988707036,15.583292849652253],[4,50.89267500117481,15.5844118753771],[5,50.89188268405732,15.585088658338464],[6,50.89097328605117,15.5851366785123],[7,50.89008025159312,15.585422791719566],[8,50.88916543645186,15.585317078562298],[9,50.88848052977552,15.584585802386187],[10,50.88784859423509,15.583627779496169],[11,50.88724775935827,15.582548608232855],[12,50.88644963149243,15.582755783217067],[13,50.88592582322073,15.583891973484924],[14,50.88512894370465,15.58460898897863],[15,50.88441761930702,15.58552183651534],[16,50.88352601557247,15.5857096168221],[17,50.88265494575233,15.58527866269651],[18,50.8819368025497,15.584391364607654],[19,50.88128270478453,15.58416155364364],[20,50.88059397797948,15.585045190179585],[21,50.87977883416925,15.585711032732206],]
podstawa=[[14,50.88644963149243,15.582755783217067],['start',50.8954000,15.5806100],['meta',50.8789400,15.5863000]]
daneflot=[[0.0,424.549],[0.1,426.798],[0.2,430.533],[0.3,435.968],[0.4,439.103],[0.5,440.123],[0.6,443.120],[0.7,445.064],[0.8,450.080],[0.9,454.829],[1.0,460.150],[1.1,467.922],[1.2,474.240],[1.3,481.059],[1.4,488.565],[1.5,493.016],[1.6,499.310],[1.7,503.758],[1.8,508.603],[1.9,513.648],[2.0,520.556],[2.1,525.240],[2.2,525.803],]