name=Przełęcz Glisne od Mszany Dolnej
slope=4.6km 5.4%
points=219.3
region=29
description=Nawierzchnia: szosa, stan dobry. Ruch samochodowy: minimalny.
Trzecia alternatywna droga na Glilsne. Płasko następnie bardzo ostro w górę. Minimalnie, wręcz nie zauważalnie w dół i od połowy drogi po minięciu cmentarza cały czas pod górę.
comments=
author=Lektorek
segment=0
locations=[[1,49.67228955401963,20.05996529591198],[2,49.67168606640352,20.057430201267948],[3,49.67142964138959,20.05474529698347],[4,49.67125618771615,20.052121903382044],[5,49.67129254554239,20.049419952501466],[6,49.67139574095945,20.04684302312546],[7,49.67205358859067,20.044424699396586],[8,49.67232372439667,20.041814971661097],[9,49.67249687835019,20.039228602953017],[10,49.67127415783199,20.037267257377266],[11,49.67044909456105,20.035014335399865],[12,49.66978932463189,20.03253382261562],[13,49.66911914822929,20.030030261670845],[14,49.66865953622043,20.027406592294938],[15,49.66797644591678,20.02491571889891],[16,49.66691481677893,20.02279780191111],[17,49.66531938446805,20.021656829979406],[18,49.66455577438149,20.0195202757086],[19,49.66448709912805,20.016803059072004],[20,49.66426036289194,20.01412588498954],[21,49.66446132678156,20.011423826169903],[22,49.66521246210542,20.009033893068704],]
podstawa=[[13,49.66978932463189,20.03253382261562],['start',49.6730900,20.0618900],['meta',49.6660800,20.0069800]]
daneflot=[[0.0,382.578],[0.2,385.043],[0.4,391.797],[0.6,402.751],[0.8,429.798],[1.0,442.805],[1.2,469.155],[1.4,490.558],[1.6,496.789],[1.8,504.417],[2.0,508.074],[2.2,505.770],[2.4,502.529],[2.6,508.910],[2.8,528.011],[3.0,545.225],[3.2,555.830],[3.4,549.780],[3.6,551.494],[3.8,577.241],[4.0,591.412],[4.2,609.673],[4.4,623.878],[4.6,631.687],]