name=Przełęcz Ostra od Kamienicy
slope=9.6km 3.8%
points=189.5
region=29
description=Nawierzchnia: szosa, stan dobry. Ruch samochodowy: średni.
Dwuczęściowy podjazd udostępniający przełącz Ostrą od strony doliny Kamienicy. Po minięciu przełęczy - znakomite zjazdy.
comments=
author=shaggles
segment=0
locations=[[1,49.57731041032069,20.348791822087264],[2,49.57892957394795,20.34999633607265],[3,49.58043100882259,20.351547957914704],[4,49.58189345962359,20.353185822142564],[5,49.58363604390948,20.35335020419234],[6,49.58540071077112,20.352739767100047],[7,49.58716657866648,20.352136858285462],[8,49.58893099122204,20.35152389887162],[9,49.59069363756873,20.350899020244356],[10,49.59245978439439,20.350297933209617],[11,49.5942376082419,20.34992815787018],[12,49.59598007365944,20.350664163770716],[13,49.59761489376608,20.35180970643512],[14,49.59925974622615,20.352746867034853],[15,49.60098112244569,20.352170568078122],[16,49.60251275600141,20.350736905469148],[17,49.60389781988378,20.349156737986846],[18,49.60553955882801,20.349197975696597],[19,49.60720744486859,20.348583781350726],[20,49.60898785563803,20.34906829954707],[21,49.61065683897789,20.349625852082],[22,49.61215632113098,20.348141427172777],[23,49.61383334263048,20.348164562298393],[24,49.61560373106021,20.34853606207605],[25,49.61721909145251,20.34730380574399],[26,49.61886380452739,20.34617161925189],[27,49.6204380645654,20.345778181130186],[28,49.62210628902087,20.34662163381597],[29,49.62389296920104,20.346998646061593],[30,49.6254463403572,20.34839159399587],[31,49.62661667903194,20.350489541744082],[32,49.62754373821581,20.35288645970809],[33,49.62852602943033,20.35521481431647],[34,49.62978951914246,20.357209037986877],[35,49.63039448756975,20.359811218732148],[36,49.63170731452306,20.361724228422418],[37,49.6328642297414,20.363852901410496],[38,49.63326565709911,20.36642223450042],[39,49.63308397347139,20.369195075974858],[40,49.63378345643958,20.371748393179246],[41,49.63397079906322,20.37450556422266],[42,49.63492482552669,20.37663039294614],[43,49.63662813367488,20.37756922069798],[44,49.63806087711942,20.37924069343967],[45,49.63909231785323,20.38153096666099],[46,49.64023366188159,20.383696776303395],[47,49.64142791671149,20.385780509396],]
podstawa=[[12,49.61721909145251,20.34730380574399],['start',49.5757500,20.3474400],['meta',49.6430400,20.3870200]]
daneflot=[[0.0,443.119],[0.2,452.776],[0.4,459.800],[0.6,462.648],[0.8,466.095],[1.0,476.590],[1.2,485.667],[1.4,491.598],[1.6,496.291],[1.8,504.220],[2.0,510.493],[2.2,518.643],[2.4,527.125],[2.6,534.990],[2.8,543.743],[3.0,552.653],[3.2,563.513],[3.4,573.598],[3.6,585.435],[3.8,593.357],[4.0,594.703],[4.2,597.091],[4.4,596.036],[4.6,605.534],[4.8,606.016],[5.0,615.074],[5.2,620.996],[5.4,623.375],[5.6,628.127],[5.8,643.817],[6.0,648.255],[6.2,652.896],[6.4,660.496],[6.6,665.162],[6.8,679.740],[7.0,692.571],[7.2,700.644],[7.4,698.954],[7.6,708.192],[7.8,719.669],[8.0,737.177],[8.2,746.978],[8.4,755.068],[8.6,774.047],[8.8,788.341],[9.0,792.244],[9.2,805.236],[9.4,809.757],[9.6,811.933],]