name=Przełęcz Targanicka z Targanic
slope=1.9km 7.1%
points=133.2
region=21
description=Nawierzchnia: szosa, stan dobry. Ruch samochodowy: mały.
Wąska droga i zdradliwy zjazd na ładną widokowo niewielką przełęcz.
comments=
author=turdus23
segment=0
locations=[[1,49.80543567475052,19.322639026564616],[2,49.80511359957611,19.32137237742927],[3,49.80479151059734,19.32010574514834],[4,49.80446940781456,19.318839129722164],[5,49.80414729122809,19.317572531151086],[6,49.80382516083828,19.316305949435446],[7,49.80348418111833,19.315052090024665],[8,49.80310530603807,19.313823802309116],[9,49.80288243456116,19.312517733366803],[10,49.80262848021833,19.311234958231807],[11,49.80220334953245,19.31005023762623],[12,49.80201832095999,19.308719441715652],[13,49.801960002999,19.307367745325223],[14,49.80175631377652,19.30609380652902],[15,49.80160000137741,19.30479955421106],[16,49.80132402830216,19.30353408173312],[17,49.80083603769668,19.3024211832834],[18,49.80023920828878,19.30142215205774],]
podstawa=[[14,49.80262848021833,19.311234958231807],['start',49.8052100,19.3237400],['meta',49.7995300,19.3006200]]
daneflot=[[0.0,420.192],[0.1,420.635],[0.2,423.085],[0.3,428.688],[0.4,431.967],[0.5,435.699],[0.6,440.519],[0.7,447.400],[0.8,451.246],[0.9,455.749],[1.0,459.951],[1.1,467.904],[1.2,475.648],[1.3,483.095],[1.4,491.160],[1.5,506.338],[1.6,525.577],[1.7,535.926],[1.8,547.936],[1.9,555.251],]