name=Przełęcz Płoszczyna od Starégo Města  (Czechy)
slope=7.2km 3.3%
points=164.1
region=13
description=Nawierzchnia: szosa, stan bardzo dobry. Ruch samochodowy: mały.
Podjazd na przełęcz Płoszczynę od południa. Gładka szosa, serpentyny (pod jedną z nich bufet z zimną kofolą). Widoków mało - trasa biegnie w lesie.
comments=
author=Turysta
segment=7877948
locations=[[1,50.18185678149496,16.92302295184595],[2,50.18358225433825,16.922326892129718],[3,50.18532482029956,16.92174538136385],[4,50.18709521183782,16.92148879944625],[5,50.18881731257754,16.920859491532838],[6,50.19046794301367,16.919930168337373],[7,50.19219607038428,16.919688413201357],[8,50.19394334196678,16.919232479860398],[9,50.19563576160308,16.918384906937035],[10,50.19738136390013,16.917836215718467],[11,50.1991187300903,16.917244710818068],[12,50.20088556340765,16.916881109199835],[13,50.20250677672914,16.915759426290606],[14,50.20413515809927,16.915785981075487],[15,50.2056862631158,16.91715673011879],[16,50.20732493058613,16.918243335370903],[17,50.20893408925578,16.91941812572793],[18,50.21062453939745,16.92028617672986],[19,50.21225393485392,16.921407305990442],[20,50.21401578639591,16.921361604108142],[21,50.21574245778136,16.92099528609708],[22,50.21600869438554,16.92197869410893],[23,50.21570635112683,16.921961600671352],[24,50.21708006730083,16.92373199954625],[25,50.21823975400832,16.925371968169998],[26,50.21849980462547,16.922967343864116],[27,50.22020565426767,16.922262531608112],[28,50.22180462627176,16.9212812245421],[29,50.22314275216591,16.92010054672903],[30,50.22212486225004,16.922173517071315],[31,50.22094163602573,16.92416806694314],[32,50.2195742751938,16.925200000000018],[33,50.22117518217402,16.925252874526223],[34,50.22270135184247,16.92387335827607],[35,50.22442774767725,16.92318612654458],]
podstawa=[[12,50.21225393485392,16.921407305990442],['start',50.1805600,16.9248400],['meta',50.2258000,16.9219800]]
daneflot=[[0.0,586.071],[0.2,597.452],[0.4,601.720],[0.6,601.088],[0.8,613.356],[1.0,617.180],[1.2,615.521],[1.4,626.454],[1.6,631.165],[1.8,623.382],[2.0,623.578],[2.2,628.720],[2.4,640.690],[2.6,647.593],[2.8,650.875],[3.0,662.742],[3.2,668.010],[3.4,689.165],[3.6,690.324],[3.8,691.698],[4.0,702.564],[4.2,720.875],[4.4,721.083],[4.6,719.881],[4.8,731.337],[5.0,747.728],[5.2,745.748],[5.4,761.413],[5.6,773.355],[5.8,784.557],[6.0,783.046],[6.2,791.075],[6.4,784.022],[6.6,805.258],[6.8,811.454],[7.0,817.886],[7.2,822.027],]