name=Przełęcz Woliborska  z Woliborza
slope=5.0km 4.1%
points=135.8
region=8
description=Nawierzchnia: szosa, stan bardzo dobry. Ruch samochodowy: średni.
Jeden z łatwiejszych podjazdów na sowiogórskie przełęcze. Dobry łącznik przy jeździe z przełęczy Srebrnej w stronę Bielawy/Pieszyc.
comments=
author=LukaszLuniewski
segment=0
locations=[[1,50.58869657557963,16.57892232554036],[2,50.58971570737636,16.581221102119684],[3,50.5912356851218,16.58264956447215],[4,50.59295858977141,16.58308359022385],[5,50.59456849309542,16.58207407146574],[6,50.59609337752409,16.58086000000003],[7,50.59777483518118,16.58173565499783],[8,50.59953806755125,16.58218125813994],[9,50.60121321416056,16.583149976084997],[10,50.60295609737353,16.583607336935074],[11,50.60474483819024,16.583628178548906],[12,50.60652282501326,16.583400756097717],[13,50.60829784275963,16.583282863089266],[14,50.60994385329487,16.58408354215021],[15,50.6108249221689,16.586478493544064],[16,50.61140181155159,16.584969279670418],[17,50.61241002921803,16.585165108713568],[18,50.61397346593765,16.586373881278405],[19,50.61557617562072,16.586456218079434],[20,50.6170233457453,16.584802291350684],[21,50.61856476504547,16.583507702443057],[22,50.62004565350323,16.584059231999163],[23,50.62099139713884,16.586407633698514],[24,50.62252213211391,16.58666364311341],]
podstawa=[[12,50.60829784275963,16.583282863089266],['start',50.5872700,16.5775200],['meta',50.6231400,16.5884500]]
daneflot=[[0.0,514.881],[0.2,519.616],[0.4,524.473],[0.6,527.935],[0.8,542.190],[1.0,546.214],[1.2,560.578],[1.4,564.340],[1.6,580.505],[1.8,584.187],[2.0,592.407],[2.2,608.430],[2.4,613.779],[2.6,628.202],[2.8,643.448],[3.0,658.419],[3.2,659.734],[3.4,668.748],[3.6,680.198],[3.8,688.359],[4.0,695.351],[4.2,708.308],[4.4,708.790],[4.6,720.602],[4.8,717.531],[5.0,722.085],]