name=Przełęcz Rochowicka z Bolkowa
slope=7.4km 3.0%
points=101.9
region=4
description=Nawierzchnia: szosa, stan zmienna. Ruch samochodowy: do zjazdu z "3" duży, potem mały.
Łagodny podjazd w okolice przełęczy wzdłuż wsi Stare Rochowice. Stan nawierzchni po zjeździe z drogi nr 3 początkowo słaby, przez wieś idealny. Sama końcówka znów kiepska nawierzchnia.
comments=
author=Marek |Menchov
segment=0
locations=[[1,50.92446158279824,16.09990430448579],[2,50.92426432158561,16.097155010538017],[3,50.92349000004501,16.09473609015413],[4,50.92416374638411,16.09218001021702],[5,50.92466138141466,16.08951215453976],[6,50.92431883735533,16.086804000017878],[7,50.92339140972394,16.084415967853033],[8,50.92298100190335,16.081792987563176],[9,50.92374883391521,16.07927409717354],[10,50.9248881222662,16.07712924663906],[11,50.9257998125336,16.074830735996443],[12,50.92606670672607,16.072088227367544],[13,50.92577999542684,16.069319903949236],[14,50.92564790345344,16.066526023603956],[15,50.92505305885673,16.063917628457716],[16,50.92512678413895,16.06113539041553],[17,50.92520658809913,16.058366218119886],[18,50.92474177849964,16.055748686738525],[19,50.92404471595641,16.053183568926784],[20,50.92333124715124,16.050706714247553],[21,50.92303326518619,16.04804637689267],[22,50.92231722037965,16.04557267219775],[23,50.9217764448374,16.042904778628554],[24,50.92120853066664,16.040329789018188],[25,50.92044877114134,16.037797292432515],[26,50.91952857525761,16.035425659943712],[27,50.9181295188525,16.03371968344993],[28,50.91645998683442,16.03281666225473],[29,50.91486694898516,16.03164386102685],[30,50.91399999851426,16.029293180258037],[31,50.91374544901007,16.026553671170404],[32,50.9139963749316,16.02377926021586],[33,50.91415000002435,16.020995390816097],[34,50.91355718202002,16.018475884416716],[35,50.91219788058971,16.01669261838856],[36,50.91071375214449,16.01524907437033],]
podstawa=[[13,50.92404471595641,16.06],['start',50.9253600,16.1022500],['meta',50.9090400,16.0146000]]
daneflot=[[0.0,308.034],[0.2,310.732],[0.4,313.757],[0.6,316.706],[0.8,327.219],[1.0,332.840],[1.2,328.668],[1.4,332.208],[1.6,336.899],[1.8,342.193],[2.0,345.772],[2.2,344.222],[2.4,340.460],[2.6,343.357],[2.8,345.426],[3.0,350.433],[3.2,355.050],[3.4,360.656],[3.6,365.175],[3.8,369.714],[4.0,374.464],[4.2,379.776],[4.4,385.824],[4.6,394.003],[4.8,402.821],[5.0,412.899],[5.2,419.599],[5.4,428.790],[5.6,436.936],[5.8,437.853],[6.0,453.471],[6.2,468.455],[6.4,483.002],[6.6,486.003],[6.8,495.356],[7.0,507.426],[7.2,520.598],[7.4,526.414],]