name=Videlské Sedlo  z Vrno pod Pradedem (Czechy)
slope=12.4km 3.3%
points=224.7
region=14
description=Nawierzchnia: szosa, stan dobry. Ruch samochodowy: mały.
Podjazd rozpoczyna się w urokliwej miejscowości Vbrno pod Pradedem
comments=
author=Daniel
segment=0
locations=[[1,50.12164935660881,17.3791338155429],[2,50.12223865443931,17.37651756666935],[3,50.12253296219659,17.373799883523702],[4,50.1226469401372,17.371032912659985],[5,50.12321984415752,17.368411615580385],[6,50.12356867831037,17.365710891120102],[7,50.12338850108558,17.363207166406823],[8,50.12483147382789,17.36189127730745],[9,50.12572703908578,17.359521847327642],[10,50.12681714693152,17.357407711485394],[11,50.1275869349754,17.35513451322049],[12,50.12755000114891,17.352361825737262],[13,50.12768431808845,17.349611546881988],[14,50.12831237751947,17.347018080872886],[15,50.12907815228542,17.344554025900038],[16,50.1289250946183,17.341835656670582],[17,50.12789122002383,17.339692348778954],[18,50.12726268741445,17.337529079797378],[19,50.12780034126352,17.33489638452818],[20,50.12793535836244,17.332141768169095],[21,50.12828001109705,17.329510356696005],[22,50.12872000005942,17.326856896344225],[23,50.12840237896052,17.324133393080956],[24,50.12894528571315,17.321513225861736],[25,50.12952365603651,17.31889709616962],[26,50.12896954021316,17.316342317158842],[27,50.1280841724886,17.313966235401836],[28,50.12672760644796,17.312348420237754],[29,50.12568346949566,17.310344972613393],[30,50.12474171892413,17.30804646628269],[31,50.12385782494284,17.305709979262247],[32,50.12279722810859,17.30365351240846],[33,50.12151011912686,17.302252827497114],[34,50.12033612427687,17.30018217986867],[35,50.1191893029077,17.2980850301376],[36,50.11823870753511,17.29574476152129],[37,50.11744641020686,17.29329596925686],[38,50.11616949632187,17.291386388034766],[39,50.11520283959211,17.289165452673387],[40,50.11351585199839,17.28836208459279],[41,50.1118410417879,17.287455778046592],[42,50.11046936187709,17.28583027137074],[43,50.10991136694302,17.283265417856228],[44,50.10964203073529,17.28059828637197],[45,50.10899516624636,17.278018937928664],[46,50.10813297664534,17.275602556824538],[47,50.10732228606593,17.273173633047918],[48,50.10584089437575,17.271705359584757],[49,50.10512123212779,17.269244287478045],[50,50.10589049301504,17.266752202705675],[51,50.10686720089813,17.26448336439671],[52,50.10728378961555,17.261868492856138],[53,50.10770108011386,17.25919616521287],[54,50.10914140083018,17.25780769313883],[55,50.11078544948792,17.25680455161887],[56,50.11219927440893,17.255127641823265],[57,50.1132145693977,17.252925026541106],[58,50.11376502071057,17.25412923957788],[59,50.11423163326756,17.253871156318155],[60,50.1148191544377,17.25125439604983],[61,50.11513314027167,17.248539869674573],]
podstawa=[[12,50.12279722810859,17.30365351240846],['start',50.1210600,17.3817500],['meta',50.1150900,17.2457700]]
daneflot=[[0.0,530.908],[0.2,534.021],[0.4,536.535],[0.6,539.312],[0.8,545.646],[1.0,554.008],[1.2,554.131],[1.4,555.049],[1.6,555.913],[1.8,565.346],[2.0,570.197],[2.2,579.879],[2.4,586.568],[2.6,588.412],[2.8,589.486],[3.0,593.549],[3.2,601.764],[3.4,605.146],[3.6,611.286],[3.8,617.046],[4.0,621.193],[4.2,623.596],[4.4,624.743],[4.6,636.530],[4.8,629.401],[5.0,632.763],[5.2,647.690],[5.4,658.723],[5.6,663.617],[5.8,666.362],[6.0,671.205],[6.2,678.102],[6.4,679.295],[6.6,692.494],[6.8,698.072],[7.0,707.643],[7.2,719.631],[7.4,726.301],[7.6,726.372],[7.8,729.918],[8.0,727.018],[8.2,736.778],[8.4,742.263],[8.6,751.997],[8.8,759.757],[9.0,763.194],[9.2,765.779],[9.4,771.617],[9.6,774.459],[9.8,777.113],[10.0,799.852],[10.2,821.067],[10.4,826.456],[10.6,841.817],[10.8,848.482],[11.0,858.641],[11.2,877.256],[11.4,889.710],[11.6,900.735],[11.8,911.525],[12.0,926.960],[12.2,937.423],[12.4,938.586],]