name=Przełęcz Krowiarki z Zubrzycy Górnej
slope=7.0km 4.2%
points=155.3
region=17
description=Nawierzchnia: szosa, stan bardzo dobry. Ruch samochodowy: średni.
Bardzo przyjemny podjazd ze względu na stałe nachylenie od samego początku do końca - łatwo złapać rytm. Nowy asfalt - 2013
comments=
author=Greek
segment=1736540
locations=[[1,49.56269165267066,19.64957031540746],[2,49.56377913156028,19.64729295060181],[3,49.56495380190631,19.645128942790507],[4,49.56652725472379,19.643656896770267],[5,49.56786371226889,19.641793748656255],[6,49.56883474648504,19.639380704034238],[7,49.57000049930551,19.637186039284302],[8,49.57120576129385,19.635038633611885],[9,49.57250660676274,19.633031492306827],[10,49.5738607263126,19.63110643114601],[11,49.57521481393226,19.629181263165606],[12,49.57665718113503,19.627423986965482],[13,49.57824649772174,19.625991119711557],[14,49.57971686269374,19.624350626974888],[15,49.58000237462147,19.62163384531891],[16,49.57992197793109,19.618799901409147],[17,49.58073432002622,19.61631585378177],[18,49.58188694341474,19.614100380757804],[19,49.5833681512308,19.612700864627868],[20,49.58513394059271,19.61259255603113],[21,49.58628523344112,19.610391013617004],[22,49.58656922483582,19.60772729119458],[23,49.58516613447208,19.60593321399199],[24,49.58370302521153,19.604207795051366],[25,49.5822398903045,19.602482479590662],[26,49.58077672975389,19.600757267599874],[27,49.5793626093263,19.59894731990346],[28,49.57974173251565,19.596507688102065],[29,49.5811899839589,19.594752843141237],[30,49.58263130855557,19.592985233596778],[31,49.58378980669408,19.590787871979728],[32,49.58538096951512,19.58944373642055],[33,49.58682440385741,19.587855589367337],[34,49.58743022164077,19.58517472754943],]
podstawa=[[12,49.58188694341474,19.614100380757804],['start',49.5611700,19.6511700],['meta',49.5882700,19.5828400]]
daneflot=[[0.0,718.062],[0.2,722.587],[0.4,725.024],[0.6,729.473],[0.8,732.560],[1.0,735.867],[1.2,742.927],[1.4,747.491],[1.6,755.402],[1.8,761.171],[2.0,769.373],[2.2,771.934],[2.4,781.228],[2.6,784.876],[2.8,790.037],[3.0,793.148],[3.2,800.016],[3.4,810.109],[3.6,821.842],[3.8,832.056],[4.0,844.189],[4.2,860.634],[4.4,876.438],[4.6,884.376],[4.8,892.993],[5.0,907.589],[5.2,917.825],[5.4,924.007],[5.6,937.423],[5.8,950.562],[6.0,960.485],[6.2,973.863],[6.4,981.040],[6.6,994.556],[6.8,998.648],[7.0,1013.700],]