name=Przełęcz Przysłop od Zawoja
slope=3.6km 4.8%
points=106.6
region=22
description=Nawierzchnia: szosa, stan zły. Ruch samochodowy: średni.
Trasa prowadzi malowniczymi serpentynami, podjazd jest łatwy i przyjemny. Asfalt w niektórych miejscach pozostawia trochę do życzenia, ale do podjechania jest OK.
comments=
author=Greek
segment=2158189
locations=[[1,49.67032988788529,19.57974387638683],[2,49.67134581766146,19.57757956843318],[3,49.67280208569449,19.576154948552357],[4,49.67449227520071,19.575372299487526],[5,49.67615051011965,19.574445311900718],[6,49.67739594098879,19.572831385281006],[7,49.67805383805788,19.570568927828162],[8,49.67925871744291,19.568604256885806],[9,49.68017252190993,19.566293599521373],[10,49.6809324243582,19.566657079863717],[11,49.6813255783547,19.565860208767617],[12,49.68198248464992,19.56638166646053],[13,49.68260547502386,19.564279050144705],[14,49.68306063975925,19.56547709278243],[15,49.68474644859976,19.565631431317797],[16,49.6857264086858,19.563810056410944],[17,49.68568758882745,19.56118257295077],]
podstawa=[[13,49.6809324243582,19.566657079863717],['start',49.6690500,19.5814600],['meta',49.6857700,19.5585600]]
daneflot=[[0.0,502.565],[0.2,507.782],[0.4,522.835],[0.6,523.949],[0.8,526.567],[1.0,532.437],[1.2,537.946],[1.4,549.985],[1.6,565.651],[1.8,582.093],[2.0,595.802],[2.2,607.743],[2.4,621.642],[2.6,636.085],[2.8,645.834],[3.0,660.290],[3.2,663.655],[3.4,663.848],[3.6,674.079],]