name=Przełęcz Kotowska od Kamiannej
slope=3.0km 5.5%
points=120
region=34
description=Nawierzchnia: szosa, stan dobry. Ruch samochodowy: mały.
Właściwy podjazd zaczynamy przy stacji narciarskiej w Kamiannej. Od tego momentu czeka nas około 1,6km podjazdu. Z początku dość łagodnie, z czasem coraz stromiej.
comments=
author=piotrkol91
segment=0
locations=[[1,49.52027648531857,20.94902815837122],[2,49.52111804766263,20.946715778454518],[3,49.52181840837021,20.944262699492583],[4,49.5223686135736,20.941743466465937],[5,49.52305681128108,20.939290448781207],[6,49.52325019092768,20.93670452307356],[7,49.5241556516729,20.934488733064768],[8,49.52471028324582,20.93194877278802],[9,49.52529313106689,20.929423333553927],[10,49.52587592392243,20.926897834109013],[11,49.52652328290608,20.924413243621757],[12,49.52761028242887,20.922330251688777],[13,49.52874744634147,20.920301580321507],[14,49.52928754823644,20.91800454700649],]
podstawa=[[14,49.52471028324582,20.93194877278802],['start',49.5201900,20.9516300],['meta',49.5286300,20.9155700]]
daneflot=[[0.0,526.061],[0.2,530.420],[0.4,536.296],[0.6,543.135],[0.8,548.524],[1.0,559.565],[1.2,564.137],[1.4,567.169],[1.6,574.553],[1.8,584.845],[2.0,599.692],[2.2,617.568],[2.4,640.055],[2.6,658.078],[2.8,678.497],[3.0,691.570],]