name=Przełęcz Lisia od Kudowy
slope=8.0km 5.0%
points=282.7
region=10
description=Nawierzchnia: szosa, stan dobry. Ruch samochodowy: umiarkowany, ale zależy od sezonu.
Droga stu zakrętów, może nie ma ich sto, ale i tak jest nieźle pokręcona. Uwielbiam zjeżdżać tą drogą.
comments=
author=kurek
segment=0
locations=[[1,50.44605697121617,16.257162255251615],[2,50.44599300934695,16.259998526166783],[3,50.44633856220796,16.26279435289962],[4,50.44666000063268,16.26556891088933],[5,50.44688844920819,16.26839086714085],[6,50.44759264436114,16.27096804725693],[7,50.44720783628323,16.273588246067675],[8,50.44555514747369,16.274517131337234],[9,50.44719090229109,16.274289098573718],[10,50.44845061096312,16.2751573329042],[11,50.44964184636768,16.27716610376615],[12,50.45103375449799,16.278925427072636],[13,50.45095000009722,16.281681563443613],[14,50.45080693376464,16.28433528104972],[15,50.45050192608835,16.2871317001061],[16,50.45069286645163,16.28996769909554],[17,50.45139198843034,16.29200775673678],[18,50.45183789115898,16.294689131170117],[19,50.45345803702229,16.29590020552473],[20,50.45504924511032,16.29690859193022],[21,50.45662446111577,16.298222614845827],[22,50.45837697261525,16.298989502502195],[23,50.45956600192272,16.300892137454753],[24,50.45978929790669,16.30372431790977],[25,50.46029703029506,16.306466075265348],[26,50.46109964132619,16.309023391758842],[27,50.46114531661256,16.311807524784626],[28,50.46201006034202,16.31416091268943],[29,50.46296430576056,16.316560532885433],[30,50.46376763787299,16.318706628487803],[31,50.46438299194973,16.321222226066197],[32,50.46402150427129,16.323997917197858],[33,50.46344394962417,16.3265898798918],[34,50.46319862362678,16.329361015852555],[35,50.46310035224711,16.332168646339483],[36,50.46258795994424,16.33485396130527],[37,50.46212497304185,16.33749227741032],[38,50.46170265521171,16.340239897314177],[39,50.46150505274979,16.343078084082663],]
podstawa=[[12,50.45662446111577,16.298222614845827],['start',50.4454800,16.2546300],['meta',50.4618100,16.3458800]]
daneflot=[[0.0,397.706],[0.2,406.649],[0.4,415.387],[0.6,410.437],[0.8,415.699],[1.0,426.940],[1.2,448.376],[1.4,473.239],[1.6,490.421],[1.8,485.744],[2.0,494.840],[2.2,513.500],[2.4,516.134],[2.6,536.762],[2.8,553.258],[3.0,559.179],[3.2,568.529],[3.4,567.941],[3.6,587.563],[3.8,598.611],[4.0,612.670],[4.2,629.057],[4.4,642.228],[4.6,647.782],[4.8,659.770],[5.0,667.832],[5.2,671.394],[5.4,678.203],[5.6,685.154],[5.8,701.864],[6.0,712.672],[6.2,722.442],[6.4,727.445],[6.6,731.331],[6.8,742.943],[7.0,757.942],[7.2,767.170],[7.4,773.185],[7.6,781.901],[7.8,792.345],[8.0,797.960],]