name=Przełęcz Lądecka od Javornika (Czechy)
slope=8.8km 4.1%
points=229.9
region=13
description=Nawierzchnia: szosa, stan idealny. Ruch samochodowy: minimalny.
Właściwy podjazd od Javornika na Przełęcz na granicy polsko-czeskiej. Z każdym kilometrem nachylenie wzrasta. Piękne serpentyny w końcowej części podjazdu. Asfalt także z czasem się poprawia. Na rozgałęzieniu dróg (podczas podjazdu) jedziemy ndalej główną (odbicie w lewo skutkuje wjazdem pod Zalesi).
comments=
author=Bartek Zając
segment=0
locations=[[1,50.3907059229613,16.999881500411448],[2,50.38983111374863,16.997459400224898],[3,50.38887382487883,16.995110361013303],[4,50.3884690289542,16.99243260680305],[5,50.38745444565397,16.99012544586776],[6,50.38647941767836,16.987769805789412],[7,50.38566496387452,16.985268925856758],[8,50.38495185896104,16.98273858663231],[9,50.38421173530413,16.98019381067047],[10,50.38350670711354,16.9776370458751],[11,50.38205983960077,16.976051485991547],[12,50.38054580101591,16.974761717840693],[13,50.37899832358498,16.97334669971974],[14,50.37771528323765,16.971456784739644],[15,50.3768918410941,16.96897714619513],[16,50.37667822677131,16.96620203618818],[17,50.37614874586748,16.96353015919817],[18,50.37523638452909,16.961127460086004],[19,50.37529758714752,16.958353109512018],[20,50.37464521990048,16.955746608662025],[21,50.37417420796908,16.953054022944116],[22,50.37356494966917,16.950420060038823],[23,50.37336153639325,16.94766611115483],[24,50.37341217572741,16.944866502751324],[25,50.37425530504553,16.94252020717647],[26,50.37380545437122,16.940006324464093],[27,50.37365465715988,16.937207436371864],[28,50.37417980420358,16.93505307511441],[29,50.37532318185283,16.933406991563174],[30,50.37555011127427,16.930624381976827],[31,50.37493436868302,16.930024566710813],[32,50.3738386086754,16.930894296634733],[33,50.37378472586415,16.928128899968897],[34,50.37298609149445,16.925637842345168],[35,50.37170328059508,16.92457604377853],[36,50.37022189747695,16.923772852951743],[37,50.36881279822177,16.92488164073302],[38,50.36882973780521,16.92388338359592],[39,50.37023118950025,16.922406074469563],[40,50.37173030670212,16.921028775320565],[41,50.37348513988754,16.920907303726153],[42,50.37348188374349,16.919881676800514],[43,50.37177116035075,16.91910954937464],]
podstawa=[[12,50.37336153639325,16.94766611115483],['start',50.3913700,17.0024900],['meta',50.3700700,16.9191000]]
daneflot=[[0.0,298.826],[0.2,308.116],[0.4,314.306],[0.6,313.667],[0.8,318.452],[1.0,319.969],[1.2,325.448],[1.4,330.396],[1.6,337.975],[1.8,346.416],[2.0,358.861],[2.2,385.450],[2.4,394.166],[2.6,402.099],[2.8,408.979],[3.0,421.211],[3.2,426.638],[3.4,432.743],[3.6,433.701],[3.8,444.284],[4.0,457.856],[4.2,469.780],[4.4,475.550],[4.6,479.131],[4.8,481.705],[5.0,476.534],[5.2,482.481],[5.4,493.326],[5.6,502.626],[5.8,517.611],[6.0,526.982],[6.2,530.541],[6.4,528.826],[6.6,544.643],[6.8,559.427],[7.0,566.378],[7.2,587.999],[7.4,589.052],[7.6,607.109],[7.8,617.664],[8.0,627.292],[8.2,636.162],[8.4,652.108],[8.6,661.693],[8.8,663.109],]