name=Przełęcz Jugowska od Pieszyc
slope=13.0km 4.1%
points=289.6
region=8
description=Nawierzchnia: szosa, stan bardzo dobry. Ruch samochodowy: niewielki.
Podjazd na przełęcz Jugowską od Pieszyc jest na pewno trudniejszy niż od strony Jugowa. Cały jest w lesie i brak widoków na doliny, ale za to serpentyny i widoki na drogę fantastyczne. Nawierzchnia jest odremontowana i bardzo dobrym stanie.
comments=Dnia 2014-07-24 użytkownik kitaszewski dodał:
Bardzo przyjemny podjazd. Nowy, gładziutki asfalt od Pieszyc, ale tylko do przełęczy zjazd w stronę Jugowa fatalny!!!
Dnia 2015-04-03 użytkownik IP dodał:
Spokojny długi podjazd. Nachylenie w żadnym momencie nie jest duże wiec średnia prędkość nie spada poniżej 20 km / h. Tak wiec jedzie się szybko przez ponad 10 km cały czas po góre po dobrej jakości asfalcie - super sprawa. Po drugiej stronie góry asfalt jest w bardzo złym stanie (2015r.) ale na góralu nie ma problemu by zjechać.
author=Bardzo przyjemny podjazd. Nowy, gładziutki asfalt od Pieszyc, ale tylko do przełęczy zjazd w stronę Jugowa fatalny!!!
segment=0
locations=[[1,50.71567770909426,16.588033869694073],[2,50.7143535615703,16.586095575811214],[3,50.7128170543685,16.584600845400928],[4,50.71135705789641,16.58292311871901],[5,50.7098630968415,16.581326009512736],[6,50.70843354142207,16.57958357687062],[7,50.707049896294,16.577752006468927],[8,50.7056464650513,16.57595768521651],[9,50.70428907042771,16.574088734735597],[10,50.70286131178899,16.572350522334318],[11,50.70124506365784,16.571080372029314],[12,50.69992574859852,16.569146186374155],[13,50.69860391669704,16.567205469525334],[14,50.69716430509524,16.565497333121925],[15,50.69601048211523,16.56331014218199],[16,50.69493440297685,16.561021154287573],[17,50.69403864266222,16.558607150156263],[18,50.69273388536537,16.55678059425179],[19,50.69133461013637,16.55501254761282],[20,50.6901273140919,16.552926247045207],[21,50.68873385898056,16.55111595547578],[22,50.68749351325782,16.54906333197448],[23,50.68648714235246,16.546702054863317],[24,50.68509497678185,16.545000697669934],[25,50.68348264719306,16.543756323418506],[26,50.68170272156186,16.543484496929523],[27,50.67991548422371,16.543712478717453],[28,50.67822050053783,16.5432409989711],[29,50.67667639759096,16.544363003576564],[30,50.6748744601866,16.54425154929686],[31,50.67317091762696,16.543404887630004],[32,50.67168864084569,16.54193041334338],[33,50.67014015680311,16.540643111806276],[34,50.66907539019954,16.53841664288143],[35,50.66780686067117,16.536608694318147],[36,50.6676219837035,16.538128016799305],[37,50.66687446289769,16.539954803654155],[38,50.66529154712765,16.541325129421693],[39,50.66374661258953,16.540346937694835],[40,50.66279047415602,16.53829333514591],[41,50.66432152455322,16.538663651894467],[42,50.66491050401737,16.53604481838181],[43,50.66371058392541,16.534199688356807],[44,50.66243296436789,16.53223349273253],[45,50.66293452862545,16.53096360108907],[46,50.66393128033631,16.52968069200267],[47,50.66536978975297,16.528548584862165],[48,50.66640066481339,16.52772326762488],[49,50.66731316616483,16.525266783740335],[50,50.66814544475667,16.52274330156274],[51,50.66917103470728,16.520399880150535],[52,50.67018423292364,16.518070613673103],[53,50.67166648686709,16.517992677895677],[54,50.67070645614471,16.51726088666146],[55,50.66950050912251,16.51663482854417],[56,50.66803661059748,16.51829148081606],[57,50.66664609685733,16.520096513743738],[58,50.66531793136124,16.52196827587261],[59,50.66356663626196,16.521637169006],[60,50.66236296581104,16.523687372973882],[61,50.66104488435388,16.522077466893847],[62,50.65944223603784,16.52105483014634],[63,50.65811069052958,16.5227990711536],[64,50.65762282846287,16.52553533077321],]
podstawa=[[12,50.69,16.540643111806276],['start',50.7172200,16.5895100],['meta',50.6560700,16.5267300]]
daneflot=[[0.0,285.382],[0.2,289.866],[0.4,291.748],[0.6,297.099],[0.8,298.687],[1.0,303.693],[1.2,306.491],[1.4,310.467],[1.6,315.550],[1.8,318.761],[2.0,322.322],[2.2,326.560],[2.4,332.195],[2.6,337.065],[2.8,340.649],[3.0,347.070],[3.2,356.441],[3.4,362.329],[3.6,370.747],[3.8,371.338],[4.0,381.044],[4.2,386.901],[4.4,392.933],[4.6,400.617],[4.8,397.255],[5.0,400.738],[5.2,408.547],[5.4,420.284],[5.6,424.872],[5.8,440.930],[6.0,447.346],[6.2,453.260],[6.4,469.163],[6.6,480.934],[6.8,492.528],[7.0,508.055],[7.2,515.602],[7.4,525.851],[7.6,539.560],[7.8,548.757],[8.0,559.829],[8.2,571.482],[8.4,578.855],[8.6,598.019],[8.8,616.682],[9.0,617.753],[9.2,632.555],[9.4,637.619],[9.6,646.009],[9.8,664.469],[10.0,674.550],[10.2,684.964],[10.4,700.200],[10.6,703.262],[10.8,712.212],[11.0,723.728],[11.2,734.944],[11.4,743.714],[11.6,744.978],[11.8,755.786],[12.0,761.514],[12.2,779.287],[12.4,792.210],[12.6,801.506],[12.8,805.536],[13.0,811.750],]