name=Przełęcz Beskid nad Radoszycami od Radoszyc
slope=4.2km 3.8%
points=83.2
region=34
description=Nawierzchnia: szosa, stan dobry. Ruch samochodowy: mały.
Podjazd w Beskidzie Niskim, kilka serpentyn, asfalt w dobrym stanie
comments=
author=Lionheart33
segment=0
locations=[[1,49.30575360205333,22.045492440377416],[2,49.30570995069279,22.04275500194524],[3,49.30533751045616,22.040078395160435],[4,49.30489986404189,22.037421219359658],[5,49.30446300860748,22.03476376122137],[6,49.30360104028346,22.032486015242966],[7,49.3023290620833,22.03059361764963],[8,49.30093404920295,22.029041512220033],[9,49.29916392057196,22.028675270582426],[10,49.29746435129029,22.02787087204956],[11,49.2964266888256,22.02566767350288],[12,49.2955326251665,22.023315058489402],[13,49.29445718661024,22.021148789147333],[14,49.29399508657683,22.01852684883056],[15,49.29360269211085,22.019667166977797],[16,49.29335212246284,22.019543211994232],[17,49.29213952573888,22.019245507217647],[18,49.29041495799805,22.018542622586097],[19,49.28863383934046,22.01865684824031],[20,49.28766611517532,22.01860040317797],]
podstawa=[[13,49.2964266888256,22.02566767350288],['start',49.3061000,22.0481800],['meta',49.2883400,22.0161300]]
daneflot=[[0.0,522.493],[0.2,528.678],[0.4,531.871],[0.6,531.707],[0.8,536.823],[1.0,546.761],[1.2,556.849],[1.4,569.722],[1.6,569.810],[1.8,575.436],[2.0,583.544],[2.2,591.660],[2.4,597.627],[2.6,604.617],[2.8,613.009],[3.0,621.760],[3.2,625.601],[3.4,641.467],[3.6,657.780],[3.8,665.481],[4.0,666.440],[4.2,681.578],]