name=Przełęcz Płoszczyna od Stronia Śląskiego
slope=11.4km 2.8%
points=153.3
region=13
description=Nawierzchnia: szosa, stan dobry. Ruch samochodowy: minimalny.
Przyjemny podjazd o dość lekkim nachyleniu. Na prawie całej trasie nawierzchnia dobra, tylko w Bolesławowie ok. 500 m bruku
comments=
author=stewie
segment=0
locations=[[1,50.28900872402032,16.876279484399106],[2,50.28735123776225,16.877174636165705],[3,50.285641832909,16.877804161385484],[4,50.28410805015109,16.879128472122375],[5,50.28274811309935,16.88086382356289],[6,50.28124417827274,16.882209747086677],[7,50.2795310847706,16.882190000000037],[8,50.2779292859307,16.883250112577457],[9,50.2763501503775,16.884434928811174],[10,50.27470625087515,16.88538296795457],[11,50.27355054042818,16.887448961549694],[12,50.27240894185081,16.889510005000602],[13,50.27082228548941,16.890664033096527],[14,50.26914071080764,16.891409795524282],[15,50.26738342298049,16.891485771964653],[16,50.26562682395612,16.89144062453238],[17,50.26387410296692,16.891225250179446],[18,50.26212138157975,16.891009891677413],[19,50.26036970185812,16.8907766943521],[20,50.25877418874503,16.89102543047261],[21,50.25708639527906,16.891584504228604],[22,50.25608950773771,16.89370692268244],[23,50.25469571769035,16.895330005559117],[24,50.25301316166561,16.896127476751644],[25,50.25133060018451,16.89692489162428],[26,50.24965672696554,16.897765443507524],[27,50.2480221101502,16.898769220583517],[28,50.24669308376215,16.900449363232156],[29,50.24504167480571,16.901375387097005],[30,50.2433620951244,16.902135673787143],[31,50.24160743300911,16.902193381128086],[32,50.24007734023505,16.903500496070592],[33,50.23853129436417,16.904762902091534],[34,50.23706738001218,16.906146422711004],[35,50.23618207070761,16.908515341893235],[36,50.23532623291314,16.910915485843816],[37,50.23461016322626,16.91341919206775],[38,50.23432016094878,16.9161182631442],[39,50.23388301821918,16.91874726553681],[40,50.23363000011104,16.921451683349005],[41,50.23327172888578,16.92403420795074],[42,50.232188330994,16.925727572109736],[43,50.23047305609025,16.92628694393227],[44,50.22974622785088,16.926861556850554],[45,50.23145390615949,16.92751348279228],[46,50.23087704937475,16.927629463094718],[47,50.22913359056808,16.92757745895028],[48,50.2279762371985,16.929474820503174],[49,50.22716468775396,16.931907812899112],[50,50.22660539377857,16.931399554338896],[51,50.2259943109748,16.92894844568241],[52,50.22658472837387,16.92638348923697],[53,50.22766432689608,16.924219787626953],[54,50.22746900177166,16.92168619831341],[55,50.22808302469839,16.919205868589984],[56,50.22722003912158,16.920387303502025],]
podstawa=[[12,50.258,16.901375387097005],['start',50.2906000,16.8751100],['meta',50.2258000,16.9219800]]
daneflot=[[0.0,502.156],[0.2,505.236],[0.4,509.457],[0.6,513.252],[0.8,515.578],[1.0,518.897],[1.2,523.946],[1.4,527.885],[1.6,530.152],[1.8,538.068],[2.0,539.024],[2.2,542.782],[2.4,552.903],[2.6,548.113],[2.8,548.057],[3.0,550.855],[3.2,555.363],[3.4,555.374],[3.6,558.593],[3.8,559.986],[4.0,562.830],[4.2,576.691],[4.4,580.922],[4.6,586.569],[4.8,593.082],[5.0,604.305],[5.2,613.046],[5.4,619.398],[5.6,608.861],[5.8,613.980],[6.0,620.027],[6.2,623.739],[6.4,626.462],[6.6,633.111],[6.8,642.008],[7.0,647.238],[7.2,661.094],[7.4,671.035],[7.6,677.641],[7.8,683.580],[8.0,687.674],[8.2,711.199],[8.4,716.621],[8.6,731.651],[8.8,736.947],[9.0,737.560],[9.2,744.314],[9.4,750.124],[9.6,762.252],[9.8,775.309],[10.0,780.677],[10.2,789.558],[10.4,790.616],[10.6,795.179],[10.8,802.201],[11.0,808.487],[11.2,819.727],[11.4,822.027],]