name=Pasul Urdele  z Novaci (Rumunia)
slope=27.8km 6.0%
points=1342.1
region=129
description=Nawierzchnia: szosa, stan dobry. Ruch samochodowy: średni.
Najwyżej położony, nowo wyasfaltowany, kultowy, rumuński podjazd szosowy.
comments=
author=jajacek
segment=0
locations=[[1,45.17568248900818,23.666499622791434],[2,45.17678660896573,23.66847256064341],[3,45.17738905338736,23.67078457109153],[4,45.17796696077284,23.673091519533045],[5,45.17877920109682,23.67526920076807],[6,45.1803003459798,23.676528075916053],[7,45.18193394839403,23.677528058725898],[8,45.18192376307138,23.679093112138617],[9,45.18103648047105,23.68112857450228],[10,45.18248402372792,23.681949389755346],[11,45.18423028031793,23.681448815341923],[12,45.1858962728206,23.68195669497652],[13,45.18766662098736,23.681858923234813],[14,45.18930639003835,23.682794496204224],[15,45.19079460827145,23.684137409185723],[16,45.19242206682099,23.685165970365915],[17,45.19402392164017,23.68627264782083],[18,45.19562576577118,23.68737938757795],[19,45.19720970179365,23.688533754020796],[20,45.19874887226577,23.689807122098955],[21,45.20022988840262,23.69120846803662],[22,45.20129010285562,23.69319584564846],[23,45.2025775536101,23.694905101503423],[24,45.20379898435829,23.696722146940147],[25,45.20521788712161,23.698160883011724],[26,45.20698573419925,23.69805175386159],[27,45.20756193609289,23.696578997455163],[28,45.20708835249368,23.69418524417324],[29,45.20777337171999,23.69450179143314],[30,45.20874862117082,23.696380688862178],[31,45.2098019794866,23.698043506679824],[32,45.2113617752563,23.6983533581747],[33,45.21185733944602,23.69885052480413],[34,45.2133945250096,23.697854738670344],[35,45.2149150399998,23.69708374504353],[36,45.21632495347038,23.698373083902425],[37,45.21802897565605,23.698908315108838],[38,45.21895518222495,23.697678532759255],[39,45.21978308731953,23.697646446152476],[40,45.22107402623903,23.69604035487066],[41,45.22278287307878,23.69564831295611],[42,45.22429732730856,23.69592352797497],[43,45.22506385958931,23.694844226151986],[44,45.22669715027308,23.6946091409028],[45,45.22781906346322,23.69333433406041],[46,45.22716569682339,23.69312803655623],[47,45.22865338964323,23.69312559896639],[48,45.22940709584634,23.691234595671062],[49,45.22937253463822,23.68870532969379],[50,45.23079622335349,23.68768281460916],[51,45.23212804088489,23.686015788123882],[52,45.23289354145793,23.68777285479814],[53,45.23397709423251,23.688721985947836],[54,45.23505112616468,23.69061569687028],[55,45.23673605588861,23.691318223475037],[56,45.2379525022667,23.692783620503178],[57,45.2386475384512,23.695019918693106],[58,45.23977436347543,23.6964768371879],[59,45.24148386931905,23.695771800214516],[60,45.24206263107624,23.696242447232066],[61,45.24282822610653,23.696346880239616],[62,45.24442774577042,23.695276941957104],[63,45.24561650328241,23.694340213754003],[64,45.24686930561379,23.69341879810952],[65,45.24855482034048,23.694238639128457],[66,45.25025627986386,23.694108510530782],[67,45.25182258986207,23.695023523554028],[68,45.25309513872698,23.696770533397967],[69,45.25479154661514,23.697460451260667],[70,45.25655999080919,23.697431205354633],[71,45.25798605086819,23.69596013005139],[72,45.25951256382891,23.694670033224156],[73,45.26050766931967,23.692576437499042],[74,45.26139351337703,23.690380460710003],[75,45.26217168422419,23.68810348274519],[76,45.2629591165642,23.685833337809754],[77,45.26425416095777,23.684310058375218],[78,45.26601173221998,23.68389553577117],[79,45.26779103150846,23.68379466763338],[80,45.26955621288988,23.683992313787485],[81,45.27079300630777,23.685707525793532],[82,45.27219604899435,23.687267676374745],[83,45.27354453028259,23.68892106823398],[84,45.27506015699962,23.69019361145729],[85,45.27672202458693,23.68951519424752],[86,45.27838434008394,23.68864170083475],[87,45.28014983596857,23.688425142722508],[88,45.28187657643689,23.688991943342216],[89,45.2833225028366,23.690388845904863],[90,45.28489816892744,23.691489353335214],[91,45.28660277872654,23.69222557282228],[92,45.28810826191086,23.691388660275038],[93,45.28953533053469,23.68989813860219],[94,45.29118949722742,23.68904014787654],[95,45.29257385155449,23.68758114273112],[96,45.29369098793949,23.685670285361766],[97,45.29529323077266,23.68460873458207],[98,45.29666452416743,23.68299576233312],[99,45.29790792521936,23.681189678104943],[100,45.29949866230198,23.6806432292085],[101,45.3011974152928,23.681406187760558],[102,45.3028709498214,23.682260364130116],[103,45.30432880933758,23.683672973510966],[104,45.30590100760218,23.684774407219493],[105,45.3076562159073,23.68436630915278],[106,45.30915847887049,23.68320530966662],[107,45.31056850136093,23.681964857568573],[108,45.31215933305199,23.68264500735313],[109,45.31389664830316,23.682784586344155],[110,45.31498100727083,23.680915159416372],[111,45.31542522502913,23.68268342506815],[112,45.31648215975999,23.68093449864398],[113,45.31717332154292,23.68138654339691],[114,45.31728912164866,23.682003269250686],[115,45.31897017878927,23.681993141246494],[116,45.3185628479651,23.683385071656403],[117,45.31933684437048,23.68452610205145],[118,45.32030783173269,23.68420042700643],[119,45.32056139215315,23.68490092509728],[120,45.32199754502155,23.683534902213637],[121,45.32359205856051,23.68244033114388],[122,45.32530430303956,23.682142377462924],[123,45.32701312174994,23.68209151091571],[124,45.32813873057415,23.680210586768453],[125,45.32898041323781,23.678066896117002],[126,45.3306222734517,23.677272816663617],[127,45.33239423433066,23.677009269652103],[128,45.33394951639347,23.67608635337706],[129,45.33559934392107,23.67512991132719],[130,45.33699380188199,23.673629338540195],[131,45.3385479505274,23.672413285454468],[132,45.33978614404471,23.670605749512788],[133,45.34122787820903,23.66915859813662],[134,45.34219415037153,23.667314985810663],[135,45.34267149326528,23.66552280546773],[136,45.34349261342093,23.66378213591645],[137,45.34408755148766,23.662318981432122],[138,45.34402066522444,23.659795881799482],]
podstawa=[[10,45.25655999080919,23.697431205354633],['start',45.1741200,23.6653400],['meta',45.3446100,23.6574600]]
daneflot=[[0.0,463.012],[0.2,465.615],[0.4,468.753],[0.6,472.683],[0.8,485.231],[1.0,498.660],[1.2,512.074],[1.4,522.580],[1.6,529.657],[1.8,532.501],[2.0,548.858],[2.2,571.524],[2.4,591.357],[2.6,604.805],[2.8,610.444],[3.0,618.070],[3.2,632.861],[3.4,644.706],[3.6,662.097],[3.8,672.388],[4.0,687.414],[4.2,701.424],[4.4,718.268],[4.6,740.499],[4.8,755.880],[5.0,770.184],[5.2,786.124],[5.4,794.25],[5.6,802.19],[5.8,813.089],[6.0,830.385],[6.2,847.724],[6.4,870.966],[6.6,889.067],[6.8,912.798],[7.0,927.464],[7.2,942.3],[7.4,954.963],[7.6,969.148],[7.8,987.431],[8.0,1001.228],[8.2,1013.939],[8.4,1027.219],[8.6,1048.393],[8.8,1071.002],[9.0,1090.617],[9.2,1107.920],[9.4,1127.545],[9.6,1141.637],[9.8,1155.507],[10.0,1167.911],[10.2,1178.413],[10.4,1192.717],[10.6,1212.744],[10.8,1230.983],[11.0,1250.713],[11.2,1268.022],[11.4,1285.832],[11.6,1307.046],[11.8,1329.465],[12.0,1344.714],[12.2,1359.141],[12.4,1373.353],[12.6,1391.140],[12.8,1408.760],[13.0,1430.719],[13.2,1450.967],[13.4,1468.176],[13.6,1488.38],[13.8,1504.392],[14.0,1518.571],[14.2,1526.234],[14.4,1530.701],[14.6,1536.703],[14.8,1545.642],[15.0,1550.519],[15.2,1561.586],[15.4,1575.751],[15.6,1584.584],[15.8,1583.972],[16.0,1580.545],[16.2,1569.221],[16.4,1556.701],[16.6,1543.494],[16.8,1532.372],[17.0,1531.558],[17.2,1539.993],[17.4,1544.772],[17.6,1558.285],[17.8,1572.644],[18.0,1587.337],[18.2,1594.685],[18.4,1597.932],[18.6,1593.479],[18.8,1591.632],[19.0,1595.055],[19.2,1598.771],[19.4,1609.032],[19.6,1615.186],[19.8,1619.355],[20.0,1627.086],[20.2,1633.356],[20.4,1636.886],[20.6,1640.675],[20.8,1643.952],[21.0,1650.993],[21.2,1661.654],[21.4,1674.951],[21.6,1690.197],[21.8,1709.761],[22.0,1728.583],[22.2,1743.044],[22.4,1759.950],[22.6,1774.546],[22.8,1789.539],[23.0,1808.051],[23.2,1827.586],[23.4,1852.766],[23.6,1874.774],[23.8,1892.899],[24.0,1903.613],[24.2,1917.789],[24.4,1934.247],[24.6,1947.261],[24.8,1958.147],[25.0,1968.214],[25.2,1980.052],[25.4,1996.901],[25.6,2011.958],[25.8,2027.316],[26.0,2042.237],[26.2,2052.870],[26.4,2056.283],[26.6,2060.499],[26.8,2068.59],[27.0,2082.686],[27.2,2101.564],[27.4,2114.741],[27.6,2120.314],[27.8,2123.943],]