name=Kóta  z Vrno pod Pradedem (Czechy)
slope=13.0km 3.7%
points=315
region=14
description=Nawierzchnia: szosa, stan dobry. Ruch samochodowy: mały.
Podjazd ten można potraktować jako preludium do podjazdu pod Pradziada. Nawierzchnia dobra, ruch niewielki. Podjazd początkowo łagodny, wzdłuż małej rzeki. Po około 10km w miejscowości Vidly należy zjechać z głównej drogi w lewo na Karlova Studanka. (Charakterystyczny mostek). Po skręcie następuje znaczny wzrost nachylenia. Pamiętam min. znak 12%. Po przejechaniu przełęczy i parokilometrowym zjeździe dojedziemy do parkingu Hvezda i początku podjazdu pod Pradziada.
comments=
author=Bystry
segment=0
locations=[[1,50.12167614989919,17.379012200004354],[2,50.12227125207463,17.37635379595997],[3,50.12253660915142,17.373586554963595],[4,50.12268128463163,17.370782292629656],[5,50.12328585890922,17.368129526538382],[6,50.12354041577466,17.36537424471328],[7,50.12363061938795,17.363135626520034],[8,50.12494859784746,17.361505097073632],[9,50.12583651567408,17.359083938873482],[10,50.12707906852422,17.357097771465988],[11,50.12757903229041,17.35457904377256],[12,50.12755000301229,17.3517634382506],[13,50.12782295444819,17.34900808973771],[14,50.12852197969242,17.34641904518719],[15,50.12912104607003,17.343830719419657],[16,50.12871246942299,17.34114146357888],[17,50.12743455963479,17.33930820239584],[18,50.12747231007446,17.33674009730862],[19,50.12789853150755,17.334013951467796],[20,50.12788200635418,17.331207774474706],[21,50.12854090073336,17.32862504007801],[22,50.12860502228065,17.325855138034058],[23,50.12854963217892,17.32310913968331],[24,50.12921049153189,17.320488563901336],[25,50.12946224157886,17.317760229312398],[26,50.1284922323843,17.315413272883234],[27,50.12762131464427,17.312999538110716],[28,50.12602249593825,17.311737490849282],[29,50.12534926393271,17.3091448455732],[30,50.12418631294415,17.30702356575],[31,50.12351422243795,17.304422530062993],[32,50.12188404006758,17.30342122957984],[33,50.12090455120541,17.301109238998833],[34,50.11963237216787,17.299114744193616],[35,50.11862800948995,17.29677534275379],[36,50.1178518082621,17.294247531520455],[37,50.11663716712366,17.292215749190973],[38,50.11572609945515,17.289831833692233],[39,50.11416050410833,17.288564536313515],[40,50.11241797354083,17.287850124794204],[41,50.11080977721208,17.286593352515183],[42,50.1099443839393,17.28414476492935],[43,50.10988376750903,17.281363813490657],[44,50.10919884322652,17.278765753757853],[45,50.10841205434366,17.276235476735565],[46,50.107515138968,17.27382597167616],[47,50.10617387726662,17.272144756444163],[48,50.10515733001945,17.26986903932948],[49,50.10355445347834,17.269827145333693],[50,50.10191437579046,17.27091694953117],[51,50.10029584558307,17.272132797938525],[52,50.09872048905809,17.273384459973045],[53,50.09769119789051,17.275690384043287],[54,50.09610233230411,17.276659833641816],[55,50.09445152336672,17.275923696373752],[56,50.09276887848078,17.275729480619702],[57,50.09106177782147,17.276586889190867],[58,50.09061438196581,17.278826160627432],[59,50.09203930848687,17.280470284126523],[60,50.09373962608178,17.281412464641562],[61,50.09256330224478,17.281917872071062],[62,50.09079132883,17.281756617067117],[63,50.08902213968809,17.282304135922118],[64,50.08736587907425,17.283390738891626],]
podstawa=[[12,50.12090455120541,17.301109238998833],['start',50.1210800,17.3816700],['meta',50.0859800,17.2851900]]
daneflot=[[0.0,530.908],[0.2,534.021],[0.4,536.535],[0.6,539.312],[0.8,545.646],[1.0,554.008],[1.2,554.131],[1.4,555.049],[1.6,555.913],[1.8,565.346],[2.0,570.197],[2.2,579.879],[2.4,586.568],[2.6,588.412],[2.8,589.486],[3.0,593.549],[3.2,601.764],[3.4,605.146],[3.6,611.286],[3.8,617.046],[4.0,621.193],[4.2,623.596],[4.4,624.743],[4.6,636.530],[4.8,629.401],[5.0,632.763],[5.2,647.690],[5.4,658.723],[5.6,663.617],[5.8,666.362],[6.0,671.205],[6.2,678.102],[6.4,679.295],[6.6,692.494],[6.8,698.072],[7.0,707.643],[7.2,719.631],[7.4,726.301],[7.6,726.372],[7.8,729.918],[8.0,727.018],[8.2,736.778],[8.4,742.263],[8.6,751.997],[8.8,759.757],[9.0,763.194],[9.2,765.779],[9.4,771.617],[9.6,774.459],[9.8,784.113],[10.0,808.872],[10.2,827.849],[10.4,837.992],[10.6,851.584],[10.8,868.630],[11.0,891.207],[11.2,914.643],[11.4,917.622],[11.6,925.626],[11.8,936.559],[12.0,948.212],[12.2,961.080],[12.4,969.573],[12.6,986.170],[12.8,1007.012],[13.0,1009.374],]