name=Červenohorské Sedlo   od Loucna nad Desnou (Czechy)
slope=15.6km 3.6%
points=306.3
region=14
description=Nawierzchnia: szosa, stan bardzo dobry. Ruch samochodowy: średni.
Znany podjazd położony w paśmie Jesioników w Sudetach Wschodnich, kończący się na przełęczy znajdującej się pomiędzy miejscowościami Bela pod Pradedm i Loucna nad Desnou na fragmencie drogi nr 44 z Głuchołaz do Sumperka. Początek podjazdu w tej wersji, zgodnej z z tym który znajduje się w bazie Challenge BIG pod numerem 839  - http://challenge-big.eu/pl/big/839  znajduje się w dużej miejscowości Sumperk. Jedziemy stąd dobrymi asfaltami, początkowo niemal płasko, przez miejscowości Rapotin, Velke Losiny i Loucna nad Desnou. Właściwy podjazd zaczyna się za ośrodkiem narciarskim, za kolejną miejscowością, Kouty nad Desnou. Stąd mamy do podjechania kilka długich ale łagodnych serpentyn które kończą się na szczycie przełęczy przy hotelu Cervenohoske Sedlo. Stąd możemy zjechac długm zjazdem aż do Głuchołaz.
comments=Dnia 2015-06-21 użytkownik meteor dodał:
Dzisiaj - 21.06.2015 - wjeżdżałem od Loucnej. Jest zakaz wjazdu :) Na całej długości podjazdu są prowadzone roboty i mają być do końca 2016 roku. . Była niedziela, nie było robotników więc sobie normalnie wjechałem asfaltem, choć na trasie są pozwalane drzewa i kamienie.
author=jajacek
Uwaga, profil poprowadzony jest on Loucna nad Desou. Od Sumberk do Loucna nad Desou  13.6 km o nachyleniu 1%. Przewyższenie 130m.
segment=0
locations=[[1,50.05613796827269,17.086990797463386],[2,50.05781478139751,17.088050754521646],[3,50.05948927279434,17.089119709788292],[4,50.06117182049537,17.09015740460984],[5,50.06285628392497,17.091187718225],[6,50.06454492663472,17.09220125813613],[7,50.06631357713171,17.09243039523517],[8,50.06811893955655,17.092236843417936],[9,50.06981077474211,17.091336738625614],[10,50.0714130331597,17.09029408758647],[11,50.0732220744076,17.090221396773813],[12,50.07503101552629,17.090142268884733],[13,50.07678958674676,17.089734758040095],[14,50.07827030749844,17.08838000000003],[15,50.07989655051684,17.08726508712084],[16,50.0816243742881,17.087846869128043],[17,50.0831310969501,17.089361898957804],[18,50.08485863115381,17.090201594790187],[19,50.08663628556184,17.09067146076984],[20,50.08837812665476,17.09135223037788],[21,50.09000839932412,17.09242362459895],[22,50.09147847725197,17.09404703321775],[23,50.09307120357206,17.095377470649055],[24,50.09451555173735,17.097065070679378],[25,50.09588567650774,17.098902727241693],[26,50.097319177716,17.100624472534037],[27,50.09859634980906,17.102561429502316],[28,50.09930711596763,17.105104038612126],[29,50.09985091621448,17.10776219752654],[30,50.10034862470145,17.110421334689136],[31,50.1005647543404,17.11322238182231],[32,50.10062394251695,17.11603951498489],[33,50.10062524364742,17.118860372863082],[34,50.10029585309736,17.12157875571927],[35,50.10082939070129,17.124274534730603],[36,50.10150745133475,17.12688235015071],[37,50.10205747343681,17.129554950470265],[38,50.10244705703946,17.13231014282519],[39,50.10283911544114,17.135064498052998],[40,50.10323638477825,17.13781706669954],[41,50.10400984249634,17.138113718288196],[42,50.1046758992149,17.135934517718965],[43,50.10451882898446,17.13871136055036],[44,50.10413198336247,17.141460106975273],[45,50.10449526344354,17.14408289788753],[46,50.10496670997679,17.146720511128933],[47,50.10583507470598,17.149195936790875],[48,50.10670752436844,17.15166796268568],[49,50.10741097089893,17.154107461849435],[50,50.10717244111689,17.15141871726314],[51,50.10690920916846,17.148633694823957],[52,50.10717313842711,17.14586950503883],[53,50.1085531462455,17.14434760305039],[54,50.10958236414664,17.142775650141402],[55,50.11099016695804,17.141607227224995],[56,50.11093200852152,17.142161995700008],[57,50.11077524097216,17.144596786123657],[58,50.11024827805276,17.147012411125615],[59,50.11017070428828,17.148000926773193],[60,50.1117362025925,17.146593896995228],[61,50.11239176149377,17.14405824198161],[62,50.11261492314136,17.145173537755568],[63,50.11254698963273,17.147895058178847],[64,50.11239585157697,17.150673810406033],[65,50.11269337792897,17.15128075455675],[66,50.11347545610977,17.148798314063015],[67,50.11425831695217,17.14632384521019],[68,50.11454635673154,17.14628371995775],[69,50.11445140099634,17.149094362250707],[70,50.11409604663925,17.151857207645207],[71,50.11476755807902,17.150201702795584],[72,50.11547065570851,17.14762746544261],[73,50.11673244164095,17.146505527362024],[74,50.11846224997258,17.14730408315836],[75,50.1200443463316,17.148614484482778],[76,50.12150062058269,17.15029001494986],[77,50.12307366489254,17.151675420724587],]
podstawa=[[12,50.09,17.12],['start',50.0545200,17.0858600],['meta',50.1244100,17.1534900]]
daneflot=[[0.0,450.178],[0.2,453.535],[0.4,454.983],[0.6,459.181],[0.8,466.856],[1.0,471.275],[1.2,479.151],[1.4,488.596],[1.6,494.364],[1.8,493.608],[2.0,491.089],[2.2,490.111],[2.4,492.681],[2.6,494.682],[2.8,494.281],[3.0,495.117],[3.2,498.316],[3.4,502.539],[3.6,507.724],[3.8,513.759],[4.0,517.934],[4.2,521.167],[4.4,524.006],[4.6,529.932],[4.8,537.335],[5.0,543.567],[5.2,551.807],[5.4,555.066],[5.6,558.436],[5.8,564.788],[6.0,569.425],[6.2,573.579],[6.4,573.898],[6.6,576.858],[6.8,582.631],[7.0,590.785],[7.2,593.931],[7.4,596.376],[7.6,597.205],[7.8,605.999],[8.0,612.366],[8.2,623.292],[8.4,624.277],[8.6,637.208],[8.8,654.983],[9.0,671.335],[9.2,679.234],[9.4,695.184],[9.6,706.579],[9.8,719.071],[10.0,720.580],[10.2,733.239],[10.4,741.446],[10.6,756.141],[10.8,763.493],[11.0,779.054],[11.2,786.616],[11.4,805.442],[11.6,815.410],[11.8,820.996],[12.0,840.459],[12.2,842.061],[12.4,855.083],[12.6,868.708],[12.8,878.736],[13.0,885.027],[13.2,898.391],[13.4,904.070],[13.6,911.909],[13.8,926.088],[14.0,926.212],[14.2,942.569],[14.4,950.936],[14.6,954.400],[14.8,972.535],[15.0,979.459],[15.2,986.092],[15.4,998.188],[15.6,1009.676],]