name=Hoľa nad Klobučnou  z Oravskiej Lesnej (Słowacja)
slope=8.4km 3.4%
points=186.7
region=19
description=Nawierzchnia: szosa, stan dobry. Ruch samochodowy: mały.
Wersja podjazdu z pewnością łatwiejsza niż z południowej strony. Początek łatwy, końcówka na pewno trudniejsza, ale nie jest to podjazd specjalnie wymagający.
comments=
author=Greek
segment=1434293
locations=[[1,49.36631712697547,19.182888979205927],[2,49.364756402382,19.181846985827065],[3,49.36385693701274,19.17957638855512],[4,49.36340111735052,19.176945704081504],[5,49.36291881579231,19.174333307682673],[6,49.36224168565489,19.171872247399847],[7,49.3606051114507,19.170972222184446],[8,49.35898444390809,19.17203893754902],[9,49.35721855928753,19.17187139212956],[10,49.35552444875744,19.17111829715691],[11,49.35405844884208,19.16958715061287],[12,49.35260264681281,19.16802452416482],[13,49.35092598703774,19.167160575934417],[14,49.34943498675318,19.16570068663964],[15,49.34785566110307,19.164490890471484],[16,49.34624355705044,19.16377289330694],[17,49.34496064472849,19.161886561070787],[18,49.34365948627541,19.16003828984219],[19,49.34196602955338,19.16052192462962],[20,49.34024219633124,19.160017222519855],[21,49.3389586056511,19.158163597548196],[22,49.33736130030174,19.157402673334218],[23,49.33562548597475,19.15795026104047],[24,49.33418634537792,19.15945731208842],[25,49.3333601218837,19.1618478684627],[26,49.33277424745181,19.1643759041807],[27,49.3323826485881,19.16701555183886],[28,49.33172624928891,19.16954207965489],[29,49.33064037073584,19.17167158243467],[30,49.32946851632787,19.173671323964527],[31,49.32793688133871,19.175015620768704],[32,49.32642391257674,19.176437391888385],[33,49.32475324225651,19.177358636847885],[34,49.32305993413545,19.17817533898551],[35,49.32169828431262,19.179669602285912],[36,49.32102740834249,19.182131750524945],[37,49.32066947203483,19.184749597373525],[38,49.32054234787344,19.187467175409324],[39,49.32067170052331,19.19018391673262],[40,49.31975466864161,19.19009166723913],[41,49.31831995515848,19.188586314640588],]
podstawa=[[12,49.345,19.157402673334218],['start',49.3679800,19.1837500],['meta',49.3169400,19.1871300]]
daneflot=[[0.0,780.971],[0.2,784.735],[0.4,787.257],[0.6,791.686],[0.8,794.029],[1.0,799.341],[1.2,799.414],[1.4,804.348],[1.6,812.747],[1.8,826.297],[2.0,828.854],[2.2,830.866],[2.4,832.606],[2.6,834.998],[2.8,843.340],[3.0,843.051],[3.2,856.200],[3.4,867.079],[3.6,857.391],[3.8,855.138],[4.0,860.237],[4.2,861.160],[4.4,869.531],[4.6,873.940],[4.8,877.044],[5.0,894.726],[5.2,901.565],[5.4,913.812],[5.6,910.949],[5.8,904.271],[6.0,909.677],[6.2,920.968],[6.4,930.147],[6.6,942.863],[6.8,960.522],[7.0,967.220],[7.2,988.266],[7.4,1005.748],[7.6,1014.974],[7.8,1030.674],[8.0,1036.229],[8.2,1052.495],[8.4,1067.996],]