name=Przełęcz nad Kiełczawą od Kalnicy
slope=1.8km 4.7%
points=54
region=35
description=Nawierzchnia: szosa, stan dobry. Ruch samochodowy: mały.
Droga asfaltowa mały ruch.
comments=
author=hqvkamil
segment=7694513
locations=[[1,49.35820063407198,22.205177919812627],[2,49.35871699824455,22.206286506995184],[3,49.35911504165836,22.207448176238813],[4,49.35905229724541,22.20881259723103],[5,49.35899325752957,22.210177440560074],[6,49.3588313500719,22.21150712660608],[7,49.35866628602273,22.212807504921443],[8,49.35857573654055,22.214113534485932],[9,49.35819958399175,22.2153535954169],[10,49.35782197912078,22.216592626647298],[11,49.35747269649109,22.217845731735224],[12,49.35773579092972,22.219141200096374],[13,49.35805259601474,22.220419759035963],[14,49.35803694533503,22.22176723042753],[15,49.3577343806062,22.223016731835173],[16,49.35761479400558,22.2242999809597],[17,49.3582776188159,22.225165802154265],]
podstawa=[[14,49.35782197912078,22.216592626647298],['start',49.3578100,22.2039600],['meta',49.3581700,22.2258800]]
daneflot=[[0.0,483.619],[0.1,488.333],[0.2,491.470],[0.3,495.705],[0.4,498.947],[0.5,498.844],[0.6,498.989],[0.7,502.074],[0.8,505.424],[0.9,507.907],[1.0,510.998],[1.1,514.276],[1.2,518.939],[1.3,525.201],[1.4,534.971],[1.5,542.842],[1.6,552.133],[1.7,561.408],[1.8,567.748],]