name=Sedlo  Príslop  (Słowacja)
slope=8.0km 5.0%
points=268.7
region=24
description=Nawierzchnia: szosa. Ruch samochodowy: minimalny.
Moja ulubiona trasa. Nowy asfalt, piękne widoki na tatry. Krajobraz cudny.
Filmik ze zjazdu: http://www.youtube.com/watch?v=ibHbqeBMczQ
comments=Dnia 2014-06-02 użytkownik jeżnarowerze dodał:
Drobny błąd w nazewnictwie. Meta opisanego tu podjazdu znajduje sie na SEDLO PRISLOP.
Zdiarskie Sedlo (1081m) znajduje się kilkaset metrów na południowy-zachód i przebiega przez nie droga Łysa Polana (granica państwa)- Tatrzańska Łomnica - Szczyrbskie Pleso. 
Dnia 2014-06-03 Admin dodał:
Tak, masz rację. Przełecz Zdiarska znajduje się na południe od tej i była opisana jako Zdiar. Tytuły zmieniłem. Teraz chyba jest poprawnie.
author=kubens
segment=0
locations=[[1,49.32835458101322,20.22857420961236],[2,49.32665619971148,20.2293700828734],[3,49.32493853979783,20.230077368927937],[4,49.32319532226223,20.23059598313364],[5,49.32143933048067,20.230624665098958],[6,49.31968550709586,20.2301833135557],[7,49.31801045295335,20.229298778539373],[8,49.31637852388364,20.22823521864916],[9,49.31497249400507,20.226594691553487],[10,49.31337195417049,20.225400671825128],[11,49.31161932965469,20.225040474186812],[12,49.309853601758,20.225221361703234],[13,49.30812725463994,20.224567570759405],[14,49.30637328181835,20.22431902512176],[15,49.30460624579294,20.22464625274108],[16,49.30283697736343,20.224934299845586],[17,49.30106074734787,20.22481706470944],[18,49.29930864259331,20.2243372827852],[19,49.29755718223608,20.22385453606705],[20,49.29579122504011,20.22355698788772],[21,49.29404111186076,20.223068577693994],[22,49.29229933238952,20.22348999999997],[23,49.29132358341247,20.22411238878351],[24,49.29288336494499,20.225421820556676],[25,49.29440606990859,20.22682971322945],[26,49.29591507616172,20.22825139881934],[27,49.29730988282912,20.22963010545402],[28,49.29555537725153,20.22953993084866],[29,49.29377609245621,20.22949494250156],[30,49.29204756035571,20.229987236419447],[31,49.29090803807435,20.23207393036398],[32,49.28987330775306,20.2339640274447],[33,49.28866571244665,20.231988184900956],[34,49.28753724968523,20.229879293347267],[35,49.28635803098552,20.22790047193132],[36,49.28461045465129,20.227436215571288],[37,49.28330710573115,20.22567689512971],[38,49.28275637140084,20.223104326084126],[39,49.28245904130362,20.220414408756824],]
podstawa=[[12,49.31404111186076,20.223068577693994],['start',49.3295000,20.2269000],['meta',49.2823700,20.2177000]]
daneflot=[[0.0,736.393],[0.2,742.903],[0.4,744.006],[0.6,754.648],[0.8,761.781],[1.0,771.766],[1.2,782.029],[1.4,791.242],[1.6,800.455],[1.8,808.957],[2.0,811.648],[2.2,820.246],[2.4,830.632],[2.6,844.832],[2.8,852.472],[3.0,864.961],[3.2,871.448],[3.4,888.560],[3.6,897.705],[3.8,907.361],[4.0,923.492],[4.2,931.381],[4.4,941.332],[4.6,948.684],[4.8,971.378],[5.0,987.340],[5.2,1000.302],[5.4,1009.832],[5.6,1034.346],[5.8,1051.027],[6.0,1052.094],[6.2,1060.874],[6.4,1083.094],[6.6,1079.435],[6.8,1080.744],[7.0,1085.479],[7.2,1092.905],[7.4,1097.105],[7.6,1104.865],[7.8,1121.899],[8.0,1135.898],]