name=Vernárske Sedlo  z Vernar (Słowacja)
slope=5.0km 5.6%
points=217.8
region=26
description=Nawierzchnia: szosa, stan bardzo dobry. Ruch samochodowy: duży.
Klasyczna górska wspinaczka po serpentynach o odpowiedniej różnicy wzniesień i niezłym nachyleniu, po miłej szerokiej nawierzchni. Dynamiczne zjazdy z uwagą na ławiczki piasku. Droga przecina Tatry Niskie i Słowacki Raj, więc ma odpowiedni ruch przelotowy.
comments=
author=airstreeem20
segment=0
locations=[[1,48.91735809708339,20.267344546412346],[2,48.91687528255177,20.26483657301344],[3,48.91556621174146,20.26320171766065],[4,48.91466465847606,20.26095862260422],[5,48.91287853048917,20.26079118069333],[6,48.91154517493775,20.259306237194096],[7,48.91040826330662,20.257402506825883],[8,48.90955842844107,20.256015461632956],[9,48.90796511509112,20.25715232515313],[10,48.9062650818169,20.256590744077243],[11,48.90458021867916,20.256696541799784],[12,48.90348135796504,20.25464188965543],[13,48.90283130408503,20.252835239612864],[14,48.90453265480071,20.25232126561241],[15,48.90560582201122,20.250730194200287],[16,48.90397832026363,20.250660279968088],[17,48.9022058655904,20.250230091095773],[18,48.90072096303791,20.251621325910946],[19,48.90027872787966,20.249387228077353],[20,48.89865819025904,20.248319276018606],[21,48.89719351928279,20.246893691886612],[22,48.89842538710608,20.245344602190244],[23,48.8982833042493,20.244916313034423],[24,48.89667407827909,20.24576120110339],]
podstawa=[[13,48.90283130408503,20.252835239612864],['start',48.9175400,20.2699400],['meta',48.8957400,20.2480000]]
daneflot=[[0.0,770.904],[0.2,775.642],[0.4,779.936],[0.6,797.309],[0.8,803.328],[1.0,829.185],[1.2,854.433],[1.4,863.940],[1.6,870.027],[1.8,898.530],[2.0,905.398],[2.2,916.633],[2.4,922.614],[2.6,939.932],[2.8,943.862],[3.0,949.861],[3.2,957.255],[3.4,960.559],[3.6,965.442],[3.8,979.769],[4.0,996.250],[4.2,1009.702],[4.4,1016.231],[4.6,1026.913],[4.8,1040.131],[5.0,1049.760],]