name=Przełęcz Srebrna od Srebrnej Góry
slope=4.0km 6.1%
points=208.6
region=12
description=Nawierzchnia: szosa, stan dobry, czasami kostka. Ruch samochodowy: średni.
Dość mocny podjazd przez malownicze miasteczko. Jest gdzie się zatrzymać na piwko. Można zwiedzić Twierdzę. Fajne widoki.
comments=Dnia 2015-04-22 użytkownik Fibiusz dodał:
Chwilami jest naprawdę ciężko! W środkowej części długi kawał świeżo ułożonej kostki granitowej.
author=authorman
segment=0
locations=[[1,50.57546242216804,16.67592122862186],[2,50.57543224258391,16.673116128173206],[3,50.57539616326527,16.670311212710658],[4,50.57494224658806,16.667848330035554],[5,50.57530509256724,16.665144504714362],[6,50.57403991892473,16.66326532172718],[7,50.57500527623508,16.661442007399614],[8,50.57576679947262,16.65919937328397],[9,50.57525640644956,16.6565407481512],[10,50.57484557797557,16.653872703525508],[11,50.57524957360095,16.653379138387663],[12,50.57562732564711,16.653420756753917],[13,50.57476110590951,16.65117580014146],[14,50.57389265883087,16.64872730430136],[15,50.57272799123899,16.64816473148801],[16,50.57130766562427,16.647100284746102],[17,50.5704870268154,16.64462360944367],[18,50.57080912868297,16.642036078231286],[19,50.57131105269378,16.639441174661897],]
podstawa=[[14,50.57524957360095,16.66],['start',50.5754100,16.6786900],['meta',50.5710800,16.6367600]]
daneflot=[[0.0,357.920],[0.2,363.943],[0.4,373.044],[0.6,384.440],[0.8,395.158],[1.0,407.873],[1.2,417.683],[1.4,434.938],[1.6,457.459],[1.8,477.252],[2.0,497.651],[2.2,511.538],[2.4,519.994],[2.6,542.778],[2.8,565.208],[3.0,571.291],[3.2,570.401],[3.4,560.528],[3.6,566.843],[3.8,587.966],[4.0,598.870],]