name=Przełęcz Szklary z Sułkowic
slope=5.8km 2.4%
points=62.3
region=22
description=Nawierzchnia: szosa, stan bardzo dobry. Ruch samochodowy: mały.
Podjazd niczym się nie wyróżniający, można powiedzieć: śmiesznie łatwy. Ale warto na niego zwrócić uwagę, gdyż ta przełęcz jest świetnym skrótem do Myślenic i urozmaica planowanie tras w tym regionie. Na samym początku jest mała hopka (najbardziej stroma część całego podjazdu). Potem lekki zjazd i droga delikatnie wspina się na przełęcz, choć przerywane jest to częstymi wypłaszczeniami i między-zjazdami.
comments=
author=Greek
segment=5262675
locations=[[1,49.83782912448551,19.802462339152726],[2,49.83687620920931,19.804757583681976],[3,49.83590484870378,19.807039640900143],[4,49.83471664074234,19.80894568876056],[5,49.83383002818017,19.81130954921366],[6,49.83250876767146,19.813096859567167],[7,49.83127285488884,19.815039172833167],[8,49.82997385286451,19.81686755041892],[9,49.8283638667551,19.81798243903063],[10,49.82678834564472,19.819165735372053],[11,49.82598333151894,19.8215731075378],[12,49.82472428582852,19.823486785696446],[13,49.82388285650305,19.82588621169998],[14,49.8229597209351,19.828212749661816],[15,49.82234436953327,19.830728240791586],[16,49.82270335183848,19.833364440364562],[17,49.82276161720529,19.83609396011434],[18,49.8228413297384,19.838776476418616],[19,49.82289236480896,19.841501175365806],[20,49.8228841504905,19.844224318609463],[21,49.8228499491338,19.8469418396935],[22,49.82321236179766,19.849610660846565],[23,49.82366880483263,19.852244508485796],[24,49.82398037472393,19.854934592462087],[25,49.82478030276442,19.85733848340044],[26,49.8258769341155,19.859452845900137],[27,49.8265409486473,19.861957891814427],[28,49.82737331760701,19.864364928816713],]
podstawa=[[13,49.824,19.830728240791586],['start',49.8386700,19.8000600],['meta',49.8279000,19.8669700]]
daneflot=[[0.0,292.412],[0.2,296.571],[0.4,304.386],[0.6,319.034],[0.8,328.857],[1.0,317.586],[1.2,312.630],[1.4,310.155],[1.6,313.182],[1.8,316.394],[2.0,319.367],[2.2,325.560],[2.4,329.746],[2.6,336.678],[2.8,336.816],[3.0,341.058],[3.2,345.147],[3.4,348.327],[3.6,356.171],[3.8,363.400],[4.0,362.160],[4.2,366.805],[4.4,376.368],[4.6,382.836],[4.8,386.773],[5.0,393.331],[5.2,401.116],[5.4,410.118],[5.6,423.132],[5.8,429.730],]