name=Przełęcz Tylicka
slope=7.4km 4.8%
points=211.8
region=32
description=Nawierzchnia: szosa. Ruch samochodowy: mały.
Przełęcz Tylicka jest na granicy zlewni Bałtyku i Morza Czarnego. Dzieli też Beskid Sądecki i Niski. Od Słowacji stromy i długi podjazd wśród pól .Po stronie polskiej łatwo i przyjemnie, lecz po naszej kiepski asfalt, dziury.
comments=Dnia 2014-08-19 użytkownik Sztein dodał:
Poprawiono w kilku miejscach asfalt, jest już mniej dziur.
author=Sztein
segment=0
locations=[[1,49.32496949260071,21.148165253729076],[2,49.32673854576564,21.147694896077155],[3,49.32852484928194,21.14809106232724],[4,49.33030702465505,21.14848579689169],[5,49.33201797396654,21.147667408093184],[6,49.3333255584087,21.14578044007726],[7,49.33476347869933,21.1442757448566],[8,49.33653096553033,21.143678242096257],[9,49.33830694003032,21.143148151890273],[10,49.34011087895761,21.14293273337489],[11,49.34191454768305,21.142743582662888],[12,49.34366051726902,21.142055384489595],[13,49.34537772292679,21.141179009964162],[14,49.34711811939491,21.140427045154865],[15,49.34881951417413,21.13948887295453],[16,49.34947913584117,21.137131916141016],[17,49.34949251762924,21.134442450682627],[18,49.35036345244031,21.132007678954324],[19,49.35139239162757,21.12972963451557],[20,49.35173815764011,21.127034517513266],[21,49.35307967079191,21.12549876658852],[22,49.35485820803935,21.12502875904852],[23,49.35662468123053,21.124498949744407],[24,49.35843091179784,21.12455571824239],[25,49.35982547575454,21.12307239405868],[26,49.36119248755588,21.12154437814911],[27,49.36296393561113,21.121005355302373],[28,49.36470660059742,21.120307793481516],[29,49.36638186236016,21.119319708913963],[30,49.36797022673521,21.11808053661821],[31,49.36934520239297,21.11627342187819],[32,49.37071043719488,21.11444879542546],[33,49.37201151584962,21.112521387363813],[34,49.37315471073855,21.110367339449],[35,49.37431210940915,21.10823789064102],[36,49.37594796314032,21.107190853942143],]
podstawa=[[12,49.35139239162757,21.12972963451557],['start',49.3239200,21.1485800],['meta',49.3759200,21.1046900]]
daneflot=[[0.0,332.916],[0.2,339.726],[0.4,346.236],[0.6,350.693],[0.8,353.507],[1.0,358.904],[1.2,362.655],[1.4,369.510],[1.6,378.490],[1.8,383.280],[2.0,391.934],[2.2,402.414],[2.4,408.609],[2.6,415.589],[2.8,425.533],[3.0,436.186],[3.2,445.630],[3.4,455.969],[3.6,464.548],[3.8,473.423],[4.0,480.883],[4.2,490.061],[4.4,504.080],[4.6,513.131],[4.8,527.201],[5.0,545.951],[5.2,554.243],[5.4,564.814],[5.6,574.113],[5.8,584.006],[6.0,587.789],[6.2,595.696],[6.4,607.270],[6.6,621.365],[6.8,645.595],[7.0,663.380],[7.2,683.610],[7.4,690.575],]