name=Przełęcz Skotniki
slope=2.3km 2.7%
points=22
region=52
description=Nawierzchnia: szosa. Ruch samochodowy: niewielki.
Podjazd bardzo łagodny, chociaż dość długi jak na ten region. Krajobrazowo to jedna z bardziej malowniczych tras regionu. Podjazd rozpisany jest od szkoły w Tarnowcu a zakończony jest tuż przed wsią.  Skotniki.
comments=
author=???
segment=0
locations=[[1,51.30703563179951,17.18977850516353],[2,51.30613576650074,17.189736013165998],[3,51.30522335443903,17.189839123071465],[4,51.3043091189053,17.189802874044517],[5,51.30339759003128,17.18976055396547],[6,51.30272638628595,17.18879284816444],[7,51.30194682715921,17.188050266513073],[8,51.30107102902463,17.1876270989776],[9,51.30019155456903,17.18722379845815],[10,51.29930871446384,17.186846282514466],[11,51.29840182163522,17.186653007296627],[12,51.29749645094906,17.186446162469338],[13,51.29661000135699,17.18610028772423],[14,51.29583269776995,17.185328565569534],[15,51.29507015227195,17.184523028830768],[16,51.29434892218362,17.183622800450962],[17,51.29359241106386,17.182811917752247],[18,51.29277418254838,17.182157322322723],[19,51.29195595038357,17.181502750223558],[20,51.2913943104921,17.18042306734867],[21,51.29095622104437,17.179138687057616],[22,51.29051811754683,17.177854331274716],]
podstawa=[[14,51.29981813612757,17.18111515045166],['start',51.3077600,17.1906600],['meta',51.2900800,17.1765700]]
daneflot=[[0.0,168.317],[0.1,169.714],[0.2,171.696],[0.3,174.670],[0.4,176.388],[0.5,178.182],[0.6,180.023],[0.7,182.424],[0.8,186.771],[0.9,192.434],[1.0,196.330],[1.1,198.330],[1.2,200.016],[1.3,200.970],[1.4,203.053],[1.5,205.480],[1.6,209.885],[1.7,213.642],[1.8,217.652],[1.9,221.799],[2.0,227.377],[2.1,229.532],[2.2,230.972],[2.3,231.821],]