name=Stóg Izerski od Świeradowa (łatwiejsza wersja)
slope=8.0km 6.5%
points=389.5
region=3
description=Nawierzchnia: szosa, stan średni. Ruch samochodowy: minimalny.
Jest to najłatwiejsza wersja podjazdu na Stóg Izerski. Podjazd tylko lokalnie przekracza 10%. Zaczynamy na drodze łączącej Świeradów i Szklarską Poręba, na granicy Świeradowa. Droga cały czas asfaltowa, ale raczej średniej jakości, miejscami gorzej niż średniej.
comments=
author=mjz122
segment=0
locations=[[1,50.89119300480226,15.371881434438137],[2,50.89170000022634,15.369162479298666],[3,50.89120692950652,15.366473315729536],[4,50.8897500168199,15.3648822814896],[5,50.88938370466993,15.362085834290724],[6,50.88887890384069,15.359585053441151],[7,50.89046558405404,15.359126364995973],[8,50.88997662734657,15.356437767525563],[9,50.88948358505607,15.353720131698424],[10,50.89068349859398,15.352946879692581],[11,50.89204336905514,15.351284302897056],[12,50.89266646773122,15.348664029286851],[13,50.89206826645997,15.345972193563057],[14,50.89187371182463,15.343153000836764],[15,50.89280699383577,15.34078171348176],[16,50.8936634982059,15.338299588479913],[17,50.89418026823871,15.335548872278423],[18,50.89386003261053,15.33286407424066],[19,50.89276026973091,15.330590404225404],[20,50.89145880149056,15.328603202412296],[21,50.89057888669489,15.326101789210384],[22,50.8906200001673,15.32326391150491],[23,50.89139108894786,15.321591191745256],[24,50.89318363344523,15.321974162226297],[25,50.89496388393099,15.322447198951977],[26,50.89671256958993,15.32192687979557],[27,50.8969017069054,15.319370339780221],[28,50.89648161857739,15.316583598352508],[29,50.89648885338192,15.313732341720197],[30,50.89724412314025,15.311158661810623],[31,50.89793894470428,15.308514846688922],[32,50.89804551008952,15.305678568390931],[33,50.89722988325215,15.30316442107096],[34,50.89592976403939,15.301173464549265],[35,50.89550088364986,15.3020352248476],[36,50.89557330579614,15.304870514911045],[37,50.89434681330879,15.306873411524066],[38,50.89295580636133,15.308636236902089],[39,50.89132872417519,15.309798805598803],]
podstawa=[[13,50.89057888669489,15.34],['start',50.8913400,15.3737600],['meta',50.8922000,15.3085000]]
daneflot=[[0.0,552.059],[0.2,564.043],[0.4,581.953],[0.6,599.347],[0.8,617.758],[1.0,628.779],[1.2,636.527],[1.4,639.671],[1.6,650.778],[1.8,662.807],[2.0,666.925],[2.2,674.170],[2.4,681.310],[2.6,692.127],[2.8,705.646],[3.0,718.114],[3.2,724.912],[3.4,734.542],[3.6,748.246],[3.8,764.614],[4.0,783.534],[4.2,802.066],[4.4,806.307],[4.6,812.501],[4.8,825.244],[5.0,832.429],[5.2,847.358],[5.4,863.229],[5.6,876.728],[5.8,889.46],[6.0,899.896],[6.2,914.432],[6.4,930.837],[6.6,947.424],[6.8,964.503],[7.0,989.062],[7.2,1009.174],[7.4,1033.807],[7.6,1052.152],[7.8,1058.827],[8.0,1068.338],]