name=Kamionka
slope=2.5km 4.8%
points=93.1
region=64
description=Nawierzchnia: szosa, stan średni. Ruch samochodowy: niewielki.
Leśna, przyjemna droga na wzgórze Kamionki.
comments=Dnia 2014-08-11 użytkownik xtnt dodał:
Ciekawy punkt widokowy na szczycie.
author=?
segment=0
locations=[[1,50.06830316394831,19.49136405154036],[2,50.0689171495798,19.49033105837384],[3,50.06947518531069,19.489218860589517],[4,50.07007413765416,19.488158689640954],[5,50.07067135959845,19.48709615404141],[6,50.07126502338805,19.48602875163033],[7,50.07188219925849,19.48499446795904],[8,50.07261326410701,19.484213442171267],[9,50.07298699125119,19.482938610162137],[10,50.07329182918225,19.481608401616995],[11,50.07385646857461,19.480575865424044],[12,50.07470946214109,19.480170000000044],[13,50.07557851317264,19.479816448825204],[14,50.07636818596338,19.479124642202123],[15,50.07713119106887,19.4783621232217],[16,50.07798244523703,19.477986358805197],[17,50.07885471336466,19.47765617580103],[18,50.07968625932208,19.477173776357972],[19,50.08044949056504,19.47646203784359],[20,50.08078527808138,19.475156194466877],[21,50.08128045720632,19.473982723825657],[22,50.08208013393809,19.473344543649546],[23,50.08297052899508,19.47311090634173],[24,50.08385550789642,19.472810053606167],]
podstawa=[[13,50.07557851317264,19.479816448825204],['start',50.0679800,19.4926700],['meta',50.0846800,19.4723200]]
daneflot=[[0.0,256.124],[0.1,258.874],[0.2,260.107],[0.3,260.629],[0.4,262.534],[0.5,263.159],[0.6,265.209],[0.7,265.567],[0.8,267.084],[0.9,269.212],[1.0,272.373],[1.1,276.366],[1.2,277.698],[1.3,282.381],[1.4,287.928],[1.5,295.228],[1.6,303.392],[1.7,312.714],[1.8,324.293],[1.9,336.003],[2.0,339.308],[2.1,340.027],[2.2,349.355],[2.3,361.179],[2.4,370.704],[2.5,375.238],]