name=Czachowo podjazd od Sędzic
slope=1.3km 2.8%
points=13.8
region=52
description=Nawierzchnia: szosa, stan kiepski, mocno dziurawa. Ruch samochodowy: niewielki.
Bardzo łagodny, spokojny podjazd. Muszę go jednak umieścić w bazie, gdyż jest świetnym preludium dla podjazdu pod Radłów. Polecam trasę od Sędzic do szczytu  za Radłowem.
comments=
author=???
segment=0
locations=[[1,51.30579181316568,17.13935465399527],[2,51.30509493205629,17.138389213004984],[3,51.30469012913417,17.13705674584071],[4,51.30437929731562,17.135655265192895],[5,51.30399656558848,17.1343086525344],[6,51.30324715224664,17.133482902528613],[7,51.30237141195559,17.13298329462441],[8,51.30151339327247,17.132414342094762],[9,51.30073474471511,17.131605090211906],[10,51.30002716965177,17.13064024404639],[11,51.29922512362553,17.12995297023201],[12,51.29829594308697,17.129935952629125],]
podstawa=[[14,51.30523800337354,17.132363319396973],['start',51.3065600,17.1401700],['meta',51.2973700,17.1300600]]
daneflot=[[0.0,154.728],[0.1,159.572],[0.2,159.460],[0.3,160.398],[0.4,163.558],[0.5,166.898],[0.6,170.557],[0.7,172.076],[0.8,175.597],[0.9,180.852],[1.0,184.761],[1.1,188.573],[1.2,191.206],[1.3,191.626],]