name=Grzmiączka
slope=1.7km 6.0%
points=82.1
region=64
description=Nawierzchnia: szosa. Ruch samochodowy: minimalny.
Hopka znana z krakowskiego IC. Króciutka wspinaczka, która jednak daje popalić przy mocnym tempie.
comments=
author=Greek
segment=1417864
locations=[[1,50.0743362351005,19.535189603685012],[2,50.07455647911303,19.536493075412977],[3,50.07530467286684,19.537294124628716],[4,50.07581570194535,19.538443211876256],[5,50.07649134491102,19.539382689426247],[6,50.0770755842237,19.540467444656315],[7,50.07778951023398,19.54134997373717],[8,50.0786229901415,19.541866142585604],[9,50.07940751871107,19.542521575639398],[10,50.07998890626057,19.543594873950724],[11,50.08021543785472,19.544948051603683],[12,50.08002740199214,19.54633689406478],[13,50.07986480636306,19.54773365364133],[14,50.07965158615549,19.549112386543356],[15,50.07938820693535,19.550472252929012],[16,50.07920058525591,19.551862027313405],]
podstawa=[[14,50.07940751871107,19.542521575639398],['start',50.0744900,19.5338000],['meta',50.0791500,19.5532700]]
daneflot=[[0.0,258.143],[0.1,261.560],[0.2,267.312],[0.3,276.631],[0.4,284.995],[0.5,294.686],[0.6,303.055],[0.7,312.900],[0.8,325.021],[0.9,335.455],[1.0,340.924],[1.1,344.551],[1.2,345.349],[1.3,347.691],[1.4,351.693],[1.5,356.265],[1.6,359.162],[1.7,362.174],]